ChileTEMUCO_La chiletemuco_la NP00000 1
candidata candidato NCFS000 1
presidencial presidencial AQ0CS0 1
de de SPS00 1
el el DA0MS0 1
PS_PPD_PC_MAS ps_ppd_pc_mas NP00000 1
e y CC 0.973684
IC_Michelle_Bachelet ic_michelle_bachelet NP00000 1
se se P00CN000 0.465602
refiri refiri RG 0.83337
nuevamente nuevamente RG 1
este este DD0MS0 0.956743
martes [M:??/??/??:??.??:??] W 1
a a SPS00 0.99585
la el DA0FS0 0.972146
propuesta propuesta NCFS000 0.75
de de SPS00 0.999919
reforma reforma NCFS000 0.866667
tributaria tributario AQ0FS0 1
que que PR0CN000 0.5625
anunci anunci VMIS1S0 0.0691907
el el DA0MS0 1
pasado_domingo [G:??/??/??:??.??:??] W 1
y y CC 0.999812
asegur asegur NCFS000 1
que que PR0CN000 0.5625
el el DA0MS0 1
ajuste ajuste NCMS000 0.918697
ser ser VSN0000 0.93883
muy muy RG 1
positivo positivo AQ0MS0 0.875
para para SPS00 0.998507
la el DA0FS0 0.972146
econom econom NCMS000 0.500053
La la NP00000 1
medida medida NCFS000 0.863636
planteada plantear VMP00SF 1
por por SPS00 1
la el DA0FS0 0.972146
ex ex NCCN000 0.75
Mandataria mandataria NP00000 1
contempla contemplar VMIP3S0 0.833333
un uno DI0MS0 0.986987
aumento aumento NCMS000 0.916667
de de SPS00 1
el el DA0MS0 1
25 25 Z 1
en en SPS00 1
los el DA0MP0 0.97623
impuestos impuesto NCMP000 0.833333
a a SPS00 0.99585
los el DA0MP0 0.97623
empresarios empresario NCMP000 1
y y CC 0.999812
una uno DI0FS0 0.951241
rebaja rebaja NCFS000 0.111111
en en SPS00 1
los el DA0MP0 0.97623
tributos tributo NCMP000 1
que que PR0CN000 0.5625
pagan pagar VMIP3P0 1
las el DA0FP0 0.97051
personas persona NCFP000 0.983871
siendo ser VSG0000 1
fuertemente fuertemente RG 1
criticada criticar VMP00SF 1
por por SPS00 1
el el DA0MS0 1
oficialismo oficialismo NCMS000 1
y y CC 0.999812
cuestionada cuestionar VMP00SF 1
por por SPS00 1
otros otro DI0MP0 0.56875
candidatos candidato NCMP000 1
opositores opositor AQ0MP0 0.357313
De de NP00000 1
visita visita NCFS000 0.866667
en en SPS00 1
Temuco_Bachelet temuco_bachelet NP00000 1
reiter reiter NCMS000 1
que que CS 0.4375
la el DA0FS0 0.972146
reforma reforma NCFS000 0.866667
tributaria tributario AQ0FS0 1
que que CS 0.4375
impulsar impulsar VMN0000 1
si si CS 0.997706
vuelve volver VMIP3S0 0.944444
a a SPS00 0.99585
La_Moneda la_moneda NP00000 1
estar estar VAN0000 1
destinada destinar VMP00SF 1
a a SPS00 0.99585
financiar financiar VMN0000 1
una uno DI0FS0 0.951241
reforma reforma NCFS000 0.866667
estructural estructural AQ0CS0 1
educacional educacional AQ0CS0 1
la el DA0FS0 0.972146
cual cual PR0CS000 0.9
seg segundo NCMN000 1
dijo decir VMIS3S0 1
permitir permitir VMN0000 1
que que CS 0.4375
los el DA0MP0 0.97623
j j NCFS000 1
enes ene NCFP000 1
chilenos chileno AQ0MP0 0.75
est est NCMS000 1
m m NCFS000 0.5
calificados calificar VMP00PM 1
para para SPS00 0.998507
enfrentar enfrentar VMN0000 1
el el DA0MS0 1
nuevo nuevo AQ0MS0 1
ciclo ciclo NCMS000 0.833333
que que PR0CN000 0.5625
vive vivir VMIP3S0 0.96875
Chile_Ser chile_ser NP00000 1
un uno DI0MS0 0.986987
apoyo apoyo NCMS000 0.928571
importante importante AQ0CS0 1
a a SPS00 0.99585
las el DA0FP0 0.97051
PYME pyme NP00000 1
y y CC 0.999812
a a SPS00 0.99585
la el DA0FS0 0.972146
econom econom NCMS000 0.500053
de de SPS00 1
el el DA0MS0 1
pa pa NCFS000 0.740689
pues pues CS 0.990385
nos nos PP1CP000 0.933333
permitir permitir VMN0000 1
contar contar VMN0000 1
con con SPS00 1
j j NCFS000 1
enes ene NCFP000 1
m m NCFS000 0.5
calificados calificar VMP00PM 1
Nos nos NP00000 1
va ir VMIP3S0 1
a a SPS00 0.99585
permitir permitir VMN0000 1
aumentar aumentar VMN0000 1
la el DA0FS0 0.972146
productividad productividad NCFS000 1
y y CC 0.999812
la el DA0FS0 0.972146
competitividad competitividad NCFS000 1
agreg agreg NCMS000 0.714133
Ante ante NP00000 1
los el DA0MP0 0.97623
cuestionamientos cuestionamiento NCMP000 1
hechos hacer VMP00PM 0.625
a a SPS00 0.99585
su su DP3CS0 1
propuesta propuesta NCFS000 0.75
la el DA0FS0 0.972146
ex ex NCCN000 0.75
Presidenta presidenta NP00000 1
afirm afirm NCMS000 0.700265
que que PR0CN000 0.5625
yo yo PP1CSN00 1
nunca nunca RG 1
he haber VAIP1S0 0.984848
sido ser VSP00SM 1
partidaria partidario AQ0FS0 0.657236
de de SPS00 0.999919
reformas reforma NCFP000 0.956832
tributarias tributario AQ0FP0 1
por por SPS00 1
reformas reforma NCFP000 0.956832
tributarias tributario AQ0FP0 1
A a NP00000 1
el el DA0MS0 1
mismo mismo AQ0MS0 0.961905
tiempo tiempo NCMS000 1
que que PR0CN000 0.5625
sostuvo sostener VMIS3S0 1
que que CS 0.4375
desde desde SPS00 1
el el DA0MS0 1
punto punto NCMS000 1
de de SPS00 0.999919
vista vista NCFS000 0.91
de de SPS00 0.999919
la el DA0FS0 0.972146
econom econom NCMS000 0.500053
ta ta I 1
es ser VSIP3S0 1
una uno DI0FS0 0.951241
reforma reforma NCFS000 0.866667
que que PR0CN000 0.5625
es ser VSIP3S0 1
muy muy RG 1
positiva positivo AQ0FS0 1
En en NP00000 1
esa ese DD0FS0 0.978261
misma mismo AQ0FS0 0.916667
l l NCFS000 0.639398
ea ea I 1
la el DA0FS0 0.972146
candidata candidato NCFS000 1
ahond ahond NC00000 1
en en SPS00 1
el el DA0MS0 1
componente componente NCCS000 0.75
de de SPS00 0.999919
equidad equidad NCFS000 1
tributaria tributario AQ0FS0 1
que que PR0CN000 0.5625
piensa pensar VMIP3S0 0.875
incorporar incorporar VMN0000 1
donde donde PR000000 0.963542
afirm afirm NCMS000 0.700265
pagan pagar VMIP3P0 1
m m NCFS000 0.5
quienes quien PR0CP000 1
tienen tener VMIP3P0 1
m m NCFS000 0.5
Yo yo NP00000 1
dije decir VMIS1S0 0.9375
el el DA0MS0 1
d d NCFS000 1
de de SPS00 0.999919
ayer ayer NCMS000 0.433333
que que PR0CN000 0.5625
no no RN 0.99778
va ir VMIP3S0 1
a a SPS00 0.99585
perjudicar perjudicar VMN0000 1
a a SPS00 0.99585
las el DA0FP0 0.97051
Pymes pymes NP00000 1
a a SPS00 1
el el DA0MS0 1
contrario contrario NCMS000 0.5
porque porque CS 1
la el DA0FS0 0.972146
reforma reforma NCFS000 0.866667
tributaria tributario AQ0FS0 1
incluye incluir VMIP3S0 0.75
una uno DI0FS0 0.951241
serie serie NCFS000 0.925
de de SPS00 0.999919
beneficios beneficio NCMP000 1
largamente largamente RG 1
anhelados anhelar VMP00PM 1
por por SPS00 1
ellos ellos PP3MP000 1
sostuvo sostener VMIS3S0 1
Seg seg NP00000 1
adelant adelant NCMS000 0.607342
la el DA0FS0 0.972146
ex ex NCCN000 0.75
Mandataria mandataria NP00000 1
en en SPS00 1
los el DA0MP0 0.97623
pr pr NCMS000 0.224371
imos imos AQ0MP0 0.162739
d d NCFS000 1
s segundo NCMN000 0.622321
el el DA0MS0 1
jefe jefe NCMS000 1
de de SPS00 1
el el DA0MS0 1
equipo equipo NCMS000 0.984848
program program NCMS000 0.700265
ico ico AQ0MS0 0.811875
de de SPS00 0.999919
su su DP3CS0 1
comando comando NCMS000 0.673514
Alberto_Arenas alberto_arenas NP00000 1
se se P00CN000 0.465602
referir referir VMN0000 1
en en SPS00 1
extenso extenso AQ0MS0 1
a a SPS00 0.99585
la el DA0FS0 0.972146
propuesta propuesta NCFS000 0.75
para para SPS00 0.998507
que que CS 0.4375
la el DA0FS0 0.972146
gente gente NCFS000 1
pueda poder VMSP1S0 0.490196
conocer conocer VMN0000 1
la el DA0FS0 0.972146
propuesta propuesta NCFS000 0.75
y y CC 0.999812
mirar mirar VMN0000 1
cu cu NCFS000 1
tos tos NCFS000 1
son ser VSIP3P0 0.986772
los el DA0MP0 0.97623
recursos recurso NCMP000 1
y y CC 0.999812
de de SPS00 0.999919
d d NCFS000 1
de de SPS00 0.999919
vendr vendr VMN0000 0.633986
Por por NP00000 1
otra otro DI0FS0 0.801136
parte parte NCFS000 0.497967
Bachelet bachelet NP00000 1
se se P00CN000 0.465602
mostr mostr NCMS000 0.224371
conforme conforme AQ0CS0 0.571429
frente_a frente_a SPS00 1
la el DA0FS0 0.972146
aprobaci aprobaci NCMS000 0.0996348
de de SPS00 1
el el DA0MS0 1
proyecto proyecto NCMS000 0.9375
que que PR0CN000 0.5625
establece establecer VMIP3S0 0.833333
una uno DI0FS0 0.951241
franja franja NCFS000 1
electoral electoral AQ0CS0 1
para para SPS00 0.998507
las el DA0FP0 0.97051
primarias primario AQ0FP0 1
presidenciales presidencial AQ0CP0 1
pues pues CS 0.990385
expres expres NCMP000 0.667094
que que PR0CN000 0.5625
es ser VSIP3S0 1
una uno DI0FS0 0.951241
buena bueno AQ0FS0 1
medida medida NCFS000 0.863636
para para SPS00 0.998507
que que PR0CN000 0.5625
la lo PP3FSA00 0.0277626
ciudadan ciudadan VMSP3P0 0.209258
pueda poder VMSP1S0 0.490196
tener tener VMN0000 1
m m NCFS000 0.5
informaci informaci RG 0.751648
y y CC 0.999812
pueda poder VMSP1S0 0.490196
conocer conocer VMN0000 1
de de SPS00 0.999919
mejor mejor AQ0CS0 0.868421
manera manera NCFS000 1
a a SPS00 0.99585
los el DA0MP0 0.97623
seis 6 Z 1
candidatos candidato NCMP000 1
presidenciales presidencial AQ0CP0 1
En en NP00000 1
relaci relaci VMIS1S0 0.0691907
a a SPS00 0.99585
los el DA0MP0 0.97623
obst obst NCMS000 1
ulos ulos NCMP000 0.933332
puestos poner VMP00PM 0.416667
por por SPS00 1
la el DA0FS0 0.972146
UDI udi NP00000 1
para para SPS00 0.998507
despachar despachar VMN0000 1
el el DA0MS0 1
proyecto proyecto NCMS000 0.9375
la el DA0FS0 0.972146
ex ex NCCN000 0.75
Mandataria mandataria NP00000 1
se se P00CN000 0.465602
l l NCFS000 0.639398
que que PR0CN000 0.5625
no no RN 0.99778
encuentra encontrar VMIP3S0 0.972222
una uno DI0FS0 0.951241
raz raz NCMS000 0.499691
por por SPS00 1
la el DA0FS0 0.972146
cual cual PR0CS000 0.9
alguien alguien PI0CS000 1
podr podr VMN0000 0.633986
estar estar VAN0000 1
en en SPS00 1
contra contra SPS00 0.976316
Y y NP00000 1
a a SPS00 0.99585
di dar VMIS1S0 0.833333
que que CS 0.4375
espero esperar VMIP1S0 1
que que CS 0.4375
el el DA0MS0 1
Tribunal_Constitucional tribunal_constitucional NP00000 1
se se P00CN000 0.465602
manifieste manifestar VMSP3S0 0.623433
con con SPS00 1
rapidez rapidez NCFS000 1
porque porque CS 1
a a SPS00 1
el el DA0MS0 1
final final NCFS000 0.425926
esta este DD0FS0 0.982143
franja franja NCFS000 1
va ir VMIP3S0 1
a a SPS00 0.99585
tener tener VMN0000 1
s segundo NCMN000 0.622321
o o CC 0.998845
seis_d TM_d:6 Zu 1
s segundo NCMN000 0.622321
la lo PP3FSA00 0.0277626
tima timar VMIP3S0 0.994868
semana semana NCFS000 1
por_lo_tanto por_lo_tanto RG 1
mientras mientras CS 0.881579
antes antes RG 1
parta partir VMSP3S0 0.623412
mejor mejor AQ0CS0 0.868421
afirm afirm NCMS000 0.700265
Por por NP00000 1
timo timo NCMS000 0.973479
Bachelet bachelet NP00000 1
abord abord AQ0CN0 0.499854
los el DA0MP0 0.97623
altos alto NCMP000 0.375
dices decir VMIP2S0 1
de de SPS00 0.999919
contaminaci contaminaci NCMS000 0.0996348
que que PR0CN000 0.5625
afectan afectar VMIP3P0 1
actualmente actualmente RG 1
a a SPS00 0.99585
la el DA0FS0 0.972146
ciudad ciudad NCFS000 1
de de SPS00 0.999919
Temuco temuco NP00000 1
diciendo decir VMG0000 1
que que CS 0.4375
en en SPS00 1
este este DD0MS0 0.956743
caso caso NCMS000 0.990741
son ser VSIP3P0 0.986772
necesarias necesario AQ0FP0 1
no no RN 0.99778
s segundo NCMN000 0.622321
o o CC 0.998845
medidas medida NCFP000 0.944444
urgentes urgente AQ0CP0 1
sino_que sino_que CC 1
tambi tambi AQ0CN0 1
una uno DI0FS0 0.951241
mirada mirada NCFS000 0.96875
de de SPS00 0.999919
largo largo AQ0MS0 0.458333
plazo plazo NCMS000 1
Se se NP00000 1
requiere requerir VMIP3S0 0.875
empujar empujar VMN0000 1
con con SPS00 1
m m NCFS000 0.5
fuerza fuerza NCFS000 0.968254
las el DA0FP0 0.97051
energ energ NCMS000 0.714133
s segundo NCMN000 0.622321
renovables renovable AQ0CP0 1
no no RN 0.99778
convencionales convencional AQ0CP0 0.65727
se se P00CN000 0.465602
requieren requerir VMIP3P0 1
programas programa NCMP000 0.9
importantes importante AQ0CP0 1
de de SPS00 0.999919
eficiencia eficiencia NCFS000 1
energ energ RG 0.14318
ica ica AQ0FS0 0.646048
y y CC 0.999812
se se P00CN000 0.465602
requiere requerir VMIP3S0 0.875
mirar mirar VMN0000 1
cu cu NCFS000 1
es ser VSIP3S0 1
van ir VMIP3P0 1
a a SPS00 0.99585
ser ser VSN0000 0.93883
todos todo DI0MP0 0.622419
los el DA0MP0 0.97623
incentivos incentivo NCMP000 1
para para SPS00 0.998507
resolver resolver VMN0000 1
no no RN 0.99778
s segundo NCMN000 0.622321
o o CC 0.998845
la el DA0FS0 0.972146
emergencia emergencia NCFS000 1
que que PR0CN000 0.5625
se se P00CN000 0.465602
est est NCMS000 1
viviendo vivir VMG0000 1
sino sino CC 0.981707
tambi tambi AQ0CN0 1
la el DA0FS0 0.972146
ra ra NCFS000 0.55396
de de SPS00 1
el el DA0MS0 1
problema problema NCMS000 1
concluy concluy RG 0.993863
Posteriomente posteriomente NP00000 1
si si CS 0.997706
quieres querer VMIP2S0 1
desactivar desactivar VMN0000 1
esta este DD0FS0 0.982143
funcionalidad funcionalidad NCFS000 1
haz haz NCMS000 0.991463
click click NCMS000 0.50012
en en SPS00 1
Desactivar_Haciendo desactivar_haciendo NP00000 1
click click NCMS000 0.50012
en en SPS00 1
Actividades actividades NP00000 1
recientes recentar VMSP2S0 0.25
podr podr VMN0000 0.633986
s segundo NCMN000 0.622321
revisar revisar VMN0000 1
tu tu DP2CSS 1
navegaci navegaci AQ0CS0 0.0199855
n n NCFS000 1
y y CC 0.999812
eliminar eliminar VMN0000 1
art artículo NCMS000 1
culos culo NCMP000 1
de de SPS00 0.999919
tu tu DP2CSS 1
biograf biograf I 1
a a SPS00 0.99585
Ya ya NP00000 1
est est NCMS000 1
activa activo AQ0FS0 0.866667
la el DA0FS0 0.972146
funcionalidad funcionalidad NCFS000 1
de de SPS00 0.999919
compartir compartir VMN0000 1
autom autometro NCMN000 0.65
ticamente ticamente RG 1
las el DA0FP0 0.97051
noticias noticia NCFP000 0.9375
que que PR0CN000 0.5625
lees leer VMIP2S0 1
en en SPS00 1
tu tu DP2CSS 1
biograf biograf I 1
a a SPS00 0.99585
timeline timeline NCMS000 0.908358
de de SPS00 0.999919
Facebook_Si facebook_si NP00000 1
quieres querer VMIP2S0 1
desactivar desactivar VMN0000 1
esta este DD0FS0 0.982143
funcionalidad funcionalidad NCFS000 1
haz haz NCMS000 0.991463
click click NCMS000 0.50012
en en SPS00 1
Desactivar desactivar NP00000 1

