ChileSANTIAGO_La chilesantiago_la NP00000 1
ministra ministro NCFS000 1
vocera vocero NCFS000 1
de de SPS00 0.999919
Gobierno_Cecilia_P gobierno_cecilia_p NP00000 1
ez ez RG 0.208241
anunci anunci RG 0.751648
que que CS 0.4375
esta este DD0FS0 0.982143
semana semana NCFS000 1
el el DA0MS0 1
Ejecutivo ejecutivo NP00000 1
le le PP3CSD00 1
pondr pondr AQ0CS0 0.0829965
suma sumar VMIP3S0 0.228571
urgencia urgencia NCFS000 1
a a SPS00 1
el el DA0MS0 1
proyecto proyecto NCMS000 0.9375
de de SPS00 0.999919
ley ley NCFS000 1
que que PR0CN000 0.5625
regula regular VMIP3S0 0.994868
el el DA0MS0 1
lobby lobby NCMS000 1
iniciativa iniciativo AQ0FS0 0.25
que que PR0CN000 0.5625
lleva llevar VMIP3S0 0.975
m m NCFS000 0.5
de de SPS00 0.999919
una_d TM_d:1 Zu 1
ada adir VMSP3S0 0.6231
en en SPS00 1
el el DA0MS0 1
Congreso_Esta congreso_esta NP00000 1
semana semana NCFS000 1
vamos ir VMIP1P0 0.633333
a a SPS00 0.99585
poner poner VMN0000 1
suma suma NCFS000 0.628571
urgencia urgencia NCFS000 1
a a SPS00 1
el el DA0MS0 1
proyecto proyecto NCMS000 0.9375
de de SPS00 0.999919
ley ley NCFS000 1
que que PR0CN000 0.5625
regula regular VMIP3S0 0.994868
el el DA0MS0 1
lobby lobby NCMS000 1
y y CC 0.999812
esperamos esperar VMIP1P0 0.65
que que CS 0.4375
los el DA0MP0 0.97623
parlamentarios parlamentario NCMP000 0.25
nos nos PP1CP000 0.933333
puedan poder VMSP3P0 0.928571
acompa acompa VMSP3S0 1
r r NCFS000 0.638487
de de SPS00 0.999919
modo modo NCMS000 1
transversal transversal AQ0CS0 0.65727
tanto tanto RG 0.857895
de de SPS00 0.999919
la el DA0FS0 0.972146
Alianza alianza NP00000 1
como como CS 0.998579
de de SPS00 0.999919
la el DA0FS0 0.972146
Concertaci concertaci NP00000 1
para para SPS00 0.998507
agilizar agilizar VMN0000 1
la el DA0FS0 0.972146
tramitaci tramitaci NCMS000 0.0996348
de de SPS00 0.999919
esta este DD0FS0 0.982143
iniciativa iniciativa NCFS000 0.75
que que PR0CN000 0.5625
ya ya RG 0.996988
lleva llevar VMIP3S0 0.975
muchos mucho PI0MP000 0.458333
a a SPS00 0.99585
s segundo NCMN000 0.622321
en en SPS00 1
el el DA0MS0 1
Congreso congreso NP00000 1
y y CC 0.999812
que que PR0CN000 0.5625
es ser VSIP3S0 1
hora hora NCFS000 1
de de SPS00 0.999919
convertir convertir VMN0000 1
en en SPS00 1
Ley_de_la_Rep ley_de_la_rep NP00000 1
lica lica AQ0FS0 0.500121
dijo decir VMIS3S0 1
la el DA0FS0 0.972146
ministra ministro NCFS000 1
tras tras SPS00 1
el el DA0MS0 1
comit comit NCMN000 1
pol pol NCMS000 0.861706
ico ico AQ0MS0 0.811875
que que PR0CN000 0.5625
se se P00CN000 0.465602
efectu efectu NCMS000 1
este este DD0MS0 0.956743
lunes [L:??/??/??:??.??:??] W 1
en en SPS00 1
La_Moneda_La la_moneda_la NP00000 1
secretaria secretario NCFS000 1
de de SPS00 0.999919
Estado estado NP00000 1
sostuvo sostener VMIS3S0 1
que que CS 0.4375
creemos creer VMIP1P0 0.666667
que que CS 0.4375
luego_de luego_de SPS00 1
los el DA0MP0 0.97623
timos timo NCMP000 1
acontecimientos acontecimiento NCMP000 1
la el DA0FS0 0.972146
iniciativa iniciativa NCFS000 0.75
debe deber VMIP3S0 0.974359
ser ser VSN0000 0.93883
aprobada aprobar VMP00SF 1
para para SPS00 0.998507
que que CS 0.4375
de_cara_a de_cara_a SPS00 1
el el DA0MS0 1
pa pa NCFS000 0.740689
y y CC 0.999812
en en SPS00 1
forma forma NCFS000 0.960317
transparente transparentar VMSP1S0 0.0833333
cada cada DI0CS0 1
uno uno PI0MS000 0.964744
de de SPS00 0.999919
los el DA0MP0 0.97623
parlamentarios parlamentario NCMP000 0.25
siempre siempre RG 1
tenga tener VMSP1S0 0.452381
la el DA0FS0 0.972146
seguridad seguridad NCFS000 1
de de SPS00 0.999919
poder poder VMN0000 0.288462
emitir emitir VMN0000 1
su su DP3CS0 1
voto voto NCMS000 0.973468
sin sin SPS00 1
temor temor NCMS000 1
a a SPS00 0.99585
ser ser VSN0000 0.93883
cuestionado cuestionar VMP00SM 1
o o CC 0.998845
puesto poner VMP00SM 0.547619
en en SPS00 1
duda duda NCFS000 0.666667
por por SPS00 1
la el DA0FS0 0.972146
opini opini AQ0CS0 0.0199855
p p NCFS000 0.5
lica lica AQ0FS0 0.500121
o o CC 0.998845
por por SPS00 1
diferentes diferente AQ0CP0 1
grupos grupo NCMP000 1
de de SPS00 0.999919
inter inter AQ0CN0 1
La la NP00000 1
medida medida NCFS000 0.863636
fue ser VSIS3S0 0.932292
adoptada adoptar VMP00SF 0.69174
luego_de luego_de SPS00 1
la el DA0FS0 0.972146
pol pol NCMS000 0.861706
ica ica AQ0FS0 0.646048
que que PR0CN000 0.5625
se se P00CN000 0.465602
gener gener VMN0000 1
a a SPS00 0.99585
ra ra NCFS000 0.55396
de de SPS00 0.999919
la el DA0FS0 0.972146
votaci votaci NCMS000 0.0996348
de de SPS00 0.999919
la el DA0FS0 0.972146
Ley_de_F ley_de_f NP00000 1
macos macos NCMP000 1
en en SPS00 1
la el DA0FS0 0.972146
C c NP00000 1
ara arar VMIP3S0 0.200715
de de SPS00 0.999919
Diputados_Esto diputados_esto NP00000 1
ya_que ya_que CS 1
el el DA0MS0 1
ministro ministro NCMS000 1
de de SPS00 0.999919
Salud_Jaime_Ma salud_jaime_ma NP00000 1
lich lich AQ0CN0 1
atribuy atribuy RG 0.993863
el el DA0MS0 1
rechazo rechazo NCMS000 0.75
a a SPS00 0.99585
la el DA0FS0 0.972146
venta venta NCFS000 1
de de SPS00 0.999919
medicamentos medicamento NCMP000 1
en en SPS00 1
supermercados supermercado NCMP000 1
a a SPS00 1
el el DA0MS0 1
lobby lobby NCMS000 1
que que CS 0.4375
habr habr VMN0000 0.633986
n n NCFS000 1
desplegado desplegar VMP00SM 1
las el DA0FP0 0.97051
farmacias farmacia NCFP000 1
Luego_de luego_de NP00000 1
el el DA0MS0 1
traspi traspi NCFS000 1
en en SPS00 1
la el DA0FS0 0.972146
C c NP00000 1
ara arar VMIP3S0 0.200715
el el DA0MS0 1
Ejecutivo ejecutivo NP00000 1
decidi decidi VMIS1S0 1
reponer reponer VMN0000 1
los el DA0MP0 0.97623
art artículo NCMS000 1
ulos ulos NCMP000 0.933332
de de SPS00 0.999919
la el DA0FS0 0.972146
ley ley NCFS000 1
que que PR0CN000 0.5625
fueron ser VSIS3P0 0.796296
rechazados rechazar VMP00PM 1
para para SPS00 0.998507
su su DP3CS0 1
votaci votaci NCMS000 0.0996348
en en SPS00 1
el el DA0MS0 1
Senado_Posteriomente senado_posteriomente NP00000 1
si si CS 0.997706
quieres querer VMIP2S0 1
desactivar desactivar VMN0000 1
esta este DD0FS0 0.982143
funcionalidad funcionalidad NCFS000 1
haz haz NCMS000 0.991463
click click NCMS000 0.50012
en en SPS00 1
Desactivar_Haciendo desactivar_haciendo NP00000 1
click click NCMS000 0.50012
en en SPS00 1
Actividades actividades NP00000 1
recientes recentar VMSP2S0 0.25
podr podr VMN0000 0.633986
s segundo NCMN000 0.622321
revisar revisar VMN0000 1
tu tu DP2CSS 1
navegaci navegaci AQ0CS0 0.0199855
n n NCFS000 1
y y CC 0.999812
eliminar eliminar VMN0000 1
art artículo NCMS000 1
culos culo NCMP000 1
de de SPS00 0.999919
tu tu DP2CSS 1
biograf biograf I 1
a a SPS00 0.99585
Ya ya NP00000 1
est est NCMS000 1
activa activo AQ0FS0 0.866667
la el DA0FS0 0.972146
funcionalidad funcionalidad NCFS000 1
de de SPS00 0.999919
compartir compartir VMN0000 1
autom autometro NCMN000 0.65
ticamente ticamente RG 1
las el DA0FP0 0.97051
noticias noticia NCFP000 0.9375
que que PR0CN000 0.5625
lees leer VMIP2S0 1
en en SPS00 1
tu tu DP2CSS 1
biograf biograf I 1
a a SPS00 0.99585
timeline timeline NCMS000 0.908358
de de SPS00 0.999919
Facebook_Si facebook_si NP00000 1
quieres querer VMIP2S0 1
desactivar desactivar VMN0000 1
esta este DD0FS0 0.982143
funcionalidad funcionalidad NCFS000 1
haz haz NCMS000 0.991463
click click NCMS000 0.50012
en en SPS00 1
Desactivar desactivar NP00000 1

