ChileSANTIAGO_El chilesantiago_el NP00000 1
precandidato precandidato NCMS000 1
presidencial presidencial AQ0CS0 1
respaldado respaldar VMP00SM 1
por por SPS00 1
la el DA0FS0 0.972146
Uni_Dem uni_dem NP00000 1
rata rata NCFS000 1
Independiente_Laurence_Golborne independiente_laurence_golborne NP00000 1
expres expres VMIP2S0 0.0125207
hoy hoy RG 0.877358
que que CS 0.4375
nuestro nuestro DP1MSP 0.933333
camino camino NCMS000 0.978261
de de SPS00 0.999919
futuro futuro NCMS000 0.944444
no no RN 0.99778
cambia cambiar VMIP3S0 0.9
por por SPS00 1
qui qui NCMS000 1
viene venir VMIP3S0 1
aludiendo aludir VMG0000 1
a a SPS00 1
el el DA0MS0 1
retorno retorno NCMS000 0.9
de de SPS00 0.999919
Michelle_Bachelet michelle_bachelet NP00000 1
a a SPS00 0.99585
Chile_Nuestro chile_nuestro NP00000 1
camino camino NCMS000 0.978261
de de SPS00 0.999919
futuro futuro NCMS000 0.944444
no no RN 0.99778
cambia cambiar VMIP3S0 0.9
por por SPS00 1
qui qui NCMS000 1
viene venir VMIP3S0 1
por por SPS00 1
qui qui NCMS000 1
habla hablar VMIP3S0 0.880952
por por SPS00 1
qui qui NCMS000 1
no no RN 0.99778
viene venir VMIP3S0 1
y y CC 0.999812
si si CS 0.997706
est est NCMS000 1
o o CC 0.998845
no no RN 0.99778
est est NCMS000 1
Aqu aqu NP00000 1
no no RN 0.99778
dependemos depender VMIP1P0 1
de de SPS00 1
el el DA0MS0 1
pasado pasado NCMS000 0.352273
pues pues CS 0.990385
estamos estar VAIP1P0 1
mirando mirar VMG0000 1
el el DA0MS0 1
futuro futuro NCMS000 0.944444
que que PR0CN000 0.5625
tenemos tener VMIP1P0 1
que que CS 0.4375
presentar presentar VMN0000 1
le le PP3CSD00 1
a a SPS00 0.99585
la el DA0FS0 0.972146
ciudadan ciudadan VMIP3P0 0.790742
el el DA0MS0 1
17_de_noviembre [??:17/11/??:??.??:??] W 1
para para SPS00 0.998507
que que PR0CN000 0.5625
ellos ellos PP3MP000 1
elijan elegir VMSP3P0 0.901254
en en SPS00 1
la el DA0FS0 0.972146
papeleta papeleta NCFS000 1
presidencial presidencial AQ0CS0 1
parlamentaria parlamentario AQ0FS0 0.75
y y CC 0.999812
de de SPS00 0.999919
consejeros consejero NCMP000 0.75
regionales regional AQ0CP0 1
expuso exponer VMIS3S0 1
Respecto_a respecto_a NP00000 1
la el DA0FS0 0.972146
virtual virtual AQ0CS0 1
candidatura candidatura NCFS000 1
de de SPS00 0.999919
la el DA0FS0 0.972146
ex ex AQ0CN0 0.25
mandataria mandatario NCFS000 1
Golborne golborne NP00000 1
plante plantar VMSP3S0 0.0356941
que que CS 0.4375
la el DA0FS0 0.972146
gente gente NCFS000 1
va ir VMIP3S0 1
a a SPS00 0.99585
ser ser VSN0000 0.93883
quien quien PR0CS000 1
decida decidir VMSP1S0 0.444444
yo yo PP1CSN00 1
no no RN 0.99778
creo crear VMIP1S0 0.5
en en SPS00 1
la el DA0FS0 0.972146
pol pol NCMS000 0.861706
ica ica AQ0FS0 0.646048
de de SPS00 0.999919
estar estar VAN0000 1
atacando atacar VMG0000 1
a a SPS00 1
el el DA0MS0 1
adversario adversario NCMS000 1
si si CS 0.997706
ella él PP3FS000 1
no no RN 0.99778
quiere querer VMIP3S0 0.982759
hablar hablar VMN0000 1
tendr tendr VMN0000 0.633986
sus su DP3CP0 0.998462
razones razón NCFP000 0.966667
Yo yo NP00000 1
quiero querer VMIP1S0 1
hablar hablar VMN0000 1
sobre sobre SPS00 0.994203
el el DA0MS0 1
futuro futuro NCMS000 0.944444
que que PR0CN000 0.5625
queremos querer VMIP1P0 1
construir construir VMN0000 1
sobre sobre SPS00 0.994203
lo el DA0NS0 0.457393
que que PR0CN000 0.5625
hemos haber VAIP1P0 0.969697
hecho hacer VMP00SM 0.618421
en en SPS00 1
este este DD0MS0 0.956743
gobierno gobierno NCMS000 0.9
y y CC 0.999812
lo lo PP3CNA00 0.271163
mucho mucho RG 0.699275
que que CS 0.4375
tenemos tener VMIP1P0 1
por por SPS00 1
hacer hacer VMN0000 1
todav todav NCFS000 0.159442
El el NP00000 1
aspirante aspirante NCCS000 0.342734
a a SPS00 0.99585
La_Moneda la_moneda NP00000 1
hizo hacer VMIS3S0 1
un uno DI0MS0 0.986987
llamado llamar VMP00SM 0.973684
a a SPS00 0.99585
no no RN 0.99778
seguir seguir VMN0000 1
haciendo hacer VMG0000 0.958333
una uno DI0FS0 0.951241
pol pol NCMS000 0.861706
ica ica AQ0FS0 0.646048
desde desde SPS00 1
las el DA0FP0 0.97051
c c NCFS000 1
ulas ulas NCFP000 0.972966
sino sino CC 0.981707
desde desde SPS00 1
las el DA0FP0 0.97051
bases base NCCP000 0.75
para para SPS00 0.998507
de de SPS00 0.999919
esa ese DD0FS0 0.978261
forma forma NCFS000 0.960317
reflejar reflejar VMN0000 1
las el DA0FP0 0.97051
aspiraciones aspiración NCFP000 1
de de SPS00 0.999919
la el DA0FS0 0.972146
gente gente NCFS000 1
en en SPS00 1
un uno DI0MS0 0.986987
programa programa NCMS000 0.866667
de de SPS00 0.999919
gobierno gobierno NCMS000 0.9
inclusivo inclusivo AQ0MS0 1
y y CC 0.999812
representativo representativo AQ0MS0 1
Para para NP00000 1
eso ese PD0NS000 1
mi mi DP1CSS 0.995536
trabajo trabajo NCMS000 0.940476
es ser VSIP3S0 1
a a SPS00 0.99585
trav trav NCFS000 0.159442
de de SPS00 0.999919
los el DA0MP0 0.97623
' ' Fe 1
Di decir VMM02S0 0.166667
ogos ogos NCMP000 0.866648
con con SPS00 1
Chile chile NP00000 1
' ' Fe 1
con con SPS00 1
las el DA0FP0 0.97051
personas persona NCFP000 0.983871
a a SPS00 0.99585
lo el DA0NS0 0.457393
largo largo AQ0MS0 0.458333
de de SPS00 0.999919
todo todo DI0MS0 0.559816
el el DA0MS0 1
pa pa NCFS000 0.740689
para para SPS00 0.998507
entender entender VMN0000 0.9
lo el DA0NS0 0.457393
que que PR0CN000 0.5625
ellos ellos PP3MP000 1
quieren querer VMIP3P0 1
y y CC 0.999812
necesitan necesitar VMIP3P0 1
afirm afirm NCMS000 0.700265
Posteriomente posteriomente NP00000 1
si si CS 0.997706
quieres querer VMIP2S0 1
desactivar desactivar VMN0000 1
esta este DD0FS0 0.982143
funcionalidad funcionalidad NCFS000 1
haz haz NCMS000 0.991463
click click NCMS000 0.50012
en en SPS00 1
Desactivar_Haciendo desactivar_haciendo NP00000 1
click click NCMS000 0.50012
en en SPS00 1
Actividades actividades NP00000 1
recientes recentar VMSP2S0 0.25
podr podr VMN0000 0.633986
s segundo NCMN000 0.622321
revisar revisar VMN0000 1
tu tu DP2CSS 1
navegaci navegaci AQ0CS0 0.0199855
n n NCFS000 1
y y CC 0.999812
eliminar eliminar VMN0000 1
art artículo NCMS000 1
culos culo NCMP000 1
de de SPS00 0.999919
tu tu DP2CSS 1
biograf biograf I 1
a a SPS00 0.99585
Ya ya NP00000 1
est est NCMS000 1
activa activo AQ0FS0 0.866667
la el DA0FS0 0.972146
funcionalidad funcionalidad NCFS000 1
de de SPS00 0.999919
compartir compartir VMN0000 1
autom autometro NCMN000 0.65
ticamente ticamente RG 1
las el DA0FP0 0.97051
noticias noticia NCFP000 0.9375
que que PR0CN000 0.5625
lees leer VMIP2S0 1
en en SPS00 1
tu tu DP2CSS 1
biograf biograf I 1
a a SPS00 0.99585
timeline timeline NCMS000 0.908358
de de SPS00 0.999919
Facebook_Si facebook_si NP00000 1
quieres querer VMIP2S0 1
desactivar desactivar VMN0000 1
esta este DD0FS0 0.982143
funcionalidad funcionalidad NCFS000 1
haz haz NCMS000 0.991463
click click NCMS000 0.50012
en en SPS00 1
Desactivar desactivar NP00000 1

