ChileIQUIQUE_De chileiquique_de NP00000 1
visita visitar VMIP3S0 0.0666667
en en SPS00 1
el el DA0MS0 1
norte norte NCMS000 1
de de SPS00 1
el el DA0MS0 1
pa pa NCFS000 0.740689
el el DA0MS0 1
presidenciable presidenciable AQ0CS0 1
de de SPS00 1
el el DA0MS0 1
PR_Jos_Antonio_G pr_jos_antonio_g NP00000 1
ez ez RG 0.208241
se se P00CN000 0.465602
refiri refiri RG 0.83337
a a SPS00 0.99585
las el DA0FP0 0.97051
cr cr NCMS000 1
icas icas AQ0FP0 0.785665
que que CS 0.4375
el el DA0MS0 1
ministro ministro NCMS000 1
de de SPS00 0.999919
Hacienda_Felipe_Larra hacienda_felipe_larra NP00000 1
y y CC 0.999812
algunos alguno DI0MP0 0.476562
empresarios empresario NCMP000 1
han haber VAIP3P0 1
hecho hacer VMP00SM 0.618421
respecto_a respecto_a SPS00 1
propuestas propuesta NCFP000 0.75
como como CS 0.998579
una uno DI0FS0 0.951241
asamblea asamblea NCFS000 1
constituyente constituyente AQ0CS0 0.589091
y y CC 0.999812
cambios cambio NCMP000 1
a a SPS00 1
el el DA0MS0 1
modelo modelo NCCS000 0.973684
de de SPS00 0.999919
AFP afp NP00000 1
e y CC 0.973684
Isapres_De isapres_de NP00000 1
esta este DD0FS0 0.982143
forma forma NCFS000 0.960317
el el DA0MS0 1
abanderado abanderado NCMS000 0.308233
quien quien PR0CS000 1
es ser VSIP3S0 1
partidario partidario AQ0MS0 0.75
de de SPS00 0.999919
tales tal DD0CP0 0.880952
ideas idea NCFP000 0.939394
descart descart NCMS000 1
de de SPS00 0.999919
paso paso NCMS000 0.89
que que CS 0.4375
dichas dicha NCFP000 0.25
medias medio AQ0FP0 0.45
vayan ir VMSP3P0 0.875
a a SPS00 0.99585
afectar afectar VMN0000 1
el el DA0MS0 1
crecimiento crecimiento NCMS000 1
econ econ NCMS000 1
ico ico AQ0MS0 0.811875
de de SPS00 1
el el DA0MS0 1
pa pa NCFS000 0.740689
Nosotros nosotros NP00000 1
le le PP3CSD00 1
decimos decir VMIP1P0 1
a a SPS00 0.99585
los el DA0MP0 0.97623
chilenos chileno NCMP000 0.25
que que PR0CN000 0.5625
no no RN 0.99778
se se P00CN000 0.465602
preocupen preocupar VMSP3P0 0.901254
El el NP00000 1
dinero dinero NCMS000 1
y y CC 0.999812
el el DA0MS0 1
mercado mercado NCMS000 0.9
siempre siempre RG 1
siempre siempre RG 1
quieren querer VMIP3P0 1
ganar ganar VMN0000 1
Por_lo_tanto por_lo_tanto NP00000 1
si si CS 0.997706
Chile chile NP00000 1
tiene tener VMIP3S0 1
condiciones condición NCFP000 0.958333
para para SPS00 0.998507
la el DA0FS0 0.972146
inversi inversi RG 1
invertir invertir VMN0000 1
igual igual RG 0.266667
dijo decir VMIS3S0 1
Asimismo asimismo NP00000 1
el el DA0MS0 1
candidato candidato NCMS000 1
en_caso_de en_caso_de SPS00 1
ser ser VSN0000 0.93883
electo electo AQ0MS0 0.35735
se se P00CN000 0.465602
comprometi comprometi NCMS000 1
a a SPS00 0.99585
lograr lograr VMN0000 1
un uno DI0MS0 0.986987
Estado estado NP00000 1
que que PR0CN000 0.5625
proteja proteger VMSP3S0 0.623412
a a SPS00 1
el el DA0MS0 1
ciudadano ciudadano NCMS000 0.875
donde donde PR000000 0.963542
cada cada DI0CS0 1
uno uno PI0MS000 0.964744
de de SPS00 0.999919
los el DA0MP0 0.97623
chilenos chileno NCMP000 0.25
no no RN 0.99778
reciba recibir VMSP1S0 0.444444
m m NCFS000 0.5
pensiones pensión NCFP000 0.75
indignas indigno AQ0FP0 0.97439
y y CC 0.999812
que que CS 0.4375
de de SPS00 0.999919
una uno DI0FS0 0.951241
vez vez NCFS000 1
por por SPS00 1
todas todo DI0FP0 0.945312
rompamos romper VMSP1P0 0.901243
las el DA0FP0 0.97051
desigualdades desigualdad NCFP000 1
que que PR0CN000 0.5625
existe existir VMIP3S0 0.966667
en en SPS00 1
materia materia NCFS000 1
educativa educativo AQ0FS0 1
Con con NP00000 1
ello ello PD0NS000 1
el el DA0MS0 1
senador senador NCMS000 1
enfatiz enfatiz AQ0CS0 0.464124
que que PR0CN000 0.5625
ese ese DD0MS0 0.98125
camino camino NCMS000 0.978261
transformar transformar VMN0000 1
a a SPS00 0.99585
Chile chile NP00000 1
y y CC 0.999812
los el DA0MP0 0.97623
empresarios empresario NCMP000 1
seguir seguir VMN0000 1
invirtiendo invertir VMG0000 1
seguir seguir VMN0000 1
ganando ganar VMG0000 1
pero pero CC 0.998821
van ir VMIP3P0 1
a a SPS00 0.99585
tener tener VMN0000 1
que que CS 0.4375
repartir repartir VMN0000 1
sus su DP3CP0 0.998462
ganancias ganancia NCFP000 1
de de SPS00 0.999919
una uno DI0FS0 0.951241
manera manera NCFS000 1
justa justo AQ0FS0 0.6
Adem adem NP00000 1
el el DA0MS0 1
abanderado abanderado NCMS000 0.308233
radical radical AQ0CS0 0.9
se se P00CN000 0.465602
l l NCFS000 0.639398
que que CS 0.4375
sus su DP3CP0 0.998462
propuestas propuesta NCFP000 0.75
no no RN 0.99778
son ser VSIP3P0 0.986772
producto producto NCMS000 0.916667
de de SPS00 0.999919
ofertones oferta NCMP00A 1
electorales electoral AQ0CP0 1
sino_que sino_que CC 1
est est NCMS000 1
establecidas establecer VMP00PF 1
en en SPS00 1
su su DP3CS0 1
programa programa NCMS000 0.866667
de de SPS00 0.999919
Gobierno gobierno NP00000 1
a_la_vez_que a_la_vez_que CS 1
aclar aclar VMN0000 1
que que CS 0.4375
las el DA0FP0 0.97051
decisiones decisión NCFP000 1
se se P00CN000 0.465602
tomar tomar VMN0000 1
en en SPS00 1
conjunto conjunto NCMS000 0.944444
con con SPS00 1
las el DA0FP0 0.97051
regiones región NCFP000 1
Durante durante NP00000 1
la el DA0FS0 0.972146
jornada jornada NCFS000 1
G g NP00000 1
ez ez RG 0.208241
se se P00CN000 0.465602
reuni reuni VMIS1S0 0.0691907
en en SPS00 1
Alto_Hospicio alto_hospicio NP00000 1
con con SPS00 1
las el DA0FP0 0.97051
familias familia NCFP000 1
afectadas afectar VMP00PF 0.75
por por SPS00 1
los el DA0MP0 0.97623
socavones socavón NCMP000 1
y y CC 0.999812
recorri recorri RG 0.83337
las el DA0FP0 0.97051
ferias feria NCFP000 0.973497
de de SPS00 0.999919
Lo_Valledor lo_valledor NP00000 1
y y CC 0.999812
La_Quebradilla la_quebradilla NP00000 1
ocasiones ocasión NCFP000 0.964286
en en SPS00 1
que que PR0CN000 0.5625
les le PP3CPD00 1
prometi prometi NCMS000 1
a a SPS00 0.99585
los el DA0MP0 0.97623
vecinos vecino NCMP000 0.928571
tener tener VMN0000 1
mano mano NCFS000 0.974359
firme firme AQ0CS0 0.84
en en SPS00 1
el el DA0MS0 1
cuidado cuidado NCMS000 0.733333
de de SPS00 0.999919
los el DA0MP0 0.97623
recursos recurso NCMP000 1
de de SPS00 0.999919
los el DA0MP0 0.97623
chilenos chileno AQ0MP0 0.75
Las las NP00000 1
ganancias ganancia NCFP000 1
que que PR0CN000 0.5625
hay haber VMIP3S0 1
en en SPS00 1
la el DA0FS0 0.972146
regi regi NCMS000 0.0996348
por por SPS00 1
parte parte NCFS000 0.497967
de de SPS00 0.999919
las el DA0FP0 0.97051
aguas agua NCFP000 0.916667
no no RN 0.99778
deben deber VMIP3P0 1
ser ser VSN0000 0.93883
utilizadas utilizar VMP00PF 1
s segundo NCMN000 0.622321
o o CC 0.998845
por por SPS00 1
las el DA0FP0 0.97051
mineras minero NCFP000 0.642669
sino_que sino_que CC 1
tas tas NCMN000 1
deben deber VMIP3P0 1
tener tener VMN0000 1
la el DA0FS0 0.972146
obligaci obligaci NCMS000 0.0996348
de de SPS00 0.999919
desalar desalar VMN0000 1
la lo PP3FSA00 1
y y CC 0.999812
entregar entregar VMN0000 1
las lo PP3FPA00 1
tambi tambi AQ0CN0 1
para para SPS00 0.998507
el el DA0MS0 1
cultivo cultivo NCMS000 0.9
y y CC 0.999812
el el DA0MS0 1
consumo consumo NCMS000 0.833333
humano humano AQ0MS0 0.964912
afirm afirm NCMS000 0.700265
Posteriomente posteriomente NP00000 1
si si CS 0.997706
quieres querer VMIP2S0 1
desactivar desactivar VMN0000 1
esta este DD0FS0 0.982143
funcionalidad funcionalidad NCFS000 1
haz haz NCMS000 0.991463
click click NCMS000 0.50012
en en SPS00 1
Desactivar_Haciendo desactivar_haciendo NP00000 1
click click NCMS000 0.50012
en en SPS00 1
Actividades actividades NP00000 1
recientes recentar VMSP2S0 0.25
podr podr VMN0000 0.633986
s segundo NCMN000 0.622321
revisar revisar VMN0000 1
tu tu DP2CSS 1
navegaci navegaci AQ0CS0 0.0199855
n n NCFS000 1
y y CC 0.999812
eliminar eliminar VMN0000 1
art artículo NCMS000 1
culos culo NCMP000 1
de de SPS00 0.999919
tu tu DP2CSS 1
biograf biograf I 1
a a SPS00 0.99585
Ya ya NP00000 1
est est NCMS000 1
activa activo AQ0FS0 0.866667
la el DA0FS0 0.972146
funcionalidad funcionalidad NCFS000 1
de de SPS00 0.999919
compartir compartir VMN0000 1
autom autometro NCMN000 0.65
ticamente ticamente RG 1
las el DA0FP0 0.97051
noticias noticia NCFP000 0.9375
que que PR0CN000 0.5625
lees leer VMIP2S0 1
en en SPS00 1
tu tu DP2CSS 1
biograf biograf I 1
a a SPS00 0.99585
timeline timeline NCMS000 0.908358
de de SPS00 0.999919
Facebook_Si facebook_si NP00000 1
quieres querer VMIP2S0 1
desactivar desactivar VMN0000 1
esta este DD0FS0 0.982143
funcionalidad funcionalidad NCFS000 1
haz haz NCMS000 0.991463
click click NCMS000 0.50012
en en SPS00 1
Desactivar desactivar NP00000 1

