ChileCOQUIMBO_El chilecoquimbo_el NP00000 1
precandidato precandidato NCMS000 1
presidencial presidencial AQ0CS0 1
de de SPS00 0.999919
la el DA0FS0 0.972146
Uni_Dem uni_dem NP00000 1
rata rata NCFS000 1
Independiente_UDI_Pablo_Longueira independiente_udi_pablo_longueira NP00000 1
hizo hacer VMIS3S0 1
un uno DI0MS0 0.986987
llamado llamar VMP00SM 0.973684
a a SPS00 0.99585
los el DA0MP0 0.97623
padres padre NCMP000 1
a a SPS00 0.99585
realizar realizar VMN0000 1
un uno DI0MS0 0.986987
cambio cambio NCMS000 0.97619
cultural cultural AQ0CS0 1
y y CC 0.999812
utilizar utilizar VMN0000 1
el el DA0MS0 1
beneficio beneficio NCMS000 0.833333
de de SPS00 0.999919
permiso permiso NCMS000 1
laboral laboral AQ0CS0 1
por por SPS00 1
natalidad natalidad NCFS000 1
Continuando_La_Serena continuando_la_serena NP00000 1
con con SPS00 1
su su DP3CS0 1
gira gira NCFS000 0.636997
de de SPS00 0.999919
campa campar VMIP3S0 0.994867
por por SPS00 1
el el DA0MS0 1
pa pa NCFS000 0.740689
el el DA0MS0 1
presidenciable presidenciable AQ0CS0 1
gremialista gremialista NCCS000 0.402756
destac destac NCMN000 1
el el DA0MS0 1
programa programa NCMS000 0.866667
de de SPS00 0.999919
pre pre NCMS000 0.64128
y y CC 0.999812
posnatal posnatal AQ0CS0 1
impulsado impulsar VMP00SM 1
por por SPS00 1
el el DA0MS0 1
Gobierno_de_Sebasti_Pi gobierno_de_sebasti_pi NP00000 1
ra ra NCFS000 0.55396
Desde desde NP00000 1
que que PR0CN000 0.5625
se se P00CN000 0.465602
aprob aprob NCMS000 0.63631
la el DA0FS0 0.972146
Ley ley NP00000 1
hemos haber VAIP1P0 0.969697
tenido tener VMP00SM 1
145_mil 145000 Z 1
personas persona NCFP000 0.983871
madres madre NCFP000 1
que que PR0CN000 0.5625
han haber VAIP3P0 1
usado usar VMP00SM 1
el el DA0MS0 1
pre pre NCMS000 0.64128
y y CC 0.999812
el el DA0MS0 1
posnatal posnatal AQ0CS0 1
que que PR0CN000 0.5625
adem adem NCMS000 1
se se P00CN000 0.465602
extendi extendi VMIS1S0 1
como como CS 0.998579
todos todo PI0MP000 0.374631
sabemos saber VMIP1P0 1
de de SPS00 0.999919
tres 3 Z 1
a a SPS00 0.99585
seis 6 Z 1
meses mes NCMP000 0.964286
indic indic RG 0.5
el el DA0MS0 1
ex ex AQ0CN0 0.25
ministro ministro NCMS000 1
Adem adem NP00000 1
se se P00CN000 0.465602
incorpor incorpor NCMS000 1
la el DA0FS0 0.972146
posibilidad posibilidad NCFS000 1
de de SPS00 0.999919
que que CS 0.4375
los el DA0MP0 0.97623
pap pap NCMS000 1
tambi tambi AQ0CN0 1
tomaran tomar VMSI3P0 1
el el DA0MS0 1
posnatal posnatal AQ0CS0 1
y y CC 0.999812
solo solo AQ0MS0 0.930556
lo lo PP3CNA00 0.271163
han haber VAIP3P0 1
hecho hacer VMP00SM 0.618421
400 400 Z 1
chilenos chileno NCMP000 0.25
de de SPS00 0.999919
los el DA0MP0 0.97623
145_mil 145000 Z 1
ni ni CC 0.995935
siquiera siquiera RG 0.95
el el DA0MS0 1
1 1 Z 1
As as NP00000 1
que que PR0CN000 0.5625
quiero querer VMIP1S0 1
invitar invitar VMN0000 1
a a SPS00 0.99585
todos todo DI0MP0 0.622419
los el DA0MP0 0.97623
pap pap NCMS000 1
a a SPS00 0.99585
que que CS 0.4375
hagamos hacer VMSP1P0 0.5
un uno DI0MS0 0.986987
cambio cambio NCMS000 0.97619
cultural cultural AQ0CS0 1
que que CS 0.4375
usemos usar VMSP1P0 0.901233
este este DD0MS0 0.956743
pre pre AQ0CN0 0.35872
y y CC 0.999812
posnatal posnatal AQ0CS0 1
para para SPS00 0.998507
que que PR0CN000 0.5625
tambi tambi AQ0CN0 1
acompa acompa VMSP3S0 1
mos mos NCMN000 1
a a SPS00 0.99585
las el DA0FP0 0.97051
madres madre NCFP000 1
en en SPS00 1
ese ese DD0MS0 0.98125
periodo periodo NCMS000 1
asumiendo asumir VMG0000 1
la el DA0FS0 0.972146
responsabilidad responsabilidad NCFS000 1
de de SPS00 0.999919
quedar quedar VMN0000 1
nos nos PP1CP000 1
con con SPS00 1
los el DA0MP0 0.97623
ni ni CC 0.995935
s segundo NCMN000 0.622321
agreg agreg NCMS000 0.714133
Por por NP00000 1
timo timo NCMS000 0.973479
Longueira longueira NP00000 1
expres expres VMIP2S0 0.0125207
que que CS 0.4375
el el DA0MS0 1
desaf desaf I 1
hoy hoy RG 0.877358
d d NCFS000 1
de de SPS00 0.999919
la el DA0FS0 0.972146
familia familia NCFS000 1
de de SPS00 0.999919
cuidar cuidar VMN0000 1
a a SPS00 0.99585
los el DA0MP0 0.97623
ni ni CC 0.995935
s segundo NCMN000 0.622321
es ser VSIP3S0 1
no no RN 0.99778
solamente solamente RG 1
una uno DI0FS0 0.951241
tarea tarea NCFS000 1
de de SPS00 0.999919
las el DA0FP0 0.97051
mam mam NCMS000 0.700265
sino sino CC 0.981707
tambi tambi AQ0CN0 1
de de SPS00 0.999919
los el DA0MP0 0.97623
padres padre NCMP000 1
as as NCMS000 1
que que PR0CN000 0.5625
ojal ojal NCMS000 1
cambiemos cambiar VMSP1P0 0.601271
esta este DD0FS0 0.982143
relaci relaci AQ0CS0 0.0199855
Posteriomente posteriomente NP00000 1
si si CS 0.997706
quieres querer VMIP2S0 1
desactivar desactivar VMN0000 1
esta este DD0FS0 0.982143
funcionalidad funcionalidad NCFS000 1
haz haz NCMS000 0.991463
click click NCMS000 0.50012
en en SPS00 1
Desactivar_Haciendo desactivar_haciendo NP00000 1
click click NCMS000 0.50012
en en SPS00 1
Actividades actividades NP00000 1
recientes recentar VMSP2S0 0.25
podr podr VMN0000 0.633986
s segundo NCMN000 0.622321
revisar revisar VMN0000 1
tu tu DP2CSS 1
navegaci navegaci AQ0CS0 0.0199855
n n NCFS000 1
y y CC 0.999812
eliminar eliminar VMN0000 1
art artículo NCMS000 1
culos culo NCMP000 1
de de SPS00 0.999919
tu tu DP2CSS 1
biograf biograf I 1
a a SPS00 0.99585
Ya ya NP00000 1
est est NCMS000 1
activa activo AQ0FS0 0.866667
la el DA0FS0 0.972146
funcionalidad funcionalidad NCFS000 1
de de SPS00 0.999919
compartir compartir VMN0000 1
autom autometro NCMN000 0.65
ticamente ticamente RG 1
las el DA0FP0 0.97051
noticias noticia NCFP000 0.9375
que que PR0CN000 0.5625
lees leer VMIP2S0 1
en en SPS00 1
tu tu DP2CSS 1
biograf biograf I 1
a a SPS00 0.99585
timeline timeline NCMS000 0.908358
de de SPS00 0.999919
Facebook_Si facebook_si NP00000 1
quieres querer VMIP2S0 1
desactivar desactivar VMN0000 1
esta este DD0FS0 0.982143
funcionalidad funcionalidad NCFS000 1
haz haz NCMS000 0.991463
click click NCMS000 0.50012
en en SPS00 1
Desactivar desactivar NP00000 1

