ChileSANTIAGO_El_Presidente_de_la_Rep chilesantiago_el_presidente_de_la_rep NP00000 1
lica lica VMIP3S0 0.447127
Sebasti_Pi sebasti_pi NP00000 1
ra ra RG 0.127951
anunci anunci RG 0.751648
este este DD0MS0 0.956743
jueves [J:??/??/??:??.??:??] W 1
un uno DI0MS0 0.986987
proyecto proyecto NCMS000 0.9375
de de SPS00 0.999919
ley ley NCFS000 1
para para SPS00 0.998507
castigar castigar VMN0000 1
con con SPS00 1
mayor mayor AQ0CS0 0.989796
dureza dureza NCFS000 1
a a SPS00 0.99585
las el DA0FP0 0.97051
personas persona NCFP000 0.983871
que que PR0CN000 0.5625
agredan agredir VMSP3P0 0.901254
a a SPS00 0.99585
funcionarios funcionario NCMP000 1
de de SPS00 0.999919
Carabineros carabineros NP00000 1
durante durante SPS00 1
actos acto NCMP000 1
de de SPS00 0.999919
servicio servicio NCMS000 1
Le le NP00000 1
ped ped NCMS000 1
a a SPS00 1
el el DA0MS0 1
ministro ministro NCMS000 1
de de SPS00 1
el el DA0MS0 1
Interior interior NP00000 1
que que PR0CN000 0.5625
estudiara estudiar VMSI3S0 0.640903
un uno DI0MS0 0.986987
perfeccionamiento perfeccionamiento NCMS000 1
de de SPS00 0.999919
la el DA0FS0 0.972146
ley ley NCFS000 1
para para SPS00 0.998507
dar dar VMN0000 1
le le PP3CSD00 1
mayor mayor AQ0CS0 0.989796
protecci protecci RG 0.751648
y y CC 0.999812
generar generar VMN0000 1
mayor mayor AQ0CS0 0.989796
respeto respeto NCMS000 0.863636
a a SPS00 0.99585
la el DA0FS0 0.972146
labor labor NCFS000 1
que que PR0CN000 0.5625
cumplen cumplir VMIP3P0 1
Carabineros_de_Chile carabineros_de_chile NP00000 1
a_lo_largo_y_ancho_de a_lo_largo_y_ancho_de SPS00 1
el el DA0MS0 1
territorio territorio NCMS000 1
y y CC 0.999812
as as NCMS000 1
poder poder VMN0000 0.288462
castigar castigar VMN0000 1
con con SPS00 1
mayor mayor AQ0CS0 0.989796
eficacia eficacia NCFS000 1
y y CC 0.999812
celeridad celeridad NCFS000 1
no no RN 0.99778
s segundo NCMN000 0.622321
o o CC 0.998845
los el DA0MP0 0.97623
maltratos maltrato NCMP000 1
de de SPS00 0.999919
obra obra NCFS000 0.972222
sino sino CC 0.981707
tambi tambi AQ0CN0 1
de de SPS00 0.999919
palabra palabra NCFS000 1
dijo decir VMIS3S0 1
Desglos desglos NP00000 1
tres 3 Z 1
razones razón NCFP000 0.966667
para para SPS00 0.998507
impulsar impulsar VMN0000 1
esta este DD0FS0 0.982143
nueva nuevo AQ0FS0 0.977273
medida medida NCFS000 0.863636
Cada cada NP00000 1
uno uno PI0MS000 0.964744
de de SPS00 0.999919
nuestros nuestro DP1MPP 0.854167
carabineros carabinero NCMP000 1
merece merecer VMIP3S0 0.95
una uno DI0FS0 0.951241
mejor mejor AQ0CS0 0.868421
y y CC 0.999812
mayor mayor AQ0CS0 0.989796
protecci protecci NCMS000 0.0996348
en en SPS00 1
el el DA0MS0 1
desempe desempe VMIP3S0 1
de de SPS00 0.999919
sus su DP3CP0 0.998462
funciones función NCFP000 0.916667
Segundo segundo NP00000 1
porque porque CS 1
Carabineros carabineros NP00000 1
cuando cuando CS 0.983796
tiene tener VMIP3S0 1
esa ese DD0FS0 0.978261
protecci protecci NCMS000 0.0996348
y y CC 0.999812
se se P00CN000 0.465602
gana ganar VMIP3S0 0.583333
el el DA0MS0 1
respeto respeto NCMS000 0.863636
de de SPS00 0.999919
la el DA0FS0 0.972146
gente gente NCFS000 1
decente decente AQ0CS0 1
y y CC 0.999812
los el DA0MP0 0.97623
delincuentes delincuente NCCP000 0.833333
cumple cumplir VMIP3S0 0.944444
mejor mejor AQ0CS0 0.868421
su su DP3CS0 1
labor labor NCFS000 1
En en NP00000 1
tercer 3 AO0MS0 1
lugar lugar NCMS000 1
afirm afirm NCMS000 0.700265
que que CS 0.4375
s segundo NCMN000 0.622321
que que PR0CN000 0.5625
interpreto interpretar VMIP1S0 1
el el DA0MS0 1
sentimiento sentimiento NCMS000 1
profundo profundo AQ0MS0 0.666667
de de SPS00 0.999919
todos todo DI0MP0 0.622419
mis mi DP1CPS 0.98
compatriotas compatriota NCCP000 1
que que PR0CN000 0.5625
saben saber VMIP3P0 1
y y CC 0.999812
sienten sentir VMIP3P0 0.933564
que que CS 0.4375
como como CS 0.998579
sociedad sociedad NCFS000 1
tenemos tener VMIP1P0 1
la el DA0FS0 0.972146
obligaci obligaci NCMS000 0.0996348
de de SPS00 0.999919
proteger proteger VMN0000 1
m m NCFS000 0.5
y y CC 0.999812
mejor mejor AQ0CS0 0.868421
la el DA0FS0 0.972146
integridad integridad NCFS000 1
f f NCFS000 1
ica ica AQ0FS0 0.646048
y y CC 0.999812
la el DA0FS0 0.972146
vida vida NCFS000 1
de de SPS00 0.999919
nuestros nuestro DP1MPP 0.854167
carabineros carabinero NCMP000 1
Respecto_a respecto_a NP00000 1
los el DA0MP0 0.97623
detalles detalle NCMP000 0.928571
de de SPS00 0.999919
esta este DD0FS0 0.982143
normativa normativo AQ0FS0 0.51248
Pi pi NP00000 1
ra ra RG 0.127951
sostuvo sostener VMIS3S0 1
que que CS 0.4375
ser ser VSN0000 0.93883
el el DA0MS0 1
ministro ministro NCMS000 1
Andr_Chadwick andr_chadwick NP00000 1
quien quien PR0CS000 1
d d NCFS000 1
a a SPS00 0.99585
conocer conocer VMN0000 1
con con SPS00 1
mayor mayor AQ0CS0 0.989796
profundidad profundidad NCFS000 1
sobre sobre SPS00 0.994203
el el DA0MS0 1
aumento aumento NCMS000 0.916667
de de SPS00 0.999919
penas pena NCFP000 0.75
para para SPS00 0.998507
este este DD0MS0 0.956743
tipo tipo NCMS000 1
de de SPS00 0.999919
il il AQ0CS0 0.768581
itos itos NCMP000 0.786871
El_Mandatario el_mandatario NP00000 1
se se P00CN000 0.465602
refiri refiri RG 0.83337
a a SPS00 0.99585
la el DA0FS0 0.972146
nueva nuevo AQ0FS0 0.977273
normativa normativa NCFS000 0.48752
durante durante SPS00 1
una uno DI0FS0 0.951241
ceremonia ceremonia NCFS000 1
hecha hacer VMP00SF 1
este este DD0MS0 0.956743
mediod mediod NCFS000 1
de de SPS00 0.999919
premiaci premiaci NCMS000 0.0996348
a a SPS00 1
el el DA0MS0 1
cumplimiento cumplimiento NCMS000 1
de de SPS00 1
el el DA0MS0 1
deber deber NCMS000 0.9
destacado destacar VMP00SM 1
en en SPS00 1
la el DA0FS0 0.972146
prevenci prevenci NCMS000 0.0996348
de de SPS00 1
el el DA0MS0 1
delito delito NCMS000 1
y y CC 0.999812
el el DA0MS0 1
control control NCMS000 1
de de SPS00 0.999919
la el DA0FS0 0.972146
delincuencia delincuencia NCFS000 1
Posteriomente posteriomente NP00000 1
si si CS 0.997706
quieres querer VMIP2S0 1
desactivar desactivar VMN0000 1
esta este DD0FS0 0.982143
funcionalidad funcionalidad NCFS000 1
haz haz NCMS000 0.991463
click click NCMS000 0.50012
en en SPS00 1
Desactivar_Haciendo desactivar_haciendo NP00000 1
click click NCMS000 0.50012
en en SPS00 1
Actividades actividades NP00000 1
recientes recentar VMSP2S0 0.25
podr podr VMN0000 0.633986
s segundo NCMN000 0.622321
revisar revisar VMN0000 1
tu tu DP2CSS 1
navegaci navegaci AQ0CS0 0.0199855
n n NCFS000 1
y y CC 0.999812
eliminar eliminar VMN0000 1
art artículo NCMS000 1
culos culo NCMP000 1
de de SPS00 0.999919
tu tu DP2CSS 1
biograf biograf I 1
a a SPS00 0.99585
Ya ya NP00000 1
est est NCMS000 1
activa activo AQ0FS0 0.866667
la el DA0FS0 0.972146
funcionalidad funcionalidad NCFS000 1
de de SPS00 0.999919
compartir compartir VMN0000 1
autom autometro NCMN000 0.65
ticamente ticamente RG 1
las el DA0FP0 0.97051
noticias noticia NCFP000 0.9375
que que PR0CN000 0.5625
lees leer VMIP2S0 1
en en SPS00 1
tu tu DP2CSS 1
biograf biograf I 1
a a SPS00 0.99585
timeline timeline NCMS000 0.908358
de de SPS00 0.999919
Facebook_Si facebook_si NP00000 1
quieres querer VMIP2S0 1
desactivar desactivar VMN0000 1
esta este DD0FS0 0.982143
funcionalidad funcionalidad NCFS000 1
haz haz NCMS000 0.991463
click click NCMS000 0.50012
en en SPS00 1
Desactivar desactivar NP00000 1

