ChileSANTIAGO_El chilesantiago_el NP00000 1
senador senador NCMS000 1
de de SPS00 1
el el DA0MS0 1
PPD_Guido_Girardi ppd_guido_girardi NP00000 1
acus acu NCFP000 1
a a SPS00 1
el el DA0MS0 1
Gobierno gobierno NP00000 1
de de SPS00 0.999919
tener tener VMN0000 1
un uno DI0MS0 0.986987
doble doble AQ0CS0 0.927273
est est NCMS000 1
dar dar VMN0000 1
de_cara_a de_cara_a SPS00 1
la el DA0FS0 0.972146
tramitaci tramitaci NCMS000 0.0996348
de de SPS00 1
el el DA0MS0 1
proyecto proyecto NCMS000 0.9375
de de SPS00 0.999919
ley ley NCFS000 1
que que PR0CN000 0.5625
regular regular VMN0000 0.166667
las el DA0FP0 0.97051
acciones acción NCFP000 0.916667
de de SPS00 0.999919
lobby lobby NCMS000 1
el el DA0MS0 1
cual cual PR0CS000 0.9
es ser VSIP3S0 1
impulsado impulsar VMP00SM 1
por por SPS00 1
el el DA0MS0 1
ministro ministro NCMS000 1
secretario secretario NCMS000 1
general general AQ0CS0 0.90625
de de SPS00 0.999919
la el DA0FS0 0.972146
Presidencia_Cristi_Larroulet_Esta presidencia_cristi_larroulet_esta NP00000 1
semana semana NCFS000 1
el el DA0MS0 1
secretario secretario NCMS000 1
de de SPS00 0.999919
Estado estado NP00000 1
esperar esperar VMN0000 1
reunir reunir VMN0000 1
se se PP3CN000 1
con con SPS00 1
los el DA0MP0 0.97623
integrantes integrante NCCP000 0.64267
de de SPS00 0.999919
la el DA0FS0 0.972146
Comisi_de_Hacienda_de_la_C comisi_de_hacienda_de_la_c NP00000 1
ara arar VMIP3S0 0.200715
de de SPS00 0.999919
Diputados diputados NP00000 1
con con SPS00 1
el el DA0MS0 1
fin fin NCMS000 1
de de SPS00 0.999919
agilizar agilizar VMN0000 1
la el DA0FS0 0.972146
aprobaci aprobaci NCMS000 0.0996348
de de SPS00 0.999919
la el DA0FS0 0.972146
iniciativa iniciativa NCFS000 0.75
De de NP00000 1
esta este DD0FS0 0.982143
forma forma NCFS000 0.960317
el el DA0MS0 1
legislador legislador NCMS000 0.34273
se se P00CN000 0.465602
l l NCFS000 0.639398
que que PR0CN000 0.5625
si si CS 0.997706
estamos estar VAIP1P0 1
contra contra SPS00 0.976316
el el DA0MS0 1
lobby lobby NCMS000 1
estemos estar VASP1P0 0.909091
contra contra SPS00 0.976316
te te PP2CS000 0.933962
en en SPS00 1
todas todo DI0FP0 0.945312
partes parte NCFP000 0.495495
A a NP00000 1
el el DA0MS0 1
mismo mismo AQ0MS0 0.961905
tiempo tiempo NCMS000 1
Girardi girardi NP00000 1
agreg agreg NCMS000 0.714133
que que PR0CN000 0.5625
existe existir VMIP3S0 0.966667
departe departir VMIP3S0 0.994868
de de SPS00 1
el el DA0MS0 1
Gobierno gobierno NP00000 1
un uno DI0MS0 0.986987
discurso discurso NCMS000 0.75
contradictorio contradictorio AQ0MS0 1
en en SPS00 1
esta este DD0FS0 0.982143
materia materia NCFS000 1
El el NP00000 1
senador senador NCMS000 1
PPD ppd NP00000 1
record record AQ0CN0 0.5
la el DA0FS0 0.972146
tramitaci tramitaci NCMS000 0.0996348
de de SPS00 0.999919
la el DA0FS0 0.972146
ley ley NCFS000 1
sobre sobre SPS00 0.994203
la el DA0FS0 0.972146
comida comida NCFS000 0.866667
chatarra chatarra NCFS000 1
y y CC 0.999812
asegur asegur NCFS000 1
que que CS 0.4375
poco poco DI0MS0 0.126016
tiempo tiempo NCMS000 1
despu despu NCMS000 0.774439
de de SPS00 0.999919
que que PR0CN000 0.5625
ta ta I 1
se se P00CN000 0.465602
aprob aprob NCMS000 0.63631
el el DA0MS0 1
Ejecutivo ejecutivo NP00000 1
sac sac NCMS000 1
un uno DI0MS0 0.986987
reglamento reglamento NCMS000 0.973497
que que CS 0.4375
ser ser VSN0000 0.93883
a a SPS00 0.99585
la el DA0FS0 0.972146
medida medida NCFS000 0.863636
de de SPS00 1
el el DA0MS0 1
empresariado empresariado NCMS000 1
para para SPS00 0.998507
implementar implementar VMN0000 1
ta ta I 1
iniciativa iniciativa NCFS000 0.75
Yo yo NP00000 1
le le PP3CSD00 1
pregunto preguntar VMIP1S0 1
a a SPS00 1
el el DA0MS0 1
Gobierno gobierno NP00000 1
que que PR0CN000 0.5625
habla hablar VMIP3S0 0.880952
de de SPS00 0.999919
lobby lobby NCMS000 1
con con SPS00 1
qu qu NCMS000 0.774439
autoridad autoridad NCFS000 1
moral moral AQ0CS0 0.625
hablan hablar VMIP3P0 1
ellos ellos PP3MP000 1
de de SPS00 0.999919
lobby lobby NCMS000 1
si si CS 0.997706
tienen tener VMIP3P0 1
un uno DI0MS0 0.986987
reglamento reglamento NCMS000 0.973497
de de SPS00 0.999919
alimento alimento NCMS000 0.928571
que que PR0CN000 0.5625
lo lo PP3CNA00 0.271163
hizo hacer VMIS3S0 1
' ' Fe 1
Chile_Alimento chile_alimento NP00000 1
' ' Fe 1
que que CS 0.4375
es ser VSIP3S0 1
una uno DI0FS0 0.951241
verg verg NCMS000 0.714133
nza nza NCFS000 0.615495
que que PR0CN000 0.5625
viola violar VMIP3S0 0.184079
todos todo DI0MP0 0.622419
los el DA0MP0 0.97623
elementos elemento NCMP000 1
m m NCFS000 0.5
b b NCFS000 1
icos icos AQ0MP0 0.62097
de de SPS00 0.999919
la el DA0FS0 0.972146
transparencia transparencia NCFS000 1
que que PR0CN000 0.5625
es ser VSIP3S0 1
mucho mucho DI0MS0 0.275362
m m NCFS000 0.5
permisivo permisivo AQ0MS0 1
de de SPS00 0.999919
lo el DA0NS0 0.457393
que que PR0CN000 0.5625
hab hab NCMS000 0.63631
antes antes RG 1
y y CC 0.999812
hoy hoy RG 0.877358
ese ese DD0MS0 0.98125
reglamento reglamento NCMS000 0.973497
echa echar VMIP3S0 0.875
abajo abajo RG 0.9375
la el DA0FS0 0.972146
Ley_de_Comida_Chatarra ley_de_comida_chatarra NP00000 1
enfatiz enfatiz NCFS000 0.428768
Asimismo asimismo NP00000 1
el el DA0MS0 1
parlamentario parlamentario AQ0MS0 0.75
manifest manifest NCMS000 1
que que PR0CN000 0.5625
se se P00CN000 0.465602
trata tratar VMIP3S0 0.946237
de de SPS00 0.999919
una uno DI0FS0 0.951241
pirotecnia pirotecnia NCFS000 1
porque porque CS 1
por por SPS00 1
un uno DI0MS0 0.986987
lado lado NCMS000 1
se se P00CN000 0.465602
llenan llenar VMIP3P0 1
la el DA0FS0 0.972146
boca boca NCFS000 1
diciendo decir VMG0000 1
que que CS 0.4375
quieren querer VMIP3P0 1
proteger proteger VMN0000 1
la el DA0FS0 0.972146
salud salud NCFS000 1
de de SPS00 0.999919
los el DA0MP0 0.97623
ni ni CC 0.995935
s segundo NCMN000 0.622321
y y CC 0.999812
despu despu NCMS000 0.774439
hacen hacer VMIP3P0 1
un uno DI0MS0 0.986987
reglamente reglamentar VMSP3S0 0.62344
que que CS 0.4375
es ser VSIP3S0 1
una uno DI0FS0 0.951241
verg verg NCMS000 0.714133
nza nza NCFS000 0.615495
y y CC 0.999812
ah ah I 1
s segundo NCMN000 0.622321
que que PR0CN000 0.5625
se se P00CN000 0.465602
les le PP3CPD00 1
olvida olvidar VMIP3S0 0.994752
hablar hablar VMN0000 1
que que CS 0.4375
hubo haber VMIS3S0 0.95
lobby lobby NCMS000 1
y y CC 0.999812
quiero querer VMIP1S0 1
decir decir VMN0000 0.987805
que que CS 0.4375
ah ah I 1
s segundo NCMN000 0.622321
que que PR0CN000 0.5625
hubo haber VMIS3S0 0.95
lobby lobby NCMS000 1
Posteriomente posteriomente NP00000 1
si si CS 0.997706
quieres querer VMIP2S0 1
desactivar desactivar VMN0000 1
esta este DD0FS0 0.982143
funcionalidad funcionalidad NCFS000 1
haz haz NCMS000 0.991463
click click NCMS000 0.50012
en en SPS00 1
Desactivar_Haciendo desactivar_haciendo NP00000 1
click click NCMS000 0.50012
en en SPS00 1
Actividades actividades NP00000 1
recientes recentar VMSP2S0 0.25
podr podr VMN0000 0.633986
s segundo NCMN000 0.622321
revisar revisar VMN0000 1
tu tu DP2CSS 1
navegaci navegaci AQ0CS0 0.0199855
n n NCFS000 1
y y CC 0.999812
eliminar eliminar VMN0000 1
art artículo NCMS000 1
culos culo NCMP000 1
de de SPS00 0.999919
tu tu DP2CSS 1
biograf biograf I 1
a a SPS00 0.99585
Ya ya NP00000 1
est est NCMS000 1
activa activo AQ0FS0 0.866667
la el DA0FS0 0.972146
funcionalidad funcionalidad NCFS000 1
de de SPS00 0.999919
compartir compartir VMN0000 1
autom autometro NCMN000 0.65
ticamente ticamente RG 1
las el DA0FP0 0.97051
noticias noticia NCFP000 0.9375
que que PR0CN000 0.5625
lees leer VMIP2S0 1
en en SPS00 1
tu tu DP2CSS 1
biograf biograf I 1
a a SPS00 0.99585
timeline timeline NCMS000 0.908358
de de SPS00 0.999919
Facebook_Si facebook_si NP00000 1
quieres querer VMIP2S0 1
desactivar desactivar VMN0000 1
esta este DD0FS0 0.982143
funcionalidad funcionalidad NCFS000 1
haz haz NCMS000 0.991463
click click NCMS000 0.50012
en en SPS00 1
Desactivar desactivar NP00000 1

