ChileSANTIAGO_El chilesantiago_el NP00000 1
senador senador NCMS000 1
El el NP00000 1
legislador legislador AQ0MS0 0.65727
sostuvo sostener VMIS3S0 1
que que CS 0.4375
vot vot NCCS000 1
en_contra_de en_contra_de SPS00 1
la el DA0FS0 0.972146
iniciativa iniciativa NCFS000 0.75
porque porque CS 1
me me PP1CS000 0.889706
parece parecer VMIP3S0 0.9875
impresentable impresentable AQ0CS0 1
Se se NP00000 1
aprueba aprobar VMIP3S0 0.994868
en_menos_de en_menos_de SPS00 1
una uno DI0FS0 0.951241
semana semana NCFS000 1
cuando cuando CS 0.983796
hay haber VMIP3S0 1
varios varios DI0MP0 0.883333
proyectos proyecto NCMP000 1
congelados congelar VMP00PM 1
que que PR0CN000 0.5625
se se P00CN000 0.465602
demoran demorar VMIP3P0 1
a a SPS00 0.99585
s segundo NCMN000 0.622321
en en SPS00 1
ser ser VSN0000 0.93883
aprobados aprobar VMP00PM 0.691767
Cuando cuando NP00000 1
se se P00CN000 0.465602
trata tratar VMIP3S0 0.946237
de de SPS00 0.999919
los el DA0MP0 0.97623
problemas problema NCMP000 1
de de SPS00 0.999919
la el DA0FS0 0.972146
gente gente NCFS000 1
no no RN 0.99778
les le PP3CPD00 1
importa importar VMIP3S0 0.954545
pero pero CC 0.998821
cuando cuando CS 0.983796
se se P00CN000 0.465602
trata tratar VMIP3S0 0.946237
de de SPS00 0.999919
los el DA0MP0 0.97623
intereses interés NCMP000 0.916667
de de SPS00 0.999919
los el DA0MP0 0.97623
partidos partido NCMP000 0.928571
pol pol NCMS000 0.861706
icos icos AQ0MP0 0.62097
de de SPS00 0.999919
inmediato inmediato AQ0MS0 1
se se P00CN000 0.465602
presentan presentar VMIP3P0 1
a a SPS00 0.99585
votar votar VMN0000 1
eso ese PD0NS000 1
es ser VSIP3S0 1
poco poco RG 0.54065
serio serio AQ0MS0 0.9
sostuvo sostener VMIS3S0 1
el el DA0MS0 1
senador senador NCMS000 1
a a SPS00 0.99585
radio radio NCFS000 0.491228
Agricultura_Sostuvo agricultura_sostuvo NP00000 1
que que PR0CN000 0.5625
hace hacer VMIP3S0 1
a a SPS00 0.99585
s segundo NCMN000 0.622321
discutimos discutir VMIP1P0 0.649787
sobre sobre SPS00 0.994203
la el DA0FS0 0.972146
franja franja NCFS000 1
y y CC 0.999812
hab hab NCMS000 0.63631
mos mos NCMN000 1
acordado acordar VMP00SM 1
que que PR0CN000 0.5625
en en SPS00 1
las el DA0FP0 0.97051
primarias primario AQ0FP0 1
no no RN 0.99778
realizar realizar VMN0000 1
mos mos NCMN000 1
En en NP00000 1
cambio cambio NCMS000 0.97619
conversamos conversar VMIP1P0 0.575021
con con SPS00 1
Anatel anatel NP00000 1
para para SPS00 0.998507
tener tener VMN0000 1
el el DA0MS0 1
espacio espacio NCMS000 0.96875
de de SPS00 0.999919
debates debate NCMP000 0.973497
en en SPS00 1
televisi televisi RG 1
Por por NP00000 1
eso ese PD0NS000 1
remarc remarc NC00000 0.538029
que que PR0CN000 0.5625
se se P00CN000 0.465602
cambiaron cambiar VMIS3P0 1
las el DA0FP0 0.97051
reglas regla NCFP000 0.916667
de de SPS00 1
el el DA0MS0 1
juego juego NCMS000 0.979167
lo el DA0NS0 0.457393
que que PR0CN000 0.5625
le le PP3CSD00 1
parece parecer VMIP3S0 0.9875
una uno DI0FS0 0.951241
se se P00CN000 0.465602
l l NCFS000 0.639398
grav grav RG 0.106198
ima ima AQSFS0 0.230589
puesto puesto NCMS000 0.452381
que que CS 0.4375
durante durante SPS00 1
tres 3 Z 1
a a SPS00 0.99585
s segundo NCMN000 0.622321
estudiamos estudiar VMIP1P0 0.649998
las el DA0FP0 0.97051
reglas regla NCFP000 0.916667
y y CC 0.999812
a a SPS00 0.99585
pocos poco DI0MP0 0.583333
d d NCFS000 1
s segundo NCMN000 0.622321
se se P00CN000 0.465602
cambia cambiar VMIP3S0 0.9
todo todo DI0MS0 0.559816
Tambi tambi NP00000 1
argument argument NCMS000 0.607342
que que CS 0.4375
una uno DI0FS0 0.951241
franja franja NCFS000 1
televisada televisar VMP00SF 1
en en SPS00 1
primarias primario AQ0FP0 1
representa representar VMIP3S0 0.928571
una uno DI0FS0 0.951241
injusticia injusticia NCFS000 1
para para SPS00 0.998507
los el DA0MP0 0.97623
candidatos candidato NCMP000 1
que que PR0CN000 0.5625
no no RN 0.99778
participan participar VMIP3P0 1
en en SPS00 1
ta ta I 1
Encuentro encuentro NP00000 1
injusto injusto AQ0MS0 0.833333
que que CS 0.4375
otros otro DI0MP0 0.56875
candidatos candidato NCMP000 1
que que PR0CN000 0.5625
no no RN 0.99778
van ir VMIP3P0 1
a a SPS00 0.99585
primarias primario AQ0FP0 1
no no RN 0.99778
tengan tener VMSP3P0 0.75
la el DA0FS0 0.972146
oportunidad oportunidad NCFS000 1
de de SPS00 0.999919
presentar presentar VMN0000 1
sus su DP3CP0 0.998462
ideas idea NCFP000 0.939394
Es es NP00000 1
una uno DI0FS0 0.951241
clara claro AQ0FS0 0.928571
desventaja desventaja NCFS000 1
para para SPS00 0.998507
ellos ellos PP3MP000 1
asever asever VMN0000 1
Consultado consultado NP00000 1
sobre sobre SPS00 0.994203
los el DA0MP0 0.97623
efectos efecto NCMP000 1
que que PR0CN000 0.5625
tendr tendr VMN0000 0.633986
la el DA0FS0 0.972146
franja franja NCFS000 1
en en SPS00 1
la el DA0FS0 0.972146
campa campar VMIP3S0 0.994867
de de SPS00 1
el el DA0MS0 1
abanderado abanderado NCMS000 0.308233
de de SPS00 0.999919
la el DA0FS0 0.972146
UDI_Pablo_Longueira udi_pablo_longueira NP00000 1
sostuvo sostener VMIS3S0 1
que que CS 0.4375
es ser VSIP3S0 1
una uno DI0FS0 0.951241
gran gran AQ0CS0 1
ventaja ventaja NCFS000 1
debido_a debido_a SPS00 1
que que PR0CN000 0.5625
sabemos saber VMIP1P0 1
realizar realizar VMN0000 1
franjas franja NCFP000 1
de de SPS00 0.999919
calidad calidad NCFS000 1
Sin sin NP00000 1
embargo embargo NCMS000 0.973496
volvi volvi VMIS1S0 1
a a SPS00 0.99585
recalcar recalcar VMN0000 1
que que CS 0.4375
las el DA0FP0 0.97051
reglas regla NCFP000 0.916667
de de SPS00 1
el el DA0MS0 1
juego juego NCMS000 0.979167
se se P00CN000 0.465602
cambiaron cambiar VMIS3P0 1
y y CC 0.999812
eso ese PD0NS000 1
nos nos PP1CP000 0.933333
molesta molestar VMIP3S0 0.666667
Posteriomente posteriomente NP00000 1
si si CS 0.997706
quieres querer VMIP2S0 1
desactivar desactivar VMN0000 1
esta este DD0FS0 0.982143
funcionalidad funcionalidad NCFS000 1
haz haz NCMS000 0.991463
click click NCMS000 0.50012
en en SPS00 1
Desactivar_Haciendo desactivar_haciendo NP00000 1
click click NCMS000 0.50012
en en SPS00 1
Actividades actividades NP00000 1
recientes recentar VMSP2S0 0.25
podr podr VMN0000 0.633986
s segundo NCMN000 0.622321
revisar revisar VMN0000 1
tu tu DP2CSS 1
navegaci navegaci AQ0CS0 0.0199855
n n NCFS000 1
y y CC 0.999812
eliminar eliminar VMN0000 1
art artículo NCMS000 1
culos culo NCMP000 1
de de SPS00 0.999919
tu tu DP2CSS 1
biograf biograf I 1
a a SPS00 0.99585
Ya ya NP00000 1
est est NCMS000 1
activa activo AQ0FS0 0.866667
la el DA0FS0 0.972146
funcionalidad funcionalidad NCFS000 1
de de SPS00 0.999919
compartir compartir VMN0000 1
autom autometro NCMN000 0.65
ticamente ticamente RG 1
las el DA0FP0 0.97051
noticias noticia NCFP000 0.9375
que que PR0CN000 0.5625
lees leer VMIP2S0 1
en en SPS00 1
tu tu DP2CSS 1
biograf biograf I 1
a a SPS00 0.99585
timeline timeline NCMS000 0.908358
de de SPS00 0.999919
Facebook_Si facebook_si NP00000 1
quieres querer VMIP2S0 1
desactivar desactivar VMN0000 1
esta este DD0FS0 0.982143
funcionalidad funcionalidad NCFS000 1
haz haz NCMS000 0.991463
click click NCMS000 0.50012
en en SPS00 1
Desactivar desactivar NP00000 1

