ChileSANTIAGO_Frente_a chilesantiago_frente_a NP00000 1
la el DA0FS0 0.972146
renuncia renuncia NCFS000 0.777778
de de SPS00 0.999919
Michelle_Bachelet michelle_bachelet NP00000 1
a a SPS00 0.99585
ONU_Mujeres onu_mujeres NP00000 1
el el DA0MS0 1
precandidato precandidato NCMS000 1
presidencial presidencial AQ0CS0 1
independiente independiente AQ0CS0 1
Andr_Velasco andr_velasco NP00000 1
asegur asegur NCFS000 1
este este DD0MS0 0.956743
s segundo NCMN000 0.622321
ado adir VMIP1S0 1
que que CS 0.4375
ta ta I 1
decisi decisi RG 1
no no RN 0.99778
puede poder VMIP3S0 0.995614
llamar llamar VMN0000 1
a a SPS00 0.99585
muchas mucho DI0FP0 0.819444
sorpresas sorpresa NCFP000 1
y y CC 0.999812
que que PR0CN000 0.5625
celebra celebrar VMIP3S0 0.994868
que que CS 0.4375
existan existir VMSP3P0 0.901254
muchos mucho DI0MP0 0.541667
candidatos candidato NCMP000 1
para para SPS00 0.998507
las el DA0FP0 0.97051
primarias primario AQ0FP0 1
de de SPS00 0.999919
la el DA0FS0 0.972146
oposici oposici NCMS000 0.0996348
Quienes quienes NP00000 1
estamos estar VAIP1P0 1
en en SPS00 1
esto este PD0NS000 1
hace hacer VMIP3S0 1
tiempo tiempo NCMS000 1
vamos ir VMIP1P0 0.633333
a a SPS00 0.99585
continuar continuar VMN0000 1
trabajando trabajar VMG0000 1
Yo yo NP00000 1
creo crear VMIP1S0 0.5
que que CS 0.4375
el el DA0MS0 1
proceso proceso NCMS000 0.973684
de de SPS00 0.999919
las el DA0FP0 0.97051
primarias primario AQ0FP0 1
es ser VSIP3S0 1
muy muy RG 1
importante importante AQ0CS0 1
es ser VSIP3S0 1
un uno DI0MS0 0.986987
paso paso NCMS000 0.89
adelante adelante RG 0.911111
en en SPS00 1
dar dar VMN0000 1
le le PP3CSD00 1
mayor mayor AQ0CS0 0.989796
poder poder NCMS000 0.711538
a a SPS00 0.99585
los el DA0MP0 0.97623
ciudadanos ciudadano NCMP000 0.875
y y CC 0.999812
menor menor AQ0CS0 0.978261
poder poder NCMS000 0.711538
a a SPS00 0.99585
la el DA0FS0 0.972146
pol pol NCMS000 0.861706
ica ica AQ0FS0 0.646048
tradicional tradicional AQ0CS0 1
recalc recalc NC00000 0.538029
Para para NP00000 1
el el DA0MS0 1
ex ex AQ0CN0 0.25
ministro ministro NCMS000 1
de de SPS00 0.999919
Hacienda hacienda NP00000 1
el el DA0MS0 1
regreso regreso NCMS000 0.75
de de SPS00 0.999919
Bachelet bachelet NP00000 1
y y CC 0.999812
su su DP3CS0 1
eventual eventual AQ0CS0 0.65727
candidatura candidatura NCFS000 1
presidencial presidencial AQ0CS0 1
permitir permitir VMN0000 1
a a SPS00 0.99585
los el DA0MP0 0.97623
ciudadanos ciudadano NCMP000 0.875
comparar comparar VMN0000 1
propuestas propuesta NCFP000 0.75
e y CC 0.973684
ideas idea NCFP000 0.939394
sobre sobre SPS00 0.994203
el el DA0MS0 1
futuro futuro NCMS000 0.944444
de de SPS00 1
el el DA0MS0 1
pa pa NCFS000 0.740689
Posteriomente posteriomente NP00000 1
si si CS 0.997706
quieres querer VMIP2S0 1
desactivar desactivar VMN0000 1
esta este DD0FS0 0.982143
funcionalidad funcionalidad NCFS000 1
haz haz NCMS000 0.991463
click click NCMS000 0.50012
en en SPS00 1
Desactivar_Haciendo desactivar_haciendo NP00000 1
click click NCMS000 0.50012
en en SPS00 1
Actividades actividades NP00000 1
recientes recentar VMSP2S0 0.25
podr podr VMN0000 0.633986
s segundo NCMN000 0.622321
revisar revisar VMN0000 1
tu tu DP2CSS 1
navegaci navegaci AQ0CS0 0.0199855
n n NCFS000 1
y y CC 0.999812
eliminar eliminar VMN0000 1
art artículo NCMS000 1
culos culo NCMP000 1
de de SPS00 0.999919
tu tu DP2CSS 1
biograf biograf I 1
a a SPS00 0.99585
Ya ya NP00000 1
est est NCMS000 1
activa activo AQ0FS0 0.866667
la el DA0FS0 0.972146
funcionalidad funcionalidad NCFS000 1
de de SPS00 0.999919
compartir compartir VMN0000 1
autom autometro NCMN000 0.65
ticamente ticamente RG 1
las el DA0FP0 0.97051
noticias noticia NCFP000 0.9375
que que PR0CN000 0.5625
lees leer VMIP2S0 1
en en SPS00 1
tu tu DP2CSS 1
biograf biograf I 1
a a SPS00 0.99585
timeline timeline NCMS000 0.908358
de de SPS00 0.999919
Facebook_Si facebook_si NP00000 1
quieres querer VMIP2S0 1
desactivar desactivar VMN0000 1
esta este DD0FS0 0.982143
funcionalidad funcionalidad NCFS000 1
haz haz NCMS000 0.991463
click click NCMS000 0.50012
en en SPS00 1
Desactivar desactivar NP00000 1

