ChileSANTIAGO_Tras chilesantiago_tras NP00000 1
reunir reunir VMN0000 1
se se PP3CN000 1
con con SPS00 1
el el DA0MS0 1
ministro ministro NCMS000 1
de de SPS00 1
el el DA0MS0 1
Interior_Andr_Chadwick interior_andr_chadwick NP00000 1
los el DA0MP0 0.97623
alcaldes alcalde NCMP000 1
que que PR0CN000 0.5625
forman_parte formar_parte VMIP3P0 1
de de SPS00 0.999919
la el DA0FS0 0.972146
Asociaci_Chilena_de_Municipalidades_AChM asociaci_chilena_de_municipalidades_achm NP00000 1
anunciaron anunciar VMIS3P0 1
que que CS 0.4375
ma ma NCFS000 0.391356
na na AQ0FS0 0.325585
le le PP3CSD00 1
propondr propondr VMN0000 0.633986
a a SPS00 1
el el DA0MS0 1
Servicio_Electoral_Servel servicio_electoral_servel NP00000 1
locales local NCMP000 0.75
alternativos alternativo AQ0MP0 1
de de SPS00 0.999919
votaci votaci RG 0.751648
para para SPS00 0.998507
evitar evitar VMN0000 1
desalojos desalojo NCMP000 1
en en SPS00 1
aquellos aquel DD0MP0 0.833333
colegios colegio NCMP000 0.75
que que PR0CN000 0.5625
permanecen permanecer VMIP3P0 1
tomados tomar VMP00PM 1
El el NP00000 1
peor peor AQ0CS0 0.9
escenario escenario NCMS000 1
para para SPS00 0.998507
estas este DD0FP0 0.960526
elecciones elección NCFP000 1
es ser VSIP3S0 1
tener tener VMN0000 1
j j NCFS000 1
enes ene NCFP000 1
desalojados desalojar VMP00PM 1
por por SPS00 1
la el DA0FS0 0.972146
fuerza fuerza NCFS000 0.968254
p p NCFS000 0.5
lica lica AQ0FS0 0.500121
o o CC 0.998845
militares militar AQ0CP0 0.541667
No no NP00000 1
me me PP1CS000 0.889706
imagino imaginar VMIP1S0 1
como como CS 0.998579
imagen imagen NCFS000 1
pa pa VMIP3S0 0.12964
que que CS 0.4375
j j NCFS000 1
enes ene NCFP000 1
que que PR0CN000 0.5625
est est NCMS000 1
hoy hoy RG 0.877358
d d NCFS000 1
moviliz moviliz AQ0CS0 1
dose dose NCFS000 0.31746
por por SPS00 1
sus su DP3CP0 0.998462
leg leg NCMS000 0.714133
imas imas AQ0FP0 0.272581
demandas demandar VMIP2S0 0.25
siendo ser VSG0000 1
desalojados desalojar VMP00PM 1
a a SPS00 0.99585
punta punta NCCS000 1
de de SPS00 0.999919
metralletas metralleta NCFP000 1
y y CC 0.999812
violencia violencia NCFS000 1
de de SPS00 0.999919
los el DA0MP0 0.97623
colegios colegio NCMP000 0.75
dijo decir VMIS3S0 1
el el DA0MS0 1
alcalde alcalde NCMS000 1
de de SPS00 0.999919
La_Cisterna_Santiago_Rebolledo la_cisterna_santiago_rebolledo NP00000 1
quien quien PR0CS000 1
preside presidir VMIP3S0 0.994868
la el DA0FS0 0.972146
entidad entidad NCFS000 1
en en SPS00 1
compa compa VMSP3S0 1
a a SPS00 0.99585
de de SPS00 0.999919
los el DA0MP0 0.97623
vicepresidentes vicepresidente NCMP000 1
Cristi_Vittori_Maip cristi_vittori_maip NP00000 1
y y CC 0.999812
Josefa_Err josefa_err NP00000 1
uriz uriz NCFS000 0.845935
Providencia_Esta providencia_esta NP00000 1
tima timar VMIP3S0 0.994868
insisti insisti NCMS000 1
en en SPS00 1
que que CS 0.4375
ellos ellos PP3MP000 1
no no RN 0.99778
est est NCMS000 1
por por SPS00 1
los el DA0MP0 0.97623
desalojos desalojo NCMP000 1
y y CC 0.999812
no no RN 0.99778
van ir VMIP3P0 1
a a SPS00 0.99585
llamar llamar VMN0000 1
a a SPS00 1
el el DA0MS0 1
desalojo desalojo NCMS000 0.973494
por por SPS00 1
lo el DA0NS0 0.457393
que que PR0CN000 0.5625
ser ser VSN0000 0.93883
el el DA0MS0 1
Ministerio_de_el_Interior ministerio_de_el_interior NP00000 1
el el DA0MS0 1
que que PR0CN000 0.5625
asuma asumir VMSP3S0 0.623391
esa ese DD0FS0 0.978261
responsabilidad responsabilidad NCFS000 1
Los los NP00000 1
ediles edil NCMP000 1
tambi tambi AQ0CN0 1
le le PP3CSD00 1
solicitaron solicitar VMIS3P0 1
a a SPS00 1
el el DA0MS0 1
jefe jefe NCMS000 1
de de SPS00 0.999919
gabinete gabinete NCMS000 1
que que PR0CN000 0.5625
se se P00CN000 0.465602
instale instalar VMSP3S0 0.600627
una uno DI0FS0 0.951241
mesa mesa NCFS000 0.939394
de de SPS00 0.999919
di dar VMIS1S0 0.833333
ogo ogo NCMS000 0.800015
que que PR0CN000 0.5625
incluya incluir VMSP3S0 0.623432
a a SPS00 0.99585
los el DA0MP0 0.97623
estudiantes estudiante NCCP000 0.875
profesores profesor NCMP000 1
apoderados apoderar VMP00PM 0.691767
municipios municipio NCMP000 1
y y CC 0.999812
a a SPS00 1
el el DA0MS0 1
gobierno gobierno NCMS000 0.9
para para SPS00 0.998507
no no RN 0.99778
s segundo NCMN000 0.622321
o o CC 0.998845
destrabar destrabar VMN0000 1
situaciones situación NCFP000 1
de de SPS00 0.999919
la el DA0FS0 0.972146
coyuntura coyuntura NCFS000 1
sino sino CC 0.981707
tambi tambi AQ0CN0 1
conversar conversar VMN0000 1
reflexionar reflexionar VMN0000 1
discutir discutir VMN0000 1
y y CC 0.999812
buscar buscar VMN0000 1
soluciones solución NCFP000 0.833333
de de SPS00 0.999919
fondo fondo NCMS000 1
a a SPS00 0.99585
la el DA0FS0 0.972146
gran gran AQ0CS0 1
reforma reforma NCFS000 0.866667
educacional educacional AQ0CS0 1
que que PR0CN000 0.5625
necesita necesitar VMIP3S0 0.95
el el DA0MS0 1
bito bito NCMS000 0.600144
municipal municipal AQ0CS0 1
y y CC 0.999812
secundario secundario AQ0MS0 0.833333
Aqu aqu NP00000 1
los el DA0MP0 0.97623
temas tema NCMP000 0.625
de de SPS00 0.999919
la el DA0FS0 0.972146
desmunicipalizaci desmunicipalizaci NCMS000 0.0996348
son ser VSIP3P0 0.986772
temas tema NCMP000 0.625
que que PR0CN000 0.5625
no no RN 0.99778
han haber VAIP3P0 1
sido ser VSP00SM 1
definidos definir VMP00PM 0.75
por por SPS00 1
la el DA0FS0 0.972146
autoridad autoridad NCFS000 1
se se P00CN000 0.465602
envi envi VMIS1S0 1
un uno DI0MS0 0.986987
proyecto proyecto NCMS000 0.9375
de de SPS00 0.999919
ley ley NCFS000 1
a a SPS00 1
el el DA0MS0 1
parlamento parlamento NCMS000 0.75
que que PR0CN000 0.5625
no no RN 0.99778
fue ser VSIS3S0 0.932292
el el DA0MS0 1
mejor mejor AQ0CS0 0.868421
y y CC 0.999812
el el DA0MS0 1
tema tema NCMS000 0.953125
de de SPS00 0.999919
la el DA0FS0 0.972146
desmunicipalizaci desmunicipalizaci NCMS000 0.0996348
y y CC 0.999812
la el DA0FS0 0.972146
calidad calidad NCFS000 1
de de SPS00 0.999919
la el DA0FS0 0.972146
educaci educaci NCMS000 0.0996348
qued qued NCFS000 0.643721
olvidado olvidar VMP00SM 1
agreg agreg NCMS000 0.714133
Rebolledo_La rebolledo_la NP00000 1
postura postura NCFS000 1
de de SPS00 0.999919
la el DA0FS0 0.972146
AChM achm NP00000 1
difiere diferir VMIP3S0 0.994868
si si CS 0.997706
embargo embargo NCMS000 0.973496
de de SPS00 0.999919
la el DA0FS0 0.972146
expresada expresar VMP00SF 1
por por SPS00 1
la el DA0FS0 0.972146
Asociaci_de_Municipios_de_Chile asociaci_de_municipios_de_chile NP00000 1
encabezada encabezar VMP00SF 1
por por SPS00 1
el el DA0MS0 1
alcalde alcalde NCMS000 1
de de SPS00 0.999919
Lo_Barnechea_Felipe_Guevara lo_barnechea_felipe_guevara NP00000 1
quien quien PR0CS000 1
est est NCMS000 1
a_favor_de a_favor_de SPS00 1
los el DA0MP0 0.97623
desalojos desalojo NCMP000 1
y y CC 0.999812
llam llam NCMS000 0.700265
a a SPS00 0.99585
sus su DP3CP0 0.998462
pares par NCMP000 0.326852
a a SPS00 0.99585
hacer hacer VMN0000 1
cumplir cumplir VMN0000 1
la el DA0FS0 0.972146
ley ley NCFS000 1
Seg seg NP00000 1
dijo decir VMIS3S0 1
los el DA0MP0 0.97623
alcaldes alcalde NCMP000 1
son ser VSIP3P0 0.986772
los el DA0MP0 0.97623
responsables responsable NCCP000 0.5
de de SPS00 0.999919
los el DA0MP0 0.97623
liceos liceo NCMP000 1
en en SPS00 1
toma toma NCFS000 0.433333
y y CC 0.999812
como como CS 0.998579
tal tal PD0CS000 0.258621
tienen tener VMIP3P0 1
el el DA0MS0 1
deber deber NCMS000 0.9
de de SPS00 0.999919
ser ser VSN0000 0.93883
facilitadores facilitador AQ0MP0 1
de de SPS00 0.999919
los el DA0MP0 0.97623
procesos proceso NCMP000 1
democr democr NCMS000 1
icos icos AQ0MP0 0.62097
En en NP00000 1
tanto tanto RG 0.857895
el el DA0MS0 1
vocero vocero NCMS000 1
de de SPS00 0.999919
la el DA0FS0 0.972146
Asamblea_Coordinadora_de_Estudiantes_Secundarios_ACES_Mois_Paredes asamblea_coordinadora_de_estudiantes_secundarios_aces_mois_paredes NP00000 1
acus acu NCFP000 1
a a SPS00 1
el el DA0MS0 1
ministro ministro NCMS000 1
Chadwick chadwick NP00000 1
de de SPS00 0.999919
incitar incitar VMN0000 1
a a SPS00 0.99585
la el DA0FS0 0.972146
violencia violencia NCFS000 1
con con SPS00 1
sus su DP3CP0 0.998462
declaraciones declaración NCFP000 1
sobre sobre SPS00 0.994203
el el DA0MS0 1
eventual eventual AQ0CS0 0.65727
desalojo desalojo NCMS000 0.973494
de de SPS00 0.999919
los el DA0MP0 0.97623
liceos liceo NCMP000 1
tomados tomar VMP00PM 1
por por SPS00 1
estudiantes estudiante NCCP000 0.875
Paredes paredes NP00000 1
lleg lleg NCMS000 0.714133
este este DD0MS0 0.956743
mediod mediod NCFS000 1
hasta hasta SPS00 0.955172
el el DA0MS0 1
Palacio_de_La_Moneda palacio_de_la_moneda NP00000 1
para para SPS00 0.998507
entregar entregar VMN0000 1
una uno DI0FS0 0.951241
carta carta NCFS000 1
a a SPS00 1
el el DA0MS0 1
secretario secretario NCMS000 1
de de SPS00 0.999919
Estado estado NP00000 1
en en SPS00 1
la el DA0FS0 0.972146
cual cual PR0CS000 0.9
los el DA0MP0 0.97623
estudiantes estudiante NCCP000 0.875
le le PP3CSD00 1
solicitan solicitar VMIP3P0 1
acceder acceder VMN0000 1
a a SPS00 1
el el DA0MS0 1
cambio cambio NCMS000 0.97619
de de SPS00 0.999919
los el DA0MP0 0.97623
recintos recinto NCMP000 1
a a SPS00 0.99585
escuelas escuela NCFP000 1
b b NCFS000 1
icas icas AQ0FP0 0.785665
para para SPS00 0.998507
as as NCMS000 1
evitar evitar VMN0000 1
el el DA0MS0 1
desalojo desalojo NCMS000 0.973494
y y CC 0.999812
los el DA0MP0 0.97623
eventuales eventual AQ0CP0 0.75
hechos hecho NCMP000 0.375
de de SPS00 0.999919
violencia violencia NCFS000 1
que que CS 0.4375
aquello aquel PD0NS000 1
puede poder VMIP3S0 0.995614
acarrear acarrear VMN0000 1
Posteriomente posteriomente NP00000 1
si si CS 0.997706
quieres querer VMIP2S0 1
desactivar desactivar VMN0000 1
esta este DD0FS0 0.982143
funcionalidad funcionalidad NCFS000 1
haz haz NCMS000 0.991463
click click NCMS000 0.50012
en en SPS00 1
Desactivar_Haciendo desactivar_haciendo NP00000 1
click click NCMS000 0.50012
en en SPS00 1
Actividades actividades NP00000 1
recientes recentar VMSP2S0 0.25
podr podr VMN0000 0.633986
s segundo NCMN000 0.622321
revisar revisar VMN0000 1
tu tu DP2CSS 1
navegaci navegaci AQ0CS0 0.0199855
n n NCFS000 1
y y CC 0.999812
eliminar eliminar VMN0000 1
art artículo NCMS000 1
culos culo NCMP000 1
de de SPS00 0.999919
tu tu DP2CSS 1
biograf biograf I 1
a a SPS00 0.99585
Ya ya NP00000 1
est est NCMS000 1
activa activo AQ0FS0 0.866667
la el DA0FS0 0.972146
funcionalidad funcionalidad NCFS000 1
de de SPS00 0.999919
compartir compartir VMN0000 1
autom autometro NCMN000 0.65
ticamente ticamente RG 1
las el DA0FP0 0.97051
noticias noticia NCFP000 0.9375
que que PR0CN000 0.5625
lees leer VMIP2S0 1
en en SPS00 1
tu tu DP2CSS 1
biograf biograf I 1
a a SPS00 0.99585
timeline timeline NCMS000 0.908358
de de SPS00 0.999919
Facebook_Si facebook_si NP00000 1
quieres querer VMIP2S0 1
desactivar desactivar VMN0000 1
esta este DD0FS0 0.982143
funcionalidad funcionalidad NCFS000 1
haz haz NCMS000 0.991463
click click NCMS000 0.50012
en en SPS00 1
Desactivar desactivar NP00000 1

