VIENA_AFP_El viena_afp_el NP00000 1
argentino argentino NCMS000 0.75
Rafael_Grossi rafael_grossi NP00000 1
director director NCMS000 0.970588
general general AQ0CS0 0.90625
adjunto adjunto NCMS000 0.687561
de de SPS00 0.999919
la el DA0FS0 0.972146
AIEA aiea NP00000 1
y y CC 0.999812
uno uno PI0MS000 0.964744
de de SPS00 0.999919
los el DA0MP0 0.97623
principales principal AQ0CP0 0.875
responsables responsable NCCP000 0.5
de de SPS00 0.999919
la el DA0FS0 0.972146
agencia agencia NCFS000 0.666667
nuclear nuclear AQ0CS0 1
de de SPS00 0.999919
la el DA0FS0 0.972146
ONU onu NP00000 1
que que PR0CN000 0.5625
participaba participar VMII3S0 0.649997
en en SPS00 1
las el DA0FP0 0.97051
negociaciones negociación NCFP000 1
con con SPS00 1
Ir ir NP00000 1
n n NCFS000 1
anunci anunci RG 0.751648
su su DP3CS0 1
renuncia renuncia NCFS000 0.777778
a a SPS00 1
el el DA0MS0 1
cargo cargo NCMS000 0.916667
indic indic RG 0.5
este este DD0MS0 0.956743
domingo [G:??/??/??:??.??:??] W 1
una uno DI0FS0 0.951241
portavoz portavoz NCCS000 1
Puedo puedo NP00000 1
confirmar confirmar VMN0000 1
que que CS 0.4375
el el DA0MS0 1
director director NCMS000 0.970588
general general AQ0CS0 0.90625
adjunto adjunto NCMS000 0.687561
Rafael_Grossi rafael_grossi NP00000 1
ha haber VAIP3S0 0.998141
presentado presentar VMP00SM 1
su su DP3CS0 1
renuncia renuncia NCFS000 0.777778
a a SPS00 0.99585
la el DA0FS0 0.972146
Agencia_Internacional_de_la_Energ agencia_internacional_de_la_energ NP00000 1
a a SPS00 0.99585
At at NP00000 1
mica mica NCFS000 1
AIEA aiea NP00000 1
dijo decir VMIS3S0 1
la el DA0FS0 0.972146
vocera vocero NCFS000 1
a a SPS00 0.99585
la el DA0FS0 0.972146
AFP_La afp_la NP00000 1
fecha fecha NCFS000 0.892857
de de SPS00 0.999919
su su DP3CS0 1
partida partida NCFS000 0.9375
ser ser VSN0000 0.93883
definida definir VMP00SF 1
en en SPS00 1
breve breve AQ0CS0 1
agreg agreg NCMS000 0.714133
No no NP00000 1
precis precis NCMN000 1
las el DA0FP0 0.97051
razones razón NCFP000 0.966667
de de SPS00 0.999919
la el DA0FS0 0.972146
renuncia renuncia NCFS000 0.777778
de de SPS00 1
el el DA0MS0 1
diplom diplom NCMS000 0.500053
tico tico AQ0MS0 0.806828
argentino argentino NCMS000 0.75
que que PR0CN000 0.5625
se se P00CN000 0.465602
produce producir VMIP3S0 0.961538
antes_de antes_de SPS00 1
la el DA0FS0 0.972146
salida salida NCFS000 0.8125
de de SPS00 1
el el DA0MS0 1
cargo cargo NCMS000 0.916667
de de SPS00 1
el el DA0MS0 1
jefe jefe NCMS000 1
inspector inspector AQ0MS0 0.357293
Herman_Nackaerts herman_nackaerts NP00000 1
prevista prever VMP00SF 1
este este DD0MS0 0.956743
a a NCFS000 0.00415028
o o CC 0.998845
Nackaerts nackaerts NP00000 1
de de SPS00 0.999919
nacionalidad nacionalidad NCFS000 1
belga belga AQ0CS0 0.75
condujo conducir VMIS3S0 1
junto_a junto_a SPS00 1
Grossi grossi NP00000 1
las el DA0FP0 0.97051
negociaciones negociación NCFP000 1
infructuosas infructuoso AQ0FP0 1
de de SPS00 1
el el DA0MS0 1
a a NCFS000 0.00415028
o o CC 0.998845
pasado pasar VMP00SM 0.647727
con con SPS00 1
Ir ir NP00000 1
n n NCFS000 1
sobre sobre SPS00 0.994203
su su DP3CS0 1
controvertido controvertir VMP00SM 1
programa programa NCMS000 0.866667
nuclear nuclear AQ0CS0 1
Teher teher NP00000 1
n n NCFS000 1
asegura asegurar VMIP3S0 0.875
que que CS 0.4375
su su DP3CS0 1
programa programa NCMS000 0.866667
persigue perseguir VMIP3S0 0.833333
fines fin NCMP000 0.9375
pac pac NCMS000 1
ficos ficos AQ0MP0 0.227615
mientras_que mientras_que CS 1
Occidente occidente NP00000 1
sospecha sospechar VMIP3S0 0.666667
que que CS 0.4375
est est NCMS000 1
destinado destinar VMP00SM 1
a a SPS00 0.99585
fabricar fabricar VMN0000 1
una uno DI0FS0 0.951241
bomba bomba NCFS000 0.964286
at at NCFS000 1
mica mica NCFS000 1
En en NP00000 1
una uno DI0FS0 0.951241
serie serie NCFS000 0.925
de de SPS00 0.999919
reuniones reunión NCFP000 1
en en SPS00 1
Viena viena NP00000 1
y y CC 0.999812
Teher teher NP00000 1
n n NCFS000 1
los el DA0MP0 0.97623
dos 2 Z 0.988722
diplom diplom NCMS000 0.500053
ticos ticos AQ0MP0 0.671839
hab hab NCMS000 0.63631
an an NCFS000 1
intentado intentar VMP00SM 1
sin sin SPS00 1
xito xito NCMS000 1
obtener obtener VMN0000 1
que que CS 0.4375
Ir ir NP00000 1
n n NCFS000 1
autorice autorizar VMSP3S0 0.623357
a a SPS00 0.99585
los el DA0MP0 0.97623
inspectores inspector NCMP000 0.75
de de SPS00 0.999919
la el DA0FS0 0.972146
AIEA aiea NP00000 1
mayor mayor AQ0CS0 0.989796
acceso acceso NCMS000 1
a a SPS00 0.99585
sus su DP3CP0 0.998462
instalaciones instalación NCFP000 1
nucleares nuclear AQ0CP0 1
El el NP00000 1
finland finland NCMS000 1
s segundo NCMN000 0.622321
Varjoranto varjoranto NP00000 1
sustituir sustituir VMN0000 1
a a SPS00 0.99585
Nackaerts nackaerts NP00000 1
como como CS 0.998579
jefe jefe NCMS000 1
de de SPS00 0.999919
los el DA0MP0 0.97623
inspectores inspector NCMP000 0.75
de de SPS00 0.999919
la el DA0FS0 0.972146
ONU onu NP00000 1
a_partir_de a_partir_de SPS00 1
octubre [??:??/10/??:??.??:??] W 1
El el NP00000 1
director director NCMS000 0.970588
de de SPS00 0.999919
la el DA0FS0 0.972146
AIEA_Yukiya_Amano aiea_yukiya_amano NP00000 1
fue ser VSIS3S0 0.932292
por por SPS00 1
su su DP3CS0 1
parte parte NCFS000 0.497967
reelecto reelegir VMP00SM 1
el el DA0MS0 1
mes mes NCMS000 1
pasado pasar VMP00SM 0.647727
para para SPS00 0.998507
un uno DI0MS0 0.986987
segundo 2 AO0MS0 0.742424
mandato mandato NCMS000 1
de de SPS00 0.999919
cuatro 4 Z 1
a a SPS00 0.99585
os os PP2CP000 0.722222
que que CS 0.4375
comenzar comenzar VMN0000 1
en en SPS00 1
diciembre [??:??/12/??:??.??:??] W 1
pr pr NCMS000 0.224371
ximo ximo AQ0MS0 0.937453
200 200 Z 1
oficinas oficina NCFP000 1
en en SPS00 1
150 150 Z 1
pa pa NCFS000 0.740689
ses ses NCMP000 0.727093
Ampliar_Desea ampliar_desea NP00000 1
compartir compartir VMN0000 1
una uno DI0FS0 0.951241
informaci informaci AQ0CS0 0.0199855
n n NCFS000 1
un uno DI0MS0 0.986987
comentario comentario NCMS000 1
Escr escr NP00000 1
banos banos NCMP000 0.509288
a a SPS00 0.99585

