BELFAST_Reino_Unido_AFP belfast_reino_unido_afp NP00000 1
photo0 photo0 Z 1
El el NP00000 1
presidente presidente NCMS000 1
estadounidense estadounidense AQ0CS0 0.833333
Barack_Obama barack_obama NP00000 1
lleg lleg NCMS000 0.714133
este este DD0MS0 0.956743
lunes [L:??/??/??:??.??:??] W 1
a a SPS00 0.99585
Belfast belfast NP00000 1
en en SPS00 1
Irlanda_de_el_Norte irlanda_de_el_norte NP00000 1
donde donde PR000000 0.963542
participar participar VMN0000 1
en en SPS00 1
la el DA0FS0 0.972146
cumbre cumbre NCFS000 1
de de SPS00 1
el el DA0MS0 1
G8 G8 Z 1
constat constat NCMS000 1
un uno DI0MS0 0.986987
periodista periodista NCCS000 1
de de SPS00 0.999919
AFP_El_Air_Force_One afp_el_air_force_one NP00000 1
aterriz aterriz NCFS000 0.845935
poco poco DI0MS0 0.126016
despu despu NCMS000 0.774439
s segundo NCMN000 0.622321
de de SPS00 0.999919
las el DA0FP0 0.97051
8H35 8H35 Z 1
local local NCMS000 0.5
07H35 07H35 Z 1
GMT gmt NP00000 1
en en SPS00 1
Belfast belfast NP00000 1
donde donde PR000000 0.963542
el el DA0MS0 1
presidente presidente NCMS000 1
de de SPS00 0.999919
Estados_Unidos estados_unidos NP00000 1
dar dar VMN0000 1
un uno DI0MS0 0.986987
discurso discurso NCMS000 0.75
antes_de antes_de SPS00 1
reunir reunir VMN0000 1
se se PP3CN000 1
con con SPS00 1
su su DP3CS0 1
hom hom NCMS000 0.500053
logo logo NCMS000 1
ruso ruso AQ0MS0 0.75
Vladimir_Putin vladimir_putin NP00000 1
para para SPS00 0.998507
hablar hablar VMN0000 1
sobre sobre SPS00 0.994203
Siria_Obama siria_obama NP00000 1
desembarc desembarc NC00000 0.538029
junto_a junto_a SPS00 1
su su DP3CS0 1
esposa esposo NCFS000 0.866667
Michelle michelle NP00000 1
y y CC 0.999812
sus su DP3CP0 0.998462
dos 2 Z 0.988722
hijas hijo NCFP000 1
antes_de antes_de SPS00 1
tomar tomar VMN0000 1
un uno DI0MS0 0.986987
helic helic NCMN000 0.5
ptero ptero AQ0MS0 0.599919
que que CS 0.4375
los el DA0MP0 0.97623
llevar llevar VMN0000 1
a a SPS00 1
el el DA0MS0 1
aeropuerto aeropuerto NCMS000 1
Belfast_City belfast_city NP00000 1
cerca cerca RG 0.925
de de SPS00 1
el el DA0MS0 1
centro centro NCMS000 0.966667
de de SPS00 0.999919
la el DA0FS0 0.972146
ciudad ciudad NCFS000 1
El el NP00000 1
mandatario mandatario NCMS000 1
estadounidense estadounidense AQ0CS0 0.833333
dar dar VMN0000 1
luego luego RG 0.983871
un uno DI0MS0 0.986987
discurso discurso NCMS000 0.75
ante ante SPS00 0.990566
unas uno DI0FP0 0.925926
2 2 Z 1
000 0 Z 1
personas persona NCFP000 0.983871
sobre sobre SPS00 0.994203
el el DA0MS0 1
proceso proceso NCMS000 0.973684
de de SPS00 0.999919
paz paz NCFS000 1
en en SPS00 1
esta este DD0FS0 0.982143
provincia provincia NCFS000 1
brit brit NCMN000 1
nica nica AQ0FS0 0.730709
Ser ser NP00000 1
recibido recibir VMP00SM 1
por por SPS00 1
el el DA0MS0 1
primer 1 AO0MS0 1
ministro ministro NCMS000 1
de de SPS00 0.999919
Irlanda_de_el_Norte_Peter_Robinson irlanda_de_el_norte_peter_robinson NP00000 1
y y CC 0.999812
el el DA0MS0 1
viceprimer viceprimero AQ0MS0 1
ministro ministro NCMS000 1
Martin_McGuinness_Posteriormente martin_mcguinness_posteriormente NP00000 1
el el DA0MS0 1
presidente presidente NCMS000 1
estadounidense estadounidense AQ0CS0 0.833333
ir ir VMN0000 1
a a SPS00 0.99585
Lough_Erne lough_erne NP00000 1
un uno DI0MS0 0.986987
hotel hotel NCMS000 1
de de SPS00 0.999919
lujo lujo NCMS000 1
donde donde PR000000 0.963542
tendr tendr VMN0000 0.633986
lugar lugar NCMS000 1
la el DA0FS0 0.972146
cumbre cumbre NCFS000 1
de de SPS00 1
el el DA0MS0 1
G8 G8 Z 1
200 200 Z 1
oficinas oficina NCFP000 1
en en SPS00 1
150 150 Z 1
pa pa NCFS000 0.740689
ses ses NCMP000 0.727093
Ampliar_Desea ampliar_desea NP00000 1
compartir compartir VMN0000 1
una uno DI0FS0 0.951241
informaci informaci AQ0CS0 0.0199855
n n NCFS000 1
un uno DI0MS0 0.986987
comentario comentario NCMS000 1
Escr escr NP00000 1
banos banos NCMP000 0.509288
a a SPS00 0.99585

