DAMASCO_AFP_El damasco_afp_el NP00000 1
presidente presidente NCMS000 1
de de SPS00 0.999919
Siria_Bashar siria_bashar NP00000 1
a a SPS00 1
el el DA0MS0 1
Asad asad NP00000 1
afirm afirm NCMS000 0.700265
el el DA0MS0 1
domingo [G:??/??/??:??.??:??] W 1
que que PR0CN000 0.5625
su su DP3CS0 1
pa pa NCFS000 0.740689
s segundo NCMN000 0.622321
desea desear VMIP3S0 0.833333
reforzar reforzar VMN0000 1
las el DA0FP0 0.97051
relaciones relación NCFP000 0.944444
con con SPS00 1
Ir ir NP00000 1
n n NCFS000 1
su su DP3CS0 1
aliado aliado NCMS000 0.75
estrat estrat NCMS000 1
gico gico AQ0MS0 1
en en SPS00 1
un uno DI0MS0 0.986987
mensaje mensaje NCMS000 1
de de SPS00 0.999919
felicitaciones felicitación NCFP000 1
a a SPS00 1
el el DA0MS0 1
nuevo nuevo AQ0MS0 1
presidente presidente NCMS000 1
iran iran VMIP3P0 1
Hassan_Rohani_Siria hassan_rohani_siria NP00000 1
est est NCMS000 1
decidida decidir VMP00SF 1
a a SPS00 0.99585
reforzar reforzar VMN0000 1
las el DA0FP0 0.97051
relaciones relación NCFP000 0.944444
de de SPS00 0.999919
amistad amistad NCFS000 0.9375
y y CC 0.999812
desarrollar desarrollar VMN0000 1
la el DA0FS0 0.972146
cooperaci cooperaci AQ0CS0 0.0199855
n n NCFS000 1
entre entre SPS00 0.995223
los el DA0MP0 0.97623
dos 2 Z 0.988722
pa pa NCFS000 0.740689
ses ses AQ0CP0 0.068278
en en SPS00 1
todos todo DI0MP0 0.622419
los el DA0MP0 0.97623
campos campo NCMP000 1
expres expres AQ0CP0 0.168205
a a SPS00 1
el el DA0MS0 1
Asad asad NP00000 1
en en SPS00 1
un uno DI0MS0 0.986987
mensaje mensaje NCMS000 1
divulgado divulgar VMP00SM 1
por por SPS00 1
la el DA0FS0 0.972146
agencia agencia NCFS000 0.666667
oficial oficial AQ0CS0 0.916667
de de SPS00 0.999919
noticias noticia NCFP000 0.9375
Sana_Poco sana_poco NP00000 1
antes antes RG 1
el el DA0MS0 1
primer 1 AO0MS0 1
ministro ministro NCMS000 1
sirio sirio AQ0MS0 0.357349
Wael wael NP00000 1
a a SPS00 1
el el DA0MS0 1
Halaqi halaqi NP00000 1
hab hab NCMS000 0.63631
a a SPS00 0.99585
afirmado afirmado NCMS000 0.25
que que PR0CN000 0.5625
el el DA0MS0 1
gobierno gobierno NCMS000 0.9
de de SPS00 0.999919
Damasco damasco NP00000 1
ten tener VMM02S0 1
a a SPS00 0.99585
inter inter AQ0CN0 1
s segundo NCMN000 0.622321
en en SPS00 1
desarrollar desarrollar VMN0000 1
las el DA0FP0 0.97051
relaciones relación NCFP000 0.944444
con con SPS00 1
Ir ir NP00000 1
n n NCFS000 1
Siria siria NP00000 1
desea desear VMIP3S0 0.833333
desarrollar desarrollar VMN0000 1
a a SPS00 0.99585
n n NCFS000 1
m m NCFS000 0.5
s segundo NCMN000 0.622321
las el DA0FP0 0.97051
relaciones relación NCFP000 0.944444
con con SPS00 1
la el DA0FS0 0.972146
nueva nuevo AQ0FS0 0.977273
direcci direcci NCMS000 0.0996348
n n NCFS000 1
iran iran VMIP3P0 1
indic indic RG 0.5
Halaqi halaqi NP00000 1
a a SPS00 1
el el DA0MS0 1
recibir recibir VMN0000 1
en en SPS00 1
Damasco damasco NP00000 1
una uno DI0FS0 0.951241
delegaci delegaci AQ0CS0 0.0199855
n n NCFS000 1
de de SPS00 0.999919
altos alto NCMP000 0.375
responsables responsable AQ0CP0 0.5
econ econ NCMS000 1
micos mico NCMP000 1
iran iran VMIP3P0 1
es ser VSIP3S0 1
seg segundo NCMN000 1
n n NCFS000 1
la el DA0FS0 0.972146
agencia agencia NCFS000 0.666667
Sana_A_el_Halaqi sana_a_el_halaqi NP00000 1
destac destac NCMN000 1
la el DA0FS0 0.972146
solidez solidez NCFS000 1
de de SPS00 0.999919
las el DA0FP0 0.97051
relaciones relación NCFP000 0.944444
estrat estrat NCMS000 1
gicas gicas AQ0FP0 1
y y CC 0.999812
estables estable AQ0CP0 1
entre entre SPS00 0.995223
Siria siria NP00000 1
e y CC 0.973684
Ir ir NP00000 1
n n NCFS000 1
en en SPS00 1
diferentes diferente AQ0CP0 1
dominios dominio NCMP000 1
y y CC 0.999812
record record AQ0CN0 0.5
que que CS 0.4375
Ir ir NP00000 1
n n NCFS000 1
se se P00CN000 0.465602
mantuvo mantener VMIS3S0 1
a a SPS00 1
el el DA0MS0 1
lado lado NCMS000 1
de de SPS00 0.999919
Siria siria NP00000 1
en en SPS00 1
la el DA0FS0 0.972146
crisis crisis NCFN000 1
que que PR0CN000 0.5625
este este DD0MS0 0.956743
pa pa NCFS000 0.740689
s segundo NCMN000 0.622321
atraviesa atravesar VMIP3S0 0.75
Seg seg NP00000 1
n n NCFS000 1
el el DA0MS0 1
primer 1 AO0MS0 1
ministro ministro NCMS000 1
sirio sirio AQ0MS0 0.357349
las el DA0FP0 0.97051
recientes reciente AQ0CP0 0.75
elecciones elección NCFP000 1
presidenciales presidencial AQ0CP0 1
fueron ser VSIS3P0 0.796296
una uno DI0FS0 0.951241
expresi expresi RG 1
n n NCFS000 1
sincera sincero AQ0FS0 0.777778
de de SPS00 0.999919
la el DA0FS0 0.972146
verdadera verdadero AQ0FS0 1
democracia democracia NCFS000 1
y y CC 0.999812
de de SPS00 0.999919
la el DA0FS0 0.972146
uni uni AQ0CN0 1
n n NCFS000 1
de de SPS00 1
el el DA0MS0 1
pueblo pueblo NCMS000 0.978261
iran iran VMIP3P0 1
con con SPS00 1
sus su DP3CP0 0.998462
dirigentes dirigente AQ0CP0 0.25
pol pol NCMS000 0.861706
ticos ticos AQ0MP0 0.671839
y y CC 0.999812
espirituales espiritual AQ0CP0 1
Desde desde NP00000 1
marzo_de_2011 [??:??/3/2011:??.??:??] W 1
Siria siria NP00000 1
est est NCMS000 1
inmersa inmerso AQ0FS0 1
en en SPS00 1
una uno DI0FS0 0.951241
crisis crisis NCFN000 1
que que PR0CN000 0.5625
comenz comenz RG 0.101752
como como CS 0.998579
una uno DI0FS0 0.951241
revuelta revuelta NCFS000 0.75
popular popular AQ0CS0 1
y y CC 0.999812
r r NCFS000 0.638487
pidamente pidamente RG 1
se se P00CN000 0.465602
convirti convirti NCMS000 1
en en SPS00 1
una uno DI0FS0 0.951241
guerra guerra NCFS000 1
civil civil AQ0CS0 0.95
que que PR0CN000 0.5625
seg segundo NCMN000 1
n n NCFS000 1
la el DA0FS0 0.972146
ONU onu NP00000 1
ya ya RG 0.996988
habr habr VMN0000 0.633986
a a SPS00 0.99585
provocado provocar VMP00SM 1
la el DA0FS0 0.972146
muerte muerte NCFS000 1
a a SPS00 0.99585
unas uno DI0FP0 0.925926
93 93 Z 1
000 0 Z 1
personas persona NCFP000 0.983871
Ir ir NP00000 1
n n NCFS000 1
defiende defender VMIP3S0 0.875
una uno DI0FS0 0.951241
soluci soluci AQ0CS0 0.0199855
n n NCFS000 1
pol pol NCMS000 0.861706
tica tica AQ0FS0 0.595788
a a SPS00 0.99585
la el DA0FS0 0.972146
crisis crisis NCFN000 1
en en SPS00 1
Siria siria NP00000 1
aunque aunque CC 1
rebeldes rebelde AQ0CP0 0.638481
y y CC 0.999812
diversos diverso AQ0MP0 1
pa pa NCFS000 0.740689
ses ses NCMP000 0.727093
occidentales occidental AQ0CP0 0.75
acusan acusar VMIP3P0 1
a a SPS00 0.99585
Teher teher NP00000 1
n n NCFS000 1
de de SPS00 0.999919
abastecer abastecer VMN0000 1
de de SPS00 0.999919
armas arma NCFP000 0.982759
a a SPS00 1
el el DA0MS0 1
gobierno gobierno NCMS000 0.9
de de SPS00 0.999919
Damasco damasco NP00000 1
200 200 Z 1
oficinas oficina NCFP000 1
en en SPS00 1
150 150 Z 1
pa pa NCFS000 0.740689
ses ses NCMP000 0.727093
Ampliar_Desea ampliar_desea NP00000 1
compartir compartir VMN0000 1
una uno DI0FS0 0.951241
informaci informaci AQ0CS0 0.0199855
n n NCFS000 1
un uno DI0MS0 0.986987
comentario comentario NCMS000 1
Escr escr NP00000 1
banos banos NCMP000 0.509288
a a SPS00 0.99585

