ROMA_AFP_El roma_afp_el NP00000 1
l l NCFS000 0.639398
der der NCMS000 0.246545
antisistema antisistema AQ0CS0 1
Beppe_Grillo beppe_grillo NP00000 1
afirm afirm NCMS000 0.700265
que que CS 0.4375
el el DA0MS0 1
xito xito NCMS000 1
de de SPS00 0.999919
su su DP3CS0 1
Movimiento movimiento NP00000 1
Cinco 5 Z 0.98
Estrellas estrellas NP00000 1
que que PR0CN000 0.5625
se se P00CN000 0.465602
convirti convirti NCMS000 1
en en SPS00 1
la el DA0FS0 0.972146
tercera 3 AO0FS0 0.928571
fuerza fuerza NCFS000 0.968254
pol pol NCMS000 0.861706
tica tica AQ0FS0 0.595788
de de SPS00 0.999919
Italia italia NP00000 1
anuncia anunciar VMIP3S0 0.994868
a a SPS00 0.99585
toda todo DI0FS0 0.975806
Europa europa NP00000 1
la el DA0FS0 0.972146
propagaci propagaci AQ0CS0 0.0199855
n n NCFS000 1
de de SPS00 0.999919
una uno DI0FS0 0.951241
revoluci revoluci AQ0CS0 0.0199855
n n NCFS000 1
sin sin SPS00 1
guillotina guillotina NCFS000 0.666667
por por SPS00 1
ahora ahora RG 1
En en NP00000 1
una uno DI0FS0 0.951241
entrevista entrevista NCFS000 0.75
exclusiva exclusivo AQ0FS0 0.25
para para SPS00 0.998507
la el DA0FS0 0.972146
AFP afp NP00000 1
concedida conceder VMP00SF 1
en en SPS00 1
la el DA0FS0 0.972146
sala sala NCFS000 0.666667
de de SPS00 1
el el DA0MS0 1
hotel hotel NCMS000 1
en en SPS00 1
el el DA0MS0 1
que que PR0CN000 0.5625
se se P00CN000 0.465602
aloja alojar VMIP3S0 0.150975
poco poco RG 0.54065
antes_de antes_de SPS00 1
una uno DI0FS0 0.951241
manifestaci manifestaci AQ0CS0 0.0199855
n n NCFS000 1
pol pol NCMS000 0.861706
tica tica AQ0FS0 0.595788
en en SPS00 1
la el DA0FS0 0.972146
localidad localidad NCFS000 1
de de SPS00 0.999919
Grado grado NP00000 1
en en SPS00 1
el el DA0MS0 1
noreste noreste NCMS000 0.833333
de de SPS00 0.999919
la el DA0FS0 0.972146
pen pen AQ0CN0 0.249994
nsula nsula NCFS000 0.842094
el el DA0MS0 1
c c NCFS000 1
mico mico NCMS000 1
y y CC 0.999812
actor actor NCMS000 1
genov genov AQ0CS0 0.0433699
s segundo NCMN000 0.622321
de de SPS00 0.999919
64 64 Z 1
a a SPS00 0.99585
os os PP2CP000 0.722222
advirti advirti NCMS000 1
de de SPS00 0.999919
que que CS 0.4375
el el DA0MS0 1
pa pa NCFS000 0.740689
s segundo NCMN000 0.622321
se se P00CN000 0.465602
encuentra encontrar VMIP3S0 0.972222
frente_a frente_a SPS00 1
una uno DI0FS0 0.951241
gran gran AQ0CS0 1
revoluci revoluci RG 0.751648
n n NCFS000 1
que que CS 0.4375
por por SPS00 1
ahora ahora RG 1
no no RN 0.99778
emplea emplear VMIP3S0 0.994867
la el DA0FS0 0.972146
guillotina guillotina NCFS000 0.666667
la el DA0FS0 0.972146
c c NCFS000 1
lebre lebre AQ0CS0 1
m m NCFS000 0.5
quina quina NCFS000 1
inventada inventar VMP00SF 1
y y CC 0.999812
usada usar VMP00SF 1
en en SPS00 1
Francia francia NP00000 1
para para SPS00 0.998507
decapitar decapitar VMN0000 1
a a SPS00 0.99585
la el DA0FS0 0.972146
nobleza nobleza NCFS000 1
emblema emblema NCMS000 1
de de SPS00 0.999919
la el DA0FS0 0.972146
revuelta revuelta NCFS000 0.75
social social AQ0CS0 0.977273
Grillo grillo NP00000 1
que que PR0CN000 0.5625
consigui consigui VMIS1S0 0.499989
un uno DI0MS0 0.986987
inesperado inesperado AQ0MS0 1
25 25 Z 1
de de SPS00 0.999919
los el DA0MP0 0.97623
votos voto NCMP000 1
en en SPS00 1
las el DA0FP0 0.97051
elecciones elección NCFP000 1
generales general AQ0CP0 0.444444
italianas italiano NCFP000 0.542732
de de SPS00 0.999919
finales final NCFP000 0.416667
de de SPS00 0.999919
febrero [??:??/2/??:??.??:??] W 1
se se P00CN000 0.465602
convirti convirti NCMS000 1
en en SPS00 1
una uno DI0FS0 0.951241
amenaza amenaza NCFS000 0.666667
para para SPS00 0.998507
la el DA0FS0 0.972146
privilegiada privilegiar VMP00SF 0.75
clase clase NCFS000 1
pol pol NCMS000 0.861706
tica tica AQ0FS0 0.595788
de de SPS00 0.999919
su su DP3CS0 1
pa pa NCFS000 0.740689
s segundo NCMN000 0.622321
con con SPS00 1
su su DP3CS0 1
medi medi VMIS1S0 1
tico tico AQ0MS0 0.806828
movimiento movimiento NCMS000 1
y y CC 0.999812
sus su DP3CP0 0.998462
encendidas encender VMP00PF 1
andanadas andanada NCFP000 1
contra contra SPS00 0.976316
las el DA0FP0 0.97051
intrigas intriga NCFP000 0.97348
de de SPS00 0.999919
la el DA0FS0 0.972146
vieja viejo AQ0FS0 0.875
casta casta NCFS000 0.75
Tachado tachado NP00000 1
de de SPS00 0.999919
payaso payaso NCMS000 1
por por SPS00 1
el el DA0MS0 1
diario diario AQ0MS0 0.5
brit brit NCMN000 1
nico nico AQ0MS0 0.470565
The_Economist_Grillo the_economist_grillo NP00000 1
no no RN 0.99778
se se P00CN000 0.465602
descompone descomponer VMIP3S0 1
por por SPS00 1
las el DA0FP0 0.97051
cr cr NCMS000 1
ticas ticas AQ0FP0 0.760898
reproches reproche NCMP000 0.995706
y y CC 0.999812
flechazos flechazo NCMP000 1
que que PR0CN000 0.5625
recibe recibir VMIP3S0 0.833333
de de SPS00 0.999919
izquierda izquierdo AQ0FS0 0.5
derecha derecha NCFS000 0.735294
y y CC 0.999812
centro centro NCMS000 0.966667
Los los NP00000 1
payasos payaso NCMP000 1
suscitan suscitar VMIP3P0 1
sentimientos sentimiento NCMP000 1
positivos positivo AQ0MP0 0.35727
Fui fui NP00000 1
c c NCFS000 1
mico mico NCMS000 1
y y CC 0.999812
tengo tener VMIP1S0 1
una uno DI0FS0 0.951241
cierta cierto AQ0FS0 1
sensibilidad sensibilidad NCFS000 1
sostiene sostener VMIP3S0 1
Grillo grillo NP00000 1
quien quien PR0CS000 1
considera considerar VMIP3S0 0.9
que que CS 0.4375
su su DP3CS0 1
movimiento movimiento NCMS000 1
que que PR0CN000 0.5625
se se P00CN000 0.465602
controla controlar VMIP3S0 0.833333
y y CC 0.999812
reglamenta reglamentar VMIP3S0 0.994868
a a SPS00 0.99585
s segundo NCMN000 0.622321
mismo mismo AQ0MS0 0.961905
a a SPS00 0.99585
trav trav AQ0CS0 0.0433699
s segundo NCMN000 0.622321
de de SPS00 0.999919
las el DA0FP0 0.97051
redes red NCFP000 0.875
sociales social AQ0CP0 0.9375
va ir VMIP3S0 1
m m NCFS000 0.5
s segundo NCMN000 0.622321
all all NCFN000 1
de de SPS00 0.999919
la el DA0FS0 0.972146
ola ola NCFS000 1
de de SPS00 0.999919
protesta protesta NCFS000 0.916667
de de SPS00 0.999919
los el DA0MP0 0.97623
' ' Fe 1
indignados indignar VMP00PM 1
' ' Fe 1
o o CC 0.998845
de de SPS00 0.999919
las el DA0FP0 0.97051
ocupaciones ocupación NCFP000 1
de de SPS00 0.999919
las el DA0FP0 0.97051
sedes sede NCFP000 0.995706
de de SPS00 1
el el DA0MS0 1
poder poder NCMS000 0.711538
financiero financiero AQ0MS0 0.75
Estamos estamos NP00000 1
comenzando comenzar VMG0000 1
a a SPS00 0.99585
organizar organizar VMN0000 1
nos nos PP1CP000 1
a a SPS00 0.99585
nivel nivel NCMS000 1
europeo europeo AQ0MS0 0.9
otros otro DI0MP0 0.56875
movimientos movimiento NCMP000 1
tambi tambi AQ0CN0 1
n n NCFS000 1
lo el DA0NS0 0.457393
est est NCMS000 1
n n NCFS000 1
haciendo hacer VMG0000 0.958333
En_Espa en_espa NP00000 1
a a SPS00 0.99585
se se P00CN000 0.465602
inspiran inspirar VMIP3P0 1
en en SPS00 1
nuestra nuestro DP1FSP 0.892857
experiencia experiencia NCFS000 1
sostiene sostener VMIP3S0 1
Grillo_Su grillo_su NP00000 1
influencia influencia NCFS000 0.866667
es ser VSIP3S0 1
tal tal PD0CS000 0.258621
que que CS 0.4375
este este DD0MS0 0.956743
jueves [J:??/??/??:??.??:??] W 1
contribuy contribuy RG 0.993863
a a SPS00 0.99585
la el DA0FS0 0.972146
derrota derrota NCFS000 0.547112
de de SPS00 1
el el DA0MS0 1
exsindicalista exsindicalista AQ0CS0 0.705757
cat cat NCMS000 1
lico lico AQ0MS0 0.392198
Franco_Marini franco_marini NP00000 1
en en SPS00 1
las el DA0FP0 0.97051
dos 2 Z 0.988722
primeras 1 AO0FP0 0.9
rondas ronda NCFP000 0.75
de de SPS00 0.999919
votaciones votación NCFP000 1
para para SPS00 0.998507
el el DA0MS0 1
cargo cargo NCMS000 0.916667
de de SPS00 0.999919
presidente presidente NCMS000 1
de de SPS00 0.999919
la el DA0FS0 0.972146
Rep rep NP00000 1
blica blica AQ0FS0 1
que que PR0CN000 0.5625
decide decidir VMIP3S0 0.994868
el el DA0MS0 1
Parlamento parlamento NP00000 1
en en SPS00 1
sesi sesi RG 1
n n NCFS000 1
conjunta conjunto AQ0FS0 0.666667
No no NP00000 1
es ser VSIP3S0 1
posible posible AQ0CS0 1
que que CS 0.4375
dos_l VL_l:2 Zu 1
deres deres NCMP000 0.800047
se se P00CN000 0.465602
re re NCMS000 0.64128
nan nan VMIP3P0 1
en en SPS00 1
secreto secreto NCMS000 0.916667
durante durante SPS00 1
la el DA0FS0 0.972146
noche noche NCFS000 1
para para SPS00 0.998507
decidir decidir VMN0000 1
el el DA0MS0 1
nombre nombre NCMS000 0.97973
de de SPS00 1
el el DA0MS0 1
candidato candidato NCMS000 1
No no NP00000 1
se se P00CN000 0.465602
puede poder VMIP3S0 0.995614
escoger escoger VMN0000 1
as as NCMS000 1
a a SPS00 0.99585
un uno DI0MS0 0.986987
presidente presidente NCMS000 1
lament lament NCMS000 0.607342
Grillo grillo NP00000 1
a a SPS00 1
el el DA0MS0 1
referir referir VMN0000 1
se se PP3CN000 1
a a SPS00 1
el el DA0MS0 1
encuentro encuentro NCMS000 0.5625
la el DA0FS0 0.972146
v v NCFS000 1
spera spera AQ0FS0 0.222163
entre entre SPS00 0.995223
Pier_Luigi_Bersani pier_luigi_bersani NP00000 1
l l NCFS000 0.639398
der der VMN0000 0.630215
de de SPS00 0.999919
la el DA0FS0 0.972146
izquierda izquierda NCFS000 0.5
y y CC 0.999812
el el DA0MS0 1
conservador conservador AQ0MS0 0.875
Silvio_Berlusconi silvio_berlusconi NP00000 1
la el DA0FS0 0.972146
gran gran AQ0CS0 1
personalidad personalidad NCFS000 1
de de SPS00 0.999919
la el DA0FS0 0.972146
derecha derecha NCFS000 0.735294
italiana italiano AQ0FS0 0.75
Grillo grillo NP00000 1
que que PR0CN000 0.5625
rechaza rechazar VMIP3S0 0.994868
participar participar VMN0000 1
en en SPS00 1
debates debate NCMP000 0.973497
televisivos televisivo AQ0MP0 1
y y CC 0.999812
prefiere preferir VMIP3S0 0.833333
comunicar comunicar VMN0000 1
se se PP3CN000 1
a a SPS00 0.99585
trav trav AQ0CS0 0.0433699
s segundo NCMN000 0.622321
de de SPS00 0.999919
las el DA0FP0 0.97051
rede redar VMSP3S0 0.62344
sociales social AQ0CP0 0.9375
y y CC 0.999812
su su DP3CS0 1
c c NCFS000 1
lebre lebre AQ0CS0 1
blog blog NCMS000 0.714133
propuso proponer VMIS3S0 1
como como CS 0.998579
candidato candidato NCMS000 1
a a SPS00 0.99585
la el DA0FS0 0.972146
presidencia presidencia NCFS000 1
cuya cuyo PR0FS000 1
elecci elecci RG 0.751648
n n NCFS000 1
inici inici RG 0.751648
este este DD0MS0 0.956743
jueves [J:??/??/??:??.??:??] W 1
en en SPS00 1
el el DA0MS0 1
Parlamento parlamento NP00000 1
a a SPS00 0.99585
un uno DI0MS0 0.986987
intelectual intelectual AQ0CS0 0.944444
conocido conocer VMP00SM 0.954545
por por SPS00 1
su su DP3CS0 1
independencia independencia NCFS000 1
Stefano_Rodot stefano_rodot NP00000 1
uno uno PI0MS000 0.964744
de de SPS00 0.999919
los el DA0MP0 0.97623
m m NCFS000 0.5
s segundo NCMN000 0.622321
votados votar VMP00PM 1
por por SPS00 1
sus su DP3CP0 0.998462
militantes militante NCCP000 0.642613
en en SPS00 1
un uno DI0MS0 0.986987
referendo referendo NCMS000 1
interno interno AQ0MS0 0.777778
El el NP00000 1
canalizador canalizador NCMS000 0.49273
de de SPS00 1
el el DA0MS0 1
hartazgo hartazgo NCMS000 1
de de SPS00 0.999919
los el DA0MP0 0.97623
j j NCFS000 1
venes venes AQ0CP0 0.35715
y y CC 0.999812
los el DA0MP0 0.97623
desempleados desempleado AQ0MP0 1
rechaza rechazar VMIP3S0 0.994868
tambi tambi AQ0CN0 1
n n NCFS000 1
el el DA0MS0 1
modelo modelo NCCS000 0.973684
actual actual AQ0CS0 1
de de SPS00 0.999919
Europa europa NP00000 1
dominada dominar VMP00SF 0.75
por por SPS00 1
bancos banco NCMP000 1
especulaciones especulación NCFP000 1
diferenciales diferencial AQ0CP0 0.581784
y y CC 0.999812
propone proponer VMIP3S0 1
un uno DI0MS0 0.986987
referendo referendo NCMS000 1
para para SPS00 0.998507
que que CS 0.4375
Italia italia NP00000 1
salga salir VMSP1S0 0.416667
de de SPS00 0.999919
la el DA0FS0 0.972146
zona zona NCFS000 1
euro euro NCMS000 1
El el NP00000 1
euro euro NCMS000 1
no no RN 0.99778
es ser VSIP3S0 1
Europa europa NP00000 1
recalca recalcar VMIP3S0 0.75
Me me NP00000 1
gustar gustar VMN0000 1
a a SPS00 0.99585
una uno DI0FS0 0.951241
Europa europa NP00000 1
con con SPS00 1
una uno DI0FS0 0.951241
bolsa bolsa NCFS000 1
nica nica AQ0FS0 0.730709
un uno DI0MS0 0.986987
sistema sistema NCMS000 1
fiscal fiscal AQ0CS0 0.657263
con con SPS00 1
un uno DI0MS0 0.986987
buen bueno AQ0MS0 1
intercambio intercambio NCMS000 0.5
cultural cultural AQ0CS0 1
Necesitamos necesitamos NP00000 1
un uno DI0MS0 0.986987
plan plan NCMS000 1
B b NP00000 1
para para SPS00 0.998507
sobrevivir sobrevivir VMN0000 1
sostiene sostener VMIP3S0 1
Grillo grillo NP00000 1
que que CS 0.4375
no no RN 0.99778
forma_parte formar_parte VMIP3S0 0.994868
de de SPS00 1
el el DA0MS0 1
Parlamento parlamento NP00000 1
cuenta contar VMIP3S0 0.219697
con con SPS00 1
el el DA0MS0 1
apoyo apoyo NCMS000 0.928571
de de SPS00 0.999919
los el DA0MP0 0.97623
j j NCFS000 1
venes venes AQ0CP0 0.35715
para para SPS00 0.998507
cambiar cambiar VMN0000 1
el el DA0MS0 1
rostro rostro NCMS000 1
de de SPS00 0.999919
Italia_Nosotros italia_nosotros NP00000 1
colaboramos colaborar VMIP1P0 0.65
con con SPS00 1
los el DA0MP0 0.97623
j j NCFS000 1
venes venes AQ0CP0 0.35715
de de SPS00 1
el el DA0MS0 1
Partido_Democr partido_democr NP00000 1
tico tico AQ0MS0 0.806828
Los los NP00000 1
j j NCFS000 1
venes venes AQ0CP0 0.35715
entienden entender VMIP3P0 1
las el DA0FP0 0.97051
ideas idea NCFP000 0.939394
comienzan comenzar VMIP3P0 1
a a SPS00 0.99585
ser ser VSN0000 0.93883
entendidos entender VMP00PM 0.691767
porque porque CS 1
no no RN 0.99778
son ser VSIP3P0 0.986772
ni ni CC 0.995935
de de SPS00 0.999919
izquierda izquierda NCFS000 0.5
ni ni CC 0.995935
de de SPS00 0.999919
derecha derecha NCFS000 0.735294
asegura asegurar VMIP3S0 0.875
Para para NP00000 1
l l NCFS000 0.639398
los el DA0MP0 0.97623
partidos partido NCMP000 0.928571
tradicionales tradicional AQ0CP0 1
est est NCMS000 1
n n NCFS000 1
dominados dominar VMP00PM 0.691767
por por SPS00 1
dinosaurios dinosaurio NCMP000 1
que que PR0CN000 0.5625
est est NCMS000 1
n n NCFS000 1
desde desde SPS00 1
hace hacer VMIP3S0 1
30 30 Z 1
a a SPS00 0.99585
os o NCFP000 0.222222
en en SPS00 1
el el DA0MS0 1
poder poder NCMS000 0.711538
y y CC 0.999812
que que PR0CN000 0.5625
son ser VSIP3P0 0.986772
los el DA0MP0 0.97623
responsables responsable NCCP000 0.5
de de SPS00 0.999919
haber haber VAN0000 0.744444
arruinado arruinar VMP00SM 1
el el DA0MS0 1
pa pa NCFS000 0.740689
s segundo NCMN000 0.622321
y y CC 0.999812
ahora ahora RG 1
aseguran asegurar VMIP3P0 1
que que CS 0.4375
lo lo PP3CNA00 0.271163
quieren querer VMIP3P0 1
salvar salvar VMN0000 1
dijo decir VMIS3S0 1
Quieren quieren NP00000 1
s segundo NCMN000 0.622321
lo lo PP3CNA00 0.271163
nuestros nuestro DP1MPP 0.854167
votos voto NCMP000 1
y y CC 0.999812
no no RN 0.99778
nos nos PP1CP000 0.933333
proponen proponer VMIP3P0 1
colaborar colaborar VMN0000 1
resumi resumi RG 0.751648
Grillo grillo NP00000 1
quien quien PR0CS000 1
se se P00CN000 0.465602
ha haber VAIP3S0 0.998141
negado negar VMP00SM 0.75
a a SPS00 0.99585
participar participar VMN0000 1
en en SPS00 1
la el DA0FS0 0.972146
formaci formaci AQ0CS0 0.0199855
n n NCFS000 1
de de SPS00 0.999919
un uno DI0MS0 0.986987
gobierno gobierno NCMS000 0.9
tras tras SPS00 1
las el DA0FP0 0.97051
elecciones elección NCFP000 1
de de SPS00 0.999919
finales final NCFP000 0.416667
de de SPS00 0.999919
febrero [??:??/2/??:??.??:??] W 1
lo el DA0NS0 0.457393
que que PR0CN000 0.5625
ha haber VAIP3S0 0.998141
contribuido contribuir VMP00SM 1
a a SPS00 0.99585
la el DA0FS0 0.972146
par par NCMS000 0.9375
lisis lisis NCFN000 1
de de SPS00 0.999919
la el DA0FS0 0.972146
pol pol NCMS000 0.861706
tica tica AQ0FS0 0.595788
Hay hay NP00000 1
gente gente NCFS000 1
que que CS 0.4375
est est NCMS000 1
decepcionada decepcionar VMP00SF 1
porque porque CS 1
no no RN 0.99778
hemos haber VAIP1P0 0.969697
logrado lograr VMP00SM 1
cambiar cambiar VMN0000 1
a a SPS00 0.99585
Italia italia NP00000 1
en en SPS00 1
15_d TM_d:15 Zu 1
as as NCMS000 1
A a NP00000 1
ellos ellos PP3MP000 1
les le PP3CPD00 1
digo decir VMIP1S0 1
que que CS 0.4375
no no RN 0.99778
voten votar VMSP3P0 0.75
por por SPS00 1
nosotros nosotros PP1MP000 1
comenta comentar VMIP3S0 0.9
con con SPS00 1
su su DP3CS0 1
c c NCFS000 1
lebre lebre AQ0CS0 1
sorna sorna NCFS000 1
200 200 Z 1
oficinas oficina NCFP000 1
en en SPS00 1
150 150 Z 1
pa pa NCFS000 0.740689
ses ses NCMP000 0.727093
Ampliar_Desea ampliar_desea NP00000 1
compartir compartir VMN0000 1
una uno DI0FS0 0.951241
informaci informaci AQ0CS0 0.0199855
n n NCFS000 1
un uno DI0MS0 0.986987
comentario comentario NCMS000 1
Escr escr NP00000 1
banos banos NCMP000 0.509288
a a SPS00 0.99585

