SE_L_AFP_Corea_de_el_Norte se_l_afp_corea_de_el_norte NP00000 1
hizo hacer VMIS3S0 1
una uno DI0FS0 0.951241
lista lista NCFS000 0.125
de de SPS00 0.999919
condiciones condición NCFP000 0.958333
para para SPS00 0.998507
reanudar reanudar VMN0000 1
di dar VMIS1S0 0.833333
logo logo NCMS000 1
con con SPS00 1
su su DP3CS0 1
vecina vecino NCFS000 0.785714
de de SPS00 1
el el DA0MS0 1
Sur sur NP00000 1
y y CC 0.999812
Estados_Unidos estados_unidos NP00000 1
entre entre SPS00 0.995223
ellas ellos PP3FP000 1
la el DA0FS0 0.972146
retirada retirada NCFS000 0.75
de de SPS00 0.999919
las el DA0FP0 0.97051
sanciones sanción NCFP000 0.995706
de de SPS00 0.999919
la el DA0FS0 0.972146
ONU onu NP00000 1
y y CC 0.999812
el el DA0MS0 1
cese cese NCMS000 0.618775
de de SPS00 0.999919
maniobras maniobra NCFP000 0.75
conjuntas conjunto AQ0FP0 0.97439
EEUU_Corea_de_el_Sur_Si eeuu_corea_de_el_sur_si NP00000 1
los el DA0MP0 0.97623
enemigos enemigo NCMP000 0.85
a a SPS00 0.99585
saber saber VMN0000 0.880952
Estados_Unidos estados_unidos NP00000 1
y y CC 0.999812
el el DA0MS0 1
Sur sur NP00000 1
quieren querer VMIP3P0 1
de de SPS00 0.999919
verdad verdad NCFS000 1
el el DA0MS0 1
di dar VMIS1S0 0.833333
logo logo NCMS000 1
y y CC 0.999812
la el DA0FS0 0.972146
negociaci negociaci AQ0CS0 0.0199855
n n NCFS000 1
deber deber NCMS000 0.9
an an NCFS000 1
tomar tomar VMN0000 1
estas este DD0FP0 0.960526
medidas medida NCFP000 0.944444
declar declar VMN0000 1
la el DA0FS0 0.972146
Comisi comisi NP00000 1
n n NCFS000 1
norcoreana norcoreano AQ0FS0 1
de de SPS00 0.999919
Defensa_Nacional defensa_nacional NP00000 1
en en SPS00 1
un uno DI0MS0 0.986987
comunicado comunicado NCMS000 0.345763
200 200 Z 1
oficinas oficina NCFP000 1
en en SPS00 1
150 150 Z 1
pa pa NCFS000 0.740689
ses ses NCMP000 0.727093
Ampliar_Desea ampliar_desea NP00000 1
compartir compartir VMN0000 1
una uno DI0FS0 0.951241
informaci informaci AQ0CS0 0.0199855
n n NCFS000 1
un uno DI0MS0 0.986987
comentario comentario NCMS000 1
Escr escr NP00000 1
banos banos NCMP000 0.509288
a a SPS00 0.99585

