SE_L_AFP_Corea_de_el_Norte se_l_afp_corea_de_el_norte NP00000 1
instal instal NCMS000 0.922742
recientemente recientemente RG 1
dos 2 Z 0.988722
lanzaderas lanzadera NCFP000 1
de de SPS00 0.999919
misil misil NCMS000 1
suplementarias suplementario AQ0FP0 1
en en SPS00 1
su su DP3CS0 1
costa costa NCFS000 1
oriental oriental AQ0CS0 0.65727
en en SPS00 1
previsi previsi RG 1
n n NCFS000 1
de de SPS00 0.999919
un uno DI0MS0 0.986987
lanzamiento lanzamiento NCMS000 1
que que PR0CN000 0.5625
preocupa preocupar VMIP3S0 0.875
a a SPS00 0.99585
EEUU eeuu NP00000 1
y y CC 0.999812
sus su DP3CP0 0.998462
aliados aliado NCMP000 0.875
en en SPS00 1
un uno DI0MS0 0.986987
contexto contexto NCMS000 1
de de SPS00 0.999919
vivas vivo AQ0FP0 0.974074
tensiones tensión NCFP000 1
en en SPS00 1
la el DA0FS0 0.972146
pen pen AQ0CN0 0.249994
nsula nsula NCFS000 0.842094
coreana coreano AQ0FS0 0.514014
indic indic NCMN000 0.5
este este DD0MS0 0.956743
domingo [G:??/??/??:??.??:??] W 1
la el DA0FS0 0.972146
agencia agencia NCFS000 0.666667
surcoreana surcoreano AQ0FS0 0.514014
Yonhap yonhap NP00000 1
Dos 2 Z 0.988722
veh veh I 1
culos culo NCMP000 1
de de SPS00 0.999919
transporte transporte NCMS000 0.8125
y y CC 0.999812
lanzamiento lanzamiento NCMS000 1
de de SPS00 0.999919
tipo tipo NCMS000 1
TEL tel NP00000 1
transporter transporter VMN0000 1
erector erector AQ0MS0 0.35727
launcher launcher NC00000 1
de de SPS00 0.999919
misiles misil NCMP000 1
de de SPS00 0.999919
corto corto AQ0MS0 0.9
alcance alcance NCMS000 0.694444
Scud scud NP00000 1
fueron ser VSIS3P0 0.796296
desplegados desplegar VMP00PM 1
la el DA0FS0 0.972146
semana semana NCFS000 1
pasada pasar VMP00SF 0.928571
en en SPS00 1
la el DA0FS0 0.972146
provincia provincia NCFS000 1
de de SPS00 0.999919
Hamgyong_Meridional hamgyong_meridional NP00000 1
noreste noreste NCMS000 0.833333
seg segundo NCMN000 1
n n NCFS000 1
Yonhap yonhap NP00000 1
que que PR0CN000 0.5625
cita citar VMIP3S0 0.166667
a a SPS00 0.99585
un uno DI0MS0 0.986987
alto alto AQ0MS0 0.973684
responsable responsable NCCS000 0.416667
surcoreano surcoreano AQ0MS0 0.507258
Descubrimos descubrimos NP00000 1
que que PR0CN000 0.5625
el el DA0MS0 1
Norte norte NP00000 1
desplaz desplaz AQ0CS0 1
dos 2 Z 0.988722
TEL tel NP00000 1
adicionales adicional AQ0CP0 0.965
a a SPS00 0.99585
su su DP3CS0 1
costa costa NCFS000 1
este este DD0MS0 0.956743
despu despu NCMS000 0.774439
s segundo NCMN000 0.622321
de de SPS00 1
el el DA0MS0 1
16_de_abril [??:16/4/??:??.??:??] W 1
indic indic RG 0.5
este este DD0MS0 0.956743
responsable responsable AQ0CS0 0.583333
De de NP00000 1
momento momento NCMS000 1
el el DA0MS0 1
Ministerio_de_Defensa ministerio_de_defensa NP00000 1
surcoreano surcoreano AQ0MS0 0.507258
no no RN 0.99778
confirm confirm NCMS000 0.700265
la el DA0FS0 0.972146
informaci informaci AQ0CS0 0.0199855
n n NCFS000 1
Seg seg NP00000 1
n n NCFS000 1
los el DA0MP0 0.97623
servicios servicio NCMP000 1
de de SPS00 0.999919
inteligencia inteligencia NCFS000 1
de de SPS00 0.999919
Corea_de_el_Sur_Pyongyang corea_de_el_sur_pyongyang NP00000 1
despleg despleg RG 0.14318
recientemente recientemente RG 1
en en SPS00 1
su su DP3CS0 1
costa costa NCFS000 1
oriental oriental AQ0CS0 0.65727
siete 7 Z 1
lanzadores lanzador NCMP000 0.567763
dos 2 Z 0.988722
de de SPS00 0.999919
ellos ellos PP3MP000 1
para para SPS00 0.998507
misiles misil NCMP000 1
Musudan musudan NP00000 1
de de SPS00 0.999919
un uno DI0MS0 0.986987
alcance alcance NCMS000 0.694444
te te PP2CS000 0.933962
rico rico AQ0MS0 0.95
de de SPS00 0.999919
4 4 Z 1
000_km LN_km:0 Zu 1
por por SPS00 1
lo el DA0NS0 0.457393
que que PR0CN000 0.5625
podr podr VMN0000 0.633986
an an NCFS000 1
impactar impactar VMN0000 1
en en SPS00 1
territorio territorio NCMS000 1
surcoreano surcoreano AQ0MS0 0.507258
japon japon VMIS3P0 0.923476
s segundo NCMN000 0.622321
e y CC 0.973684
incluso incluso RG 0.988095
la el DA0FS0 0.972146
isla isla NCFS000 1
de de SPS00 0.999919
Guam guam NP00000 1
en en SPS00 1
el el DA0MS0 1
Pac pac NP00000 1
fico fico AQ0MS0 0.466938
en en SPS00 1
donde donde PR000000 0.963542
EEUU eeuu NP00000 1
tiene tener VMIP3S0 1
bases base NCCP000 0.75
a a SPS00 0.99585
reas reo NCFP000 0.588186
y y CC 0.999812
navales naval AQ0CP0 1
200 200 Z 1
oficinas oficina NCFP000 1
en en SPS00 1
150 150 Z 1
pa pa NCFS000 0.740689
ses ses NCMP000 0.727093
Ampliar_Desea ampliar_desea NP00000 1
compartir compartir VMN0000 1
una uno DI0FS0 0.951241
informaci informaci AQ0CS0 0.0199855
n n NCFS000 1
un uno DI0MS0 0.986987
comentario comentario NCMS000 1
Escr escr NP00000 1
banos banos NCMP000 0.509288
a a SPS00 0.99585

