WASHINGTON_AFP_Autoridades washington_afp_autoridades NP00000 1
federales federal AQ0CP0 0.965
de de SPS00 0.999919
Estados_Unidos estados_unidos NP00000 1
detectaron detectar VMIS3P0 1
veneno veneno NCMS000 1
de de SPS00 0.999919
ricino ricino NCMS000 1
en en SPS00 1
una uno DI0FS0 0.951241
carta carta NCFS000 1
enviada enviar VMP00SF 0.75
a a SPS00 1
el el DA0MS0 1
senador senador NCMS000 1
republicano republicano AQ0MS0 0.638505
Roger_Wicker roger_wicker NP00000 1
indicaron indicar VMIS3P0 1
fuentes fuente NCFP000 1
oficiales oficial AQ0CP0 0.866667
La la NP00000 1
instalaci instalaci VMIS1S0 0.0691907
n n NCFS000 1
que que PR0CN000 0.5625
maneja manejar VMIP3S0 0.75
el el DA0MS0 1
correo correo NCMS000 0.735623
de de SPS00 1
el el DA0MS0 1
Senado senado NP00000 1
recibi recibi AQ0CN0 1
correo correo NCMS000 0.735623
que que PR0CN000 0.5625
dio dar VMIS3S0 1
positivo positivo AQ0MS0 0.875
para para SPS00 0.998507
ricino ricino NCMS000 1
dijo decir VMIS3S0 1
en en SPS00 1
un uno DI0MS0 0.986987
comunicado comunicado NCMS000 0.345763
el el DA0MS0 1
sargento sargento NCMS000 1
en en SPS00 1
armas arma NCFP000 0.982759
de de SPS00 1
el el DA0MS0 1
Senado_Terrance_Gainer_El senado_terrance_gainer_el NP00000 1
veneno veneno NCMS000 1
fue ser VSIS3S0 0.932292
detectado detectar VMP00SM 1
durante durante SPS00 1
una uno DI0FS0 0.951241
inspecci inspecci AQ0CS0 0.0199855
n n NCFS000 1
de de SPS00 0.999919
rutina rutina NCFS000 1
de de SPS00 1
el el DA0MS0 1
correo correo NCMS000 0.735623
en en SPS00 1
una uno DI0FS0 0.951241
dependencia dependencia NCFS000 1
exterior exterior AQ0CS0 0.6875
a a SPS00 1
el el DA0MS0 1
edificio edificio NCMS000 1
de de SPS00 1
el el DA0MS0 1
Congreso congreso NP00000 1
por por SPS00 1
lo el DA0NS0 0.457393
que que PR0CN000 0.5625
la el DA0FS0 0.972146
misiva misiva NCFS000 0.342749
nunca nunca RG 1
lleg lleg NCMS000 0.714133
a a SPS00 0.99585
oficina oficina NCFS000 1
de de SPS00 0.999919
Wicker wicker NP00000 1
en en SPS00 1
el el DA0MS0 1
Capitolio capitolio NP00000 1
se se P00CN000 0.465602
a a SPS00 1
el el DA0MS0 1
un uno DI0MS0 0.986987
colaborador colaborador NCMS000 0.833333
de de SPS00 1
el el DA0MS0 1
l l NCFS000 0.639398
der der VMN0000 0.630215
de de SPS00 0.999919
la el DA0FS0 0.972146
mayor mayor AQ0CS0 0.989796
a a SPS00 0.99585
dem dem NCMS000 1
crata crata VMIP3S0 0.707183
Harry_Reid harry_reid NP00000 1
quien quien PR0CS000 1
inform inform NCMS000 0.700265
sobre sobre SPS00 0.994203
la el DA0FS0 0.972146
brecha brecha NCFS000 1
de de SPS00 0.999919
seguridad seguridad NCFS000 1
Roger_Wicker roger_wicker NP00000 1
es ser VSIP3S0 1
un uno DI0MS0 0.986987
republicano republicano AQ0MS0 0.638505
electo electo NCMS000 0.64265
por por SPS00 1
el el DA0MS0 1
estado estado NCMS000 0.662162
de de SPS00 0.999919
Mississipi mississipi NP00000 1
considerado considerar VMP00SM 1
un uno DI0MS0 0.986987
pol pol NCMS000 0.861706
tico tico AQ0MS0 0.806828
de de SPS00 0.999919
bajo bajo SPS00 0.866071
perfil perfil NCMS000 1
que que PR0CN000 0.5625
no no RN 0.99778
est est NCMS000 1
especialmente especialmente RG 1
implicado implicar VMP00SM 0.691767
en en SPS00 1
los el DA0MP0 0.97623
debates debate NCMP000 0.973497
sobre sobre SPS00 0.994203
inmigraci inmigraci RG 0.751648
n n NCFS000 1
y y CC 0.999812
porte porte NCMS000 0.75
de de SPS00 0.999919
armas arma NCFP000 0.982759
Gainer gainer NP00000 1
se se P00CN000 0.465602
a a SPS00 1
el el DA0MS0 1
en en SPS00 1
el el DA0MS0 1
comunicado comunicado NCMS000 0.345763
que que PR0CN000 0.5625
la el DA0FS0 0.972146
polic polic NCFS000 1
a a SPS00 0.99585
de de SPS00 1
el el DA0MS0 1
Capitolio_el_FBI capitolio_el_fbi NP00000 1
y y CC 0.999812
otras otro DI0FP0 0.731481
agencias agencia NCFP000 0.973497
est est NCMS000 1
n n NCFS000 1
involucradas involucrar VMP00PF 1
en en SPS00 1
la el DA0FS0 0.972146
investigaci investigaci AQ0CS0 0.0199855
n n NCFS000 1
de de SPS00 0.999919
este este DD0MS0 0.956743
correo correo NCMS000 0.735623
El el NP00000 1
director director NCMS000 0.970588
de de SPS00 1
el el DA0MS0 1
FBI_Robert_Mueller fbi_robert_mueller NP00000 1
y y CC 0.999812
la el DA0FS0 0.972146
secretaria secretario NCFS000 1
de de SPS00 0.999919
Seguridad_Interior_Janet_Reno seguridad_interior_janet_reno NP00000 1
informaron informar VMIS3P0 1
a a SPS00 0.99585
los el DA0MP0 0.97623
senadores senador NCMP000 1
sobre sobre SPS00 0.994203
el el DA0MS0 1
incidente incidente NCMS000 0.64259
durante durante SPS00 1
una uno DI0FS0 0.951241
reuni reuni AQ0CS0 0.0199855
n n NCFS000 1
a a SPS00 0.99585
puertas puerta NCFP000 1
cerradas cerrar VMP00PF 0.579294
en en SPS00 1
la el DA0FS0 0.972146
noche noche NCFS000 1
de de SPS00 1
el el DA0MS0 1
martes [M:??/??/??:??.??:??] W 1
que que PR0CN000 0.5625
ten tener VMM02S0 1
a_el_objeto_de al_objeto_de SPS00 1
rendir rendir VMN0000 1
un uno DI0MS0 0.986987
informe informe NCMS000 0.185057
sobre sobre SPS00 0.994203
los el DA0MP0 0.97623
atentados atentado NCMP000 0.75
de de SPS00 0.999919
Boston boston NP00000 1
indic indic RG 0.5
el el DA0MS0 1
colaborador colaborador NCMS000 0.833333
de de SPS00 0.999919
Reid_Autoridades reid_autoridades NP00000 1
federales federal AQ0CP0 0.965
de de SPS00 0.999919
Estados_Unidos estados_unidos NP00000 1
detectaron detectar VMIS3P0 1
veneno veneno NCMS000 1
de de SPS00 0.999919
ricino ricino NCMS000 1
en en SPS00 1
una uno DI0FS0 0.951241
carta carta NCFS000 1
enviada enviar VMP00SF 0.75
a a SPS00 1
el el DA0MS0 1
senador senador NCMS000 1
republicano republicano AQ0MS0 0.638505
Roger_Wicker roger_wicker NP00000 1
indicaron indicar VMIS3P0 1
fuentes fuente NCFP000 1
oficiales oficial AQ0CP0 0.866667
No no NP00000 1
est est NCMS000 1
claro claro AQ0MS0 0.453704
si si CS 0.997706
hay haber VMIP3S0 1
conexi conexi NCMS000 1
n n NCFS000 1
entre entre SPS00 0.995223
las el DA0FP0 0.97051
explosiones explosión NCFP000 0.995706
de de SPS00 0.999919
Boston boston NP00000 1
y y CC 0.999812
el el DA0MS0 1
correo correo NCMS000 0.735623
con con SPS00 1
ricino ricino NCMS000 1
Gainer gainer NP00000 1
dijo decir VMIS3S0 1
que que CS 0.4375
mientras mientras CS 0.881579
no no RN 0.99778
tenemos tener VMIP1P0 1
indicios indicio NCMP000 1
de de SPS00 0.999919
la el DA0FS0 0.972146
existencia existencia NCFS000 1
de de SPS00 0.999919
m m NCFS000 0.5
s segundo NCMN000 0.622321
correo correo NCMS000 0.735623
sospechoso sospechoso AQ0MS0 0.611232
es ser VSIP3S0 1
imperativo imperativo AQ0MS0 0.25
aplicar aplicar VMN0000 1
todos todo DI0MP0 0.622419
los el DA0MP0 0.97623
protocolos protocolo NCMP000 1
para para SPS00 0.998507
el el DA0MS0 1
manejo manejo NCMS000 0.973494
de de SPS00 0.999919
la el DA0FS0 0.972146
correspondencia correspondencia NCFS000 1
Seg seg NP00000 1
n n NCFS000 1
la el DA0FS0 0.972146
senadora senador NCFS000 1
Claire_McCaskill claire_mccaskill NP00000 1
citada citar VMP00SF 1
por por SPS00 1
el el DA0MS0 1
sitio sitio NCMS000 0.916667
internet internet NCFS000 1
Politico politico NP00000 1
las el DA0FP0 0.97051
autoridades autoridad NCFP000 1
tienen tener VMIP3P0 1
identificado identificar VMP00SM 1
a a SPS00 0.99585
un uno DI0MS0 0.986987
sospechoso sospechoso NCMS000 0.388768
En en NP00000 1
febrero_del_2004 [??:??/2/2004:??.??:??] W 1
el el DA0MS0 1
Senado senado NP00000 1
y y CC 0.999812
la el DA0FS0 0.972146
Casa_Blanca casa_blanca NP00000 1
hab hab NCMS000 0.63631
an an NCFS000 1
sido ser VSP00SM 1
objeto objeto NCMS000 0.95
de de SPS00 0.999919
un uno DI0MS0 0.986987
ataque ataque NCMS000 0.9625
con con SPS00 1
ricino ricino NCMS000 1
agente agente AQ0CS0 0.1
biol biol NCFS000 0.639398
gico gico AQ0MS0 1
enviado enviar VMP00SM 0.638432
en en SPS00 1
forma forma NCFS000 0.960317
de de SPS00 0.999919
polvo polvo NCMS000 1
y y CC 0.999812
que que CS 0.4375
en en SPS00 1
aquellas aquel DD0FP0 0.85
ocasiones ocasión NCFP000 0.964286
no no RN 0.99778
caus caus NCMN000 0.916428
v v NCFS000 1
ctimas ctimas NCFP000 1
Pero pero NP00000 1
en en SPS00 1
oto oto NCFS000 0.333112
o o CC 0.998845
de de SPS00 0.999919
2001 2001 Z 1
otros otro DI0MP0 0.56875
ataques ataque NCMP000 0.928571
con con SPS00 1
antrax antrax NCMS000 1
causaron causar VMIS3P0 1
cinco 5 Z 0.98
muertos muerto NCMP000 0.681818
Su su NP00000 1
autor autor NCMS000 1
a a SPS00 0.99585
nunca nunca RG 1
fue ser VSIS3S0 0.932292
dilucidada dilucidar VMP00SF 1
Desde desde NP00000 1
entonces entonces RG 0.97619
todo todo DI0MS0 0.559816
el el DA0MS0 1
correo correo NCMS000 0.735623
enviado enviar VMP00SM 0.638432
a a SPS00 0.99585
los el DA0MP0 0.97623
cargos cargo NCMP000 1
electos electo AQ0MP0 0.388049
de de SPS00 0.999919
la el DA0FS0 0.972146
naci naci AQ0CS0 0.0199855
n n NCFS000 1
es ser VSIP3S0 1
examinado examinar VMP00SM 1
fuera_de fuera_de SPS00 1
el el DA0MS0 1
Capitolio capitolio NP00000 1
antes_de antes_de SPS00 1
ser ser VSN0000 0.93883
expedido expedir VMP00SM 1
200 200 Z 1
oficinas oficina NCFP000 1
en en SPS00 1
150 150 Z 1
pa pa NCFS000 0.740689
ses ses NCMP000 0.727093
Ampliar_Desea ampliar_desea NP00000 1
compartir compartir VMN0000 1
una uno DI0FS0 0.951241
informaci informaci AQ0CS0 0.0199855
n n NCFS000 1
un uno DI0MS0 0.986987
comentario comentario NCMS000 1
Escr escr NP00000 1
banos banos NCMP000 0.509288
a a SPS00 0.99585

