MADRID_AFP_La madrid_afp_la NP00000 1
polic polic NCFS000 1
a a SPS00 0.99585
vasca vasco AQ0FS0 0.75
arrest arrest NCMS000 1
este este DD0MS0 0.956743
viernes [V:??/??/??:??.??:??] W 1
en en SPS00 1
San_Sebasti san_sebasti NP00000 1
n n NCFS000 1
a a SPS00 0.99585
seis 6 Z 1
j j NCFS000 1
venes venes AQ0CP0 0.35715
independentistas independentista NCCP000 0.5
contra contra SPS00 0.976316
los el DA0MP0 0.97623
cuales cual PR0CP000 1
hab hab NCMS000 0.63631
a a SPS00 0.99585
una uno DI0FS0 0.951241
orden orden NCMS000 0.6
de de SPS00 0.999919
arresto arresto NCMS000 0.973494
desde desde SPS00 1
el el DA0MS0 1
martes [M:??/??/??:??.??:??] W 1
y y CC 0.999812
que que PR0CN000 0.5625
se se P00CN000 0.465602
hab hab NCMS000 0.63631
an an NCFS000 1
congregado congregar VMP00SM 1
apoyados apoyar VMP00PM 1
por por SPS00 1
cientos ciento NCMP000 1
de de SPS00 0.999919
personas persona NCFP000 0.983871
en en SPS00 1
el el DA0MS0 1
bulevar bulevar NCMS000 1
de de SPS00 0.999919
esta este DD0FS0 0.982143
ciudad ciudad NCFS000 1
Unas unas NP00000 1
400 400 Z 1
personas persona NCFP000 0.983871
se se P00CN000 0.465602
reunieron reunir VMIS3P0 1
en en SPS00 1
el el DA0MS0 1
Buleva buleva NP00000 1
cuando cuando CS 0.983796
la el DA0FS0 0.972146
polic polic NCFS000 1
a a SPS00 0.99585
intervino intervenir VMIS3S0 1
este este DD0MS0 0.956743
viernes [V:??/??/??:??.??:??] W 1
por por SPS00 1
la el DA0FS0 0.972146
ma ma NCFS000 0.391356
ana ana NCFS000 1
indic indic RG 0.5
un uno DI0MS0 0.986987
portavoz portavoz NCCS000 1
de de SPS00 0.999919
la el DA0FS0 0.972146
Ertaintza ertaintza NP00000 1
Seis 6 Z 1
de de SPS00 0.999919
las el DA0FP0 0.97051
personas persona NCFP000 0.983871
buscadas buscar VMP00PF 1
fueron ser VSIS3P0 0.796296
detenidas detener VMP00PF 0.391767
los el DA0MP0 0.97623
otros otro DI0MP0 0.56875
dos 2 Z 0.988722
no no RN 0.99778
estaban estar VAII3P0 1
en en SPS00 1
el el DA0MS0 1
lugar lugar NCMS000 1
as as NCMS000 1
como como CS 0.998579
dos 2 Z 0.988722
de de SPS00 0.999919
las el DA0FP0 0.97051
personas persona NCFP000 0.983871
concentradas concentrar VMP00PF 1
por por SPS00 1
atentado atentado NCMS000 0.875
a a SPS00 0.99585
agentes agente NCCP000 0.928571
de de SPS00 0.999919
las el DA0FP0 0.97051
fuerzas fuerza NCFP000 0.954545
p p NCFS000 0.5
blicas blicas AQ0FP0 1
agreg agreg NCMS000 0.714133
dicho decir VMP00SM 0.958333
portavoz portavoz NCCS000 1
El el NP00000 1
tribunal tribunal NCMS000 1
madrile madrile NCMS000 1
o o CC 0.998845
de de SPS00 0.999919
la el DA0FS0 0.972146
Audiencia_Nacional audiencia_nacional NP00000 1
lanz lanz AQ0CS0 0.220278
el el DA0MS0 1
16_de_abril [??:16/4/??:??.??:??] W 1
una uno DI0FS0 0.951241
orden orden NCMS000 0.6
de de SPS00 0.999919
arresto arresto NCMS000 0.973494
contra contra SPS00 0.976316
ocho 8 Z 1
j j NCFS000 1
venes venes AQ0CP0 0.35715
condenados condenar VMP00PM 0.5
a a SPS00 0.99585
seis 6 Z 1
a a SPS00 0.99585
os o NCFP000 0.222222
de de SPS00 0.999919
c c NCFS000 1
rcel rcel NCFS000 1
por por SPS00 1
pertenecer pertenecer VMN0000 1
a a SPS00 1
el el DA0MS0 1
movimiento movimiento NCMS000 1
de de SPS00 0.999919
la el DA0FS0 0.972146
juventud juventud NCFS000 1
independentista independentista AQ0CS0 0.5
vasca vasco AQ0FS0 0.75
Segi_Pocos segi_pocos NP00000 1
d d NCFS000 1
as as NCMS000 1
antes antes RG 1
el el DA0MS0 1
8_de_abril [??:8/4/??:??.??:??] W 1
esos ese DD0MP0 0.961538
militantes militante AQ0CP0 0.357387
hab hab NCMS000 0.63631
an an NCFS000 1
sido ser VSP00SM 1
condenados condenar VMP00PM 0.5
por por SPS00 1
el el DA0MS0 1
Tribunal_Supremo tribunal_supremo NP00000 1
que que CS 0.4375
confirm confirm NCMS000 0.700265
su su DP3CS0 1
condena condena NCFS000 0.666667
pronunciada pronunciar VMP00SF 1
por por SPS00 1
la el DA0FS0 0.972146
Audiencia_Nacional audiencia_nacional NP00000 1
en en SPS00 1
2011 2011 Z 1
y y CC 0.999812
anul anul AQ0CS0 0.600012
la el DA0FS0 0.972146
condena condena NCFS000 0.666667
de de SPS00 0.999919
otros otro DI0MP0 0.56875
ocho 8 Z 1
Segi segi NP00000 1
prohibido prohibir VMP00SM 1
en en SPS00 1
Espa espa NP00000 1
a_donde a_donde RG 1
es ser VSIP3S0 1
considerado considerar VMP00SM 1
como como CS 0.998579
el el DA0MS0 1
vivero vivero NCMS000 1
de de SPS00 0.999919
ETA eta NP00000 1
pero pero CC 0.998821
no no RN 0.99778
en en SPS00 1
Francia francia NP00000 1
hab hab NCMS000 0.63631
a a SPS00 0.99585
anunciado anunciar VMP00SM 1
su su DP3CS0 1
autodisoluci autodisoluci AQ0CS0 0.0199855
n n NCFS000 1
el el DA0MS0 1
15_de_junio_de_2012 [??:15/6/2012:??.??:??] W 1
y y CC 0.999812
realizado realizar VMP00SM 1
su su DP3CS0 1
ltimo ltimo RG 1
mitin mitin NCMS000 1
el el DA0MS0 1
24 24 Z 1
de de SPS00 0.999919
ese ese DD0MS0 0.98125
mes mes NCMS000 1
200 200 Z 1
oficinas oficina NCFP000 1
en en SPS00 1
150 150 Z 1
pa pa NCFS000 0.740689
ses ses NCMP000 0.727093
Ampliar_Desea ampliar_desea NP00000 1
compartir compartir VMN0000 1
una uno DI0FS0 0.951241
informaci informaci AQ0CS0 0.0199855
n n NCFS000 1
un uno DI0MS0 0.986987
comentario comentario NCMS000 1
Escr escr NP00000 1
banos banos NCMP000 0.509288
a a SPS00 0.99585

