BEIRUT_AFP beirut_afp NP00000 1
Diez 10 Z 1
soldados soldado NCMP000 0.928571
murieron morir VMIS3P0 1
en en SPS00 1
un uno DI0MS0 0.986987
atentado atentado NCMS000 0.875
con con SPS00 1
coche coche NCMS000 0.964286
bomba bomba NCFS000 0.964286
el el DA0MS0 1
domingo_por_la_noche [G:??/??/??:??.??:pm] W 1
en en SPS00 1
un uno DI0MS0 0.986987
importante importante AQ0CS0 1
aeropuerto aeropuerto NCMS000 1
militar militar AQ0CS0 0.666667
en en SPS00 1
las el DA0FP0 0.97051
afueras afueras NCFP000 0.75
de de SPS00 0.999919
Damasco damasco NP00000 1
inform inform NCMS000 0.700265
este este DD0MS0 0.956743
lunes [L:??/??/??:??.??:??] W 1
el el DA0MS0 1
Observatorio_Sirio_de_Derechos_Humanos_OSDH_A observatorio_sirio_de_derechos_humanos_osdh_a NP00000 1
el el DA0MS0 1
menos menos RG 1
diez 10 Z 1
murieron morir VMIS3P0 1
y y CC 0.999812
otros otro DI0MP0 0.56875
diez 10 Z 1
resultaron resultar VMIS3P0 1
heridos herir VMP00PM 0.5
en en SPS00 1
un uno DI0MS0 0.986987
atentado atentado NCMS000 0.875
con con SPS00 1
coche coche NCMS000 0.964286
bomba bomba NCFS000 0.964286
contra contra SPS00 0.976316
un uno DI0MS0 0.986987
ret ret NCFS000 1
n n NCFS000 1
de de SPS00 1
el el DA0MS0 1
ej ej NCMS000 0.692259
rcito rcito NCMS000 1
cerca cerca RG 0.925
de de SPS00 1
el el DA0MS0 1
aeropuerto aeropuerto NCMS000 1
militar militar AQ0CS0 0.666667
de de SPS00 0.999919
Mazz mazz NP00000 1
dijo decir VMIS3S0 1
el el DA0MS0 1
OSDH_una_ONG_El osdh_una_ong_el NP00000 1
aeropuerto aeropuerto NCMS000 1
de de SPS00 0.999919
Mazz mazz NP00000 1
es ser VSIP3S0 1
tan tan RG 1
importante importante AQ0CS0 1
como como CS 0.998579
el el DA0MS0 1
aeropuerto aeropuerto NCMS000 1
internacional internacional AQ0CS0 0.833333
de de SPS00 0.999919
Damasco damasco NP00000 1
dijo decir VMIS3S0 1
Abdel_Rahman abdel_rahman NP00000 1
director director NCMS000 0.970588
de de SPS00 1
el el DA0MS0 1
OSDH_El osdh_el NP00000 1
aeropuerto aeropuerto NCMS000 1
est est NCMS000 1
bajo bajo SPS00 0.866071
la el DA0FS0 0.972146
protecci protecci AQ0CS0 0.0199855
n n NCFS000 1
de de SPS00 0.999919
la el DA0FS0 0.972146
temida temer VMP00SF 1
cuarta cuarta NCFS000 0.370141
divisi divisi RG 1
n n NCFS000 1
de de SPS00 1
el el DA0MS0 1
ej ej NCMS000 0.692259
rcito rcito NCMS000 1
a_cargo_de a_cargo_de SPS00 1
Damasco damasco NP00000 1
y y CC 0.999812
sus su DP3CP0 0.998462
alrededores alrededor NCMP000 1
comandada comandar VMP00SF 1
por por SPS00 1
Maher_A_el_Asad maher_a_el_asad NP00000 1
hermano hermano NCMS000 0.954545
de de SPS00 1
el el DA0MS0 1
presidente presidente NCMS000 1
sirio sirio AQ0MS0 0.357349
Bashar_A_el_Asad bashar_a_el_asad NP00000 1
200 200 Z 1
oficinas oficina NCFP000 1
en en SPS00 1
150 150 Z 1
pa pa NCFS000 0.740689
ses ses NCMP000 0.727093
Ampliar_Desea ampliar_desea NP00000 1
compartir compartir VMN0000 1
una uno DI0FS0 0.951241
informaci informaci AQ0CS0 0.0199855
n n NCFS000 1
un uno DI0MS0 0.986987
comentario comentario NCMS000 1
Escr escr NP00000 1
banos banos NCMP000 0.509288
a a SPS00 0.99585

