LONDRES_AFP_El londres_afp_el NP00000 1
estadounidense estadounidense AQ0CS0 0.833333
Edward_Snowden edward_snowden NP00000 1
ex ex NCCN000 0.75
consultor consultor AQ0MS0 0.35727
de de SPS00 0.999919
la el DA0FS0 0.972146
CIA cia NP00000 1
buscado buscar VMP00SM 1
por por SPS00 1
Estados_Unidos estados_unidos NP00000 1
se se P00CN000 0.465602
dirige dirigir VMIP3S0 0.875
a a SPS00 0.99585
la el DA0FS0 0.972146
Rep rep NP00000 1
blica blica AQ0FS0 1
de de SPS00 0.999919
Ecuador ecuador NP00000 1
anunci anunci VMIS1S0 0.0691907
este este DD0MS0 0.956743
domingo [G:??/??/??:??.??:??] W 1
en en SPS00 1
un uno DI0MS0 0.986987
comunicado comunicado NCMS000 0.345763
WikiLeaks wikileaks NP00000 1
la el DA0FS0 0.972146
p p NCFS000 0.5
gina gina VMIP3S0 0.333217
web web NCFS000 0.64221
fundada fundar VMP00SF 1
por por SPS00 1
Julian_Assange_Se julian_assange_se NP00000 1
dirige dirigir VMIP3S0 0.875
a a SPS00 0.99585
la el DA0FS0 0.972146
Rep rep NP00000 1
blica blica AQ0FS0 1
de de SPS00 0.999919
Ecuador ecuador NP00000 1
por por SPS00 1
un uno DI0MS0 0.986987
camino camino NCMS000 0.978261
seguro seguro AQ0MS0 0.564103
con con SPS00 1
el el DA0MS0 1
fin fin NCMS000 1
de de SPS00 0.999919
obtener obtener VMN0000 1
el el DA0MS0 1
asilo asilo NCMS000 0.75
y y CC 0.999812
una_vez_que una_vez_que CS 1
llegue llegar VMSP1S0 0.488889
a a SPS00 0.99585
Ecuador ecuador NP00000 1
su su DP3CS0 1
solicitud solicitud NCFS000 1
ser ser VSN0000 0.93883
formalmente formalmente RG 1
tramitada tramitar VMP00SF 1
indic indic RG 0.5
la el DA0FS0 0.972146
organizaci organizaci AQ0CS0 0.0199855
n n NCFS000 1
de de SPS00 0.999919
revelaci revelaci RG 0.751648
n n NCFS000 1
de de SPS00 0.999919
informaciones información NCFP000 1
secretas secreto AQ0FP0 0.605249
Snowden snowden NP00000 1
lleg lleg NCMS000 0.714133
este este DD0MS0 0.956743
domingo [G:??/??/??:??.??:??] W 1
a a SPS00 0.99585
Mosc mosc NP00000 1
desde desde SPS00 1
Hong_Kong hong_kong NP00000 1
200 200 Z 1
oficinas oficina NCFP000 1
en en SPS00 1
150 150 Z 1
pa pa NCFS000 0.740689
ses ses NCMP000 0.727093
Ampliar_Desea ampliar_desea NP00000 1
compartir compartir VMN0000 1
una uno DI0FS0 0.951241
informaci informaci AQ0CS0 0.0199855
n n NCFS000 1
un uno DI0MS0 0.986987
comentario comentario NCMS000 1
Escr escr NP00000 1
banos banos NCMP000 0.509288
a a SPS00 0.99585

