DOHA_AFP_El doha_afp_el NP00000 1
emir emir NCMS000 1
de de SPS00 0.999919
Catar catar NP00000 1
el el DA0MS0 1
jeque jeque NCMS000 1
Hamad_Ben_Jalifa_A_el_Thani hamad_ben_jalifa_a_el_thani NP00000 1
deber deber NCMS000 0.9
a a SPS00 0.99585
anunciar anunciar VMN0000 1
el el DA0MS0 1
martes [M:??/??/??:??.??:??] W 1
su su DP3CS0 1
decisi decisi RG 1
n n NCFS000 1
de de SPS00 0.999919
transferir transferir VMN0000 1
a a SPS00 0.99585
su su DP3CS0 1
hijo hijo NCMS000 1
Tamim_Ben_Hamad_A_el_Jalifa tamim_ben_hamad_a_el_jalifa NP00000 1
el el DA0MS0 1
poder poder NCMS000 0.711538
en en SPS00 1
la el DA0FS0 0.972146
peque peque NCCS000 0.618697
a a SPS00 0.99585
pero pero CC 0.998821
econ econ NCMS000 1
micamente micamente RG 1
poderosa poderoso AQ0FS0 0.75
naci naci RG 0.751648
n n NCFS000 1
de de SPS00 1
el el DA0MS0 1
Golfo_P golfo_p NP00000 1
rsico rsico AQ0MS0 0.705972
informaron informar VMIS3P0 1
este este DD0MS0 0.956743
lunes [L:??/??/??:??.??:??] W 1
fuentes fuente NCFP000 1
de de SPS00 0.999919
prensa prensa NCFS000 0.925926
y y CC 0.999812
un uno DI0MS0 0.986987
funcionario funcionario NCMS000 1
que que PR0CN000 0.5625
pidi pidi VMIS1S0 1
el el DA0MS0 1
anonimato anonimato NCMS000 1
La la NP00000 1
agencia agenciar VMIP3S0 0.166667
oficial oficial AQ0CS0 0.916667
de de SPS00 0.999919
noticias noticia NCFP000 0.9375
QNA qna NP00000 1
inform inform NCMS000 0.700265
este este DD0MS0 0.956743
lunes [L:??/??/??:??.??:??] W 1
de de SPS00 0.999919
que que CS 0.4375
el el DA0MS0 1
palacio palacio NCMS000 1
real real AQ0CS0 0.970588
anunciaba anunciar VMII3S0 0.65
que que CS 0.4375
el el DA0MS0 1
emir emir NCMS000 1
se se P00CN000 0.465602
dirigir dirigir VMN0000 1
a a SPS00 0.99585
a a SPS00 0.99585
los el DA0MP0 0.97623
catar catar VMN0000 1
es ser VSIP3S0 1
a a SPS00 0.99585
las el DA0FP0 0.97051
08H00 08H00 Z 1
AM am NP00000 1
05H00 05H00 Z 1
GMT gmt NP00000 1
de de SPS00 1
el el DA0MS0 1
martes [M:??/??/??:??.??:??] W 1
De_acuerdo_con de_acuerdo_con NP00000 1
un uno DI0MS0 0.986987
alto alto AQ0MS0 0.973684
funcionario funcionario NCMS000 1
catar catar VMN0000 1
en en SPS00 1
ese ese DD0MS0 0.98125
mensaje mensaje NCMS000 1
a a SPS00 0.99585
la el DA0FS0 0.972146
naci naci AQ0CS0 0.0199855
n n NCFS000 1
el el DA0MS0 1
emir emir NCMS000 1
debe deber VMIP3S0 0.974359
anunciar anunciar VMN0000 1
la el DA0FS0 0.972146
transferencia transferencia NCFS000 1
de de SPS00 0.999919
sus su DP3CP0 0.998462
poderes poder NCMP000 1
a a SPS00 0.99585
su su DP3CS0 1
hijo hijo NCMS000 1
El_Palacio el_palacio NP00000 1
se se P00CN000 0.465602
limit limit NCMN000 1
a a SPS00 0.99585
declarar declarar VMN0000 1
que que CS 0.4375
el el DA0MS0 1
martes [M:??/??/??:??.??:??] W 1
ser ser VSN0000 0.93883
festivo festivo AQ0MS0 0.65727
oficial oficial AQ0CS0 0.916667
Poco poco NP00000 1
antes antes RG 1
la el DA0FS0 0.972146
red red NCFS000 1
catar catar VMN0000 1
de de SPS00 0.999919
televisi televisi RG 1
n n NCFS000 1
A_el_Jazeera a_el_jazeera NP00000 1
inform inform NCMS000 0.700265
de de SPS00 0.999919
que que CS 0.4375
el el DA0MS0 1
emir emir NCMS000 1
hab hab NCMS000 0.63631
a a SPS00 0.99585
mantenido mantener VMP00SM 1
reuniones reunión NCFP000 1
con con SPS00 1
la el DA0FS0 0.972146
familia familia NCFS000 1
real real AQ0CS0 0.970588
y y CC 0.999812
eminentes eminente AQ0CP0 1
miembros miembro NCMP000 0.916667
de de SPS00 0.999919
la el DA0FS0 0.972146
sociedad sociedad NCFS000 1
catar catar VMN0000 1
Y y NP00000 1
les le PP3CPD00 1
ha haber VAIP3S0 0.998141
informado informar VMP00SM 1
en en SPS00 1
esas ese DD0FP0 0.961538
reuniones reunión NCFP000 1
de de SPS00 0.999919
su su DP3CS0 1
decisi decisi RG 1
n n NCFS000 1
de de SPS00 0.999919
abdicar abdicar VMN0000 1
en_favor_de en_favor_de SPS00 1
su su DP3CS0 1
hijo hijo NCMS000 1
De_acuerdo_con_A_el_Jazeera de_acuerdo_con_a_el_jazeera NP00000 1
el el DA0MS0 1
emir emir NCMS000 1
decidi decidi VMIS1S0 1
iniciar iniciar VMN0000 1
esas ese DD0FP0 0.961538
reuniones reunión NCFP000 1
en en SPS00 1
medio medio NCMS000 0.261538
a a SPS00 0.99585
noticias noticia NCFP000 0.9375
sobre sobre SPS00 0.994203
las el DA0FP0 0.97051
intenciones intención NCFP000 1
de de SPS00 0.999919
transferir transferir VMN0000 1
el el DA0MS0 1
poder poder NCMS000 0.711538
a a SPS00 0.99585
su su DP3CS0 1
heredero heredero NCMS000 0.75
El el NP00000 1
jeque jeque NCMS000 1
Hamad hamad NP00000 1
quien quien PR0CS000 1
us us NCMN000 0.916428
las el DA0FP0 0.97051
inmensas inmenso AQ0FP0 1
reservas reserva NCFP000 0.875
catar catar VMN0000 1
es ser VSIP3S0 1
de de SPS00 0.999919
gas gas NCMS000 1
para para SPS00 0.998507
impulsar impulsar VMN0000 1
la el DA0FS0 0.972146
modernizaci modernizaci AQ0CS0 0.0199855
n n NCFS000 1
de de SPS00 1
el el DA0MS0 1
pa pa NCFS000 0.740689
s segundo NCMN000 0.622321
y y CC 0.999812
lo el DA0NS0 0.457393
transform transform NCMS000 0.700265
en en SPS00 1
un uno DI0MS0 0.986987
importante importante AQ0CS0 1
actor actor NCMS000 1
diplom diplom NCMS000 0.500053
tico tico AQ0MS0 0.806828
mundial mundial AQ0CS0 0.928571
lleg lleg NCMS000 0.714133
a a SPS00 1
el el DA0MS0 1
poder poder NCMS000 0.711538
con con SPS00 1
un uno DI0MS0 0.986987
golpe golpe NCMS000 1
de de SPS00 0.999919
Estado estado NP00000 1
cuando cuando CS 0.983796
derrib derrib NCMS000 0.63631
a a SPS00 0.99585
su su DP3CS0 1
propio propio AQ0MS0 0.98
padre padre NCMS000 1
el el DA0MS0 1
jeque jeque NCMS000 1
Jalifa jalifa NP00000 1
en en SPS00 1
junio_de_1995 [??:??/6/1995:??.??:??] W 1
En en NP00000 1
el el DA0MS0 1
momento momento NCMS000 1
de de SPS00 0.999919
ese ese DD0MS0 0.98125
golpe golpe NCMS000 1
palaciego palaciego AQ0MS0 0.55723
Catar catar NP00000 1
estaba estar VAII1S0 0.5
pr pr AQ0CS0 0.0829965
cticamente cticamente RG 1
quebrado quebrar VMP00SM 0.691745
y y CC 0.999812
era ser VSII1S0 0.490859
un uno DI0MS0 0.986987
pa pa NCFS000 0.740689
s segundo NCMN000 0.622321
min minuto NCMN000 1
sculo sculo NCMS000 1
ignorado ignorar VMP00SM 1
incluso incluso RG 0.988095
por por SPS00 1
sus su DP3CP0 0.998462
vecinos vecino NCMP000 0.928571
Un uno DI0MS0 0.986987
diplom diplom NCMS000 0.500053
tico tico AQ0MS0 0.806828
se se P00CN000 0.465602
a a SPS00 1
el el DA0MS0 1
que que PR0CN000 0.5625
a a SPS00 1
el el DA0MS0 1
abdicar abdicar VMN0000 1
el el DA0MS0 1
emir emir NCMS000 1
de de SPS00 0.999919
61 61 Z 1
a a SPS00 0.99585
os os PP2CP000 0.722222
marcar marcar VMN0000 1
a a SPS00 0.99585
un uno DI0MS0 0.986987
hecho hecho NCMS000 0.381579
in in AQ0CS0 0.0555794
dito do NCMS00D 1
en en SPS00 1
el el DA0MS0 1
mundo mundo NCMS000 1
rabe rabe AQ0CS0 0.333333
donde donde PR000000 0.963542
no no RN 0.99778
es ser VSIP3S0 1
raro raro AQ0MS0 1
que que CS 0.4375
l l NCFS000 0.639398
deres deres NCMP000 0.800047
autocr autocr NCMS000 1
ticos ticos AQ0MP0 0.671839
mantengan mantener VMSP3P0 0.901254
el el DA0MS0 1
poder poder NCMS000 0.711538
sin sin SPS00 1
cuestionamientos cuestionamiento NCMP000 1
durante durante SPS00 1
d d NCFS000 1
cadas cadas VMP00PF 0.79993
El el NP00000 1
pr pr VMN0000 0.633986
ncipe ncipe NCMS000 1
Tamin tamin NP00000 1
nacido nacer VMP00SM 0.916667
en en SPS00 1
1980 1980 Z 1
es ser VSIP3S0 1
el el DA0MS0 1
segundo 2 AO0MS0 0.742424
hijo hijo NCMS000 1
de de SPS00 1
el el DA0MS0 1
emir emir NCMS000 1
con con SPS00 1
su su DP3CS0 1
segunda 2 AO0FS0 0.958333
esposa esposo NCFS000 0.866667
Mozah_Tamin mozah_tamin NP00000 1
es ser VSIP3S0 1
el el DA0MS0 1
subcomandantante subcomandantante NCCS000 0.333467
de de SPS00 0.999919
las el DA0FP0 0.97051
Fuerzas_Armadas fuerzas_armadas NP00000 1
y y CC 0.999812
es ser VSIP3S0 1
presidente presidente NCMS000 1
de de SPS00 1
el el DA0MS0 1
Comit_Ol comit_ol NP00000 1
mpico mpico AQ0MS0 0.750055
Internacional internacional NP00000 1
local local AQ0CS0 0.5
que que CS 0.4375
ser ser VSN0000 0.93883
el el DA0MS0 1
responsable responsable NCCS000 0.416667
de de SPS00 1
el el DA0MS0 1
ente ente NCMS000 1
que que PR0CN000 0.5625
organizar organizar VMN0000 1
la el DA0FS0 0.972146
Copa_de_el_Mundo_de_F copa_de_el_mundo_de_f NP00000 1
tbol tbol NCMS000 1
de de SPS00 0.999919
2022 2022 Z 1
Diversos diversos NP00000 1
diplom diplom NCMS000 0.500053
ticos ticos AQ0MP0 0.671839
se se P00CN000 0.465602
alaron alaron VMIS3P0 1
que que CS 0.4375
en en SPS00 1
los el DA0MP0 0.97623
tres 3 Z 1
ltimos ltimos VMIP1P0 0.856975
a a SPS00 0.99585
os os PP2CP000 0.722222
el el DA0MS0 1
emir emir NCMS000 1
hab hab NCMS000 0.63631
a a SPS00 0.99585
comenzado comenzar VMP00SM 1
a a SPS00 0.99585
pasar pasar VMN0000 1
responsabilidades responsabilidad NCFP000 1
a a SPS00 0.99585
Tamin tamin NP00000 1
en en SPS00 1
el el DA0MS0 1
rea reo NCFS000 0.592721
militar militar AQ0CS0 0.666667
y y CC 0.999812
de de SPS00 0.999919
seguridad seguridad NCFS000 1
El el NP00000 1
emir emir NCMS000 1
y y CC 0.999812
su su DP3CS0 1
hijo hijo NCMS000 1
se se P00CN000 0.465602
graduaron graduar VMIS3P0 1
en en SPS00 1
la el DA0FS0 0.972146
academia academia NCFS000 1
militar militar AQ0CS0 0.666667
brit brit NCMN000 1
nica nica AQ0FS0 0.730709
de de SPS00 0.999919
Sandhurst_El sandhurst_el NP00000 1
emir emir NCMS000 1
est est NCMS000 1
convencido convencer VMP00SM 1
de de SPS00 0.999919
que que PR0CN000 0.5625
debe deber VMIP3S0 0.974359
impulsar impulsar VMN0000 1
a a SPS00 0.99585
las el DA0FP0 0.97051
nuevas nuevo AQ0FP0 0.961538
generaciones generación NCFP000 1
Planea planea NP00000 1
transferir transferir VMN0000 1
el el DA0MS0 1
poder poder NCMS000 0.711538
a a SPS00 1
el el DA0MS0 1
pr pr AQ0CS0 0.0829965
ncipe ncipe NCMS000 1
Tamin tamin NP00000 1
y y CC 0.999812
llevar llevar VMN0000 1
adelante adelante RG 0.911111
un uno DI0MS0 0.986987
reformulaci reformulaci AQ0CS0 0.0199855
n n NCFS000 1
ministerial ministerial AQ0CS0 0.65727
para para SPS00 0.998507
atraer atraer VMN0000 1
gente gente NCFS000 1
m m NCFS000 0.5
s segundo NCMN000 0.622321
joven joven AQ0CS0 0.537037
a a SPS00 1
el el DA0MS0 1
gabinete gabinete NCMS000 1
dijo decir VMIS3S0 1
un uno DI0MS0 0.986987
alto alto AQ0MS0 0.973684
funcionario funcionario NCMS000 1
catar catar VMN0000 1
que que CS 0.4375
pidi pidi VMIS1S0 1
anonimato anonimato NCMS000 1
El el NP00000 1
emir emir NCMS000 1
podr podr AQ0CS0 0.0829965
a a SPS00 0.99585
dar dar VMN0000 1
un uno DI0MS0 0.986987
paso paso NCMS000 0.89
a a SPS00 0.99585
un uno DI0MS0 0.986987
lado lado NCMS000 1
es ser VSIP3S0 1
decir decir VMN0000 0.987805
sin sin SPS00 1
retirar retirar VMN0000 1
se se PP3CN000 1
completamente completamente RG 1
sino sino CC 0.981707
para para SPS00 0.998507
jugar jugar VMN0000 1
un uno DI0MS0 0.986987
papel papel NCMS000 1
m m NCFS000 0.5
s segundo NCMN000 0.622321
honorario honorario AQ0MS0 0.357372
de de SPS00 0.999919
forma forma NCFS000 0.960317
que que CS 0.4375
su su DP3CS0 1
hijo hijo NCMS000 1
pueda poder VMSP1S0 0.490196
asumir asumir VMN0000 1
las el DA0FP0 0.97051
responsabilidades responsabilidad NCFP000 1
y y CC 0.999812
ser ser VSN0000 0.93883
el el DA0MS0 1
hombre hombre NCMS000 0.95679
en en SPS00 1
el el DA0MS0 1
poder poder NCMS000 0.711538
dijo decir VMIS3S0 1
un uno DI0MS0 0.986987
diplom diplom NCMS000 0.500053
tico tico AQ0MS0 0.806828
franc franc NC00000 0.538029
s segundo NCMN000 0.622321
Un uno DI0MS0 0.986987
funcionario funcionario NCMS000 1
catar catar VMN0000 1
acot acot NCCS000 0.727043
que que PR0CN000 0.5625
en en SPS00 1
cualquier cualquiera DI0CS0 1
caso caso NCMS000 0.990741
el el DA0MS0 1
emir emir NCMS000 1
continuar continuar VMN0000 1
jugando jugar VMG0000 1
un uno DI0MS0 0.986987
papel papel NCMS000 1
influyente influyente AQ0CS0 1
entre entre SPS00 0.995223
bambalinas bambalina NCFP000 1
y y CC 0.999812
con con SPS00 1
los el DA0MP0 0.97623
ojos ojo NCMP000 1
puestos poner VMP00PM 0.416667
en en SPS00 1
las el DA0FP0 0.97051
inversiones inversión NCFP000 1
de de SPS00 0.999919
Catar catar NP00000 1
en en SPS00 1
el el DA0MS0 1
exterior exterior NCMS000 0.3125
El el NP00000 1
emir emir NCMS000 1
convirti convirti NCMS000 1
Catar catar NP00000 1
en en SPS00 1
una uno DI0FS0 0.951241
potencia potencia NCFS000 0.916667
pol pol NCMS000 0.861706
tica tica AQ0FS0 0.595788
y y CC 0.999812
en en SPS00 1
un uno DI0MS0 0.986987
gigante gigante AQ0CS0 0.625
econ econ NCMS000 1
mico mico NCMS000 1
con con SPS00 1
miles mil NCMP000 1
de de SPS00 0.999919
millones millón NCMP000 1
en en SPS00 1
inversiones inversión NCFP000 1
en en SPS00 1
todo todo DI0MS0 0.559816
el el DA0MS0 1
mundo mundo NCMS000 1
Este este NP00000 1
diminuto diminuto AQ0MS0 1
Estado_de_el_Golfo_P estado_de_el_golfo_p NP00000 1
rsico rsico AQ0MS0 0.705972
posee poseer VMIP3S0 0.9375
la el DA0FS0 0.972146
tercera 3 AO0FS0 0.928571
mayor mayor AQ0CS0 0.989796
reserva reserva NCFS000 0.833333
de de SPS00 0.999919
gas gas NCMS000 1
natural natural AQ0CS0 0.833333
y y CC 0.999812
produce producir VMIP3S0 0.961538
alrededor_de alrededor_de SPS00 1
77_millones_de_toneladas WG_tm:77000000 Zu 1
de de SPS00 0.999919
gas gas NCMS000 1
natural natural AQ0CS0 0.833333
licuado licuar VMP00SM 1
a a SPS00 1
el el DA0MS0 1
a a NCFS000 0.00415028
o o CC 0.998845
convirti convirti NCMS000 1
ndose ndose VMSI3S0 0.317009
as as NCMS000 1
en en SPS00 1
el el DA0MS0 1
mayor mayor AQ0CS0 0.989796
abastecedor abastecedor NCMS000 0.642685
mundial mundial AQ0CS0 0.928571
El el NP00000 1
analista analista NCCS000 1
Neil_Partrick neil_partrick NP00000 1
un uno DI0MS0 0.986987
experto experto NCMS000 0.75
en en SPS00 1
la el DA0FS0 0.972146
regi regi AQ0CS0 0.0199855
n n NCFS000 1
de de SPS00 1
el el DA0MS0 1
Golfo golfo NP00000 1
descart descart NCMS000 1
la el DA0FS0 0.972146
posibilidad posibilidad NCFS000 1
de de SPS00 0.999919
cambios cambio NCMP000 1
en en SPS00 1
Catar_Tamin catar_tamin NP00000 1
tambi tambi AQ0CN0 1
n n NCFS000 1
tendr tendr AQ0CS0 0.0829965
responsabilidades responsabilidad NCFP000 1
con con SPS00 1
sensibles sensible AQ0CP0 1
inversiones inversión NCFP000 1
externas externo AQ0FP0 0.557178
en en SPS00 1
Catar catar NP00000 1
entre entre SPS00 0.995223
otros otro DI0MP0 0.56875
asuntos asunto NCMP000 1
dijo decir VMIS3S0 1
Para para NP00000 1
la el DA0FS0 0.972146
pol pol NCMS000 0.861706
tica tica AQ0FS0 0.595788
externa externo AQ0FS0 0.833333
catar catar VMN0000 1
nada nada PI0CS000 0.846667
de de SPS00 0.999919
esto este PD0NS000 1
deber deber VMN0000 0.1
producir producir VMN0000 1
mayores mayor AQ0CP0 0.8125
cambios cambio NCMP000 1
Es es NP00000 1
probable probable AQ0CS0 1
que que CS 0.4375
el el DA0MS0 1
joven joven AQ0CS0 0.537037
heredero heredero NCMS000 0.75
no no RN 0.99778
lleve llevar VMSP3S0 0.623426
adelante adelante RG 0.911111
grandes grande AQ0CP0 0.95
cambios cambio NCMP000 1
sin sin SPS00 1
consultar consultar VMN0000 1
con con SPS00 1
su su DP3CS0 1
padre padre NCMS000 1
a a SPS00 0.99585
adi adar VMIS1S0 0.994868
Tamin tamin NP00000 1
de de SPS00 0.999919
33 33 Z 1
a a SPS00 0.99585
os os PP2CP000 0.722222
fue ser VSIS3S0 0.932292
escogido escoger VMP00SM 1
como como CS 0.998579
heredero heredero NCMS000 0.75
hace hacer VMIP3S0 1
10 10 Z 1
a a SPS00 0.99585
os os PP2CP000 0.722222
y y CC 0.999812
actualmente actualmente RG 1
es ser VSIP3S0 1
tambi tambi AQ0CN0 1
n n NCFS000 1
director director NCMS000 0.970588
de de SPS00 0.999919
la el DA0FS0 0.972146
Autoridad_Catar_de_Inversiones autoridad_catar_de_inversiones NP00000 1
el el DA0MS0 1
fondo fondo NCMS000 1
soberano soberano AQ0MS0 0.35727
de de SPS00 1
el el DA0MS0 1
pa pa NCFS000 0.740689
s segundo NCMN000 0.622321
Las las NP00000 1
inversiones inversión NCFP000 1
catar catar VMN0000 1
es ser VSIP3S0 1
en en SPS00 1
el el DA0MS0 1
mundo mundo NCMS000 1
abarcan abarcar VMIP3P0 1
desde desde SPS00 1
el el DA0MS0 1
club club NCMS000 1
franc franc NC00000 0.538029
s segundo NCMN000 0.622321
de de SPS00 0.999919
f f NCFS000 1
tbol tbol NCMS000 1
Paris_Saint_Germain paris_saint_germain NP00000 1
hoteles hotel NCMP000 1
en en SPS00 1
un uno DI0MS0 0.986987
balneario balneario NCMS000 0.493978
de de SPS00 0.999919
Cerde cerde NP00000 1
a a SPS00 0.99585
y y CC 0.999812
partes parte NCFP000 0.495495
importantes importante AQ0CP0 1
de de SPS00 0.999919
la el DA0FS0 0.972146
gigante gigante NCCS000 0.375
Volkswagen volkswagen NP00000 1
la el DA0FS0 0.972146
francesa francés AQ0FS0 0.875
Total total NP00000 1
y y CC 0.999812
el el DA0MS0 1
banco banco NCMS000 1
brit brit NCMN000 1
nico nico AQ0MS0 0.470565
Barclays_Pero barclays_pero NP00000 1
por por SPS00 1
encima_de encima_de SPS00 1
todas todo DI0FP0 0.945312
las el DA0FP0 0.97051
cosas cosa NCFP000 0.986842
controla controlar VMIP3S0 0.833333
la el DA0FS0 0.972146
influyente influyente AQ0CS0 1
cadena cadena NCFS000 1
A_el_Jazeera_Catar a_el_jazeera_catar NP00000 1
tiene tener VMIP3S0 1
una uno DI0FS0 0.951241
superficie superficie NCFS000 1
de de SPS00 0.999919
apenas apenas RG 0.979167
11 11 Z 1
437_Km2 AR_km2:437 Zu 1
y y CC 0.999812
una uno DI0FS0 0.951241
poblaci poblaci AQ0CS0 0.0199855
n n NCFS000 1
de de SPS00 0.999919
1 1 Z 1
87 87 Z 1
mill mill AQ0CS0 0.587402
n n NCFS000 1
de de SPS00 0.999919
personas persona NCFP000 0.983871
aunque aunque CC 1
apenas apenas RG 0.979167
200 200 Z 1
000 0 Z 1
son ser VSIP3P0 0.986772
aut aut NCMS000 0.607342
ctonos ctonos AQ0MP0 0.333219
Originalmente originalmente NP00000 1
el el DA0MS0 1
heredero heredero NCMS000 0.75
de de SPS00 1
el el DA0MS0 1
trono trono NCMS000 1
era ser VSII1S0 0.490859
otro otro DI0MS0 0.61215
hijo hijo NCMS000 1
de de SPS00 1
el el DA0MS0 1
emir emir NCMS000 1
Hamad hamad NP00000 1
el el DA0MS0 1
jeque jeque NCMS000 1
Jassem jassem NP00000 1
un uno DI0MS0 0.986987
a a NCFS000 0.00415028
o o CC 0.998845
mayor mayor AQ0CS0 0.989796
que que CS 0.4375
Tamin tamin NP00000 1
quien quien PR0CS000 1
sin sin SPS00 1
embargo embargo NCMS000 0.973496
abdic abdic RG 0.5
Educado educado NP00000 1
en en SPS00 1
las el DA0FP0 0.97051
m m NCFS000 0.5
s segundo NCMN000 0.622321
selectas selecto AQ0FP0 1
academias academia NCFP000 1
militares militar AQ0CP0 0.541667
de de SPS00 0.999919
Gran_Breta gran_breta NP00000 1
a a SPS00 0.99585
el el DA0MS0 1
pr pr AQ0CS0 0.0829965
ncipe ncipe NCMS000 1
heredero heredero AQ0MS0 0.25
es ser VSIP3S0 1
un uno DI0MS0 0.986987
fan fan NCCS000 1
tico tico AQ0MS0 0.806828
de de SPS00 0.999919
los el DA0MP0 0.97623
deportes deporte NCMP000 0.995706
Tiene tiene NP00000 1
dos 2 Z 0.988722
esposas esposas NCFP000 0.47619
y y CC 0.999812
seis 6 Z 1
hijos hijo NCMP000 1
200 200 Z 1
oficinas oficina NCFP000 1
en en SPS00 1
150 150 Z 1
pa pa NCFS000 0.740689
ses ses NCMP000 0.727093
Ampliar_Desea ampliar_desea NP00000 1
compartir compartir VMN0000 1
una uno DI0FS0 0.951241
informaci informaci AQ0CS0 0.0199855
n n NCFS000 1
un uno DI0MS0 0.986987
comentario comentario NCMS000 1
Escr escr NP00000 1
banos banos NCMP000 0.509288
a a SPS00 0.99585

