ANKARA_AFP_El_Gobierno ankara_afp_el_gobierno NP00000 1
turco turco AQ0MS0 0.875
amenaz amenaz AQ0CS0 0.803258
este este DD0MS0 0.956743
lunes [L:??/??/??:??.??:??] W 1
con con SPS00 1
recurrir recurrir VMN0000 1
a a SPS00 1
el el DA0MS0 1
Ej ej NP00000 1
rcito rcito NCMS000 1
para para SPS00 0.998507
acallar acallar VMN0000 1
las el DA0FP0 0.97051
protestas protesta NCFP000 0.75
contra contra SPS00 0.976316
el el DA0MS0 1
Gobierno gobierno NP00000 1
que que PR0CN000 0.5625
agitan agitar VMIP3P0 1
a a SPS00 1
el el DA0MS0 1
pa pa NCFS000 0.740689
s segundo NCMN000 0.622321
desde desde SPS00 1
hace hacer VMIP3S0 1
m m NCFS000 0.5
s segundo NCMN000 0.622321
de de SPS00 0.999919
dos 2 Z 0.988722
semanas semana NCFP000 1
cuando cuando CS 0.983796
dos 2 Z 0.988722
importantes importante AQ0CP0 1
sindicatos sindicato NCMP000 1
convocaron convocar VMIS3P0 1
una uno DI0FS0 0.951241
huelga huelga NCFS000 0.916667
general general AQ0CS0 0.90625
para para SPS00 0.998507
apoyar apoyar VMN0000 1
a a SPS00 0.99585
los el DA0MP0 0.97623
manifestantes manifestante NCCP000 1
A a NP00000 1
el el DA0MS0 1
d d NCFS000 1
a a SPS00 0.99585
siguiente siguiente AQ0CS0 1
de de SPS00 0.999919
la el DA0FS0 0.972146
demostraci demostraci AQ0CS0 0.0199855
n n NCFS000 1
de de SPS00 0.999919
fuerza fuerza NCFS000 0.968254
de de SPS00 1
el el DA0MS0 1
primer 1 AO0MS0 1
ministro ministro NCMS000 1
turco turco AQ0MS0 0.875
Recep_Tayyip_Erdogan recep_tayyip_erdogan NP00000 1
que que PR0CN000 0.5625
reuni reuni RG 0.751648
a a SPS00 0.99585
m m NCFS000 0.5
s segundo NCMN000 0.622321
de de SPS00 0.999919
100 100 Z 1
000 0 Z 1
personas persona NCFP000 0.983871
su su DP3CS0 1
viceprimer viceprimero AQ0MS0 1
ministro ministro NCMS000 1
Bulent_Arin bulent_arin NP00000 1
endureci endureci VMIS1S0 0.0691907
el el DA0MS0 1
tono tono NCMS000 1
anunciando anunciar VMG0000 1
la el DA0FS0 0.972146
posibilidad posibilidad NCFS000 1
de de SPS00 0.999919
movilizar movilizar VMN0000 1
a a SPS00 0.99585
las el DA0FP0 0.97051
Fuerzas_Armadas fuerzas_armadas NP00000 1
para para SPS00 0.998507
que que PR0CN000 0.5625
regrese regresar VMSP1S0 0.444444
la el DA0FS0 0.972146
tranquilidad tranquilidad NCFS000 1
a a SPS00 0.99585
las el DA0FP0 0.97051
calles calle NCFP000 0.954545
Antes_que_nada antes_que_nada NP00000 1
un uno DI0MS0 0.986987
polic polic NCFS000 1
a a SPS00 0.99585
no no RN 0.99778
es ser VSIP3S0 1
un uno DI0MS0 0.986987
vendedor vendedor NCMS000 0.833333
ambulante ambulante AQ0CS0 1
sino sino CC 0.981707
un uno DI0MS0 0.986987
miembro miembro NCMS000 0.9
de de SPS00 0.999919
las el DA0FP0 0.97051
fuerzas fuerza NCFP000 0.954545
de de SPS00 1
el el DA0MS0 1
orden orden NCMS000 0.6
Los los NP00000 1
polic polic NCFS000 1
as as NCMS000 1
utilizar utilizar VMN0000 1
n n NCFS000 1
todos todo DI0MP0 0.622419
los el DA0MP0 0.97623
medios medio NCMP000 0.95
que que PR0CN000 0.5625
les le PP3CPD00 1
confiere conferir VMIP3S0 0.75
la el DA0FS0 0.972146
ley ley NCFS000 1
declar declar VMN0000 1
Arin arin NP00000 1
en en SPS00 1
una uno DI0FS0 0.951241
entrevista entrevista NCFS000 0.75
con con SPS00 1
el el DA0MS0 1
canal canal NCMS000 1
de de SPS00 0.999919
televisi televisi RG 1
n n NCFS000 1
A_Haber a_haber NP00000 1
agregando agregar VMG0000 1
que que CS 0.4375
nadie nadie PI0CS000 1
puede poder VMIP3S0 0.995614
quejar quejar VMN0000 1
se se PP3CN000 1
de de SPS00 0.999919
la el DA0FS0 0.972146
polic polic NCFS000 1
a a SPS00 0.99585
Si si NP00000 1
esto este PD0NS000 1
no no RN 0.99778
fuera ser VSSI1S0 0.343972
suficiente suficiente AQ0CS0 1
las el DA0FP0 0.97051
Fuerzas_Armadas fuerzas_armadas NP00000 1
turcas turco AQ0FP0 0.457494
pueden poder VMIP3P0 1
ser ser VSN0000 0.93883
utilizadas utilizar VMP00PF 1
en en SPS00 1
las el DA0FP0 0.97051
ciudades ciudad NCFP000 1
bajo bajo SPS00 0.866071
la el DA0FS0 0.972146
autoridad autoridad NCFS000 1
de de SPS00 0.999919
los el DA0MP0 0.97623
gobernadores gobernador NCMP000 0.542782
de de SPS00 0.999919
las el DA0FP0 0.97051
regiones región NCFP000 1
agreg agreg NCMS000 0.714133
Las_Fuerzas_Armadas_de_Turqu las_fuerzas_armadas_de_turqu NP00000 1
a a SPS00 0.99585
guardianas guardián NCFP000 0.542732
autoproclamadas autoproclamar VMP00PF 1
de de SPS00 1
el el DA0MS0 1
laicismo laicismo NCMS000 1
intervinieron intervenir VMIS3P0 1
regularmente regularmente RG 1
en en SPS00 1
la el DA0FS0 0.972146
vida vida NCFS000 1
pol pol NCMS000 0.861706
tica tica AQ0FS0 0.595788
turca turco NCFS000 0.612476
durante durante SPS00 1
el el DA0MS0 1
siglo_XX [s:xx] W 1
Erdogan erdogan NP00000 1
logr logr NCFS000 0.638487
controlar controlar VMN0000 1
las lo PP3FPA00 1
a a SPS00 0.99585
trav trav AQ0CS0 0.0433699
s segundo NCMN000 0.622321
de de SPS00 0.999919
varias varios DI0FP0 0.939394
purgas purga NCFP000 0.97348
y y CC 0.999812
un uno DI0MS0 0.986987
juicio juicio NCMS000 1
que que CS 0.4375
diezm diezm NCMS000 0.700265
a a SPS00 0.99585
la el DA0FS0 0.972146
jerarqu jerarqu NCMS000 0.774439
a a SPS00 0.99585
uniformada uniformar VMP00SF 1
La la NP00000 1
advertencia advertencia NCFS000 1
de de SPS00 1
el el DA0MS0 1
Gobierno gobierno NP00000 1
se se P00CN000 0.465602
produce producir VMIP3S0 0.961538
despu despu NCMS000 0.774439
s segundo NCMN000 0.622321
de de SPS00 0.999919
que que CS 0.4375
la el DA0FS0 0.972146
Confederaci confederaci NP00000 1
n n NCFS000 1
Sindical_de_Obreros_Revolucionarios_DISK sindical_de_obreros_revolucionarios_disk NP00000 1
y y CC 0.999812
la el DA0FS0 0.972146
Confederaci confederaci NP00000 1
n n NCFS000 1
Sindical sindical NP00000 1
de de SPS00 0.999919
empleados empleado NCMP000 0.7
de de SPS00 1
el el DA0MS0 1
sector sector NCMS000 1
p p NCFS000 0.5
blico blico AQ0MS0 0.400224
KESK kesk NP00000 1
decidieran decidir VMSI3P0 1
sumar sumar VMN0000 1
se se PP3CN000 1
a a SPS00 0.99585
las el DA0FP0 0.97051
protestas protesta NCFP000 0.75
El_Gobierno el_gobierno NP00000 1
turco turco AQ0MS0 0.875
amenaz amenaz AQ0CS0 0.803258
este este DD0MS0 0.956743
lunes [L:??/??/??:??.??:??] W 1
con con SPS00 1
recurrir recurrir VMN0000 1
a a SPS00 1
el el DA0MS0 1
ej ej NCMS000 0.692259
rcito rcito NCMS000 1
para para SPS00 0.998507
acallar acallar VMN0000 1
las el DA0FP0 0.97051
protestas protesta NCFP000 0.75
contra contra SPS00 0.976316
el el DA0MS0 1
Gobierno gobierno NP00000 1
que que PR0CN000 0.5625
agitan agitar VMIP3P0 1
a a SPS00 1
el el DA0MS0 1
pa pa NCFS000 0.740689
s segundo NCMN000 0.622321
desde desde SPS00 1
hace hacer VMIP3S0 1
m m NCFS000 0.5
s segundo NCMN000 0.622321
de de SPS00 0.999919
dos 2 Z 0.988722
semanas semana NCFP000 1
y y CC 0.999812
cuando cuando CS 0.983796
dos 2 Z 0.988722
importantes importante AQ0CP0 1
sindicatos sindicato NCMP000 1
convocaron convocar VMIS3P0 1
una uno DI0FS0 0.951241
huelga huelga NCFS000 0.916667
general general AQ0CS0 0.90625
para para SPS00 0.998507
apoyar apoyar VMN0000 1
a a SPS00 0.99585
los el DA0MP0 0.97623
manifestantes manifestante NCCP000 1
Como como NP00000 1
ya ya RG 0.996988
lo lo PP3CNA00 0.271163
hicieron hacer VMIS3P0 1
el el DA0MS0 1
5_de_junio [??:5/6/??:??.??:??] W 1
pasado pasar VMP00SM 0.647727
estas este DD0FP0 0.960526
dos 2 Z 0.988722
organizaciones organización NCFP000 1
consideradas considerar VMP00PF 1
de de SPS00 0.999919
izquierda izquierda NCFS000 0.5
lanzaron lanzar VMIS3P0 1
una uno DI0FS0 0.951241
llamada llamada NCFS000 0.125
a a SPS00 0.99585
la el DA0FS0 0.972146
huelga huelga NCFS000 0.916667
y y CC 0.999812
previeron prever VMIS3P0 1
manifestar manifestar VMN0000 1
se se PP3CN000 1
este este DD0MS0 0.956743
lunes [L:??/??/??:??.??:??] W 1
en en SPS00 1
direcci direcci RG 0.751648
n n NCFS000 1
a a SPS00 0.99585
la el DA0FS0 0.972146
plaza plaza NCFS000 1
Taksim_de_Estambul taksim_de_estambul NP00000 1
epicentro epicentro NCMS000 1
de de SPS00 0.999919
las el DA0FP0 0.97051
protestas protesta NCFP000 0.75
La la NP00000 1
plaza plaza NCFS000 1
fue ser VSIS3S0 0.932292
desalojada desalojar VMP00SF 1
por por SPS00 1
la el DA0FS0 0.972146
polic polic NCFS000 1
a a SPS00 0.99585
el el DA0MS0 1
s segundo NCMN000 0.622321
bado bado VMP00SM 0.818183
por por SPS00 1
la el DA0FS0 0.972146
noche noche NCFS000 1
y y CC 0.999812
permanece permanecer VMIP3S0 0.875
cercada cercar VMP00SF 1
por por SPS00 1
las el DA0FP0 0.97051
fuerzas fuerza NCFP000 0.954545
de de SPS00 0.999919
la el DA0FS0 0.972146
polic polic NCFS000 1
a a SPS00 0.99585
El el NP00000 1
domingo [G:??/??/??:??.??:??] W 1
la el DA0FS0 0.972146
polic polic NCFS000 1
a a SPS00 0.99585
se se PP3CN000 0.0687957
dedic dedic RG 0.5
a a SPS00 0.99585
repeler repeler VMN0000 1
a a SPS00 0.99585
los el DA0MP0 0.97623
manifestantes manifestante NCCP000 1
que que PR0CN000 0.5625
intentaban intentar VMII3P0 1
acercar acercar VMN0000 1
se se PP3CN000 1
a a SPS00 0.99585
la el DA0FS0 0.972146
plaza plaza NCFS000 1
Como como NP00000 1
respuesta respuesta NCFS000 1
a a SPS00 0.99585
este este DD0MS0 0.956743
nuevo nuevo AQ0MS0 1
desaf desaf I 1
o o CC 0.998845
de de SPS00 0.999919
los el DA0MP0 0.97623
sindicatos sindicato NCMP000 1
el el DA0MS0 1
Gobierno gobierno NP00000 1
turco turco AQ0MS0 0.875
que que PR0CN000 0.5625
se se P00CN000 0.465602
enfrenta enfrentar VMIP3S0 0.75
a a SPS00 0.99585
su su DP3CS0 1
peor peor AQ0CS0 0.9
ola ola NCFS000 1
de de SPS00 0.999919
protestas protesta NCFP000 0.75
desde desde SPS00 1
que que PR0CN000 0.5625
lleg lleg NCMS000 0.714133
a a SPS00 1
el el DA0MS0 1
poder poder NCMS000 0.711538
en en SPS00 1
2002 2002 Z 1
amenaz amenaz NCFS000 0.178877
con con SPS00 1
reprimir reprimir VMN0000 1
los el DA0MP0 0.97623
desfiles desfile NCMP000 0.75
sindicales sindical AQ0CP0 0.75
de de SPS00 0.999919
este este DD0MS0 0.956743
lunes [L:??/??/??:??.??:??] W 1
El el NP00000 1
ministro ministro NCMS000 1
de de SPS00 1
el el DA0MS0 1
Interior_Muammer_G interior_muammer_g NP00000 1
ler ler VMN0000 0.600416
declar declar VMN0000 1
la el DA0FS0 0.972146
huelga huelga NCFS000 0.916667
como como CS 0.998579
ilegal ilegal AQ0CS0 1
Hay hay NP00000 1
tentativas tentativa NCFP000 0.75
de de SPS00 0.999919
sacar sacar VMN0000 1
a a SPS00 0.99585
la el DA0FS0 0.972146
gente gente NCFS000 1
a a SPS00 0.99585
la el DA0FS0 0.972146
calle calle NCFS000 0.96875
para para SPS00 0.998507
acciones acción NCFP000 0.916667
ilegales ilegal AQ0CP0 1
como como CS 0.998579
una uno DI0FS0 0.951241
huelga huelga NCFS000 0.916667
pero pero CC 0.998821
las el DA0FP0 0.97051
fuerzas fuerza NCFP000 0.954545
de de SPS00 0.999919
seguridad seguridad NCFS000 1
no no RN 0.99778
lo lo PP3CNA00 0.271163
permitir permitir VMN0000 1
n n NCFS000 1
dijo decir VMIS3S0 1
G g NP00000 1
ler ler NCMS000 0.399584
en en SPS00 1
declaraciones declaración NCFP000 1
a a SPS00 0.99585
la el DA0FS0 0.972146
prensa prensa NCFS000 0.925926
Queremos queremos NP00000 1
que que CS 0.4375
la el DA0FS0 0.972146
violencia violencia NCFS000 1
policial policial AQ0CS0 1
cese cese NCMS000 0.618775
de de SPS00 0.999919
inmediato inmediato AQ0MS0 1
dijo decir VMIS3S0 1
a a SPS00 0.99585
AFP afp NP00000 1
el el DA0MS0 1
portavoz portavoz NCCS000 1
de de SPS00 0.999919
KESK_Baki_Cinar_Erdogan kesk_baki_cinar_erdogan NP00000 1
en en SPS00 1
el el DA0MS0 1
poder poder NCMS000 0.711538
desde desde SPS00 1
2002 2002 Z 1
justific justific NCMN000 0.5
la el DA0FS0 0.972146
actuaci actuaci AQ0CS0 0.0199855
n n NCFS000 1
policial policial AQ0CS0 1
ante ante SPS00 0.990566
unos uno DI0MP0 0.879032
100 100 Z 1
000 0 Z 1
simpatizantes simpatizante NCCP000 0.34273
de de SPS00 0.999919
su su DP3CS0 1
Partido_de_la_Justicia partido_de_la_justicia NP00000 1
y y CC 0.999812
el el DA0MS0 1
Desarrollo_AKP desarrollo_akp NP00000 1
el el DA0MS0 1
domingo_por_la_noche [G:??/??/??:??.??:pm] W 1
en en SPS00 1
Estambul_He estambul_he NP00000 1
dicho decir VMP00SM 0.958333
que que CS 0.4375
hab hab NCMS000 0.63631
amos amo NCMP000 1
llegado llegar VMP00SM 1
a a SPS00 1
el el DA0MS0 1
final final NCFS000 0.425926
Que que NP00000 1
se se P00CN000 0.465602
hab hab NCMS000 0.63631
a a SPS00 0.99585
vuelto volver VMP00SM 1
insoportable insoportable AQ0CS0 1
Ayer ayer NP00000 1
la el DA0FS0 0.972146
operaci operaci AQ0CS0 0.0199855
n n NCFS000 1
fue ser VSIS3S0 0.932292
llevada_a_cabo llevar_a_cabo VMP00SF 1
y y CC 0.999812
la el DA0FS0 0.972146
Plaza_Taksim plaza_taksim NP00000 1
y y CC 0.999812
el el DA0MS0 1
Parque_Gezi parque_gezi NP00000 1
fueron ser VSIS3P0 0.796296
limpiados limpiar VMP00PM 1
exclam exclam NCMS000 0.700265
Erdogan erdogan NP00000 1
ante ante SPS00 0.990566
los el DA0MP0 0.97623
gritos grito NCMP000 1
de de SPS00 0.999919
apoyo apoyo NCMS000 0.928571
de de SPS00 0.999919
la el DA0FS0 0.972146
multitud multitud NCFS000 1
En en NP00000 1
su su DP3CS0 1
mitin mitin NCMS000 1
de de SPS00 0.999919
m m NCFS000 0.5
s segundo NCMN000 0.622321
de de SPS00 0.999919
dos_horas TM_h:2 Zu 1
Erdogan erdogan NP00000 1
critic critic NCMN000 0.5
a a SPS00 0.99585
los el DA0MP0 0.97623
medios medio NCMP000 0.95
internacionales internacional AQ0CP0 0.928571
de de SPS00 0.999919
prensa prensa NCFS000 0.925926
c c NCFS000 1
mplices mplices AQ0CP0 1
de de SPS00 0.999919
los el DA0MP0 0.97623
terroristas terrorista NCCP000 0.625
a a SPS00 1
el el DA0MS0 1
Parlamento parlamento NP00000 1
europeo europeo AQ0MS0 0.9
que que PR0CN000 0.5625
sobrepasa sobrepasar VMIP3S0 0.75
los el DA0MP0 0.97623
l l NCFS000 0.639398
mites mites NCMP000 1
y y CC 0.999812
a a SPS00 0.99585
los el DA0MP0 0.97623
saqueadores saqueador NCMP000 0.642703
que que PR0CN000 0.5625
destruyen destruir VMIP3P0 1
el el DA0MS0 1
pa pa NCFS000 0.740689
s segundo NCMN000 0.622321
PRESI_N_EUROPEA_A presi_n_europea_a NP00000 1
el el DA0MS0 1
d d NCFS000 1
a a SPS00 0.99585
siguiente siguiente AQ0CS0 1
de de SPS00 0.999919
la el DA0FS0 0.972146
demostraci demostraci AQ0CS0 0.0199855
n n NCFS000 1
de de SPS00 0.999919
fuerza fuerza NCFS000 0.968254
de de SPS00 1
el el DA0MS0 1
primer 1 AO0MS0 1
ministro ministro NCMS000 1
turco turco AQ0MS0 0.875
Recep_Tayyip_Erdogan recep_tayyip_erdogan NP00000 1
que que PR0CN000 0.5625
reuni reuni RG 0.751648
a a SPS00 0.99585
m m NCFS000 0.5
s segundo NCMN000 0.622321
de de SPS00 0.999919
100 100 Z 1
000 0 Z 1
personas persona NCFP000 0.983871
su su DP3CS0 1
viceprimer viceprimero AQ0MS0 1
ministro ministro NCMS000 1
Bulent_Arin bulent_arin NP00000 1
endureci endureci VMIS1S0 0.0691907
el el DA0MS0 1
tono tono NCMS000 1
anunciando anunciar VMG0000 1
la el DA0FS0 0.972146
posibilidad posibilidad NCFS000 1
de de SPS00 0.999919
movilizar movilizar VMN0000 1
a a SPS00 0.99585
las el DA0FP0 0.97051
Fuerzas_Armadas fuerzas_armadas NP00000 1
para para SPS00 0.998507
que que PR0CN000 0.5625
regrese regresar VMSP1S0 0.444444
la el DA0FS0 0.972146
tranquilidad tranquilidad NCFS000 1
a a SPS00 0.99585
las el DA0FP0 0.97051
calles calle NCFP000 0.954545
La la NP00000 1
presi presi NCMS000 1
n n NCFS000 1
sobre sobre SPS00 0.994203
Erdogan erdogan NP00000 1
viene venir VMIP3S0 1
tambi tambi AQ0CN0 1
n n NCFS000 1
de de SPS00 0.999919
sus su DP3CP0 0.998462
vecinos vecino NCMP000 0.928571
europeos europeo AQ0MP0 0.5
La la NP00000 1
represi represi RG 1
n n NCFS000 1
es ser VSIP3S0 1
demasiado demasiado RG 0.93
dura duro AQ0FS0 0.925926
declar declar VMN0000 1
la el DA0FS0 0.972146
canciller canciller NCMS000 1
alemana alemán AQ0FS0 0.833333
Angela_Merkel angela_merkel NP00000 1
en en SPS00 1
una uno DI0FS0 0.951241
entrevista entrevista NCFS000 0.75
que que PR0CN000 0.5625
el el DA0MS0 1
canal canal NCMS000 1
de de SPS00 0.999919
televisi televisi RG 1
n n NCFS000 1
RTL rtl NP00000 1
difundir difundir VMN0000 1
este este DD0MS0 0.956743
lunes_por_la_noche [L:??/??/??:??.??:pm] W 1
La la NP00000 1
ola ola NCFS000 1
de de SPS00 0.999919
protestas protesta NCFP000 0.75
se se P00CN000 0.465602
propag propag RG 1
por por SPS00 1
todo todo DI0MS0 0.559816
el el DA0MS0 1
pa pa NCFS000 0.740689
s segundo NCMN000 0.622321
cuando cuando CS 0.983796
la el DA0FS0 0.972146
polic polic NCFS000 1
a a SPS00 0.99585
desaloj desaloj NCMS000 0.692308
el el DA0MS0 1
31_de_mayo [??:31/5/??:??.??:??] W 1
a_centenares a_centenares RG 1
de de SPS00 0.999919
ecologistas ecologista NCCP000 0.581859
que que PR0CN000 0.5625
protestaban protestar VMII3P0 1
contra contra SPS00 0.976316
la el DA0FS0 0.972146
destrucci destrucci NCMS000 0.0996348
n n NCFS000 1
anunciada anunciar VMP00SF 1
de de SPS00 1
el el DA0MS0 1
Parque_Gezi parque_gezi NP00000 1
y y CC 0.999812
de de SPS00 0.999919
sus su DP3CP0 0.998462
600 600 Z 1
pl pl AQ0CS0 0.587402
tanos tanos NCMP000 1
El el NP00000 1
movimiento movimiento NCMS000 1
tom tom NCMS000 0.500053
r r NCFS000 0.638487
pidamente pidamente RG 1
otra otro DI0FS0 0.801136
dimensi dimensi RG 1
n n NCFS000 1
y y CC 0.999812
apunt apunt NCMS000 0.607342
directamente directamente RG 1
a a SPS00 0.99585
Erdogan erdogan NP00000 1
acusado acusar VMP00SM 0.75
de de SPS00 0.999919
autoritarismo autoritarismo NCMS000 1
y y CC 0.999812
de de SPS00 0.999919
querer querer VMN0000 0.9
islamizar islamizar VMN0000 1
a a SPS00 0.99585
un uno DI0MS0 0.986987
pa pa NCFS000 0.740689
s segundo NCMN000 0.622321
de de SPS00 0.999919
76_millones 76000000 Zd 1
de de SPS00 0.999919
habitantes habitante NCCP000 1
con con SPS00 1
profundas profundo AQ0FP0 0.97439
ra ra NCFS000 0.55396
ces c NCFP000 1
laicas laico AQ0FP0 0.596385
mediante mediante SPS00 0.944444
leyes ley NCFP000 1
que que PR0CN000 0.5625
proh proh NCFS000 0.5
ben ben NCMS000 1
la el DA0FS0 0.972146
venta venta NCFS000 1
de de SPS00 0.999919
alcohol alcohol NCMS000 1
o o CC 0.998845
autorizan autorizar VMIP3P0 1
el el DA0MS0 1
velo velo NCMS000 0.841777
isl isl AQ0CS0 0.587402
mico mico NCMS000 1
en en SPS00 1
las el DA0FP0 0.97051
universidades universidad NCFP000 1
Los los NP00000 1
sindicatos sindicato NCMP000 1
KESK kesk NP00000 1
y y CC 0.999812
el el DA0MS0 1
DISK disk NP00000 1
ya ya RG 0.996988
hab hab NCMS000 0.63631
an an NCFS000 1
convocado convocar VMP00SM 1
dos_d TM_d:2 Zu 1
as as NCMS000 1
de de SPS00 0.999919
huelga huelga NCFS000 0.916667
hace hacer VMIP3S0 1
dos 2 Z 0.988722
semanas semana NCFP000 1
para para SPS00 0.998507
apoyar apoyar VMN0000 1
a a SPS00 0.99585
los el DA0MP0 0.97623
manifestantes manifestante NCCP000 1
que que PR0CN000 0.5625
hab hab NCMS000 0.63631
an an NCFS000 1
sacado sacar VMP00SM 1
a_centenares a_centenares RG 1
de de SPS00 0.999919
miles mil NCMP000 1
de de SPS00 0.999919
personas persona NCFP000 0.983871
a a SPS00 0.99585
la el DA0FS0 0.972146
calle calle NCFS000 0.96875
Pero_Erdogan pero_erdogan NP00000 1
de de SPS00 0.999919
59 59 Z 1
a a SPS00 0.99585
os o NCFP000 0.222222
de de SPS00 0.999919
edad edad NCFS000 1
sigue seguir VMIP3S0 0.982759
teniendo tener VMG0000 1
una uno DI0FS0 0.951241
fuerte fuerte AQ0CS0 0.892857
base base NCCS000 0.955882
de de SPS00 0.999919
apoyo apoyo NCMS000 0.928571
social social AQ0CS0 0.977273
El_AKP el_akp NP00000 1
gan gan VMIP3P0 0.787947
las el DA0FP0 0.97051
ltimas ltimas NCFP000 1
tres 3 Z 1
elecciones elección NCFP000 1
con con SPS00 1
casi casi RG 1
la el DA0FS0 0.972146
mitad mitad NCFS000 1
de de SPS00 0.999919
los el DA0MP0 0.97623
votos voto NCMP000 1
en en SPS00 1
2011 2011 Z 1
y y CC 0.999812
el el DA0MS0 1
pa pa NCFS000 0.740689
s segundo NCMN000 0.622321
registr registr AQ0CS0 0.0829965
en en SPS00 1
los el DA0MP0 0.97623
ltimos ltimos VMIP1P0 0.856975
a a SPS00 0.99585
os os PP2CP000 0.722222
un uno DI0MS0 0.986987
fuerte fuerte AQ0CS0 0.892857
crecimiento crecimiento NCMS000 1
econ econ NCMS000 1
mico mico NCMS000 1
Seg seg NP00000 1
n n NCFS000 1
un uno DI0MS0 0.986987
sondeo sondeo NCMS000 0.973496
en en SPS00 1
su su DP3CS0 1
mayor mayor AQ0CS0 0.989796
a a SPS00 0.99585
los el DA0MP0 0.97623
turcos turco NCMP000 0.642602
son ser VSIP3P0 0.986772
hostiles hostil AQ0CP0 1
a a SPS00 1
el el DA0MS0 1
proyecto proyecto NCMS000 0.9375
urban urban VMII3P0 0.956767
stico stico NCMS000 0.499754
de de SPS00 1
el el DA0MS0 1
Gobierno gobierno NP00000 1
en en SPS00 1
el el DA0MS0 1
Parque_Gezi_de_Estambul parque_gezi_de_estambul NP00000 1
200 200 Z 1
oficinas oficina NCFP000 1
en en SPS00 1
150 150 Z 1
pa pa NCFS000 0.740689
ses ses NCMP000 0.727093
Ampliar_Desea ampliar_desea NP00000 1
compartir compartir VMN0000 1
una uno DI0FS0 0.951241
informaci informaci AQ0CS0 0.0199855
n n NCFS000 1
un uno DI0MS0 0.986987
comentario comentario NCMS000 1
Escr escr NP00000 1
banos banos NCMP000 0.509288
a a SPS00 0.99585

