ANKARA_AFP ankara_afp NP00000 1
photo0 photo0 Z 1
La la NP00000 1
huelga huelga NCFS000 0.916667
general general AQ0CS0 0.90625
convocada convocar VMP00SF 1
por por SPS00 1
dos 2 Z 0.988722
sindicatos sindicato NCMP000 1
en en SPS00 1
apoyo apoyo NCMS000 0.928571
a a SPS00 0.99585
las el DA0FP0 0.97051
protestas protesta NCFP000 0.75
antigubernamentales antigubernamental AQ0CP0 1
en en SPS00 1
Turqu turqu NP00000 1
a a SPS00 0.99585
es ser VSIP3S0 1
ilegal ilegal AQ0CS0 1
y y CC 0.999812
las el DA0FP0 0.97051
manifestaciones manifestación NCFP000 1
ser ser VSN0000 0.93883
n n NCFS000 1
reprimidas reprimir VMP00PF 1
dijo decir VMIS3S0 1
este este DD0MS0 0.956743
lunes [L:??/??/??:??.??:??] W 1
en en SPS00 1
Ankara ankara NP00000 1
el el DA0MS0 1
ministro ministro NCMS000 1
turco turco AQ0MS0 0.875
de de SPS00 1
el el DA0MS0 1
interior interior NCMS000 0.5
Muammer_G muammer_g NP00000 1
ler ler NCMS000 0.399584
Hay hay NP00000 1
esfuerzos esfuerzo NCMP000 1
para para SPS00 0.998507
sacar sacar VMN0000 1
la el DA0FS0 0.972146
gente gente NCFS000 1
a a SPS00 0.99585
la el DA0FS0 0.972146
calle calle NCFS000 0.96875
para para SPS00 0.998507
acciones acción NCFP000 0.916667
ilegales ilegal AQ0CP0 1
como como CS 0.998579
una uno DI0FS0 0.951241
huelga huelga NCFS000 0.916667
dijo decir VMIS3S0 1
G g NP00000 1
ler ler NCMS000 0.399584
en en SPS00 1
declaraciones declaración NCFP000 1
a a SPS00 0.99585
la el DA0FS0 0.972146
prensa prensa NCFS000 0.925926
Las las NP00000 1
fuerzas fuerza NCFP000 0.954545
de de SPS00 0.999919
seguridad seguridad NCFS000 1
no no RN 0.99778
lo lo PP3CNA00 0.271163
permitir permitir VMN0000 1
n n NCFS000 1
agreg agreg RG 0.14318
Un uno DI0MS0 0.986987
colectivo colectivo NCMS000 0.25
de de SPS00 0.999919
sindicatos sindicato NCMP000 1
entre entre SPS00 0.995223
ellos ellos PP3MP000 1
dos 2 Z 0.988722
grandes grande AQ0CP0 0.95
federaciones federación NCFP000 1
de de SPS00 0.999919
obreros obrero NCMP000 0.9375
y y CC 0.999812
funcionarios funcionario NCMP000 1
DISK disk NP00000 1
y y CC 0.999812
KESK kesk NP00000 1
que que PR0CN000 0.5625
re re NCMS000 0.64128
nen nen VMIP3P0 0.987644
a_cerca_de a_cerca_de SPS00 1
700 700 Z 1
000 0 Z 1
miembros miembro NCMP000 0.916667
convocaron convocar VMIS3P0 1
una uno DI0FS0 0.951241
huelga huelga NCFS000 0.916667
para para SPS00 0.998507
este este DD0MS0 0.956743
lunes [L:??/??/??:??.??:??] W 1
Es es NP00000 1
imposible imposible AQ0CS0 0.977273
entender entender VMN0000 0.9
la el DA0FS0 0.972146
insistencia insistencia NCFS000 1
en en SPS00 1
continuar continuar VMN0000 1
con con SPS00 1
las el DA0FP0 0.97051
protestas protesta NCFP000 0.75
que que PR0CN000 0.5625
sacuden sacudir VMIP3P0 1
desde desde SPS00 1
hace hacer VMIP3S0 1
m m NCFS000 0.5
s segundo NCMN000 0.622321
de de SPS00 0.999919
dos 2 Z 0.988722
semanas semana NCFP000 1
las el DA0FP0 0.97051
principales principal AQ0CP0 0.875
ciudades ciudad NCFP000 1
de de SPS00 0.999919
Turqu turqu NP00000 1
a a SPS00 0.99585
dijo decir VMIS3S0 1
el el DA0MS0 1
ministro ministro NCMS000 1
Los los NP00000 1
sindicatos sindicato NCMP000 1
tienen tener VMIP3P0 1
previsto prever VMP00SM 1
reunir reunir VMN0000 1
se se PP3CN000 1
a a SPS00 0.99585
las el DA0FP0 0.97051
16H00 16H00 Z 1
locales local NCMP000 0.75
13H00 13H00 Z 1
GMT gmt NP00000 1
en en SPS00 1
Estambul estambul NP00000 1
para para SPS00 0.998507
marchar marchar VMN0000 1
hacia hacia SPS00 1
la el DA0FS0 0.972146
plaza plaza NCFS000 1
Taksim taksim NP00000 1
acordonada acordonar VMP00SF 1
por por SPS00 1
la el DA0FS0 0.972146
polic polic NCFS000 1
a a SPS00 0.99585
La la NP00000 1
polic polic NCFS000 1
a a SPS00 0.99585
turca turco NCFS000 0.612476
detuvo detener VMIS3S0 1
a a SPS00 0.99585
unas uno DI0FP0 0.925926
600 600 Z 1
personas persona NCFP000 0.983871
el el DA0MS0 1
domingo [G:??/??/??:??.??:??] W 1
en en SPS00 1
Estambul estambul NP00000 1
y y CC 0.999812
Ankara ankara NP00000 1
donde donde PR000000 0.963542
hubo haber VMIS3S0 0.95
manifestaciones manifestación NCFP000 1
contra contra SPS00 0.976316
el el DA0MS0 1
Gobierno gobierno NP00000 1
informaron informar VMIS3P0 1
los el DA0MP0 0.97623
colegios colegio NCMP000 0.75
de de SPS00 0.999919
abogados abogado NCMP000 0.833333
de de SPS00 0.999919
ambas ambos DI0FP0 0.785714
ciudades ciudad NCFP000 1
Unos unos NP00000 1
460 460 Z 1
manifestantes manifestante NCCP000 1
fueron ser VSIS3P0 0.796296
detenidos detener VMP00PM 0.691767
por por SPS00 1
la el DA0FS0 0.972146
polic polic NCFS000 1
a a SPS00 0.99585
en en SPS00 1
Estambul estambul NP00000 1
el el DA0MS0 1
domingo [G:??/??/??:??.??:??] W 1
dijo decir VMIS3S0 1
a a SPS00 0.99585
AFP afp NP00000 1
un uno DI0MS0 0.986987
dirigente dirigente NCCS000 0.25
de de SPS00 1
el el DA0MS0 1
colegio colegio NCMS000 0.875
de de SPS00 0.999919
abogados abogado NCMP000 0.833333
de de SPS00 0.999919
esa ese DD0FS0 0.978261
ciudad ciudad NCFS000 1
En_Ankara en_ankara NP00000 1
donde donde PR000000 0.963542
tambi tambi AQ0CN0 1
n n NCFS000 1
hubo haber VMIS3S0 0.95
enfrentamientos enfrentamiento NCMP000 1
entre entre SPS00 0.995223
100 100 Z 1
y y CC 0.999812
130 130 Z 1
personas persona NCFP000 0.983871
fueron ser VSIS3P0 0.796296
detenidas detener VMP00PF 0.391767
dijo decir VMIS3S0 1
por por SPS00 1
su su DP3CS0 1
parte parte NCFS000 0.497967
un uno DI0MS0 0.986987
responsable responsable NCCS000 0.416667
de de SPS00 1
el el DA0MS0 1
colegio colegio NCMS000 0.875
de de SPS00 0.999919
abogados abogado NCMP000 0.833333
de de SPS00 0.999919
la el DA0FS0 0.972146
capital capital NCFS000 0.372549
La la NP00000 1
polic polic NCFS000 1
a a SPS00 0.99585
puede poder VMIP3S0 0.995614
interrogar interrogar VMN0000 1
a a SPS00 0.99585
los el DA0MP0 0.97623
detenidos detenido NCMP000 0.308233
durante durante SPS00 1
cuatro_d TM_d:4 Zu 1
as as NCMS000 1
a_el_cabo_de al_cabo_de SPS00 1
los el DA0MP0 0.97623
cuales cual PR0CP000 1
debe deber VMIP3S0 0.974359
liberar liberar VMN0000 1
los lo PP3MPA00 1
o o CC 0.998845
presentar presentar VMN0000 1
los lo PP3MPA00 1
a a SPS00 0.99585
un uno DI0MS0 0.986987
juez juez NCCS000 1
200 200 Z 1
oficinas oficina NCFP000 1
en en SPS00 1
150 150 Z 1
pa pa NCFS000 0.740689
ses ses NCMP000 0.727093
Ampliar_Desea ampliar_desea NP00000 1
compartir compartir VMN0000 1
una uno DI0FS0 0.951241
informaci informaci AQ0CS0 0.0199855
n n NCFS000 1
un uno DI0MS0 0.986987
comentario comentario NCMS000 1
Escr escr NP00000 1
banos banos NCMP000 0.509288
a a SPS00 0.99585

