ATENAS_AFP_El atenas_afp_el NP00000 1
peque peque NCCS000 0.618697
o o CC 0.998845
partido partido NCMS000 0.886364
de de SPS00 0.999919
izquierda izquierdo AQ0FS0 0.5
griego griego NCMS000 0.49278
Dimar dimar NP00000 1
abandonar abandonar VMN0000 1
la el DA0FS0 0.972146
coalici coalici AQ0CS0 0.0199855
n n NCFS000 1
gubernamental gubernamental AQ0CS0 1
dirigida dirigir VMP00SF 1
por por SPS00 1
el el DA0MS0 1
conservador conservador AQ0MS0 0.875
primer 1 AO0MS0 1
ministro ministro NCMS000 1
Antonis_Samaras antonis_samaras NP00000 1
inform inform NCMS000 0.700265
este este DD0MS0 0.956743
viernes [V:??/??/??:??.??:??] W 1
el el DA0MS0 1
ministro ministro NCMS000 1
de de SPS00 0.999919
Reforma_de_la_Administraci reforma_de_la_administraci NP00000 1
n n NCFS000 1
Antonis_Manitakis_Tras antonis_manitakis_tras NP00000 1
una uno DI0FS0 0.951241
reuni reuni AQ0CS0 0.0199855
n n NCFS000 1
de de SPS00 1
el el DA0MS0 1
grupo grupo NCMS000 1
parlamentario parlamentario AQ0MS0 0.75
Dimar dimar NP00000 1
con con SPS00 1
el el DA0MS0 1
jefe jefe NCMS000 1
de de SPS00 1
el el DA0MS0 1
gobierno gobierno NCMS000 0.9
sobre sobre SPS00 0.994203
la el DA0FS0 0.972146
cuesti cuesti NCMS000 1
n n NCFS000 1
de de SPS00 1
el el DA0MS0 1
cierre cierre NCMS000 0.899603
de de SPS00 0.999919
la el DA0FS0 0.972146
radiotelevisi radiotelevisi RG 1
n n NCFS000 1
p p NCFS000 0.5
blica blica AQ0FS0 1
Manitakis manitakis NP00000 1
indic indic RG 0.5
que que CS 0.4375
presentar presentar VMN0000 1
su su DP3CS0 1
dimisi dimisi RG 1
n n NCFS000 1
tras tras SPS00 1
la el DA0FS0 0.972146
decisi decisi RG 1
n n NCFS000 1
de de SPS00 1
el el DA0MS0 1
partido partido NCMS000 0.886364
de de SPS00 0.999919
retirar retirar VMN0000 1
se se PP3CN000 1
de de SPS00 1
el el DA0MS0 1
gobierno gobierno NCMS000 0.9
200 200 Z 1
oficinas oficina NCFP000 1
en en SPS00 1
150 150 Z 1
pa pa NCFS000 0.740689
ses ses NCMP000 0.727093
Ampliar_Desea ampliar_desea NP00000 1
compartir compartir VMN0000 1
una uno DI0FS0 0.951241
informaci informaci AQ0CS0 0.0199855
n n NCFS000 1
un uno DI0MS0 0.986987
comentario comentario NCMS000 1
Escr escr NP00000 1
banos banos NCMP000 0.509288
a a SPS00 0.99585

