DAMASCO_AFP_El damasco_afp_el NP00000 1
r r NCFS000 0.638487
gimen gemir VMIP3P0 1
de de SPS00 1
el el DA0MS0 1
presidente presidente NCMS000 1
Bashar bashar NP00000 1
a a SPS00 1
el el DA0MS0 1
Asad asad NP00000 1
no no RN 0.99778
tiene tener VMIP3S0 1
la el DA0FS0 0.972146
intenci intenci AQ0CS0 0.0199855
n n NCFS000 1
de de SPS00 0.999919
ceder ceder VMN0000 1
el el DA0MS0 1
poder poder NCMS000 0.711538
en en SPS00 1
la el DA0FS0 0.972146
Conferencia_de_Ginebra conferencia_de_ginebra NP00000 1
prevista prever VMP00SF 1
en en SPS00 1
los el DA0MP0 0.97623
pr pr NCMS000 0.224371
ximos ximos AQ0MP0 1
meses mes NCMP000 0.964286
afirm afirm NCMS000 0.700265
este este DD0MS0 0.956743
lunes [L:??/??/??:??.??:??] W 1
en en SPS00 1
Damasco damasco NP00000 1
el el DA0MS0 1
ministro ministro NCMS000 1
de de SPS00 0.999919
Exteriores exteriores NP00000 1
sirio sirio NCMS000 0.642651
Walid_Mualem_No walid_mualem_no NP00000 1
vamos ir VMIP1P0 0.633333
a a SPS00 0.99585
Ginebra ginebra NP00000 1
a a SPS00 0.99585
entregar entregar VMN0000 1
el el DA0MS0 1
poder poder NCMS000 0.711538
a a SPS00 0.99585
la el DA0FS0 0.972146
otra otro DI0FS0 0.801136
parte parte NCFS000 0.497967
dijo decir VMIS3S0 1
Mualem_El mualem_el NP00000 1
objetivo objetivo NCMS000 0.761905
es ser VSIP3S0 1
establecer establecer VMN0000 1
una uno DI0FS0 0.951241
verdadera verdadero AQ0FS0 1
asociaci asociaci NCMS000 0.0996348
n n NCFS000 1
y y CC 0.999812
un uno DI0MS0 0.986987
amplio amplio AQ0MS0 1
gobierno gobierno NCMS000 0.9
de de SPS00 0.999919
uni uni AQ0CN0 1
n n NCFS000 1
nacional nacional AQ0CS0 1
que que PR0CN000 0.5625
incluya incluir VMSP3S0 0.623432
a a SPS00 0.99585
representantes representante NCCP000 0.875
de de SPS00 0.999919
todas todo DI0FP0 0.945312
las el DA0FP0 0.97051
categor categor NCMS000 0.909104
as as NCMS000 1
de de SPS00 1
el el DA0MS0 1
pueblo pueblo NCMS000 0.978261
dijo decir VMIS3S0 1
Mualem mualem NP00000 1
en en SPS00 1
una uno DI0FS0 0.951241
conferencia conferencia NCFS000 0.666667
de de SPS00 0.999919
prensa prensa NCFS000 0.925926
Si si NP00000 1
la el DA0FS0 0.972146
condici condici AQ0CS0 0.0199855
n n NCFS000 1
es ser VSIP3S0 1
que que CS 0.4375
el el DA0MS0 1
presidente presidente NCMS000 1
Asad asad NP00000 1
renuncie renunciar VMSP3S0 0.62344
no no RN 0.99778
se se P00CN000 0.465602
molesten molestar VMSP3P0 0.901254
en en SPS00 1
participar participar VMN0000 1
a a SPS00 0.99585
Ginebra_El ginebra_el NP00000 1
presidente presidente NCMS000 1
Asad asad NP00000 1
no no RN 0.99778
renunciar renunciar VMN0000 1
a a SPS00 0.99585
adi adar VMIS1S0 0.994868
el el DA0MS0 1
ministro ministro NCMS000 1
en en SPS00 1
referencia referencia NCFS000 0.666667
a a SPS00 0.99585
la el DA0FS0 0.972146
principal principal AQ0CS0 0.9375
reivindicaci reivindicaci NCMS000 0.0996348
n n NCFS000 1
de de SPS00 0.999919
la el DA0FS0 0.972146
oposici oposici AQ0CS0 0.0199855
n n NCFS000 1
Por por NP00000 1
otra otro DI0FS0 0.801136
parte parte NCFS000 0.497967
tras tras SPS00 1
la el DA0FS0 0.972146
decisi decisi RG 1
n n NCFS000 1
de de SPS00 1
el el DA0MS0 1
grupo grupo NCMS000 1
de de SPS00 0.999919
los el DA0MP0 0.97623
Amigos_de_Siria amigos_de_siria NP00000 1
en en SPS00 1
Doha doha NP00000 1
de de SPS00 0.999919
reforzar reforzar VMN0000 1
su su DP3CS0 1
ayuda ayuda NCFS000 0.866667
a a SPS00 0.99585
la el DA0FS0 0.972146
oposici oposici AQ0CS0 0.0199855
n n NCFS000 1
Mualem mualem NP00000 1
afirm afirm NCMS000 0.700265
que que PR0CN000 0.5625
si si CS 0.997706
se se P00CN000 0.465602
arma armar VMIP3S0 0.0277778
a a SPS00 0.99585
los el DA0MP0 0.97623
rebeldes rebelde NCCP000 0.361519
en en SPS00 1
Siria siria NP00000 1
se se P00CN000 0.465602
prolongar prolongar VMN0000 1
a a SPS00 0.99585
el el DA0MS0 1
conflicto conflicto NCMS000 1
en en SPS00 1
el el DA0MS0 1
pa pa NCFS000 0.740689
s segundo NCMN000 0.622321
Esto esto NP00000 1
prolongar prolongar VMN0000 1
la el DA0FS0 0.972146
crisis crisis NCFN000 1
alentar alentar VMN0000 1
a a SPS00 0.99585
los el DA0MP0 0.97623
terroristas terrorista NCCP000 0.625
a a SPS00 0.99585
cometer cometer VMN0000 1
m m NCFS000 0.5
s segundo NCMN000 0.622321
cr cr NCMS000 1
menes menes NCMP000 1
pondr pondr AQ0CS0 0.0829965
trabas traba NCFP000 0.973497
a a SPS00 0.99585
la el DA0FS0 0.972146
conferencia conferencia NCFS000 0.666667
de de SPS00 0.999919
Ginebra ginebra NP00000 1
declar declar VMN0000 1
el el DA0MS0 1
ministro ministro NCMS000 1
sirio sirio AQ0MS0 0.357349
en en SPS00 1
esta este DD0FS0 0.982143
rueda rueda NCFS000 0.666667
de de SPS00 0.999919
prensa prensa NCFS000 0.925926
200 200 Z 1
oficinas oficina NCFP000 1
en en SPS00 1
150 150 Z 1
pa pa NCFS000 0.740689
ses ses NCMP000 0.727093
Ampliar_Desea ampliar_desea NP00000 1
compartir compartir VMN0000 1
una uno DI0FS0 0.951241
informaci informaci AQ0CS0 0.0199855
n n NCFS000 1
un uno DI0MS0 0.986987
comentario comentario NCMS000 1
Escr escr NP00000 1
banos banos NCMP000 0.509288
a a SPS00 0.99585

