LONDRES_AFP_Hemos londres_afp_hemos NP00000 1
ganado ganar VMP00SM 0.357143
la el DA0FS0 0.972146
guerra guerra NCFS000 1
asegura asegurar VMIP3S0 0.875
orgulloso orgulloso AQ0MS0 0.75
Julian_Assange julian_assange NP00000 1
el el DA0MS0 1
australiano australiano NCMS000 0.64273
fundador fundador AQ0MS0 0.25
de de SPS00 1
el el DA0MS0 1
portal portal NCMS000 0.833333
WikiLeaks wikileaks NP00000 1
recluido recluir VMP00SM 1
desde desde SPS00 1
hace hacer VMIP3S0 1
un uno DI0MS0 0.986987
a a SPS00 0.99585
o o CC 0.998845
entre entre SPS00 0.995223
las el DA0FP0 0.97051
cuatro 4 Z 1
paredes pared NCFP000 1
de de SPS00 0.999919
la el DA0FS0 0.972146
modesta modesto AQ0FS0 0.833333
embajada embajada NCFS000 1
de de SPS00 0.999919
Ecuador ecuador NP00000 1
en en SPS00 1
Londres londres NP00000 1
sin sin SPS00 1
esperanza esperanza NCFS000 0.925926
de de SPS00 0.999919
salir salir VMN0000 1
pronto pronto RG 0.791667
de de SPS00 0.999919
su su DP3CS0 1
prisi prisi RG 1
n n NCFS000 1
diplom diplom NCMS000 0.500053
tica tica AQ0FS0 0.595788
Represent represent NP00000 1
bamos bamos VMII1P0 0.954217
una uno DI0FS0 0.951241
peque peque NCCS000 0.618697
a a SPS00 0.99585
' ' Fe 1
web web NCFS000 0.64221
' ' Fe 1
radical radical AQ0CS0 0.9
decidida decidir VMP00SF 1
a a SPS00 0.99585
publicar publicar VMN0000 1
la el DA0FS0 0.972146
verdad verdad NCFS000 1
sobre sobre SPS00 0.994203
la el DA0FS0 0.972146
guerra guerra NCFS000 1
sobre sobre SPS00 0.994203
los el DA0MP0 0.97623
servicios servicio NCMP000 1
de de SPS00 0.999919
inteligencia inteligencia NCFS000 1
y y CC 0.999812
sobre sobre SPS00 0.994203
la el DA0FS0 0.972146
corrupci corrupci AQ0CS0 0.0199855
n n NCFS000 1
a a SPS00 0.99585
gran gran AQ0CS0 1
escala escala NCFS000 0.833333
atacando atacar VMG0000 1
de de SPS00 0.999919
frente_a frente_a SPS00 1
el el DA0MS0 1
Pent pent NP00000 1
gono gono NCMS000 0.89996
a a SPS00 1
el el DA0MS0 1
departamento departamento NCMS000 1
de de SPS00 0.999919
Estado_Nuestras estado_nuestras NP00000 1
posibilidades posibilidad NCFP000 1
de de SPS00 0.999919
ganar ganar VMN0000 1
A_priori a_priori NP00000 1
eran ser VSII3P0 0.963415
nulas nulo AQ0FP0 1
Pero pero NP00000 1
ganamos ganar VMIP1P0 0.649998
insiste insistir VMIP3S0 0.9
en en SPS00 1
una uno DI0FS0 0.951241
entrevista entrevista NCFS000 0.75
con con SPS00 1
AFP afp NP00000 1
el el DA0MS0 1
australiano australiano NCMS000 0.64273
de de SPS00 0.999919
41 41 Z 1
a a SPS00 0.99585
os o NCFP000 0.222222
que que PR0CN000 0.5625
se se P00CN000 0.465602
ve ver VMIP3S0 0.971154
como como CS 0.998579
un uno DI0MS0 0.986987
David david NP00000 1
ante ante SPS00 0.990566
el el DA0MS0 1
poderoso poderoso NCMS000 0.375
Goliat goliat NP00000 1
estadounidense estadounidense AQ0CS0 0.833333
Enemigo_de_Washington enemigo_de_washington NP00000 1
por por SPS00 1
haber haber VAN0000 0.744444
difundido difundir VMP00SM 1
cientos ciento NCMP000 1
de de SPS00 0.999919
miles mil NCMP000 1
de de SPS00 0.999919
documentos documento NCMP000 1
secretos secreto AQ0MP0 0.3
diplom diplom NCMS000 0.500053
ticos ticos AQ0MP0 0.671839
y y CC 0.999812
militares militar AQ0CP0 0.541667
Assange assange NP00000 1
habla hablar VMIP3S0 0.880952
con con SPS00 1
un uno DI0MS0 0.986987
hilo hilo NCMS000 0.833333
de de SPS00 0.999919
voz voz NCFS000 1
de de SPS00 0.999919
su su DP3CS0 1
detenci detenci AQ0CS0 0.0199855
n n NCFS000 1
en en SPS00 1
Londres londres NP00000 1
el el DA0MS0 1
7_de_diciembre_de_2010 [??:7/12/2010:??.??:??] W 1
Pas pas NP00000 1
10_d TM_d:10 Zu 1
as as NCMS000 1
en en SPS00 1
una uno DI0FS0 0.951241
celda celda NCFS000 1
de de SPS00 0.999919
aislamiento aislamiento NCMS000 1
y y CC 0.999812
590_d TM_d:590 Zu 1
as as NCMS000 1
en en SPS00 1
arresto arresto NCMS000 0.973494
domiciliario domiciliario AQ0MS0 1
dice decir VMIP3S0 1
El el NP00000 1
tiempo tiempo NCMS000 1
necesario necesario AQ0MS0 1
para para SPS00 0.998507
librar librar VMN0000 1
y y CC 0.999812
perder perder VMN0000 1
una uno DI0FS0 0.951241
batalla batalla NCFS000 0.904762
contra contra SPS00 0.976316
su su DP3CS0 1
extradici extradici AQ0CS0 0.0199855
n n NCFS000 1
a a SPS00 0.99585
Suecia suecia NP00000 1
para para SPS00 0.998507
responder responder VMN0000 1
a a SPS00 0.99585
supuestas suponer VMP00PF 1
acusaciones acusación NCFP000 1
de de SPS00 0.999919
agresi agresi RG 1
n n NCFS000 1
sexual sexual AQ0CS0 1
que que PR0CN000 0.5625
niega negar VMIP3S0 0.833333
Tras tras NP00000 1
el el DA0MS0 1
marat marat NCMS000 1
n n NCFS000 1
judicial judicial AQ0CS0 1
empez empez NCMS000 1
el el DA0MS0 1
l l NCFS000 0.639398
o o CC 0.998845
diplom diplom NCMS000 0.500053
tico tico AQ0MS0 0.806828
El el NP00000 1
19_de_junio_de_2013 [??:19/6/2013:??.??:??] W 1
har har VMN0000 1
exactamente exactamente RG 1
365_d TM_d:365 Zu 1
as as NCMS000 1
que que CS 0.4375
el el DA0MS0 1
expirata expirata NCFS000 0.268375
inform inform NCMS000 0.700265
tico tico AQ0MS0 0.806828
convertido convertir VMP00SM 1
en en SPS00 1
ciberguerrero ciberguerrero NCMS000 1
de de SPS00 0.999919
la el DA0FS0 0.972146
informaci informaci NCMS000 0.0996348
n n NCFS000 1
franque franque VMSP3S0 0.49985
la el DA0FS0 0.972146
puerta puerta NCFS000 1
de de SPS00 1
el el DA0MS0 1
edificio edificio NCMS000 1
diplom diplom NCMS000 0.500053
tico tico AQ0MS0 0.806828
de de SPS00 0.999919
ladrillo ladrillo NCMS000 0.75
rojo rojo AQ0MS0 0.464286
situado situar VMP00SM 0.9
a a SPS00 0.99585
dos 2 Z 0.988722
pasos paso NCMP000 0.944444
de de SPS00 1
el el DA0MS0 1
gran gran AQ0CS0 1
almac almac NCMS000 1
n n NCFS000 1
de de SPS00 0.999919
lujo lujo NCMS000 1
Harrods harrods NP00000 1
para para SPS00 0.998507
pedir pedir VMN0000 1
asilo asilo NCMS000 0.75
pol pol NCMS000 0.861706
tico tico AQ0MS0 0.806828
Un uno DI0MS0 0.986987
' ' Fe 1
bobby bobby NCMS000 1
' ' Fe 1
con con SPS00 1
hombros hombro NCMP000 1
de de SPS00 0.999919
luchador luchador NCMS000 0.579706
monta montar VMIP3S0 0.666667
guardia guardia NCCS000 1
en en SPS00 1
el el DA0MS0 1
vest vest NCMS000 1
bulo bulo NCMS000 1
junto_a junto_a SPS00 1
la el DA0FS0 0.972146
puerta puerta NCFS000 1
blindada blindar VMP00SF 1
que que PR0CN000 0.5625
da dar VMIP3S0 0.983871
acceso acceso NCMS000 1
a a SPS00 0.99585
la el DA0FS0 0.972146
embajada embajada NCFS000 1
en en SPS00 1
la el DA0FS0 0.972146
planta planta NCFS000 0.866667
baja bajo AQ0FS0 0.90625
Otros otros NP00000 1
polic polic NCFS000 1
as as NCMS000 1
patrullan patrullar VMIP3P0 1
d d NCFS000 1
a a SPS00 0.99585
y y CC 0.999812
noche noche NCFS000 1
bajo bajo SPS00 0.866071
el el DA0MS0 1
balc balc NC00000 0.538029
n n NCFS000 1
donde donde PR000000 0.963542
el el DA0MS0 1
refugiado refugiado NCMS000 0.308261
hizo hacer VMIS3S0 1
su su DP3CS0 1
ltima ltima NCFS000 0.833242
aparici aparici RG 0.751648
n n NCFS000 1
p p NCFS000 0.5
blica blica AQ0FS0 1
justo justo AQ0MS0 0.711538
antes_de antes_de SPS00 1
Navidad_Julian_Assange navidad_julian_assange NP00000 1
est est NCMS000 1
avisado avisar VMP00SM 1
Si si NP00000 1
pone poner VMIP3S0 1
un_pie LN_ft:1 Zu 1
fuera ser VSSI1S0 0.343972
ser ser VSN0000 0.93883
detenido detener VMP00SM 0.833333
y y CC 0.999812
extraditado extraditar VMP00SM 1
a a SPS00 0.99585
Suecia_Lo suecia_lo NP00000 1
que que CS 0.4375
m m NCFS000 0.5
s segundo NCMN000 0.622321
teme temer VMIP3S0 0.75
es ser VSIP3S0 1
lo lo PP3CNA00 0.271163
que que PR0CN000 0.5625
viene venir VMIP3S0 1
despu despu NCMS000 0.774439
s segundo NCMN000 0.622321
una uno DI0FS0 0.951241
transferencia transferencia NCFS000 1
a a SPS00 0.99585
Estados_Unidos estados_unidos NP00000 1
y y CC 0.999812
un uno DI0MS0 0.986987
juicio juicio NCMS000 1
por por SPS00 1
traici traici RG 0.751648
n n NCFS000 1
Porque porque NP00000 1
seg segundo NCMN000 1
n n NCFS000 1
l l NCFS000 0.639398
Estados_Unidos estados_unidos NP00000 1
bajo bajo SPS00 0.866071
la el DA0FS0 0.972146
presidencia presidencia NCFS000 1
de de SPS00 0.999919
Barack_Obama barack_obama NP00000 1
un uno DI0MS0 0.986987
lobo lobo NCMS000 1
disfrazado disfrazar VMP00SM 1
de de SPS00 0.999919
cordero cordero NCMS000 1
seg segundo NCMN000 1
n n NCFS000 1
l l NCFS000 0.639398
quiere querer VMIP3S0 0.982759
vengar vengar VMN0000 1
se se PP3CN000 1
El el NP00000 1
militante militante NCCS000 0.625
rubio rubio AQ0MS0 0.75
platino platino NCMS000 0.973493
habla hablar VMIP3S0 0.880952
de de SPS00 0.999919
la el DA0FS0 0.972146
continuaci continuaci AQ0CS0 0.0199855
n n NCFS000 1
de de SPS00 0.999919
su su DP3CS0 1
combate combate NCMS000 0.75
sentado sentar VMP00SM 1
en en SPS00 1
un uno DI0MS0 0.986987
sill sill AQ0CS0 0.587402
n n NCFS000 1
rojo rojo AQ0MS0 0.464286
y y CC 0.999812
oro oro NCMS000 0.875
Est est NP00000 1
p p NCFS000 0.5
lido lido NCMS000 1
mal mal RG 0.492063
afeitado afeitar VMP00SM 0.660146
se se P00CN000 0.465602
ha haber VAIP3S0 0.998141
puesto poner VMP00SM 0.547619
una uno DI0FS0 0.951241
chaqueta chaqueta NCFS000 1
para para SPS00 0.998507
la el DA0FS0 0.972146
ocasi ocasi RG 1
n n NCFS000 1
y y CC 0.999812
lleva llevar VMIP3S0 0.975
corbata corbata NCFS000 1
pero pero CC 0.998821
va ir VMIP3S0 1
en en SPS00 1
calcetines calcetín NCMP000 1
Para para NP00000 1
qu qu NCMS000 0.774439
poner poner VMN0000 1
se se PP3CN000 1
zapatos zapato NCMP000 1
cuando cuando CS 0.983796
se se P00CN000 0.465602
vive vivir VMIP3S0 0.96875
recluido recluir VMP00SM 1
en en SPS00 1
unos uno DI0MP0 0.879032
pocos poco DI0MP0 0.583333
metros metro NCMP000 1
cuadrados cuadrar VMP00PM 0.606065
con con SPS00 1
parqu parqu NCMS000 0.774439
en en SPS00 1
el el DA0MS0 1
suelo suelo NCMS000 0.866667
Assange assange NP00000 1
sonr sonr VMN0000 0.633986
e y CC 0.973684
responde responder VMIP3S0 0.75
aqu aqu NCMS000 0.774439
estoy estar VAIP1S0 1
en en SPS00 1
casa casa NCFS000 0.971264
y y CC 0.999812
luego luego RG 0.983871
explica explicar VMIP3S0 0.95
que que CS 0.4375
es ser VSIP3S0 1
una uno DI0FS0 0.951241
costumbre costumbre NCFS000 1
que que PR0CN000 0.5625
adquiri adquiri RG 0.83337
en en SPS00 1
las el DA0FP0 0.97051
playas playa NCFP000 1
australianas australiano AQ0FP0 0.457268
Detr detr NP00000 1
s segundo NCMN000 0.622321
de de SPS00 0.999919
l l NCFS000 0.639398
la el DA0FS0 0.972146
biblioteca biblioteca NCFS000 1
alberga albergar VMIP3S0 0.994854
obras obra NCFP000 0.9375
dispares dispar AQ0CP0 0.974073
entre entre SPS00 0.995223
ellas ellos PP3FP000 1
una uno DI0FS0 0.951241
antolog antolog NCMS000 0.714133
a a SPS00 0.99585
de de SPS00 1
el el DA0MS0 1
poeta poeta NCMS000 1
uruguayo uruguayo AQ0MS0 0.75
Emilio_Oribe emilio_oribe NP00000 1
y y CC 0.999812
un uno DI0MS0 0.986987
tratado tratado NCMS000 0.5
de de SPS00 0.999919
geograf geograf I 1
a a SPS00 0.99585
y y CC 0.999812
geolog geolog NCMS000 0.714133
a a SPS00 0.99585
de de SPS00 0.999919
Ecuador_Los ecuador_los NP00000 1
tres 3 Z 1
loros loro NCMP000 1
de de SPS00 1
el el DA0MS0 1
colorido colorido NCMS000 0.448189
cuadro cuadro NCMS000 0.866667
colgado colgar VMP00SM 1
en en SPS00 1
la el DA0FS0 0.972146
pared pared NCFS000 1
no no RN 0.99778
bastan bastar VMIP3P0 1
para para SPS00 0.998507
alegrar alegrar VMN0000 1
el el DA0MS0 1
estrecho estrecho NCMS000 0.777778
sal sal NCFS000 0.916667
n n NCFS000 1
donde donde PR000000 0.963542
recibe recibir VMIP3S0 0.833333
cerca cerca RG 0.925
de de SPS00 0.999919
la el DA0FS0 0.972146
habitaci habitaci AQ0CS0 0.0199855
n n NCFS000 1
mal mal RG 0.492063
ventilada ventilar VMP00SF 1
donde donde PR000000 0.963542
vive vivir VMIP3S0 0.96875
como como CS 0.998579
en en SPS00 1
una uno DI0FS0 0.951241
c c NCFS000 1
psula psula NCFS000 0.842094
espacial espacial AQ0CS0 1
equipada equipar VMP00SF 1
con con SPS00 1
una_l VL_l:1 Zu 1
mpara mpara VMIP3S0 1
solar solar AQ0CS0 0.777778
y y CC 0.999812
una uno DI0FS0 0.951241
cinta cinta NCFS000 0.777778
para para SPS00 0.998507
correr correr VMN0000 1
AISLAMIENTO_Mientras aislamiento_mientras NP00000 1
tanto tanto RG 0.857895
de_el_otro_lado del_otro_lado RG 1
de de SPS00 1
el el DA0MS0 1
Atl atl NP00000 1
ntico ntico AQ0MS0 1
un uno DI0MS0 0.986987
simple simple AQ0CS0 0.973684
soldado soldado NCMS000 0.5
Bradley_Manning bradley_manning NP00000 1
exanalista exanalista NCCS000 1
de de SPS00 0.999919
inteligencia inteligencia NCFS000 1
en en SPS00 1
Irak irak NP00000 1
de de SPS00 0.999919
25 25 Z 1
a a SPS00 0.99585
os o NCFP000 0.222222
de de SPS00 0.999919
edad edad NCFS000 1
es ser VSIP3S0 1
juzgado juzgar VMP00SM 0.75
en en SPS00 1
una uno DI0FS0 0.951241
corte corte NCFS000 0.457143
marcial marcial AQ0CS0 1
por por SPS00 1
haber haber VAN0000 0.744444
estado estar VAP00SM 0.337838
en en SPS00 1
el el DA0MS0 1
origen origen NCMS000 1
de de SPS00 0.999919
la el DA0FS0 0.972146
filtraci filtraci AQ0CS0 0.0199855
n n NCFS000 1
de de SPS00 1
el el DA0MS0 1
siglo siglo NCMS000 1
de de SPS00 0.999919
WikiLeaks_Lo wikileaks_lo NP00000 1
que que CS 0.4375
est est NCMS000 1
en en SPS00 1
juego juego NCMS000 0.979167
es ser VSIP3S0 1
el el DA0MS0 1
futuro futuro NCMS000 0.944444
de de SPS00 0.999919
la el DA0FS0 0.972146
libertad libertad NCFS000 0.978261
de de SPS00 0.999919
prensa prensa NCFS000 0.925926
en en SPS00 1
Estados_Unidos estados_unidos NP00000 1
y y CC 0.999812
en en SPS00 1
todo todo DI0MS0 0.559816
el el DA0MS0 1
mundo mundo NCMS000 1
asegura asegurar VMIP3S0 0.875
Assange_El assange_el NP00000 1
veredicto veredicto NCMS000 1
podr podr AQ0CS0 0.0829965
a a SPS00 0.99585
cambiar cambiar VMN0000 1
su su DP3CS0 1
propio propio AQ0MS0 0.98
futuro futuro NCMS000 0.944444
Para para NP00000 1
l l NCFS000 0.639398
este este DD0MS0 0.956743
juicio juicio NCMS000 1
espect espect NCMS000 0.607342
culo culo NCMS000 1
es ser VSIP3S0 1
tambi tambi AQ0CN0 1
n n NCFS000 1
el el DA0MS0 1
suyo suyo PX3MS0C0 0.5
en en SPS00 1
rebeld rebeld NCFS000 0.961423
a a SPS00 0.99585
por por SPS00 1
complicidad complicidad NCFS000 1
Assange assange NP00000 1
se se P00CN000 0.465602
alegra alegrar VMIP3S0 0.994868
de de SPS00 0.999919
que que CS 0.4375
otros otro DI0MP0 0.56875
h h NCFS000 0.5
roes roer VMIP2S0 1
hayan haber VASP3P0 1
tomado tomar VMP00SM 1
el el DA0MS0 1
relevo relevo NCMS000 0.75
Como_Edward_Snowden como_edward_snowden NP00000 1
el el DA0MS0 1
extrabajador extrabajador NCMS000 1
de de SPS00 0.999919
una uno DI0FS0 0.951241
contrata contrata NCFS000 0.666667
de de SPS00 0.999919
la el DA0FS0 0.972146
NSA nsa NP00000 1
estadounidense estadounidense AQ0CS0 0.833333
que que PR0CN000 0.5625
revel revel NCMS000 1
hasta hasta SPS00 0.955172
qu qu NCMS000 0.774439
punto punto NCMS000 1
Estados_Unidos estados_unidos NP00000 1
se se P00CN000 0.465602
ha haber VAIP3S0 0.998141
convertido convertir VMP00SM 1
en en SPS00 1
un uno DI0MS0 0.986987
Estado estado NP00000 1
de de SPS00 0.999919
vigilancia vigilancia NCFS000 1
masiva masivo AQ0FS0 1
insidioso insidioso AQ0MS0 0.400153
El el NP00000 1
refugiado refugiar VMP00SM 0.691739
dice decir VMIP3S0 1
tambi tambi AQ0CN0 1
n n NCFS000 1
ver ver VMN0000 1
se se PP3CN000 1
reconfortado reconfortar VMP00SM 1
por por SPS00 1
el el DA0MS0 1
hecho hecho NCMS000 0.381579
que que CS 0.4375
WikiLeaks wikileaks NP00000 1
es ser VSIP3S0 1
m m NCFS000 0.5
s segundo NCMN000 0.622321
fuerte fuerte AQ0CS0 0.892857
ahora ahora RG 1
que que PR0CN000 0.5625
hace hacer VMIP3S0 1
dos 2 Z 0.988722
a a SPS00 0.99585
os os PP2CP000 0.722222
porque porque CS 1
contin contin NCMS000 0.499936
a a SPS00 0.99585
con con SPS00 1
sus su DP3CP0 0.998462
revelaciones revelación NCFP000 1
y y CC 0.999812
sobrevivi sobrevivi VMIS1S0 1
a a SPS00 0.99585
una uno DI0FS0 0.951241
embargo embargo NCMS000 0.973496
bancario bancario AQ0MS0 1
Y y NP00000 1
se se P00CN000 0.465602
beneficiar beneficiar VMN0000 1
a a SPS00 0.99585
de de SPS00 0.999919
un uno DI0MS0 0.986987
apoyo apoyo NCMS000 0.928571
renovado renovar VMP00SM 1
en en SPS00 1
Estados_Unidos_Reino_Unido estados_unidos_reino_unido NP00000 1
y y CC 0.999812
en en SPS00 1
todo todo DI0MS0 0.559816
el el DA0MS0 1
continente continente NCMS000 0.875
latinoamericano latinoamericano AQ0MS0 0.63727
Muy muy NP00000 1
locuaz locuaz AQ0CS0 1
sobre sobre SPS00 0.994203
su su DP3CS0 1
cruzada cruzada NCFS000 0.318985
Assange assange NP00000 1
es ser VSIP3S0 1
menos menos RG 1
elocuente elocuente AQ0CS0 1
cuando cuando CS 0.983796
se se P00CN000 0.465602
trata tratar VMIP3S0 0.946237
de de SPS00 0.999919
hablar hablar VMN0000 1
de de SPS00 0.999919
su su DP3CS0 1
estado estado NCMS000 0.662162
de de SPS00 0.999919
nimo nimo NCMS000 0.699864
y y CC 0.999812
de de SPS00 0.999919
su su DP3CS0 1
aislamiento aislamiento NCMS000 1
Est est NP00000 1
rodeado rodear VMP00SM 1
por por SPS00 1
un uno DI0MS0 0.986987
n n NCFS000 1
cleo cleo NCMS000 1
de de SPS00 0.999919
incondicionales incondicional NCCP000 0.342747
entre entre SPS00 0.995223
ellos ellos PP3MP000 1
un uno DI0MS0 0.986987
guatemalteco guatemalteco NCMS000 0.542666
que que PR0CN000 0.5625
lleva llevar VMIP3S0 0.975
una uno DI0FS0 0.951241
camiseta camiseta NCFS000 1
con con SPS00 1
las el DA0FP0 0.97051
efigies efigie NCFP000 1
de de SPS00 0.999919
Martin_Luther_King_Mandela_Gandhi_Einstein martin_luther_king_mandela_gandhi_einstein NP00000 1
y y CC 0.999812
Assange_Personalidades assange_personalidades NP00000 1
de de SPS00 0.999919
todo todo DI0MS0 0.559816
tipo tipo NCMS000 1
han haber VAIP3P0 1
desfilado desfilar VMP00SM 1
por por SPS00 1
la el DA0FS0 0.972146
embajada embajada NCFS000 1
durante durante SPS00 1
su su DP3CS0 1
reclusi reclusi RG 1
n n NCFS000 1
la el DA0FS0 0.972146
dise dise NCFS000 0.99146
adora adorar VMIP3S0 0.994844
Vivienne_Westwood vivienne_westwood NP00000 1
la el DA0FS0 0.972146
cantante cantante NCCS000 0.375
Lady_Gaga lady_gaga NP00000 1
el el DA0MS0 1
cineasta cineasta NCCS000 1
Oliver_Stone oliver_stone NP00000 1
o o CC 0.998845
el el DA0MS0 1
juez juez NCCS000 1
espa espa NCFS000 1
ol ol NCMS000 0.861706
Baltasar_Garz baltasar_garz NP00000 1
n n NCFS000 1
Pero_Julian_Assange pero_julian_assange NP00000 1
tambi tambi AQ0CN0 1
n n NCFS000 1
se se P00CN000 0.465602
enemist enemist NCMS000 1
con con SPS00 1
numerosos numeroso AQ0MP0 1
partidarios partidario NCMP000 0.34285
que que PR0CN000 0.5625
le le PP3CSD00 1
acusan acusar VMIP3P0 1
de de SPS00 0.999919
megaloman megaloman VMIP3P0 1
a a SPS00 0.99585
Este este NP00000 1
domingo [G:??/??/??:??.??:??] W 1
esperaba esperar VMII3S0 0.65
la el DA0FS0 0.972146
visita visita NCFS000 0.866667
de de SPS00 1
el el DA0MS0 1
ministro ministro NCMS000 1
de de SPS00 0.999919
Asuntos_Exteriores asuntos_exteriores NP00000 1
ecuatoriano ecuatoriano NCMS000 0.467748
Ricardo_Pati ricardo_pati NP00000 1
o o CC 0.998845
Salta salta NP00000 1
la el DA0FS0 0.972146
vista vista NCFS000 0.91
que que PR0CN000 0.5625
no no RN 0.99778
espera esperar VMIP3S0 0.619048
un uno DI0MS0 0.986987
avance avance NCMS000 0.8125
diplom diplom NCMS000 0.500053
tico tico AQ0MS0 0.806828
un uno DI0MS0 0.986987
salvoconducto salvoconducto NCMS000 1
milagroso milagroso AQ0MS0 1
El el NP00000 1
desenlace desenlace NCMS000 0.625
choca chocar VMIP3S0 0.994868
con con SPS00 1
un uno DI0MS0 0.986987
problema problema NCMS000 1
de de SPS00 0.999919
prestigio prestigio NCMS000 0.875
para para SPS00 0.998507
Estados_Unidos_Reino_Unido estados_unidos_reino_unido NP00000 1
y y CC 0.999812
Suecia suecia NP00000 1
se se P00CN000 0.465602
ala ala NCFS000 0.961441
Qu qu NP00000 1
d d NCFS000 1
nde nde VMIP3S0 0.89855
estar estar VAN0000 1
en en SPS00 1
un uno DI0MS0 0.986987
a a NCFS000 0.00415028
o o CC 0.998845
En_Australia en_australia NP00000 1
espero esperar VMIP1S0 1
O o NP00000 1
en en SPS00 1
Ecuador_O ecuador_o NP00000 1
recorriendo recorrer VMG0000 1
el el DA0MS0 1
mundo mundo NCMS000 1
afirma afirmar VMIP3S0 0.916667
Las las NP00000 1
circunstancias circunstancia NCFP000 1
son ser VSIP3P0 0.986772
dif dif NCFS000 1
ciles ciles AQ0CP0 1
en en SPS00 1
el el DA0MS0 1
aspecto aspecto NCMS000 1
f f NCFS000 1
sico sico AQ0MS0 0.705972
Pero pero NP00000 1
trabajo trabajar VMIP1S0 0.0595238
todos todo DI0MP0 0.622419
los el DA0MP0 0.97623
d d NCFS000 1
as as NCMS000 1
Me me NP00000 1
pregunta preguntar VMIP3S0 0.422222
c c NCFS000 1
mo mo AQ0MS0 0.297018
supero superar VMIP1S0 1
las el DA0FP0 0.97051
dificultades dificultad NCFP000 1
inherentes inherente AQ0CP0 1
a a SPS00 1
el el DA0MS0 1
encierro encierro NCMS000 0.75
Mi mi NP00000 1
mente mente NCFS000 1
no no RN 0.99778
est est NCMS000 1
encerrada encerrar VMP00SF 1
concluye concluir VMIP3S0 0.75
200 200 Z 1
oficinas oficina NCFP000 1
en en SPS00 1
150 150 Z 1
pa pa NCFS000 0.740689
ses ses NCMP000 0.727093
Ampliar_Desea ampliar_desea NP00000 1
compartir compartir VMN0000 1
una uno DI0FS0 0.951241
informaci informaci AQ0CS0 0.0199855
n n NCFS000 1
un uno DI0MS0 0.986987
comentario comentario NCMS000 1
Escr escr NP00000 1
banos banos NCMP000 0.509288
a a SPS00 0.99585

