LONDRES_AFP_El londres_afp_el NP00000 1
19_de_junio_de_2012 [??:19/6/2012:??.??:??] W 1
Julian_Assange julian_assange NP00000 1
se se P00CN000 0.465602
refugi refugi VMIS1S0 0.0691907
en en SPS00 1
la el DA0FS0 0.972146
embajada embajada NCFS000 1
de de SPS00 0.999919
Ecuador ecuador NP00000 1
en en SPS00 1
Londres londres NP00000 1
Un uno DI0MS0 0.986987
a a NCFS000 0.00415028
o o CC 0.998845
despu despu NCMS000 0.774439
s segundo NCMN000 0.622321
el el DA0MS0 1
fundador fundador NCMS000 0.75
de de SPS00 0.999919
WikiLeaks wikileaks NP00000 1
sigue seguir VMIP3S0 0.982759
temiendo temer VMG0000 1
la el DA0FS0 0.972146
venganza venganza NCFS000 1
de de SPS00 0.999919
Estados_Unidos estados_unidos NP00000 1
y y CC 0.999812
es ser VSIP3S0 1
consciente consciente AQ0CS0 1
de de SPS00 0.999919
que que CS 0.4375
su su DP3CS0 1
caso caso NCMS000 0.990741
puede poder VMIP3S0 0.995614
continuar continuar VMN0000 1
bloqueado bloqueado NCMS000 0.308233
durante durante SPS00 1
meses mes NCMP000 0.964286
o o CC 0.998845
incluso incluso RG 0.988095
a a SPS00 0.99585
os os PP2CP000 0.722222
Todo todo NP00000 1
lo el DA0NS0 0.457393
que que PR0CN000 0.5625
pido pedir VMIP1S0 1
es ser VSIP3S0 1
ser ser VSN0000 0.93883
tratado tratar VMP00SM 0.5
como como CS 0.998579
una uno DI0FS0 0.951241
persona persona NCFS000 0.960784
normal normal AQ0CS0 0.9375
y y CC 0.999812
que que CS 0.4375
la el DA0FS0 0.972146
pol pol NCMS000 0.861706
tica tica AQ0FS0 0.595788
no no RN 0.99778
afecte afectar VMSP3S0 0.610926
a a SPS00 0.99585
las el DA0FP0 0.97051
decisiones decisión NCFP000 1
judiciales judicial AQ0CP0 1
asegur asegur NCFS000 1
el el DA0MS0 1
australiano australiano NCMS000 0.64273
de de SPS00 0.999919
41 41 Z 1
a a SPS00 0.99585
os os PP2CP000 0.722222
en en SPS00 1
una uno DI0FS0 0.951241
entrevista entrevista NCFS000 0.75
con con SPS00 1
cinco 5 Z 0.98
agencias agencia NCFP000 0.973497
de de SPS00 0.999919
prensa prensa NCFS000 0.925926
entre entre SPS00 0.995223
ellas ellos PP3FP000 1
la el DA0FS0 0.972146
AFP_El afp_el NP00000 1
ciberactivista ciberactivista NCFS000 0.818184
fue ser VSIS3S0 0.932292
arrestado arrestar VMP00SM 1
el el DA0MS0 1
7_de_diciembre_de_2010 [??:7/12/2010:??.??:??] W 1
en en SPS00 1
Londres londres NP00000 1
en_virtud_de en_virtud_de SPS00 1
una uno DI0FS0 0.951241
orden orden NCMS000 0.6
de de SPS00 0.999919
detenci detenci RG 0.751648
n n NCFS000 1
europea europeo AQ0FS0 0.9
emitida emitir VMP00SF 1
por por SPS00 1
Suecia suecia NP00000 1
pa pa VMIP3S0 0.12964
s segundo NCMN000 0.622321
que que PR0CN000 0.5625
lo lo PP3CNA00 0.271163
requiere requerir VMIP3S0 0.875
como como CS 0.998579
sospechoso sospechoso NCMS000 0.388768
de de SPS00 0.999919
supuestas suponer VMP00PF 1
agresiones agresión NCFP000 1
sexuales sexual AQ0CP0 1
que que PR0CN000 0.5625
niega negar VMIP3S0 0.833333
Pas pas NP00000 1
10_d TM_d:10 Zu 1
as as NCMS000 1
en en SPS00 1
la el DA0FS0 0.972146
c c NCFS000 1
rcel rcel NCFS000 1
y y CC 0.999812
590 590 Z 1
pr pr NCMS000 0.224371
cticamente cticamente RG 1
en en SPS00 1
arresto arresto NCMS000 0.973494
domiciliario domiciliario AQ0MS0 1
antes_de antes_de SPS00 1
ser ser VSN0000 0.93883
acogido acoger VMP00SM 0.75
por por SPS00 1
Ecuador ecuador NP00000 1
que que PR0CN000 0.5625
posteriormente posteriormente RG 1
el el DA0MS0 1
16_de_agosto [??:16/8/??:??.??:??] W 1
le le PP3CSD00 1
concedi concedi VMIS1S0 1
asilo asilo NCMS000 0.75
pol pol NCMS000 0.861706
tico tico AQ0MS0 0.806828
Teme teme NP00000 1
ser ser VSN0000 0.93883
entregado entregar VMP00SM 1
a a SPS00 0.99585
Estados_Unidos estados_unidos NP00000 1
pa pa VMIP3S0 0.12964
s segundo NCMN000 0.622321
que que CS 0.4375
querr querr VMN0000 0.633986
a a SPS00 0.99585
juzgar juzgar VMN0000 1
le le PP3CSD00 1
por por SPS00 1
la el DA0FS0 0.972146
publicaci publicaci AQ0CS0 0.0199855
n n NCFS000 1
de de SPS00 0.999919
cientos ciento NCMP000 1
de de SPS00 0.999919
miles mil NCMP000 1
de de SPS00 0.999919
documentos documento NCMP000 1
diplom diplom NCMS000 0.500053
ticos ticos AQ0MP0 0.671839
y y CC 0.999812
militares militar AQ0CP0 0.541667
a a SPS00 0.99585
trav trav AQ0CS0 0.0433699
s segundo NCMN000 0.622321
de de SPS00 0.999919
WikiLeaks_Para wikileaks_para NP00000 1
explicar explicar VMN0000 1
el el DA0MS0 1
estancamiento estancamiento NCMS000 1
geopol geopol NCMS000 0.861706
tico tico AQ0MS0 0.806828
que que PR0CN000 0.5625
le le PP3CSD00 1
afecta afectar VMIP3S0 0.777778
el el DA0MS0 1
refugiado refugiado NCMS000 0.308261
cita citar VMIP3S0 0.166667
la el DA0FS0 0.972146
voluntad voluntad NCFS000 1
de de SPS00 0.999919
venganza venganza NCFS000 1
de de SPS00 0.999919
Estados_Unidos estados_unidos NP00000 1
el el DA0MS0 1
hundimiento hundimiento NCMS000 1
de de SPS00 1
el el DA0MS0 1
estado estado NCMS000 0.662162
de de SPS00 0.999919
derecho derecho NCMS000 0.884615
en en SPS00 1
ese ese DD0MS0 0.98125
pa pa NCFS000 0.740689
s segundo NCMN000 0.622321
y y CC 0.999812
el el DA0MS0 1
hecho hecho NCMS000 0.381579
de de SPS00 0.999919
que que CS 0.4375
el el DA0MS0 1
Reino_Unido reino_unido NP00000 1
no no RN 0.99778
quiere querer VMIP3S0 0.982759
decir decir VMN0000 0.987805
no no RN 0.99778
a a SPS00 0.99585
Washington_Cuando washington_cuando NP00000 1
llegu llegu NCMS000 0.774439
a a SPS00 0.99585
la el DA0FS0 0.972146
peque peque NCCS000 0.618697
a a SPS00 0.99585
legaci legaci RG 0.751648
n n NCFS000 1
andina andino AQ0FS0 0.410857
hace hacer VMIP3S0 1
365_d TM_d:365 Zu 1
as as NCMS000 1
pensaba pensar VMII3S0 0.65
quedar quedar VMN0000 1
me me PP1CS000 1
entre entre SPS00 0.995223
seis 6 Z 1
meses mes NCMP000 0.964286
y y CC 0.999812
dos 2 Z 0.988722
a a SPS00 0.99585
os os PP2CP000 0.722222
admite admitir VMIP3S0 0.833333
Assange_Est assange_est NP00000 1
p p NCFS000 0.5
lido lido NCMS000 1
hace hacer VMIP3S0 1
largas largo AQ0FP0 0.866667
pausas pausa NCFP000 0.973497
entre entre SPS00 0.995223
las el DA0FP0 0.97051
frases frase NCFP000 1
y y CC 0.999812
cierra cerrar VMM02S0 0.25
a a SPS00 0.99585
menudo menudo AQ0MS0 0.75
los el DA0MP0 0.97623
ojos ojo NCMP000 1
para para SPS00 0.998507
pesar pesar VMN0000 0.86
sus su DP3CP0 0.998462
palabras palabra NCFP000 1
Sigo sigo NP00000 1
pensando pensar VMG0000 1
lo el DA0NS0 0.457393
mismo mismo AQ0MS0 0.961905
contin contin NCMS000 0.499936
a a SPS00 0.99585
con con SPS00 1
un uno DI0MS0 0.986987
hilo hilo NCMS000 0.833333
de de SPS00 0.999919
voz voz NCFS000 1
apenas apenas RG 0.979167
audible audible AQ0CS0 1
El el NP00000 1
canciller canciller NCMS000 1
ecuatoriano ecuatoriano AQ0MS0 0.532252
Ricardo_Pati ricardo_pati NP00000 1
o o CC 0.998845
quien quien PR0CS000 1
le le PP3CSD00 1
visit visit NCMN000 1
en en SPS00 1
v v NCFS000 1
speras speras VMIP2S0 1
de de SPS00 0.999919
este este DD0MS0 0.956743
aniversario aniversario AQ0MS0 0.25
afirm afirm NCMS000 0.700265
que que CS 0.4375
su su DP3CS0 1
protegido protegido NCMS000 0.25
tiene tener VMIP3S0 1
suficiente suficiente AQ0CS0 1
fuerza fuerza NCFS000 0.968254
para para SPS00 0.998507
sostener sostener VMN0000 1
se se PP3CN000 1
por_lo_menos por_lo_menos RG 1
cinco 5 Z 0.98
a a SPS00 0.99585
os o NCFP000 0.222222
en en SPS00 1
la el DA0FS0 0.972146
embajada embajada NCFS000 1
si si CS 0.997706
no no RN 0.99778
recibe recibir VMIP3S0 0.833333
un uno DI0MS0 0.986987
salvoconducto salvoconducto NCMS000 1
Durante durante NP00000 1
la el DA0FS0 0.972146
reuni reuni AQ0CS0 0.0199855
n n NCFS000 1
que que PR0CN000 0.5625
mantuvo mantener VMIS3S0 1
el el DA0MS0 1
lunes [L:??/??/??:??.??:??] W 1
con con SPS00 1
su su DP3CS0 1
hom hom NCMS000 0.500053
logo logo NCMS000 1
brit brit NCMN000 1
nico nico AQ0MS0 0.470565
William_Hague william_hague NP00000 1
que que PR0CN000 0.5625
no no RN 0.99778
desbloque desblocar VMSP3S0 0.0356941
la el DA0FS0 0.972146
situaci situaci AQ0CS0 0.0199855
n n NCFS000 1
Pati pati NP00000 1
o o CC 0.998845
le le PP3CSD00 1
pregunt pregunt NCMS000 0.607342
a a SPS00 0.99585
su su DP3CS0 1
interlocutor interlocutor NCMS000 1
si si CS 0.997706
hay haber VMIP3S0 1
que que CS 0.4375
esperar esperar VMN0000 1
que que CS 0.4375
Assange assange NP00000 1
envejezca envejecer VMSP3S0 0.62344
y y CC 0.999812
muera morir VMSP1S0 0.416667
en en SPS00 1
la el DA0FS0 0.972146
embajada embajada NCFS000 1
Es es NP00000 1
un uno DI0MS0 0.986987
asunto asunto NCMS000 1
que que PR0CN000 0.5625
pone poner VMIP3S0 1
en en SPS00 1
juego juego NCMS000 0.979167
el el DA0MS0 1
orgullo orgullo NCMS000 1
nacional nacional AQ0CS0 1
de de SPS00 0.999919
Estados_Unidos_de_el_Reino_Unido_de_Suecia estados_unidos_de_el_reino_unido_de_suecia NP00000 1
subraya subrayar VMIP3S0 0.833333
el el DA0MS0 1
interesado interesado NCMS000 0.308233
Afirma afirma NP00000 1
que que PR0CN000 0.5625
ha haber VAIP3S0 0.998141
habido haber VMP00SM 1
otros otro DI0MP0 0.56875
casos caso NCMP000 1
como como CS 0.998579
el el DA0MS0 1
suyo suyo PX3MS0C0 0.5
y y CC 0.999812
recuerda recordar VMIP3S0 0.884615
que que CS 0.4375
el el DA0MS0 1
cardenal cardenal NCMS000 1
h h NCFS000 0.5
ngaro ngaro AQ0MS0 1
J j NP00000 1
zsef zsef NCMS000 0.500257
Mindszenty mindszenty NP00000 1
permaneci permaneci RG 0.751648
durante durante SPS00 1
15 15 Z 1
a a SPS00 0.99585
os os PP2CP000 0.722222
bloqueado bloquear VMP00SM 0.691767
en en SPS00 1
la el DA0FS0 0.972146
embajada embajada NCFS000 1
de de SPS00 0.999919
Estados_Unidos estados_unidos NP00000 1
en en SPS00 1
Budapest budapest NP00000 1
de de SPS00 0.999919
1956 1956 Z 1
a a SPS00 0.99585
1971 1971 Z 1
En en NP00000 1
la el DA0FS0 0.972146
hip hip NCMS000 1
tesis tesis NCFN000 1
improbable improbable AQ0CS0 1
de de SPS00 0.999919
que que CS 0.4375
Suecia suecia NP00000 1
abandonara abandonar VMSI3S0 0.65
los el DA0MP0 0.97623
cargos cargo NCMP000 1
y y CC 0.999812
el el DA0MS0 1
Reino_Unido reino_unido NP00000 1
le le PP3CSD00 1
garantizara garantizar VMSI3S0 0.65
un uno DI0MS0 0.986987
salvoconducto salvoconducto NCMS000 1
Julian_Assange julian_assange NP00000 1
no no RN 0.99778
podr podr VMN0000 0.633986
a a SPS00 0.99585
salir salir VMN0000 1
Si si NP00000 1
cruzo cruzar VMIP1S0 1
esta este DD0FS0 0.982143
puerta puerta NCFS000 1
estoy estar VAIP1S0 1
detenido detener VMP00SM 0.833333
Mis mis NP00000 1
abogados abogado NCMP000 0.833333
estadounidenses estadounidense AQ0CP0 0.875
piensan pensar VMIP3P0 1
que que CS 0.4375
ya ya RG 0.996988
hay haber VMIP3S0 1
una uno DI0FS0 0.951241
acusaci acusaci AQ0CS0 0.0199855
n n NCFS000 1
secreta secreto AQ0FS0 0.625
validada validar VMP00SF 1
por por SPS00 1
un uno DI0MS0 0.986987
gran gran AQ0CS0 1
jurado jurado NCMS000 0.833333
federal federal AQ0CS0 1
dice decir VMIP3S0 1
Respecto_a respecto_a NP00000 1
un uno DI0MS0 0.986987
eventual eventual AQ0CS0 0.65727
recurso recurso NCMS000 1
ante ante SPS00 0.990566
la el DA0FS0 0.972146
Corte_Internacional_de_Justicia corte_internacional_de_justicia NP00000 1
se se P00CN000 0.465602
ala ala NCFS000 0.961441
que que CS 0.4375
eso ese PD0NS000 1
podr podr VMN0000 0.633986
a a SPS00 0.99585
durar durar VMN0000 1
a a SPS00 0.99585
os o NCFP000 0.222222
Pati pati NP00000 1
o o CC 0.998845
denunci denunci RG 0.751648
una uno DI0FS0 0.951241
gran gran AQ0CS0 1
injusticia injusticia NCFS000 1
contra contra SPS00 0.976316
Assange assange NP00000 1
y y CC 0.999812
una uno DI0FS0 0.951241
grave grave AQ0CS0 0.90625
violaci violaci NCMS000 0.0996348
n n NCFS000 1
de de SPS00 0.999919
sus su DP3CP0 0.998462
derechos derecho NCMP000 0.9
humanos humano AQ0MP0 0.681818
pero pero CC 0.998821
dijo decir VMIS3S0 1
que que CS 0.4375
Ecuador ecuador NP00000 1
no no RN 0.99778
iba ir VMII3S0 0.635011
a a SPS00 0.99585
actuar actuar VMN0000 1
irregularmente irregularmente RG 1
para para SPS00 0.998507
sacar sacar VMN0000 1
lo lo PP3CNA00 0.5 lo PP3MSA00 0.5
por por SPS00 1
un uno DI0MS0 0.986987
subterr subterr NCMS000 0.224371
neo neo AQ0CN0 1
o o CC 0.998845
en en SPS00 1
el el DA0MS0 1
capot capot NCMS000 1
de de SPS00 0.999919
un uno DI0MS0 0.986987
veh veh I 1
culo culo NCMS000 1
Cuando cuando NP00000 1
el el DA0MS0 1
se se P00CN000 0.465602
or or NCMS000 0.655771
Assange assange NP00000 1
salga salir VMSP1S0 0.416667
de de SPS00 0.999919
la el DA0FS0 0.972146
embajada embajada NCFS000 1
de de SPS00 0.999919
Ecuador ecuador NP00000 1
saldr saldr VMN0000 0.633986
por por SPS00 1
la el DA0FS0 0.972146
puerta puerta NCFS000 1
ancha ancho AQ0FS0 1
afirm afirm NCMS000 0.700265
el el DA0MS0 1
jefe jefe NCMS000 1
de de SPS00 0.999919
la el DA0FS0 0.972146
diplomacia diplomacia NCFS000 1
ecuatoriana ecuatoriano AQ0FS0 0.65715
Mientras mientras NP00000 1
tanto tanto RG 0.857895
Julian_Assange julian_assange NP00000 1
calcula calcular VMIP3S0 0.994868
que que CS 0.4375
cada cada DI0CS0 1
d d NCFS000 1
a a SPS00 0.99585
de de SPS00 0.999919
asedio asedio NCMS000 0.97349
cuesta costar VMIP3S0 0.791667
11 11 Z 1
000_libras $_GBP:0 Zm 1
17 17 Z 1
200_d TM_d:200 Zu 1
lares lar NCMP000 1
12 12 Z 1
800_euros $_ECU:800 Zm 1
a a SPS00 1
el el DA0MS0 1
contribuyente contribuyente AQ0CS0 0.357315
brit brit NCMN000 1
nico nico AQ0MS0 0.470565
Dice dice NP00000 1
que que PR0CN000 0.5625
le le PP3CSD00 1
reconforta reconfortar VMIP3S0 0.994868
que que CS 0.4375
la el DA0FS0 0.972146
organizaci organizaci AQ0CS0 0.0199855
n n NCFS000 1
pas pas NCFP000 0.954559
de de SPS00 0.999919
la el DA0FS0 0.972146
defensiva defensiva NCFS000 0.25
a a SPS00 1
el el DA0MS0 1
ataque ataque NCMS000 0.9625
y y CC 0.999812
expresa expresar VMIP3S0 0.777778
su su DP3CS0 1
satisfacci satisfacci AQ0CS0 0.0199855
n n NCFS000 1
de de SPS00 0.999919
que que CS 0.4375
otros otro DI0MP0 0.56875
h h NCFS000 0.5
roes roer VMIP2S0 1
hayan haber VASP3P0 1
tomado tomar VMP00SM 1
el el DA0MS0 1
relevo relevo NCMS000 0.75
como como CS 0.998579
Edward_Snowden edward_snowden NP00000 1
quien quien PR0CS000 1
acaba acabar VMIP3S0 0.966667
de de SPS00 0.999919
revelar revelar VMN0000 1
programas programa NCMP000 0.9
de de SPS00 0.999919
vigilancia vigilancia NCFS000 1
masiva masivo AQ0FS0 1
de de SPS00 0.999919
las el DA0FP0 0.97051
comunicaciones comunicación NCFP000 1
en en SPS00 1
Estados_Unidos_Su estados_unidos_su NP00000 1
vida vida NCFS000 1
es ser VSIP3S0 1
austera austero AQ0FS0 1
aunque aunque CC 1
dispone disponer VMIP3S0 1
en en SPS00 1
su su DP3CS0 1
habitaci habitaci AQ0CS0 0.0199855
n n NCFS000 1
de de SPS00 0.999919
una uno DI0FS0 0.951241
cinta cinta NCFS000 0.777778
para para SPS00 0.998507
correr correr VMN0000 1
y y CC 0.999812
una_l VL_l:1 Zu 1
mpara mpara VMIP3S0 1
solar solar AQ0CS0 0.777778
Se se NP00000 1
puede poder VMIP3S0 0.995614
sufrir sufrir VMN0000 1
raquitismo raquitismo NCMS000 1
si si CS 0.997706
no no RN 0.99778
se se P00CN000 0.465602
tiene tener VMIP3S0 1
sol sol NCMS000 1
se se P00CN000 0.465602
ala ala NCFS000 0.961441
Tambi tambi NP00000 1
n n NCFS000 1
dice decir VMIP3S0 1
que que CS 0.4375
haber haber VAN0000 0.744444
encontrado encontrar VMP00SM 1
la el DA0FS0 0.972146
manera manera NCFS000 1
de de SPS00 0.999919
prolongar prolongar VMN0000 1
su su DP3CS0 1
combate combate NCMS000 0.75
con con SPS00 1
m m NCFS000 0.5
sica sica AQ0FS0 0.478446
y y CC 0.999812
trabaja trabajar VMIP3S0 0.875
con con SPS00 1
el el DA0MS0 1
grupo grupo NCMS000 1
puertorrique puertorrique AQ0CS0 0.142855
o o CC 0.998845
Calle calle NP00000 1
13 13 Z 1
en en SPS00 1
una uno DI0FS0 0.951241
canci canci AQ0CS0 0.0199855
n n NCFS000 1
contra contra SPS00 0.976316
la el DA0FS0 0.972146
manipulaci manipulaci AQ0CS0 0.0199855
n n NCFS000 1
medi medi VMIS1S0 1
tica tica AQ0FS0 0.595788
200 200 Z 1
oficinas oficina NCFP000 1
en en SPS00 1
150 150 Z 1
pa pa NCFS000 0.740689
ses ses NCMP000 0.727093
Ampliar_Desea ampliar_desea NP00000 1
compartir compartir VMN0000 1
una uno DI0FS0 0.951241
informaci informaci AQ0CS0 0.0199855
n n NCFS000 1
un uno DI0MS0 0.986987
comentario comentario NCMS000 1
Escr escr NP00000 1
banos banos NCMP000 0.509288
a a SPS00 0.99585

