ROMA_AFP_El_Parlamento roma_afp_el_parlamento NP00000 1
italiano italiano NCMS000 0.833333
en en SPS00 1
sesi sesi RG 1
n n NCFS000 1
conjunta conjunto AQ0FS0 0.666667
con con SPS00 1
los el DA0MP0 0.97623
representantes representante NCCP000 0.875
de de SPS00 0.999919
las el DA0FP0 0.97051
20 20 Z 1
regiones región NCFP000 1
de de SPS00 0.999919
la el DA0FS0 0.972146
pen pen AQ0CN0 0.249994
nsula nsula NCFS000 0.842094
elige elegir VMIP3S0 0.994868
este este DD0MS0 0.956743
jueves [J:??/??/??:??.??:??] W 1
a a SPS00 1
el el DA0MS0 1
presidente presidente NCMS000 1
de de SPS00 0.999919
la el DA0FS0 0.972146
Rep rep NP00000 1
blica blica AQ0FS0 1
que que CS 0.4375
suceder suceder VMN0000 1
a a SPS00 0.99585
Giorgio_Napolitano giorgio_napolitano NP00000 1
cuyo cuyo PR0MS000 1
mandato mandato NCMS000 1
concluye concluir VMIP3S0 0.75
el el DA0MS0 1
15_de_mayo [??:15/5/??:??.??:??] W 1
La la NP00000 1
izquierda izquierdo AQ0FS0 0.5
y y CC 0.999812
la el DA0FS0 0.972146
derecha derecha NCFS000 0.735294
tras tras SPS00 1
intensas intenso AQ0FP0 0.97439
negociaciones negociación NCFP000 1
secretas secreto AQ0FP0 0.605249
acordaron acordar VMIS3P0 1
el el DA0MS0 1
mi mi DP1CSS 0.995536
rcoles rcoles NCMP000 0.750052
apoyar apoyar VMN0000 1
a a SPS00 1
el el DA0MS0 1
exsindicalista exsindicalista AQ0CS0 0.705757
cat cat NCMS000 1
lico lico AQ0MS0 0.392198
Franco_Marini franco_marini NP00000 1
de de SPS00 0.999919
80 80 Z 1
a a SPS00 0.99585
os o NCFP000 0.222222
pero pero CC 0.998821
su su DP3CS0 1
candidatura candidatura NCFS000 1
divide dividir VMIP3S0 0.75
a a SPS00 0.99585
la el DA0FS0 0.972146
izquierda izquierda NCFS000 0.5
y y CC 0.999812
es ser VSIP3S0 1
criticada criticar VMP00SF 1
por por SPS00 1
el el DA0MS0 1
Movimiento movimiento NP00000 1
Cinco 5 Z 0.98
Estrellas estrellas NP00000 1
la el DA0FS0 0.972146
tercera 3 AO0FS0 0.928571
fuerza fuerza NCFS000 0.968254
pol pol NCMS000 0.861706
tica tica AQ0FS0 0.595788
de de SPS00 1
el el DA0MS0 1
parlamento parlamento NCMS000 0.75
Es es NP00000 1
un uno DI0MS0 0.986987
candidato candidato NCMS000 1
de de SPS00 1
el el DA0MS0 1
siglo siglo NCMS000 1
pasado pasar VMP00SM 0.647727
lament lament NCMS000 0.607342
el el DA0MS0 1
joven joven AQ0CS0 0.537037
alcalde alcalde NCMS000 1
de de SPS00 0.999919
Florencia_Matteo_Renzi florencia_matteo_renzi NP00000 1
quien quien PR0CS000 1
lidera liderar VMIP3S0 0.994868
un uno DI0MS0 0.986987
amplio amplio AQ0MS0 1
sector sector NCMS000 1
de de SPS00 1
el el DA0MS0 1
Partido_Democr partido_democr NP00000 1
tico tico AQ0MS0 0.806828
izquierda izquierda NCFS000 0.5
Marini marini NP00000 1
es ser VSIP3S0 1
un uno DI0MS0 0.986987
hombre hombre NCMS000 0.95679
de de SPS00 1
el el DA0MS0 1
sistema sistema NCMS000 1
si si CS 0.997706
gana ganar VMIP3S0 0.583333
ser ser VSN0000 0.93883
un uno DI0MS0 0.986987
desastre desastre NCMS000 1
para para SPS00 0.998507
el el DA0MS0 1
pa pa NCFS000 0.740689
s segundo NCMN000 0.622321
coment coment NCMS000 0.607342
a a SPS00 0.99585
AFP afp NP00000 1
el el DA0MS0 1
c c NCFS000 1
mico mico NCMS000 1
Beppe_Grillo beppe_grillo NP00000 1
l l NCFS000 0.639398
der der VMN0000 0.630215
de de SPS00 1
el el DA0MS0 1
Movimiento movimiento NP00000 1
Cinco 5 Z 0.98
Estrellas estrellas NP00000 1
fustigador fustigador NCMS000 0.58273
de de SPS00 0.999919
la el DA0FS0 0.972146
llamada llamar VMP00SF 0.875
' ' Fe 1
casta casta NCFS000 0.75
' ' Fe 1
pol pol NCMS000 0.861706
tica tica AQ0FS0 0.595788
Para_Grillo_Marini para_grillo_marini NP00000 1
es ser VSIP3S0 1
en en SPS00 1
realidad realidad NCFS000 1
el el DA0MS0 1
candidato candidato NCMS000 1
de de SPS00 1
el el DA0MS0 1
l l NCFS000 0.639398
der der VMN0000 0.630215
de de SPS00 0.999919
la el DA0FS0 0.972146
derecha derecha NCFS000 0.735294
y y CC 0.999812
magnate magnate NCCS000 1
de de SPS00 0.999919
las el DA0FP0 0.97051
comunicaciones comunicación NCFP000 1
Silvio_Berlusconi_Ser silvio_berlusconi_ser NP00000 1
un uno DI0MS0 0.986987
presidente presidente NCMS000 1
que que PR0CN000 0.5625
le le PP3CSD00 1
garantizar garantizar VMN0000 1
la el DA0FS0 0.972146
tranquilidad tranquilidad NCFS000 1
judicial judicial AQ0CS0 1
a a SPS00 1
el el DA0MS0 1
exprimer exprimer VMN0000 1
ministro ministro NCMS000 1
de de SPS00 0.999919
derecha derecha NCFS000 0.735294
Silvio_Berlusconi_Ser silvio_berlusconi_ser NP00000 1
su su DP3CS0 1
hombre hombre NCMS000 0.95679
coment coment NCMS000 0.607342
a a SPS00 1
el el DA0MS0 1
referir referir VMN0000 1
se se PP3CN000 1
a a SPS00 0.99585
los el DA0MP0 0.97623
numerosos numeroso AQ0MP0 1
enredos enredo NCMP000 1
judiciales judicial AQ0CP0 1
de de SPS00 1
el el DA0MS0 1
magnate magnate NCCS000 1
El el NP00000 1
movimiento movimiento NCMS000 1
' ' Fe 1
antisistema antisistema AQ0CS0 1
' ' Fe 1
de de SPS00 0.999919
Grillo grillo NP00000 1
propuso proponer VMIS3S0 1
a a SPS00 0.99585
un uno DI0MS0 0.986987
reconocido reconocer VMP00SM 1
intelectual intelectual AQ0CS0 0.944444
el el DA0MS0 1
jurista jurista NCCS000 1
Stefano_Rodot stefano_rodot NP00000 1
de de SPS00 0.999919
80 80 Z 1
a a SPS00 0.99585
os o NCFP000 0.222222
cuya cuyo PR0FS000 1
candidatura candidatura NCFS000 1
es ser VSIP3S0 1
apoyada apoyar VMP00SF 1
tambi tambi AQ0CN0 1
n n NCFS000 1
por por SPS00 1
Nichi_Vendola nichi_vendola NP00000 1
l l NCFS000 0.639398
der der VMN0000 0.630215
de de SPS00 0.999919
Izquierda_Ecolog izquierda_ecolog NP00000 1
a a SPS00 0.99585
y y CC 0.999812
Libertad_El libertad_el NP00000 1
candidato candidato NCMS000 1
a a SPS00 1
el el DA0MS0 1
cargo cargo NCMS000 0.916667
m m NCFS000 0.5
s segundo NCMN000 0.622321
importante importante AQ0CS0 1
y y CC 0.999812
estable estable AQ0CS0 1
de de SPS00 1
el el DA0MS0 1
pa pa NCFS000 0.740689
s segundo NCMN000 0.622321
con con SPS00 1
mandato mandato NCMS000 1
de de SPS00 0.999919
siete 7 Z 1
a a SPS00 0.99585
os os PP2CP000 0.722222
es ser VSIP3S0 1
por por SPS00 1
tradici tradici RG 0.751648
n n NCFS000 1
una uno DI0FS0 0.951241
personalidad personalidad NCFS000 1
por por SPS00 1
encima_de encima_de SPS00 1
los el DA0MP0 0.97623
partidos partido NCMP000 0.928571
y y CC 0.999812
una uno DI0FS0 0.951241
figura figura NCFS000 0.888889
que que PR0CN000 0.5625
garantiza garantizar VMIP3S0 0.875
el el DA0MS0 1
equilibrio equilibrio NCMS000 1
de de SPS00 0.999919
la el DA0FS0 0.972146
vida vida NCFS000 1
pol pol NCMS000 0.861706
tica tica AQ0FS0 0.595788
ya_que ya_que CS 1
es ser VSIP3S0 1
la el DA0FS0 0.972146
nica nica AQ0FS0 0.730709
persona persona NCFS000 0.960784
con con SPS00 1
derecho derecho NCMS000 0.884615
a a SPS00 0.99585
disolver disolver VMN0000 1
el el DA0MS0 1
Parlamento parlamento NP00000 1
y y CC 0.999812
a a SPS00 0.99585
convocar convocar VMN0000 1
elecciones elección NCFP000 1
legislativas legislativo AQ0FP0 1
anticipadas anticipar VMP00PF 1
En en NP00000 1
las el DA0FP0 0.97051
votaciones votación NCFP000 1
secretas secreto AQ0FP0 0.605249
que que PR0CN000 0.5625
se se P00CN000 0.465602
inician iniciar VMIP3P0 1
este este DD0MS0 0.956743
jueves [J:??/??/??:??.??:??] W 1
para para SPS00 0.998507
remplazar remplazar VMN0000 1
a a SPS00 1
el el DA0MS0 1
excomunista excomunista AQ0CS0 1
Napolitano napolitano NP00000 1
de de SPS00 0.999919
87 87 Z 1
a a SPS00 0.99585
os os PP2CP000 0.722222
tienen tener VMIP3P0 1
derecho derecho NCMS000 0.884615
a a SPS00 0.99585
pronunciar pronunciar VMN0000 1
se se PP3CN000 1
319 319 Z 1
senadores senador NCMP000 1
630 630 Z 1
diputados diputado NCMP000 0.875
y y CC 0.999812
58 58 Z 1
delegados delegado NCMP000 0.75
regionales regional AQ0CP0 1
Estas estas NP00000 1
votaciones votación NCFP000 1
resultan resultar VMIP3P0 1
particularmente particularmente RG 1
delicadas delicado AQ0FP0 1
por por SPS00 1
el el DA0MS0 1
atolladero atolladero NCMS000 1
en en SPS00 1
el el DA0MS0 1
que que PR0CN000 0.5625
se se P00CN000 0.465602
encuentra encontrar VMIP3S0 0.972222
la el DA0FS0 0.972146
pen pen AQ0CN0 0.249994
nsula nsula NCFS000 0.842094
sin sin SPS00 1
poder poder VMN0000 0.288462
formar formar VMN0000 1
un uno DI0MS0 0.986987
gobierno gobierno NCMS000 0.9
desde desde SPS00 1
las el DA0FP0 0.97051
legislativas legislativo AQ0FP0 1
de de SPS00 0.999919
finales final NCFP000 0.416667
de de SPS00 0.999919
febrero [??:??/2/??:??.??:??] W 1
debido_a debido_a SPS00 1
que que PR0CN000 0.5625
las el DA0FP0 0.97051
tres 3 Z 1
mayores mayor AQ0CP0 0.8125
formaciones formación NCFP000 1
la el DA0FS0 0.972146
izquierda izquierda NCFS000 0.5
de de SPS00 0.999919
Pier_Luigi_Bersani pier_luigi_bersani NP00000 1
la el DA0FS0 0.972146
derecha derecha NCFS000 0.735294
de de SPS00 0.999919
Silvio_Berlusconi silvio_berlusconi NP00000 1
y y CC 0.999812
el el DA0MS0 1
Movimiento movimiento NP00000 1
Cinco 5 Z 0.98
Estrellas_de_Beppe_Grillo estrellas_de_beppe_grillo NP00000 1
quedaron quedar VMIS3P0 1
pr pr VMN0000 0.633986
cticamente cticamente RG 1
empatadas empatar VMP00PF 1
La la NP00000 1
elecci elecci RG 0.751648
n n NCFS000 1
secreta secreto AQ0FS0 0.625
se se P00CN000 0.465602
inici inici VMIS1S0 0.0691907
a a SPS00 0.99585
las el DA0FP0 0.97051
10H00 10H00 Z 1
locales local NCMP000 0.75
sin sin SPS00 1
candidatos candidato NCMP000 1
formalmente formalmente RG 1
proclamados proclamar VMP00PM 1
En en NP00000 1
2006 2006 Z 1
Napolitano napolitano NP00000 1
fue ser VSIS3S0 0.932292
elegido elegir VMP00SM 0.75
en en SPS00 1
la el DA0FS0 0.972146
cuarta 4 AO0FS0 0.538462
votaci votaci NCMS000 0.0996348
n n NCFS000 1
con con SPS00 1
543 543 Z 1
votos voto NCMP000 1
a_favor_de a_favor_de SPS00 1
un uno DI0MS0 0.986987
total total AQ0CS0 0.944444
de de SPS00 0.999919
990 990 Z 1
votantes votante NCCP000 0.342817
200 200 Z 1
oficinas oficina NCFP000 1
en en SPS00 1
150 150 Z 1
pa pa NCFS000 0.740689
ses ses NCMP000 0.727093
Ampliar_Desea ampliar_desea NP00000 1
compartir compartir VMN0000 1
una uno DI0FS0 0.951241
informaci informaci AQ0CS0 0.0199855
n n NCFS000 1
un uno DI0MS0 0.986987
comentario comentario NCMS000 1
Escr escr NP00000 1
banos banos NCMP000 0.509288
a a SPS00 0.99585

