ROMA_AFP_El_Partido_Dem roma_afp_el_partido_dem NP00000 1
crata crata VMIP3S0 0.707183
PD pd NP00000 1
izquierda izquierdo AQ0FS0 0.5
y y CC 0.999812
el el DA0MS0 1
Pueblo_de_la_Libertad_PDL pueblo_de_la_libertad_pdl NP00000 1
derecha derecho AQ0FS0 0.264706
anunciaron anunciar VMIS3P0 1
el el DA0MS0 1
mi mi DP1CSS 0.995536
rcoles rcoles NCMP000 0.750052
por por SPS00 1
la el DA0FS0 0.972146
noche noche NCFS000 1
la el DA0FS0 0.972146
intenci intenci AQ0CS0 0.0199855
n n NCFS000 1
de de SPS00 0.999919
apoyar apoyar VMN0000 1
a a SPS00 1
el el DA0MS0 1
expresidente expresidente NCMS000 0.9
de de SPS00 1
el el DA0MS0 1
Senado_Franco_Marini senado_franco_marini NP00000 1
de de SPS00 0.999919
80 80 Z 1
a a SPS00 0.99585
os os PP2CP000 0.722222
como como CS 0.998579
candidato candidato NCMS000 1
a a SPS00 0.99585
la el DA0FS0 0.972146
elecci elecci AQ0CS0 0.0199855
n n NCFS000 1
presidencial presidencial AQ0CS0 1
que que PR0CN000 0.5625
se se P00CN000 0.465602
llevar_a_cabo llevar_a_cabo VMN0000 1
a_partir_de a_partir_de SPS00 1
el el DA0MS0 1
jueves [J:??/??/??:??.??:??] W 1
en en SPS00 1
el el DA0MS0 1
parlamento parlamento NCMS000 0.75
La la NP00000 1
candidatura candidatura NCFS000 1
de de SPS00 0.999919
Franco_Marini franco_marini NP00000 1
es ser VSIP3S0 1
la el DA0FS0 0.972146
que que PR0CN000 0.5625
tiene tener VMIP3S0 1
posibilidad posibilidad NCFS000 1
de de SPS00 0.999919
lograr lograr VMN0000 1
las el DA0FP0 0.97051
mayores mayor AQ0CP0 0.8125
convergencias convergencia NCFP000 1
declar declar VMN0000 1
el el DA0MS0 1
jefe jefe NCMS000 1
de de SPS00 1
el el DA0MS0 1
PD_Pier_Luigi_Bersani pd_pier_luigi_bersani NP00000 1
luego_de luego_de SPS00 1
negociaciones negociación NCFP000 1
con con SPS00 1
la el DA0FS0 0.972146
derecha derecha NCFS000 0.735294
Franco_Marini franco_marini NP00000 1
es ser VSIP3S0 1
una uno DI0FS0 0.951241
persona persona NCFS000 0.960784
positiva positivo AQ0FS0 1
y y CC 0.999812
seria serio AQ0FS0 0.777778
y y CC 0.999812
para para SPS00 0.998507
nosotros nosotros PP1MP000 1
el el DA0MS0 1
Pueblo_de_la_Libertad pueblo_de_la_libertad NP00000 1
no no RN 0.99778
se se P00CN000 0.465602
trata tratar VMIP3S0 0.946237
de de SPS00 0.999919
una uno DI0FS0 0.951241
derrota derrota NCFS000 0.547112
afirm afirm NCMS000 0.700265
a a SPS00 0.99585
su su DP3CS0 1
vez vez NCFS000 1
Silvio_Berlusconi_Marini silvio_berlusconi_marini NP00000 1
podr podr VMN0000 0.633986
asegurar asegurar VMN0000 1
una uno DI0FS0 0.951241
convergencia convergencia NCFS000 1
de de SPS00 0.999919
las el DA0FP0 0.97051
fuerzas fuerza NCFP000 0.954545
de de SPS00 0.999919
centro centro NCMS000 0.966667
derecha derecho AQ0FS0 0.264706
y y CC 0.999812
de de SPS00 0.999919
centro centro NCMS000 0.966667
izquierda izquierdo AQ0FS0 0.5
asegur asegur NCFS000 1
Las las NP00000 1
elecciones elección NCFP000 1
legislativas legislativo AQ0FP0 1
no no RN 0.99778
lograron lograr VMIS3P0 1
una uno DI0FS0 0.951241
mayor mayor AQ0CS0 0.989796
a a SPS00 0.99585
clara claro AQ0FS0 0.928571
en en SPS00 1
el el DA0MS0 1
Parlamento parlamento NP00000 1
donde donde PR000000 0.963542
la el DA0FS0 0.972146
izquierda izquierda NCFS000 0.5
es ser VSIP3S0 1
mayoritaria mayoritario AQ0FS0 1
en en SPS00 1
la el DA0FS0 0.972146
C c NP00000 1
mara mara VMSI3S0 0.142887
de de SPS00 0.999919
diputados diputado NCMP000 0.875
mientras mientras CS 0.881579
el el DA0MS0 1
Senado senado NP00000 1
est est NCMS000 1
dividido dividir VMP00SM 1
en en SPS00 1
tres 3 Z 1
bloques bloque NCMP000 0.995706
Sindicalista sindicalista NP00000 1
y y CC 0.999812
hombre hombre NCMS000 0.95679
pol pol NCMS000 0.861706
tico tico AQ0MS0 0.806828
de de SPS00 0.999919
mucha mucho DI0FS0 0.97619
experiencia experiencia NCFS000 1
Franco_Marini franco_marini NP00000 1
fue ser VSIS3S0 0.932292
presidente presidente NCMS000 1
de de SPS00 1
el el DA0MS0 1
Senado senado NP00000 1
de de SPS00 0.999919
2006 2006 Z 1
a a SPS00 0.99585
2008 2008 Z 1
y y CC 0.999812
hace hacer VMIP3S0 1
parte parte NCFS000 0.497967
de de SPS00 1
el el DA0MS0 1
ala ala NCFS000 0.961441
dem dem NCMS000 1
crata crata VMIP3S0 0.707183
cristiana cristiano AQ0FS0 0.75
de de SPS00 1
el el DA0MS0 1
Partido_Dem partido_dem NP00000 1
crata crata VMIP3S0 0.707183
200 200 Z 1
oficinas oficina NCFP000 1
en en SPS00 1
150 150 Z 1
pa pa NCFS000 0.740689
ses ses NCMP000 0.727093
Ampliar_Desea ampliar_desea NP00000 1
compartir compartir VMN0000 1
una uno DI0FS0 0.951241
informaci informaci AQ0CS0 0.0199855
n n NCFS000 1
un uno DI0MS0 0.986987
comentario comentario NCMS000 1
Escr escr NP00000 1
banos banos NCMP000 0.509288
a a SPS00 0.99585

