WASHINGTON_AFP_La washington_afp_la NP00000 1
carta carta NCFS000 1
sospechosa sospechoso AQ0FS0 0.65727
dirigida dirigir VMP00SF 1
a a SPS00 1
el el DA0MS0 1
presidente presidente NCMS000 1
Barack_Obama barack_obama NP00000 1
conten conten VMSP3P0 0.666285
a a SPS00 0.99585
ricino ricino NCMS000 1
y y CC 0.999812
por por SPS00 1
ahora ahora RG 1
no no RN 0.99778
tiene tener VMIP3S0 1
conexi conexi NCMS000 1
n n NCFS000 1
con con SPS00 1
el el DA0MS0 1
atentado atentado NCMS000 0.875
de de SPS00 0.999919
Boston boston NP00000 1
inform inform NCMS000 0.700265
este este DD0MS0 0.956743
mi mi DP1CSS 0.995536
rcoles rcoles NCMP000 0.750052
la el DA0FS0 0.972146
polic polic NCFS000 1
a a SPS00 0.99585
federal federal AQ0CS0 1
de de SPS00 0.999919
EEUU_el_FBI_La eeuu_el_fbi_la NP00000 1
carta carta NCFS000 1
recibida recibir VMP00SF 1
el el DA0MS0 1
martes [M:??/??/??:??.??:??] W 1
en en SPS00 1
el el DA0MS0 1
centro centro NCMS000 0.966667
de de SPS00 0.999919
distribuci distribuci RG 0.751648
n n NCFS000 1
postal postal AQ0CS0 0.65717
de de SPS00 0.999919
la el DA0FS0 0.972146
Casa_Blanca casa_blanca NP00000 1
fuera_de fuera_de SPS00 1
el el DA0MS0 1
complejo complejo NCMS000 0.791667
presidencial presidencial AQ0CS0 1
y y CC 0.999812
puesta poner VMP00SF 0.416667
en en SPS00 1
cuarentena cuarentena NCFS000 1
por por SPS00 1
los el DA0MP0 0.97623
agentes agente NCCP000 0.928571
de de SPS00 1
el el DA0MS0 1
Servicio_Secreto servicio_secreto NP00000 1
dio dar VMIS3S0 1
positivo positivo AQ0MS0 0.875
de de SPS00 0.999919
ricino ricino NCMS000 1
tras tras SPS00 1
los el DA0MP0 0.97623
primeros 1 AO0MP0 0.975
an an NCFS000 1
lisis lisis NCFN000 1
llevados_a_cabo llevar_a_cabo VMP00PM 1
este este DD0MS0 0.956743
mi mi DP1CSS 0.995536
rcoles rcoles NCMP000 0.750052
por por SPS00 1
la el DA0FS0 0.972146
ma ma NCFS000 0.391356
ana ana NCFS000 1
indic indic RG 0.5
el el DA0MS0 1
FBI fbi NP00000 1
en en SPS00 1
un uno DI0MS0 0.986987
comunicado comunicado NCMS000 0.345763
No no NP00000 1
hay haber VMIP3S0 1
indicios indicio NCMP000 1
de de SPS00 0.999919
conexi conexi NCMS000 1
n n NCFS000 1
con con SPS00 1
el el DA0MS0 1
atentado atentado NCMS000 0.875
de de SPS00 1
el el DA0MS0 1
lunes [L:??/??/??:??.??:??] W 1
en en SPS00 1
la el DA0FS0 0.972146
marat marat NCMS000 1
n n NCFS000 1
de de SPS00 0.999919
Boston boston NP00000 1
agreg agreg RG 0.14318
200 200 Z 1
oficinas oficina NCFP000 1
en en SPS00 1
150 150 Z 1
pa pa NCFS000 0.740689
ses ses NCMP000 0.727093
Ampliar_Desea ampliar_desea NP00000 1
compartir compartir VMN0000 1
una uno DI0FS0 0.951241
informaci informaci AQ0CS0 0.0199855
n n NCFS000 1
un uno DI0MS0 0.986987
comentario comentario NCMS000 1
Escr escr NP00000 1
banos banos NCMP000 0.509288
a a SPS00 0.99585

