PEK_N_AFP_El pek_n_afp_el NP00000 1
virus virus NCMN000 1
de de SPS00 0.999919
la el DA0FS0 0.972146
gripe gripe NCFS000 1
aviaria aviario AQ0FS0 1
H7N9 H7N9 Z 1
ha haber VAIP3S0 0.998141
infectado infectar VMP00SM 1
a a SPS00 0.99585
61 61 Z 1
personas persona NCFP000 0.983871
en en SPS00 1
China china NP00000 1
14 14 Z 1
de de SPS00 0.999919
las el DA0FP0 0.97051
cuales cual PR0CP000 1
han haber VAIP3P0 1
muerto morir VMP00SM 0.676471
seg segundo NCMN000 1
n n NCFS000 1
un uno DI0MS0 0.986987
nuevo nuevo AQ0MS0 1
balance balance NCMS000 1
hecho hacer VMP00SM 0.618421
p p NCFS000 0.5
blico blico AQ0MS0 0.400224
este este DD0MS0 0.956743
lunes [L:??/??/??:??.??:??] W 1
por por SPS00 1
el el DA0MS0 1
departamento departamento NCMS000 1
de de SPS00 0.999919
salud salud NCFS000 1
de de SPS00 0.999919
la el DA0FS0 0.972146
provincia provincia NCFS000 1
de de SPS00 0.999919
Jiangsu jiangsu NP00000 1
este este DD0MS0 0.956743
de de SPS00 1
el el DA0MS0 1
pa pa NCFS000 0.740689
s segundo NCMN000 0.622321
La la NP00000 1
agencia agencia NCFS000 0.666667
China_Nueva china_nueva NP00000 1
inform inform NCMS000 0.700265
el el DA0MS0 1
domingo [G:??/??/??:??.??:??] W 1
de de SPS00 0.999919
que que CS 0.4375
este este DD0MS0 0.956743
virus virus NCMN000 1
se se P00CN000 0.465602
hab hab NCMS000 0.63631
a a SPS00 0.99585
propagado propagar VMP00SM 1
a a SPS00 0.99585
la el DA0FS0 0.972146
provincia provincia NCFS000 1
de de SPS00 0.999919
Henan henan NP00000 1
centro centro NCMS000 0.966667
de de SPS00 0.999919
China china NP00000 1
despu despu NCMS000 0.774439
s segundo NCMN000 0.622321
de de SPS00 0.999919
que que CS 0.4375
la el DA0FS0 0.972146
v v NCFS000 1
spera spera AQ0FS0 0.222163
se se P00CN000 0.465602
registrara registrar VMSI3S0 0.649999
el el DA0MS0 1
primer 1 AO0MS0 1
caso caso NCMS000 0.990741
humano humano AQ0MS0 0.964912
en en SPS00 1
Pek pek NP00000 1
n n NCFS000 1
Hasta hasta NP00000 1
el el DA0MS0 1
s segundo NCMN000 0.622321
bado bado VMP00SM 0.818183
la el DA0FS0 0.972146
presencia presencia NCFS000 0.962963
en en SPS00 1
el el DA0MS0 1
ser ser VSN0000 0.93883
humano humano AQ0MS0 0.964912
de de SPS00 1
el el DA0MS0 1
virus virus NCMN000 1
H7N9 H7N9 Z 1
segu segu NCMS000 0.774439
a a SPS00 0.99585
oficialmente oficialmente RG 1
circunscrita circunscribir VMP00SF 1
a a SPS00 0.99585
tres 3 Z 1
provincias provincia NCFP000 1
de de SPS00 1
el el DA0MS0 1
este este NCMS000 0.0101781
de de SPS00 1
el el DA0MS0 1
pa pa NCFS000 0.740689
s segundo NCMN000 0.622321
Zhejiang_Jiangsu zhejiang_jiangsu NP00000 1
y y CC 0.999812
Anhui anhui NP00000 1
y y CC 0.999812
a a SPS00 0.99585
la el DA0FS0 0.972146
municipalidad municipalidad NCFS000 1
de de SPS00 0.999919
Shanghai shanghai NP00000 1
la el DA0FS0 0.972146
gran gran AQ0CS0 1
metr metr VMN0000 0.633986
polis polis NCFN000 1
de de SPS00 1
el el DA0MS0 1
este este DD0MS0 0.956743
La la NP00000 1
industria industria NCFS000 0.833333
de de SPS00 0.999919
aves ave NCFP000 1
de de SPS00 0.999919
corral corral NCMS000 1
en en SPS00 1
China china NP00000 1
ha haber VAIP3S0 0.998141
perdido perder VMP00SM 0.961538
m m NCFS000 0.5
s segundo NCMN000 0.622321
de de SPS00 0.999919
10 10 Z 1
000_millones_de_yuanes $_RMB:0 Zm 1
1 1 Z 1
240_millones_de_euros $_ECU:240000000 Zm 1
desde desde SPS00 1
que que CS 0.4375
fue ser VSIS3S0 0.932292
anunciado anunciar VMP00SM 1
el el DA0MS0 1
primer 1 AO0MS0 1
caso caso NCMS000 0.990741
de de SPS00 0.999919
infecci infecci RG 0.751648
n n NCFS000 1
en en SPS00 1
el el DA0MS0 1
ser ser VSN0000 0.93883
humano humano AQ0MS0 0.964912
seg segundo NCMN000 1
n n NCFS000 1
el el DA0MS0 1
diario diario AQ0MS0 0.5
Global_Times global_times NP00000 1
que que PR0CN000 0.5625
pidi pidi VMIS1S0 1
a a SPS00 0.99585
los el DA0MP0 0.97623
consumidores consumidor NCMP000 0.75
no no RN 0.99778
ceder ceder VMN0000 1
a a SPS00 1
el el DA0MS0 1
p p NCFS000 0.5
nico nico AQ0MS0 0.470565
El el NP00000 1
p p NCFS000 0.5
blico blico AQ0MS0 0.400224
deber deber NCMS000 0.9
a a SPS00 0.99585
contener contener VMN0000 1
su su DP3CS0 1
miedo miedo NCMS000 1
para para SPS00 0.998507
evitar evitar VMN0000 1
un uno DI0MS0 0.986987
desastre desastre NCMS000 1
en en SPS00 1
la el DA0FS0 0.972146
industria industria NCFS000 0.833333
de de SPS00 0.999919
aves ave NCFP000 1
de de SPS00 0.999919
corral corral NCMS000 1
dice decir VMIP3S0 1
un uno DI0MS0 0.986987
editorial editorial NCFS000 0.444444
de de SPS00 1
el el DA0MS0 1
peri peri NCFS000 1
dico dico AQ0MS0 0.263347
La_Organizaci la_organizaci NP00000 1
n n NCFS000 1
Mundial_de_la_Salud_OMS mundial_de_la_salud_oms NP00000 1
asegur asegur NCFS000 1
esta este DD0FS0 0.982143
semana semana NCFS000 1
que que PR0CN000 0.5625
no no RN 0.99778
hab hab NCMS000 0.63631
a a SPS00 0.99585
ninguna ninguno DI0FS0 0.722222
indicaci indicaci AQ0CS0 0.0199855
n n NCFS000 1
de de SPS00 0.999919
que que CS 0.4375
exista existir VMSP1S0 0.47619
una uno DI0FS0 0.951241
transmisi transmisi RG 1
n n NCFS000 1
de de SPS00 0.999919
un uno DI0MS0 0.986987
ser ser VSN0000 0.93883
humano humano AQ0MS0 0.964912
a a SPS00 0.99585
otro otro PI0MS000 0.38785
de de SPS00 0.999919
ese ese DD0MS0 0.98125
virus virus NCMN000 1
Antes_de antes_de NP00000 1
que que PR0CN000 0.5625
aparecieran aparecer VMSI3P0 1
los el DA0MP0 0.97623
primeros 1 AO0MP0 0.975
casos caso NCMP000 1
en en SPS00 1
China china NP00000 1
la el DA0FS0 0.972146
cepa cepa NCFS000 1
H7N9 H7N9 Z 1
de de SPS00 0.999919
la el DA0FS0 0.972146
gripe gripe NCFS000 1
aviaria aviario AQ0FS0 1
no no RN 0.99778
se se P00CN000 0.465602
hab hab NCMS000 0.63631
a a SPS00 0.99585
transmitido transmitir VMP00SM 1
a a SPS00 1
el el DA0MS0 1
ser ser VSN0000 0.93883
humano humano AQ0MS0 0.964912
A_el_igual_que a_el_igual_que NP00000 1
sucede suceder VMIP3S0 0.944444
con con SPS00 1
la el DA0FS0 0.972146
cepa cepa NCFS000 1
H5N1 H5N1 Z 1
la el DA0FS0 0.972146
m m NCFS000 0.5
s segundo NCMN000 0.622321
com cometro NCMN000 0.65
n n NCFS000 1
los el DA0MP0 0.97623
cient cient NCMS000 0.607342
ficos ficos AQ0MP0 0.227615
temen temer VMIP3P0 1
que que CS 0.4375
una uno DI0FS0 0.951241
mutaci mutaci AQ0CS0 0.0199855
n n NCFS000 1
viral viral AQ0CS0 1
permita permitir VMSP1S0 0.466667
contaminaciones contaminación NCFP000 1
de de SPS00 0.999919
un uno DI0MS0 0.986987
ser ser VSN0000 0.93883
humano humano AQ0MS0 0.964912
a a SPS00 0.99585
otro otro DI0MS0 0.61215
lo el DA0NS0 0.457393
que que PR0CN000 0.5625
podr podr VMN0000 0.633986
a a SPS00 0.99585
desencadenar desencadenar VMN0000 1
una uno DI0FS0 0.951241
pandemia pandemia NCFS000 1
Las las NP00000 1
megal megal NCFS000 0.649998
polis polis NCFN000 1
de de SPS00 0.999919
Pek pek NP00000 1
n n NCFS000 1
y y CC 0.999812
Shaghai shaghai NP00000 1
que que PR0CN000 0.5625
tienen tener VMIP3P0 1
cada cada DI0CS0 1
una_m LN_m:1 Zu 1
s segundo NCMN000 0.622321
de de SPS00 0.999919
20_millones 20000000 Zd 1
de de SPS00 0.999919
habitantes habitante NCCP000 1
han haber VAIP3P0 1
tomado tomar VMP00SM 1
medidas medida NCFP000 0.944444
para para SPS00 0.998507
intentar intentar VMN0000 1
delimitar delimitar VMN0000 1
la el DA0FS0 0.972146
cepa cepa NCFS000 1
infecciosa infeccioso AQ0FS0 1
Despu despu NP00000 1
s segundo NCMN000 0.622321
de de SPS00 0.999919
ordenar ordenar VMN0000 1
el el DA0MS0 1
cierre cierre NCMS000 0.899603
de de SPS00 0.999919
los el DA0MP0 0.97623
mercados mercado NCMP000 0.75
de de SPS00 0.999919
aves ave NCFP000 1
de de SPS00 0.999919
corral corral NCMS000 1
las el DA0FP0 0.97051
autoridades autoridad NCFP000 1
prohibieron prohibir VMIS3P0 1
la el DA0FS0 0.972146
venta venta NCFS000 1
de de SPS00 0.999919
p p NCFS000 0.5
jaros jaro AQ0MP0 0.35736
y y CC 0.999812
las el DA0FP0 0.97051
carreras carrera NCFP000 1
de de SPS00 0.999919
palomas paloma NCFP000 1
mensajeras mensajero AQ0FP0 0.507224
un uno DI0MS0 0.986987
pasatiempo pasatiempo NCMS000 1
popular popular AQ0CS0 1
en en SPS00 1
China_Shanghai china_shanghai NP00000 1
y y CC 0.999812
otras otro DI0FP0 0.731481
ciudades ciudad NCFP000 1
procedieron proceder VMIS3P0 1
a a SPS00 1
el el DA0MS0 1
sacrificios sacrificio NCMP000 1
de de SPS00 0.999919
decenas decena NCFP000 1
de de SPS00 0.999919
miles mil NCMP000 1
de de SPS00 0.999919
aves ave NCFP000 1
una uno DI0FS0 0.951241
medida medida NCFS000 0.863636
que que PR0CN000 0.5625
ha haber VAIP3S0 0.998141
golpeado golpear VMP00SM 1
duramente duramente RG 1
a a SPS00 1
el el DA0MS0 1
sector sector NCMS000 1
200 200 Z 1
oficinas oficina NCFP000 1
en en SPS00 1
150 150 Z 1
pa pa NCFS000 0.740689
ses ses NCMP000 0.727093
Ampliar_Desea ampliar_desea NP00000 1
compartir compartir VMN0000 1
una uno DI0FS0 0.951241
informaci informaci AQ0CS0 0.0199855
n n NCFS000 1
un uno DI0MS0 0.986987
comentario comentario NCMS000 1
Escr escr NP00000 1
banos banos NCMP000 0.509288
a a SPS00 0.99585

