EL_CAIRO_AFP el_cairo_afp NP00000 1
Un uno DI0MS0 0.986987
tribunal tribunal NCMS000 1
egipcio egipcio AQ0MS0 0.376206
orden orden NCMS000 0.6
este este DD0MS0 0.956743
s segundo NCMN000 0.622321
bado bado VMP00SM 0.818183
la el DA0FS0 0.972146
liberaci liberaci AQ0CS0 0.0199855
n n NCFS000 1
condicional condicional AQ0CS0 0.65727
de de SPS00 1
el el DA0MS0 1
ex ex AQ0CN0 0.25
presidente presidente NCMS000 1
Hosni_Mubarak hosni_mubarak NP00000 1
en en SPS00 1
el el DA0MS0 1
marco marco NCMS000 0.9
de de SPS00 0.999919
un uno DI0MS0 0.986987
juicio juicio NCMS000 1
por por SPS00 1
corrupci corrupci RG 0.751648
n n NCFS000 1
pero pero CC 0.998821
permanecer permanecer VMN0000 1
encarcelado encarcelar VMP00SM 1
por por SPS00 1
otra otro DI0FS0 0.801136
causa causa NCFS000 0.794872
anunci anunci RG 0.751648
su su DP3CS0 1
abogado abogado NCMS000 0.833333
Mubarak mubarak NP00000 1
detenido detener VMP00SM 0.833333
en en SPS00 1
una uno DI0FS0 0.951241
prisi prisi RG 1
n n NCFS000 1
de de SPS00 1
el el DA0MS0 1
sur sur NCMS000 1
de de SPS00 0.999919
El_Cairo el_cairo NP00000 1
est est NCMS000 1
citado citar VMP00SM 1
por por SPS00 1
tres 3 Z 1
causas causa NCFP000 0.833333
una uno DI0FS0 0.951241
por por SPS00 1
la el DA0FS0 0.972146
muerte muerte NCFS000 1
de de SPS00 0.999919
manifestantes manifestante NCCP000 1
a_principios_de a_principios_de SPS00 1
2011 2011 Z 1
y y CC 0.999812
las el DA0FP0 0.97051
otras otro DI0FP0 0.731481
dos 2 Z 0.988722
por por SPS00 1
casos caso NCMP000 1
de de SPS00 0.999919
corrupci corrupci RG 0.751648
n n NCFS000 1
El el NP00000 1
s segundo NCMN000 0.622321
bado bado VMP00SM 0.818183
el el DA0MS0 1
tribunal tribunal NCMS000 1
levant levant NCMS000 0.607342
la el DA0FS0 0.972146
detenci detenci AQ0CS0 0.0199855
n n NCFS000 1
de de SPS00 1
el el DA0MS0 1
ex ex AQ0CN0 0.25
presidente presidente NCMS000 1
en en SPS00 1
un uno DI0MS0 0.986987
caso caso NCMS000 0.990741
vinculado vincular VMP00SM 1
a a SPS00 0.99585
su su DP3CS0 1
fortuna fortuna NCFS000 1
personal personal AQ0CS0 0.710526
que que PR0CN000 0.5625
seg segundo NCMN000 1
n n NCFS000 1
la el DA0FS0 0.972146
instrucci instrucci AQ0CS0 0.0199855
n n NCFS000 1
es ser VSIP3S0 1
superior superior AQ0CS0 0.964286
a a SPS00 0.99585
las el DA0FP0 0.97051
sumas suma NCFP000 0.491753
que que CS 0.4375
habr habr VMN0000 0.633986
a a SPS00 0.99585
podido poder VMP00SM 1
adquirir adquirir VMN0000 1
leg leg RG 0.14318
timamente timamente RG 1
La la NP00000 1
justicia justicia NCFS000 1
ya ya RG 0.996988
hab hab NCMS000 0.63631
a a SPS00 0.99585
ordenado ordenar VMP00SM 1
el el DA0MS0 1
15_de_abril [??:15/4/??:??.??:??] W 1
su su DP3CS0 1
liberaci liberaci AQ0CS0 0.0199855
n n NCFS000 1
condicional condicional AQ0CS0 0.65727
en en SPS00 1
el el DA0MS0 1
marco marco NCMS000 0.9
de de SPS00 1
el el DA0MS0 1
caso caso NCMS000 0.990741
de de SPS00 0.999919
los el DA0MP0 0.97623
asesinatos asesinato NCMP000 1
ya_que ya_que CS 1
pas pas NCFP000 0.954559
m m NCFS000 0.5
s segundo NCMN000 0.622321
de de SPS00 0.999919
dos 2 Z 0.988722
a a SPS00 0.99585
os o NCFP000 0.222222
en en SPS00 1
detenci detenci RG 0.751648
n n NCFS000 1
preventiva preventivo AQ0FS0 1
Pero_Mubarak pero_mubarak NP00000 1
sigue seguir VMIP3S0 0.982759
en en SPS00 1
prisi prisi RG 1
n n NCFS000 1
la el DA0FS0 0.972146
fiscal fiscal NCCS000 0.342737
a a SPS00 0.99585
le le PP3CSD00 1
declar declar VMN0000 1
detenci detenci RG 0.751648
n n NCFS000 1
por por SPS00 1
nuevas nuevo AQ0FP0 0.961538
acusaciones acusación NCFP000 1
de de SPS00 0.999919
corrupci corrupci RG 0.751648
n n NCFS000 1
Hay hay NP00000 1
a a SPS00 0.99585
n n NCFS000 1
otro otro DI0MS0 0.61215
caso caso NCMS000 0.990741
y y CC 0.999812
vamos ir VMIP1P0 0.633333
a a SPS00 0.99585
encargar encargar VMN0000 1
nos nos PP1CP000 1
declar declar VMN0000 1
su su DP3CS0 1
abogado abogado NCMS000 0.833333
Farid farid NP00000 1
a a SPS00 1
el el DA0MS0 1
Deeb_Detenido deeb_detenido NP00000 1
en en SPS00 1
abril_de_2011 [??:??/4/2011:??.??:??] W 1
Mubarak mubarak NP00000 1
fue ser VSIS3S0 0.932292
condenado condenar VMP00SM 0.833333
en en SPS00 1
un uno DI0MS0 0.986987
primer 1 AO0MS0 1
juicio juicio NCMS000 1
a a SPS00 0.99585
prisi prisi RG 1
n n NCFS000 1
perpetua perpetuo AQ0FS0 0.75
por por SPS00 1
la el DA0FS0 0.972146
muerte muerte NCFS000 1
de de SPS00 0.999919
manifestantes manifestante NCCP000 1
durante durante SPS00 1
la el DA0FS0 0.972146
revuelta revuelta NCFS000 0.75
que que PR0CN000 0.5625
lo el DA0NS0 0.457393
oblig oblig NCMS000 0.714133
a a SPS00 0.99585
dimitir dimitir VMN0000 1
el el DA0MS0 1
11_de_febrero_de_2011 [??:11/2/2011:??.??:??] W 1
El el NP00000 1
11_de_mayo [??:11/5/??:??.??:??] W 1
fue ser VSIS3S0 0.932292
juzgado juzgar VMP00SM 0.75
nuevamente nuevamente RG 1
por por SPS00 1
complicidad complicidad NCFS000 1
en en SPS00 1
la el DA0FS0 0.972146
muerte muerte NCFS000 1
e y CC 0.973684
intento intento NCMS000 0.9
de de SPS00 0.999919
asesinato asesinato NCMS000 1
de de SPS00 0.999919
manifestantes manifestante NCCP000 1
entre entre SPS00 0.995223
25 25 Z 1
y y CC 0.999812
el el DA0MS0 1
31_de_enero_de_2011 [??:31/1/2011:??.??:??] W 1
La la NP00000 1
salud salud NCFS000 1
de de SPS00 0.999919
Mubarak mubarak NP00000 1
que que CS 0.4375
tendr tendr VMN0000 0.633986
85 85 Z 1
a a SPS00 0.99585
os o NCFP000 0.222222
en en SPS00 1
mayo [??:??/5/??:??.??:??] W 1
es ser VSIP3S0 1
objeto objeto NCMS000 0.95
de de SPS00 0.999919
numerosas numeroso AQ0FP0 1
especulaciones especulación NCFP000 1
Los los NP00000 1
ltimos ltimos VMIP1P0 0.856975
dos 2 Z 0.988722
a a SPS00 0.99585
os os PP2CP000 0.722222
habr habr AQ0CS0 0.0829965
a a SPS00 0.99585
recibido recibir VMP00SM 1
tratamiento tratamiento NCMS000 1
por por SPS00 1
problemas problema NCMP000 1
card card NCMS000 1
acos aco NCMP000 1
costillas costilla NCFP000 1
rotas romper VMP00PF 0.777778
una uno DI0FS0 0.951241
depresi depresi RG 1
n n NCFS000 1
e y CC 0.973684
hipertensi hipertensi RG 1
n n NCFS000 1
Pero pero NP00000 1
su su DP3CS0 1
ltima ltima AQ0FS0 0.166758
comparecencia comparecencia NCFS000 1
ante ante SPS00 0.990566
un uno DI0MS0 0.986987
tribunal tribunal NCMS000 1
el el DA0MS0 1
13_de_abril [??:13/4/??:??.??:??] W 1
provoc provoc NC00000 0.538029
sorpresa sorpresa NCFS000 1
el el DA0MS0 1
ex ex AQ0CN0 0.25
presidente presidente NCMS000 1
se se P00CN000 0.465602
mostr mostr NCMS000 0.224371
distendido distender VMP00SM 1
sonriente sonriente AQ0CS0 0.582303
y y CC 0.999812
bien bien RG 0.898039
sentado sentar VMP00SM 1
en en SPS00 1
el el DA0MS0 1
banquillo banquillo NCMS000 1
de de SPS00 0.999919
los el DA0MP0 0.97623
acusados acusado NCMP000 0.308257
200 200 Z 1
oficinas oficina NCFP000 1
en en SPS00 1
150 150 Z 1
pa pa NCFS000 0.740689
ses ses NCMP000 0.727093
Ampliar_Desea ampliar_desea NP00000 1
compartir compartir VMN0000 1
una uno DI0FS0 0.951241
informaci informaci AQ0CS0 0.0199855
n n NCFS000 1
un uno DI0MS0 0.986987
comentario comentario NCMS000 1
Escr escr NP00000 1
banos banos NCMP000 0.509288
a a SPS00 0.99585

