EL_CAIRO_AFP_La el_cairo_afp_la NP00000 1
justicia justicia NCFS000 1
egipcia egipcio AQ0FS0 0.75
orden orden NCMS000 0.6
este este DD0MS0 0.956743
lunes [L:??/??/??:??.??:??] W 1
la el DA0FS0 0.972146
liberaci liberaci NCMS000 0.0996348
n n NCFS000 1
condicional condicional AQ0CS0 0.65727
de de SPS00 1
el el DA0MS0 1
expresidente expresidente NCMS000 0.9
de de SPS00 1
el el DA0MS0 1
pa pa NCFS000 0.740689
s segundo NCMN000 0.622321
Hosni_Mubarak hosni_mubarak NP00000 1
encausado encausar VMP00SM 0.691767
por por SPS00 1
la el DA0FS0 0.972146
muerte muerte NCFS000 1
de de SPS00 0.999919
centenares centenar NCMP000 1
de de SPS00 0.999919
manifestantes manifestante NCCP000 1
pero pero CC 0.998821
sigue seguir VMIP3S0 0.982759
en en SPS00 1
detenci detenci RG 0.751648
n n NCFS000 1
debido_a debido_a SPS00 1
otros otro DI0MP0 0.56875
casos caso NCMP000 1
anunci anunci RG 0.751648
la el DA0FS0 0.972146
televisi televisi RG 1
n n NCFS000 1
de de SPS00 0.999919
Estado_El estado_el NP00000 1
tribunal tribunal NCMS000 1
de de SPS00 0.999919
Apelaci apelaci NP00000 1
n n NCFS000 1
libera liberar VMIP3S0 0.75
a a SPS00 0.99585
Mubarak mubarak NP00000 1
en en SPS00 1
el el DA0MS0 1
caso caso NCMS000 0.990741
de de SPS00 1
el el DA0MS0 1
asesinato asesinato NCMS000 1
de de SPS00 0.999919
manifestantes manifestante NCCP000 1
y y CC 0.999812
sigue seguir VMIP3S0 0.982759
detenido detener VMP00SM 0.833333
por por SPS00 1
otros otro DI0MP0 0.56875
casos caso NCMP000 1
seg segundo NCMN000 1
n n NCFS000 1
un uno DI0MS0 0.986987
cintillo cintillo NCMS000 1
de de SPS00 0.999919
la el DA0FS0 0.972146
cadena cadena NCFS000 1
Nile_News nile_news NP00000 1
200 200 Z 1
oficinas oficina NCFP000 1
en en SPS00 1
150 150 Z 1
pa pa NCFS000 0.740689
ses ses NCMP000 0.727093
Ampliar_Desea ampliar_desea NP00000 1
compartir compartir VMN0000 1
una uno DI0FS0 0.951241
informaci informaci AQ0CS0 0.0199855
n n NCFS000 1
un uno DI0MS0 0.986987
comentario comentario NCMS000 1
Escr escr NP00000 1
banos banos NCMP000 0.509288
a a SPS00 0.99585

