BOSTON_EEUU_AFP_La boston_eeuu_afp_la NP00000 1
polic polic NCFS000 1
a a SPS00 0.99585
de de SPS00 0.999919
Boston boston NP00000 1
neg neg NCMS000 0.714133
que que PR0CN000 0.5625
haya haber VASP1S0 0.378571
detenido detener VMP00SM 0.833333
a a SPS00 0.99585
un uno DI0MS0 0.986987
sospechoso sospechoso NCMS000 0.388768
de de SPS00 1
el el DA0MS0 1
doble doble AQ0CS0 0.927273
atentado atentado NCMS000 0.875
en en SPS00 1
el el DA0MS0 1
marat marat NCMS000 1
n n NCFS000 1
de de SPS00 0.999919
la el DA0FS0 0.972146
ciudad ciudad NCFS000 1
el el DA0MS0 1
pasado_lunes [L:??/??/??:??.??:??] W 1
negando negar VMG0000 1
as as NCMS000 1
la el DA0FS0 0.972146
informaci informaci AQ0CS0 0.0199855
n n NCFS000 1
difundida difundir VMP00SF 1
por por SPS00 1
algunos alguno DI0MP0 0.476562
medios medio NCMP000 0.95
de de SPS00 0.999919
comunicaci comunicaci RG 0.751648
n n NCFS000 1
A_pesar_de a_pesar_de NP00000 1
las el DA0FP0 0.97051
informaciones información NCFP000 1
no no RN 0.99778
ha haber VAIP3S0 0.998141
habido haber VMP00SM 1
ninguna ninguno DI0FS0 0.722222
detenci detenci AQ0CS0 0.0199855
n n NCFS000 1
por por SPS00 1
el el DA0MS0 1
ataque ataque NCMS000 0.9625
contra contra SPS00 0.976316
el el DA0MS0 1
marat marat NCMS000 1
n n NCFS000 1
escribi escribi AQ0CN0 1
el el DA0MS0 1
departamento departamento NCMS000 1
de de SPS00 0.999919
polic polic NCFS000 1
a a SPS00 0.99585
de de SPS00 0.999919
Boston boston NP00000 1
en en SPS00 1
su su DP3CS0 1
cuenta cuenta NCFS000 0.765152
de de SPS00 0.999919
la el DA0FS0 0.972146
red red NCFS000 1
social social AQ0CS0 0.977273
Twitter_Poco twitter_poco NP00000 1
antes antes RG 1
la el DA0FS0 0.972146
televisi televisi RG 1
n n NCFS000 1
CNN cnn NP00000 1
citando citar VMG0000 1
una uno DI0FS0 0.951241
fuente fuente NCFS000 1
an an NCFS000 1
nima nima AQ0FS0 1
inform inform NCMS000 0.700265
de de SPS00 0.999919
que que PR0CN000 0.5625
investigadores investigador NCMP000 0.928571
estadounidenses estadounidense AQ0CP0 0.875
arrestaron arrestar VMIS3P0 1
a a SPS00 0.99585
un uno DI0MS0 0.986987
sospecho sospechar VMIP1S0 1
tras tras SPS00 1
examinar examinar VMN0000 1
im im NCMS000 0.700265
genes gen NCMP000 1
obtenidas obtener VMP00PF 1
por por SPS00 1
c c NCFS000 1
maras maras NCFP000 0.750094
ubicadas ubicar VMP00PF 1
cerca cerca RG 0.925
de de SPS00 1
el el DA0MS0 1
sitio sitio NCMS000 0.916667
donde donde PR000000 0.963542
explotaron explotar VMIS3P0 1
las el DA0FP0 0.97051
bombas bomba NCFP000 0.928571
El el NP00000 1
diario diario NCMS000 0.5
The_Boston_Globe the_boston_globe NP00000 1
afirm afirm NCMS000 0.700265
que que CS 0.4375
las el DA0FP0 0.97051
autoridades autoridad NCFP000 1
tienen tener VMIP3P0 1
una uno DI0FS0 0.951241
imagen imagen NCFS000 1
de de SPS00 0.999919
un uno DI0MS0 0.986987
sospechoso sospechoso NCMS000 0.388768
llevando llevar VMG0000 1
una uno DI0FS0 0.951241
bolsa bolsa NCFS000 1
negra negro AQ0FS0 0.657895
hacia hacia SPS00 1
el el DA0MS0 1
sitio sitio NCMS000 0.916667
donde donde PR000000 0.963542
explot explot NCMS000 1
la el DA0FS0 0.972146
segunda 2 AO0FS0 0.958333
bomba bomba NCFS000 0.964286
Las las NP00000 1
autoridades autoridad NCFP000 1
tienen tener VMIP3P0 1
previsto prever VMP00SM 1
dar dar VMN0000 1
una uno DI0FS0 0.951241
rueda rueda NCFS000 0.666667
de de SPS00 0.999919
prensa prensa NCFS000 0.925926
a a SPS00 0.99585
las el DA0FP0 0.97051
21h 21h Z 1
GMT gmt NP00000 1
en en SPS00 1
Boston boston NP00000 1
noreste noreste NCMS000 0.833333
de de SPS00 0.999919
EEUU eeuu NP00000 1
Tres 3 Z 1
personas persona NCFP000 0.983871
murieron morir VMIS3P0 1
y y CC 0.999812
183 183 Z 1
resultaron resultar VMIS3P0 1
heridas herida NCFP000 0.416667
en en SPS00 1
el el DA0MS0 1
doble doble AQ0CS0 0.927273
atentado atentado NCMS000 0.875
a a SPS00 1
el el DA0MS0 1
final final NCFS000 0.425926
de de SPS00 1
el el DA0MS0 1
marat marat NCMS000 1
n n NCFS000 1
de de SPS00 0.999919
la el DA0FS0 0.972146
ciudad ciudad NCFS000 1
Sin sin NP00000 1
ninguna ninguno DI0FS0 0.722222
reivindicaci reivindicaci AQ0CS0 0.0199855
n n NCFS000 1
por por SPS00 1
el el DA0MS0 1
atentado atentado NCMS000 0.875
el el DA0MS0 1
presidente presidente NCMS000 1
Barack_Obama barack_obama NP00000 1
denunci denunci VMIS1S0 0.0691907
un uno DI0MS0 0.986987
acto acto NCMS000 1
terrorista terrorista AQ0CS0 0.875
odioso odioso AQ0MS0 1
y y CC 0.999812
cobarde cobarde AQ0CS0 0.5
y y CC 0.999812
anunci anunci RG 0.751648
que que CS 0.4375
el el DA0MS0 1
jueves [J:??/??/??:??.??:??] W 1
visitar visitar VMN0000 1
la el DA0FS0 0.972146
ciudad ciudad NCFS000 1
para para SPS00 0.998507
un uno DI0MS0 0.986987
servicio servicio NCMS000 1
ecum ecum NCMS000 0.833338
nico nico AQ0MS0 0.470565
200 200 Z 1
oficinas oficina NCFP000 1
en en SPS00 1
150 150 Z 1
pa pa NCFS000 0.740689
ses ses NCMP000 0.727093
Ampliar_Desea ampliar_desea NP00000 1
compartir compartir VMN0000 1
una uno DI0FS0 0.951241
informaci informaci AQ0CS0 0.0199855
n n NCFS000 1
un uno DI0MS0 0.986987
comentario comentario NCMS000 1
Escr escr NP00000 1
banos banos NCMP000 0.509288
a a SPS00 0.99585

