WASHINGTON_AFP_El washington_afp_el NP00000 1
ext ext NCMS000 0.607342
cnico cnico AQ0MS0 0.914207
de de SPS00 0.999919
inteligencia inteligencia NCFS000 1
Edward_Snowden edward_snowden NP00000 1
dijo decir VMIS3S0 1
este este DD0MS0 0.956743
lunes [L:??/??/??:??.??:??] W 1
que que PR0CN000 0.5625
el el DA0MS0 1
Gobierno_de_EEUU gobierno_de_eeuu NP00000 1
no no RN 0.99778
podr podr VMN0000 0.633986
impedir impedir VMN0000 1
sus su DP3CP0 0.998462
revelaciones revelación NCFP000 1
sobre sobre SPS00 0.994203
los el DA0MP0 0.97623
programas programa NCMP000 0.9
secretos secreto AQ0MP0 0.3
de de SPS00 0.999919
espionaje espionaje NCMS000 1
electr electr AQ0CS0 0.0829965
nico no NCMS00D 0.522084
Todo todo NP00000 1
lo el DA0NS0 0.457393
que que PR0CN000 0.5625
puedo poder VMIP1S0 1
decir decir VMN0000 0.987805
ahora ahora RG 1
es ser VSIP3S0 1
que que CS 0.4375
el el DA0MS0 1
Gobierno gobierno NP00000 1
estadounidense estadounidense AQ0CS0 0.833333
no no RN 0.99778
podr podr VMN0000 0.633986
ocultar ocultar VMN0000 1
esto este PD0NS000 1
encarcel encarcel NCFS000 1
ndome ndome NCMS000 0.399997
o o CC 0.998845
mat mat NCMS000 1
ndome ndome VMIP3S0 0.200017
La la NP00000 1
verdad verdad NCFS000 1
llega llegar VMIP3S0 0.980769
y y CC 0.999812
no no RN 0.99778
podr podr VMN0000 0.633986
ser ser VSN0000 0.93883
detenida detener VMP00SF 0.75
dijo decir VMIS3S0 1
Snowden snowden NP00000 1
en en SPS00 1
una uno DI0FS0 0.951241
entrevista entrevista NCFS000 0.75
por por SPS00 1
internet internet NCFS000 1
auspiciada auspiciar VMP00SF 1
por por SPS00 1
el el DA0MS0 1
peri peri NCFS000 1
dico dico AQ0MS0 0.263347
brit brit NCMN000 1
nico nico AQ0MS0 0.470565
The_Guardian_Prometi the_guardian_prometi NP00000 1
igualmente igualmente RG 1
revelar revelar VMN0000 1
detalles detalle NCMP000 0.928571
m m NCFS000 0.5
s segundo NCMN000 0.622321
amplios amplio AQ0MP0 1
sobre sobre SPS00 0.994203
c c NCFS000 1
mo mo AQ0MS0 0.297018
la el DA0FS0 0.972146
Agencia_de_Seguridad_Nacional_de_EEUU_la_NSA agencia_de_seguridad_nacional_de_eeuu_la_nsa NP00000 1
puede poder VMIP3S0 0.995614
lograr lograr VMN0000 1
un uno DI0MS0 0.986987
acceso acceso NCMS000 1
directo directo AQ0MS0 0.9
a a SPS00 0.99585
datos dato NCMP000 1
en en SPS00 1
Internet_M internet_m NP00000 1
s segundo NCMN000 0.622321
detalles detalle NCMP000 0.928571
sobre sobre SPS00 0.994203
el el DA0MS0 1
car car NCMS000 1
cter cter NCMS000 1
directo directo AQ0MS0 0.9
de de SPS00 0.999919
los el DA0MP0 0.97623
accesos acceso NCMP000 1
de de SPS00 0.999919
la el DA0FS0 0.972146
NSA nsa NP00000 1
a a SPS00 0.99585
esos ese DD0MP0 0.961538
datos dato NCMP000 1
van ir VMIP3P0 1
a a SPS00 0.99585
llegar llegar VMN0000 1
se se P00CN000 0.465602
a a SPS00 1
el el DA0MS0 1
durante durante SPS00 1
la el DA0FS0 0.972146
conferencia conferencia NCFS000 0.666667
A a NP00000 1
el el DA0MS0 1
responder responder VMN0000 1
a a SPS00 0.99585
preguntas pregunta NCFP000 0.833333
formuladas formular VMP00PF 1
por por SPS00 1
escrito escribir VMP00SM 0.958333
por por SPS00 1
periodistas periodista NCCP000 1
y y CC 0.999812
lectores lector NCMP000 0.95
de de SPS00 0.999919
The_Guardian_Snowden the_guardian_snowden NP00000 1
de de SPS00 0.999919
29 29 Z 1
a a SPS00 0.99585
os o NCFP000 0.222222
de de SPS00 0.999919
edad edad NCFS000 1
dijo decir VMIS3S0 1
que que CS 0.4375
hab hab NCMS000 0.63631
a a SPS00 0.99585
huido huir VMP00SM 1
a a SPS00 0.99585
Hong_Kong hong_kong NP00000 1
porque porque CS 1
tem tem NCMS000 1
a a SPS00 0.99585
no no RN 0.99778
ser ser VSN0000 0.93883
objeto objeto NCMS000 0.95
de de SPS00 0.999919
un uno DI0MS0 0.986987
juicio juicio NCMS000 1
imparcial imparcial AQ0CS0 0.75
en en SPS00 1
Estados_Unidos_El_Gobierno_de_Estados_Unidos estados_unidos_el_gobierno_de_estados_unidos NP00000 1
a_el_igual_que al_igual_que CS 1
hizo hacer VMIS3S0 1
con con SPS00 1
otos otos NCFP000 0.499929
denunciantes denunciante AQ0CP0 0.528707
procedi procedi NCMS000 1
de de SPS00 0.999919
inmediato inmediato AQ0MS0 1
como como CS 0.998579
era ser VSII1S0 0.490859
de de SPS00 0.999919
esperar esperar VMN0000 1
a a SPS00 0.99585
aventar aventar VMN0000 1
cualquier cualquiera DI0CS0 1
posibilidad posibilidad NCFS000 1
de de SPS00 0.999919
un uno DI0MS0 0.986987
juicio juicio NCMS000 1
justo justo AQ0MS0 0.711538
en en SPS00 1
el el DA0MS0 1
pa pa NCFS000 0.740689
s segundo NCMN000 0.622321
y y CC 0.999812
me me PP1CS000 0.889706
declar declar VMN0000 1
abiertamente abiertamente RG 1
culpable culpable AQ0CS0 0.7
de de SPS00 0.999919
traici traici RG 0.751648
n n NCFS000 1
afirm afirm NCMS000 0.700265
Eso eso NP00000 1
no no RN 0.99778
es ser VSIP3S0 1
justicia justicia NCFS000 1
y y CC 0.999812
ser ser VSN0000 0.93883
a a SPS00 0.99585
una uno DI0FS0 0.951241
tonter tonter NCMS000 0.732933
a a SPS00 0.99585
que que PR0CN000 0.5625
me me PP1CS000 0.889706
entregara entregar VMSI3S0 0.65
voluntariamente voluntariamente RG 1
si si CS 0.997706
puedo poder VMIP1S0 1
estar estar VAN0000 1
mejor mejor AQ0CS0 0.868421
fuera_de fuera_de SPS00 1
la el DA0FS0 0.972146
c c NCFS000 1
rcel rcel NCFS000 1
Hay hay NP00000 1
quienes quien PR0CP000 1
en en SPS00 1
Washington washington NP00000 1
han haber VAIP3P0 1
sugerido sugerir VMP00SM 1
que que CS 0.4375
Snowden snowden NP00000 1
eligi eligi VMIS1S0 0.0691907
Hong_Kong hong_kong NP00000 1
porque porque CS 1
estaba estar VAII1S0 0.5
trabajando trabajar VMG0000 1
en_favor_de en_favor_de SPS00 1
China china NP00000 1
pero pero CC 0.998821
el el DA0MS0 1
joven joven NCCS000 0.462963
negando negar VMG0000 1
este este DD0MS0 0.956743
extremo extremo NCMS000 0.722222
dijo decir VMIS3S0 1
que que CS 0.4375
hab hab NCMS000 0.63631
a a SPS00 0.99585
optado optar VMP00SM 1
por por SPS00 1
ese ese DD0MS0 0.98125
destino destino NCMS000 0.944444
porque porque CS 1
su su DP3CS0 1
Gobierno gobierno NP00000 1
es ser VSIP3S0 1
capaz capaz AQ0CS0 1
de de SPS00 0.999919
soportar soportar VMN0000 1
la el DA0FS0 0.972146
presi presi NCMS000 1
n n NCFS000 1
diplom diplom NCMS000 0.500053
tica tica AQ0FS0 0.595788
de de SPS00 0.999919
Estados_Unidos_Salir_de_Estados_Unidos estados_unidos_salir_de_estados_unidos NP00000 1
era ser VSII1S0 0.490859
un uno DI0MS0 0.986987
riesgo riesgo NCMS000 1
enorme enorme AQ0CS0 1
ya_que ya_que CS 1
los el DA0MP0 0.97623
empleados empleado NCMP000 0.7
de de SPS00 0.999919
la el DA0FS0 0.972146
NSA nsa NP00000 1
deben deber VMIP3P0 1
declarar declarar VMN0000 1
sus su DP3CP0 0.998462
viajes viaje NCMP000 0.875
a a SPS00 1
el el DA0MS0 1
exterior exterior NCMS000 0.3125
con con SPS00 1
30_d TM_d:30 Zu 1
as as NCMS000 1
de de SPS00 0.999919
antelaci antelaci RG 0.751648
n n NCFS000 1
y y CC 0.999812
son ser VSIP3P0 0.986772
controlados controlar VMP00PM 1
dijo decir VMIS3S0 1
en en SPS00 1
relaci relaci RG 0.751648
n n NCFS000 1
a a SPS00 0.99585
su su DP3CS0 1
decisi decisi RG 1
n n NCFS000 1
el el DA0MS0 1
mes mes NCMS000 1
pasado pasar VMP00SM 0.647727
de de SPS00 0.999919
abandonar abandonar VMN0000 1
su su DP3CS0 1
trabajo trabajo NCMS000 0.940476
en en SPS00 1
la el DA0FS0 0.972146
NSA nsa NP00000 1
en en SPS00 1
Hawai_Snowden hawai_snowden NP00000 1
fue ser VSIS3S0 0.932292
empleado emplear VMP00SM 0.75
por por SPS00 1
un uno DI0MS0 0.986987
contratista contratista NCCS000 1
privado privar VMP00SM 0.875
Booz_Allen_Hamilton booz_allen_hamilton NP00000 1
para para SPS00 0.998507
ayudar ayudar VMN0000 1
a a SPS00 0.99585
mantener mantener VMN0000 1
redes red NCFP000 0.875
secretas secreto AQ0FP0 0.605249
de de SPS00 0.999919
ordenadores ordenador NCMP000 0.75
de de SPS00 0.999919
la el DA0FS0 0.972146
NSA nsa NP00000 1
en en SPS00 1
Hawai hawai NP00000 1
y y CC 0.999812
revel revel NCMS000 1
gran gran AQ0CS0 1
cantidad cantidad NCFS000 1
de de SPS00 0.999919
documentos documento NCMP000 1
clasificados clasificar VMP00PM 1
relacionados relacionar VMP00PM 1
con con SPS00 1
los el DA0MP0 0.97623
programas programa NCMP000 0.9
de de SPS00 0.999919
vigilancia vigilancia NCFS000 1
de de SPS00 0.999919
la el DA0FS0 0.972146
agencia agencia NCFS000 0.666667
En_Hong_Kong en_hong_kong NP00000 1
concedi concedi VMIS1S0 1
una uno DI0FS0 0.951241
entrevista entrevista NCFS000 0.75
a a SPS00 0.99585
The_Guardian the_guardian NP00000 1
en en SPS00 1
la el DA0FS0 0.972146
que que PR0CN000 0.5625
revel revel NCMS000 1
c c NCFS000 1
mo mo AQ0MS0 0.297018
la el DA0FS0 0.972146
agencia agencia NCFS000 0.666667
esp esp NCMS000 1
a a SPS00 0.99585
comunicaciones comunicación NCFP000 1
telef telef NCMS000 0.500257
nicas nicas AQ0FP0 0.736889
de de SPS00 0.999919
millones millón NCMP000 1
de de SPS00 0.999919
ciudadanos ciudadano NCMP000 0.875
estadounidenses estadounidense AQ0CP0 0.875
y y CC 0.999812
controla controlar VMIP3S0 0.833333
el el DA0MS0 1
tr tr NCMS000 0.224371
fico fico AQ0MS0 0.466938
de de SPS00 0.999919
correos correo NCMP000 0.991463
electr electr AQ0CS0 0.0829965
nicos no NCMP00D 0.530182
a a SPS00 0.99585
trav trav AQ0CS0 0.0433699
s segundo NCMN000 0.622321
de de SPS00 0.999919
Internet_Estados_Unidos internet_estados_unidos NP00000 1
no no RN 0.99778
ha haber VAIP3S0 0.998141
reclamado reclamar VMP00SM 1
a a SPS00 0.99585
n n NCFS000 1
formalmente formalmente RG 1
a a SPS00 0.99585
Hong_Kong hong_kong NP00000 1
la el DA0FS0 0.972146
extradici extradici AQ0CS0 0.0199855
n n NCFS000 1
de de SPS00 1
el el DA0MS0 1
joven joven NCCS000 0.462963
filtrador filtrador AQ0MS0 0.413525
200 200 Z 1
oficinas oficina NCFP000 1
en en SPS00 1
150 150 Z 1
pa pa NCFS000 0.740689
ses ses NCMP000 0.727093
Ampliar_Desea ampliar_desea NP00000 1
compartir compartir VMN0000 1
una uno DI0FS0 0.951241
informaci informaci AQ0CS0 0.0199855
n n NCFS000 1
un uno DI0MS0 0.986987
comentario comentario NCMS000 1
Escr escr NP00000 1
banos banos NCMP000 0.509288
a a SPS00 0.99585

