BOSTON_Estados_Unidos_AFP_Las boston_estados_unidos_afp_las NP00000 1
dos 2 Z 0.988722
explosiones explosión NCFP000 0.995706
que que PR0CN000 0.5625
dejaron dejar VMIS3P0 1
a a SPS00 1
el el DA0MS0 1
menos menos RG 1
tres 3 Z 1
muertos muerto NCMP000 0.681818
y y CC 0.999812
m m NCFS000 0.5
s segundo NCMN000 0.622321
de de SPS00 0.999919
un_centenar 100 Zd 1
de de SPS00 0.999919
heridos herido NCMP000 0.5
en en SPS00 1
la el DA0FS0 0.972146
marat marat NCMS000 1
n n NCFS000 1
de de SPS00 0.999919
Boston boston NP00000 1
eran ser VSII3P0 0.963415
tratadas tratar VMP00PF 1
este este DD0MS0 0.956743
martes [M:??/??/??:??.??:??] W 1
como como CS 0.998579
un uno DI0MS0 0.986987
potencial potencial AQ0CS0 0.25
atentado atentado NCMS000 0.875
terrorista terrorista AQ0CS0 0.875
Con con NP00000 1
un uno DI0MS0 0.986987
lapso lapso NCMS000 1
de de SPS00 0.999919
13 13 Z 1
segundos segundo NCMP000 0.833333
entre entre SPS00 0.995223
una uno DI0FS0 0.951241
y y CC 0.999812
otra otro DI0FS0 0.801136
las el DA0FP0 0.97051
explosiones explosión NCFP000 0.995706
hicieron hacer VMIS3P0 1
volar volar VMN0000 1
a a SPS00 0.99585
personas persona NCFP000 0.983871
por por SPS00 1
los el DA0MP0 0.97623
aires aire NCMP000 1
en en SPS00 1
la el DA0FS0 0.972146
l l NCFS000 0.639398
nea nea AQ0FS0 0.499863
de de SPS00 0.999919
llegada llegada NCFS000 0.7
de de SPS00 0.999919
la el DA0FS0 0.972146
marat marat NCMS000 1
n n NCFS000 1
La la NP00000 1
seguridad seguridad NCFS000 1
fue ser VSIS3S0 0.932292
elevada elevar VMP00SF 1
en en SPS00 1
las el DA0FP0 0.97051
principales principal AQ0CP0 0.875
ciudades ciudad NCFP000 1
de de SPS00 0.999919
Estados_Unidos estados_unidos NP00000 1
en_medio_de en_medio_de SPS00 1
temores temor NCMP000 1
de de SPS00 0.999919
una uno DI0FS0 0.951241
repetici repetici AQ0CS0 0.0199855
n n NCFS000 1
de de SPS00 0.999919
los el DA0MP0 0.97623
atentados atentado NCMP000 0.75
de de SPS00 1
el el DA0MS0 1
11_de_septiembre_de_2001 [??:11/9/2001:??.??:??] W 1
El el NP00000 1
presidente presidente NCMS000 1
estadounidense estadounidense AQ0CS0 0.833333
Barack_Obama barack_obama NP00000 1
dijo decir VMIS3S0 1
que que CS 0.4375
encontraremos encontrar VMIF1P0 1
a a SPS00 0.99585
quien quien PR0CS000 1
hizo hacer VMIS3S0 1
esto este PD0NS000 1
y y CC 0.999812
que que CS 0.4375
cualquier cualquiera DI0CS0 1
responsable responsable NCCS000 0.416667
individual individual AQ0CS0 1
cualquier cualquiera DI0CS0 1
grupo grupo NCMS000 1
responsable responsable AQ0CS0 0.583333
sentir sentir VMN0000 0.944444
como como CS 0.998579
cae caer VMIP3S0 0.9
el el DA0MS0 1
peso peso NCMS000 0.958333
de de SPS00 0.999919
la el DA0FS0 0.972146
justicia justicia NCFS000 1
Obama obama NP00000 1
advirti advirti NCMS000 1
en en SPS00 1
un uno DI0MS0 0.986987
breve breve AQ0CS0 1
discurso discurso NCMS000 0.75
televisado televisar VMP00SM 1
contra contra SPS00 0.976316
conclusiones conclusión NCFP000 1
apresuradas apresurar VMP00PF 1
pero pero CC 0.998821
un uno DI0MS0 0.986987
alto alto AQ0MS0 0.973684
funcionario funcionario NCMS000 1
de de SPS00 0.999919
la el DA0FS0 0.972146
Casa_Blanca casa_blanca NP00000 1
dijo decir VMIS3S0 1
bajo bajo SPS00 0.866071
condici condici RG 0.751648
n n NCFS000 1
de de SPS00 0.999919
anonimato anonimato NCMS000 1
que que CS 0.4375
cualquier cualquiera DI0CS0 1
suceso suceso NCMS000 1
con con SPS00 1
varios varios DI0MP0 0.883333
explosivos explosivo NCMP000 0.342824
como como CS 0.998579
parece parecer VMIP3S0 0.9875
ser ser VSN0000 0.93883
el el DA0MS0 1
caso caso NCMS000 0.990741
es ser VSIP3S0 1
claramente claramente RG 1
un uno DI0MS0 0.986987
acto acto NCMS000 1
terrorista terrorista AQ0CS0 0.875
El el NP00000 1
agente agente NCCS000 0.9
especial especial AQ0CS0 1
Rick_DesLauriers rick_deslauriers NP00000 1
que que PR0CN000 0.5625
encabeza encabezar VMIP3S0 0.994868
la el DA0FS0 0.972146
oficina oficina NCFS000 1
de de SPS00 0.999919
Boston_de_el_Bur_Federal_de_Investigaciones_FBI boston_de_el_bur_federal_de_investigaciones_fbi NP00000 1
dijo decir VMIS3S0 1
a a SPS00 0.99585
los el DA0MP0 0.97623
periodistas periodista NCCP000 1
Es es NP00000 1
una uno DI0FS0 0.951241
investigaci investigaci AQ0CS0 0.0199855
n n NCFS000 1
criminal criminal AQ0CS0 0.625
lo el DA0NS0 0.457393
que que PR0CN000 0.5625
es ser VSIP3S0 1
una uno DI0FS0 0.951241
potencial potencial NCMS000 0.75
investigaci investigaci RG 0.751648
n n NCFS000 1
de de SPS00 0.999919
terrorismo terrorismo NCMS000 1
Las las NP00000 1
explosiones explosión NCFP000 0.995706
dejaron dejar VMIS3P0 1
m m NCFS000 0.5
s segundo NCMN000 0.622321
de de SPS00 0.999919
100 100 Z 1
heridos herido NCMP000 0.5
dijo decir VMIS3S0 1
el el DA0MS0 1
gobernador gobernador NCMS000 0.64273
de de SPS00 0.999919
Boston_Deval_Patrick boston_deval_patrick NP00000 1
sin sin SPS00 1
dar dar VMN0000 1
una uno DI0FS0 0.951241
cifra cifra NCFS000 0.799844
exacta exacto AQ0FS0 1
El_Boston_Globe el_boston_globe NP00000 1
indic indic RG 0.5
que que CS 0.4375
hubo haber VMIS3S0 0.95
m m NCFS000 0.5
s segundo NCMN000 0.622321
de de SPS00 0.999919
140 140 Z 1
heridos herido NCMP000 0.5
y y CC 0.999812
que que PR0CN000 0.5625
uno uno PI0MS000 0.964744
de de SPS00 0.999919
los el DA0MP0 0.97623
fallecidos fallecido NCMP000 0.308281
era ser VSII1S0 0.490859
un uno DI0MS0 0.986987
ni ni CC 0.995935
o o CC 0.998845
de de SPS00 0.999919
8 8 Z 1
a a SPS00 0.99585
os os PP2CP000 0.722222
Los los NP00000 1
m m NCFS000 0.5
dicos do NCMP00D 1
trabajaban trabajar VMII3P0 1
durante durante SPS00 1
la el DA0FS0 0.972146
noche noche NCFS000 1
para para SPS00 0.998507
atender atender VMN0000 1
a a SPS00 0.99585
los el DA0MP0 0.97623
heridos herido NCMP000 0.5
en en SPS00 1
las el DA0FP0 0.97051
explosiones explosión NCFP000 0.995706
que que PR0CN000 0.5625
tuvieron_lugar tener_lugar VMIS3P0 1
a a SPS00 0.99585
unos uno DI0MP0 0.879032
100_metros LN_m:100 Zu 1
de de SPS00 0.999919
distancia distancia NCFS000 0.958333
una uno DI0FS0 0.951241
de de SPS00 0.999919
otra otro DI0FS0 0.801136
Varias varias NP00000 1
v v NCFS000 1
ctimas ctimas NCFP000 1
sufrieron sufrir VMIS3P0 1
amputaciones amputación NCFP000 1
traum traum NCMS000 0.833338
ticas ticas AQ0FP0 0.760898
en en SPS00 1
la el DA0FS0 0.972146
carpa carpa NCFS000 0.91138
de de SPS00 1
el el DA0MS0 1
marat marat NCMS000 1
n n NCFS000 1
transformada transformar VMP00SF 1
en en SPS00 1
improvisada improvisar VMP00SF 1
emergencia emergencia NCFS000 1
y y CC 0.999812
en en SPS00 1
los el DA0MP0 0.97623
hospitales hospital NCMP000 1
dijo decir VMIS3S0 1
Alasdair_Conn alasdair_conn NP00000 1
jefe jefe NCMS000 1
de de SPS00 0.999919
emergencia emergencia NCFS000 1
en en SPS00 1
el el DA0MS0 1
Massachusetts_General_Hospital massachusetts_general_hospital NP00000 1
que que PR0CN000 0.5625
atendi atendi VMIS1S0 1
heridos herir VMP00PM 0.5
junto_a junto_a SPS00 1
otros otro DI0MP0 0.56875
cinco 5 Z 0.98
hospitales hospital NCMP000 1
Tres 3 Z 1
personas persona NCFP000 0.983871
han haber VAIP3P0 1
muerto morir VMP00SM 0.676471
y y CC 0.999812
m m NCFS000 0.5
s segundo NCMN000 0.622321
de de SPS00 0.999919
100 100 Z 1
han haber VAIP3P0 1
resultado resultar VMP00SM 0.192308
heridas herida NCFP000 0.416667
varias varios DI0FP0 0.939394
de de SPS00 0.999919
ellas ellos PP3FP000 1
en en SPS00 1
estado estado NCMS000 0.662162
cr cr NCMS000 1
tico tico AQ0MS0 0.806828
tras tras SPS00 1
la el DA0FS0 0.972146
explosi explosi RG 1
n n NCFS000 1
de de SPS00 0.999919
dos 2 Z 0.988722
bombas bomba NCFP000 0.928571
en en SPS00 1
la el DA0FS0 0.972146
meta meta NCFS000 0.52
de de SPS00 0.999919
la el DA0FS0 0.972146
marat marat NCMS000 1
n n NCFS000 1
de de SPS00 0.999919
Boston boston NP00000 1
donde donde PR000000 0.963542
hab hab NCMS000 0.63631
a a SPS00 0.99585
m m NCFS000 0.5
s segundo NCMN000 0.622321
de de SPS00 0.999919
27 27 Z 1
000 0 Z 1
participantes participante NCCP000 0.75
M m NP00000 1
s segundo NCMN000 0.622321
de de SPS00 0.999919
27 27 Z 1
000 0 Z 1
corredores corredor NCMP000 0.954545
participaban participar VMII3P0 1
en en SPS00 1
la el DA0FS0 0.972146
carrera carrera NCFS000 1
de de SPS00 0.999919
42 42 Z 1
kil kil AQ0CS0 0.768581
metros metro NCMP000 1
uno uno PI0MS000 0.964744
de de SPS00 0.999919
los el DA0MP0 0.97623
maratones maratón NCFP000 1
m m NCFS000 0.5
s segundo NCMN000 0.622321
prestigiosos prestigioso AQ0MP0 1
de de SPS00 1
el el DA0MS0 1
mundo mundo NCMS000 1
Decenas decenas NP00000 1
de de SPS00 0.999919
miles mil NCMP000 1
de de SPS00 0.999919
personas persona NCFP000 0.983871
estaban estar VAII3P0 1
agolpadas agolpar VMP00PF 1
en en SPS00 1
la el DA0FS0 0.972146
l l NCFS000 0.639398
nea nea AQ0FS0 0.499863
de de SPS00 0.999919
llegada llegada NCFS000 0.7
Muchos muchos NP00000 1
de de SPS00 0.999919
los el DA0MP0 0.97623
corredores corredor NCMP000 0.954545
ya ya RG 0.996988
hab hab NCMS000 0.63631
an an NCFS000 1
llegado llegar VMP00SM 1
a a SPS00 0.99585
la el DA0FS0 0.972146
meta meta NCFS000 0.52
cuando cuando CS 0.983796
tuvieron_lugar tener_lugar VMIS3P0 1
las el DA0FP0 0.97051
explosiones explosión NCFP000 0.995706
Las las NP00000 1
deflagraciones deflagración NCFP000 1
provocaron provocar VMIS3P0 1
la el DA0FS0 0.972146
rotura rotura NCFS000 0.666667
de de SPS00 0.999919
cristales cristal NCMP000 1
de de SPS00 0.999919
tiendas tienda NCFP000 0.833333
y y CC 0.999812
afect afect NCMS000 0.607342
los el DA0MP0 0.97623
indicadores indicador AQ0MP0 0.391066
burs burs NCMP000 0.750043
tiles tiles AQ0CP0 0.555497
en en SPS00 1
el el DA0MS0 1
cierre cierre NCMS000 0.899603
de de SPS00 0.999919
la el DA0FS0 0.972146
jornada jornada NCFS000 1
de de SPS00 1
el el DA0MS0 1
lunes [L:??/??/??:??.??:??] W 1
El el NP00000 1
fondista fondista NCCS000 1
peruano peruano AQ0MS0 0.75
Oliver_Landeo oliver_landeo NP00000 1
que que PR0CN000 0.5625
participaba participar VMII3S0 0.649997
en en SPS00 1
la el DA0FS0 0.972146
carrera carrera NCFS000 1
junto_con junto_con SPS00 1
su su DP3CS0 1
compa compa VMSP3S0 1
era ser VSII1S0 0.490859
Jessica_M jessica_m NP00000 1
rquez rquez NCCS000 1
quienes quien PR0CP000 1
resultaron resultar VMIS3P0 1
ilesos ileso AQ0MP0 1
relat relat NCMS000 1
a a SPS00 0.99585
la el DA0FS0 0.972146
lime limar VMSP3S0 0.473475
a a SPS00 0.99585
radio radio NCFS000 0.491228
RPP rpp NP00000 1
que que PR0CN000 0.5625
ha haber VAIP3S0 0.998141
sido ser VSP00SM 1
muy muy RG 1
terrible terrible AQ0CS0 1
porque porque CS 1
hab hab NCMS000 0.63631
a a SPS00 0.99585
gente gente NCFS000 1
literalmente literalmente RG 1
volando volar VMG0000 1
por por SPS00 1
los el DA0MP0 0.97623
aires aire NCMP000 1
hemos haber VAIP1P0 0.969697
estado estar VAP00SM 0.337838
muy muy RG 1
cerca cerca RG 0.925
a a SPS00 1
el el DA0MS0 1
lugar lugar NCMS000 1
de de SPS00 0.999919
la el DA0FS0 0.972146
explosi explosi RG 1
n n NCFS000 1
aproximadamente aproximadamente RG 1
a a SPS00 0.99585
unos uno DI0MP0 0.879032
seis_metros LN_m:6 Zu 1
Otros otros NP00000 1
testigos testigo NCCP000 1
relataron relatar VMIS3P0 1
como como CS 0.998579
los el DA0MP0 0.97623
cuerpos cuerpo NCMP000 1
se se P00CN000 0.465602
hab hab NCMS000 0.63631
an an NCFS000 1
apilado apilar VMP00SM 1
unos uno PI0MP000 0.120968
sobre sobre SPS00 0.994203
otros otro PI0MP000 0.43125
por por SPS00 1
la el DA0FS0 0.972146
onda onda NCFS000 1
expansiva expansivo AQ0FS0 1
Hemos hemos NP00000 1
visto ver VMP00SM 0.982759
a a SPS00 0.99585
gente gente NCFS000 1
a a SPS00 0.99585
la el DA0FS0 0.972146
que que PR0CN000 0.5625
les le PP3CPD00 1
volaron volar VMIS3P0 1
las el DA0FP0 0.97051
piernas pierna NCFP000 1
relat relat NCMS000 1
a a SPS00 0.99585
AFP_Mark_Hagopian afp_mark_hagopian NP00000 1
propietario propietario NCMS000 0.6426
de de SPS00 1
el el DA0MS0 1
Hotel_Mark hotel_mark NP00000 1
situado situar VMP00SM 0.9
cerca cerca RG 0.925
de de SPS00 0.999919
la el DA0FS0 0.972146
l l NCFS000 0.639398
nea nea AQ0FS0 0.499863
de de SPS00 0.999919
meta meta NCFS000 0.52
de de SPS00 1
el el DA0MS0 1
marat marat NCMS000 1
n n NCFS000 1
Una uno DI0FS0 0.951241
de de SPS00 0.999919
ellas ellos PP3FP000 1
no no RN 0.99778
ten tener VMM02S0 1
a a SPS00 0.99585
m m NCFS000 0.5
s segundo NCMN000 0.622321
piernas pierna NCFP000 1
a a SPS00 0.99585
la el DA0FS0 0.972146
altura altura NCFS000 1
de de SPS00 0.999919
la el DA0FS0 0.972146
rodilla rodilla NCFS000 1
pero pero CC 0.998821
viv viv NCFS000 1
a a SPS00 0.99585
a a SPS00 0.99585
adi adar VMIS1S0 0.994868
NBC_News nbc_news NP00000 1
citando citar VMG0000 1
funcionarios funcionario NCMP000 1
inform inform NCMS000 0.700265
que que CS 0.4375
la el DA0FS0 0.972146
polic polic NCFS000 1
a a SPS00 0.99585
hab hab NCMS000 0.63631
a a SPS00 0.99585
hallado hallar VMP00SM 1
m m NCFS000 0.5
ltiples ltiples AQ0CP0 1
dispositivos dispositivo NCMP000 0.75
explosivos explosivo AQ0MP0 0.657176
en en SPS00 1
Boston boston NP00000 1
abriendo abrir VMG0000 1
la el DA0FS0 0.972146
posibilidad posibilidad NCFS000 1
de de SPS00 0.999919
un uno DI0MS0 0.986987
ataque ataque NCMS000 0.9625
coordinado coordinar VMP00SM 1
Las las NP00000 1
autoridades autoridad NCFP000 1
de de SPS00 0.999919
la el DA0FS0 0.972146
ciudad ciudad NCFS000 1
urgieron urgir VMIS3P0 1
a a SPS00 0.99585
la el DA0FS0 0.972146
poblaci poblaci AQ0CS0 0.0199855
n n NCFS000 1
a a SPS00 0.99585
no no RN 0.99778
congregar congregar VMN0000 1
se se PP3CN000 1
en en SPS00 1
multitudes multitud NCFP000 1
y y CC 0.999812
vallaron vallar VMIS3P0 1
la el DA0FS0 0.972146
zona zona NCFS000 1
de de SPS00 0.999919
las el DA0FP0 0.97051
explosiones explosión NCFP000 0.995706
La la NP00000 1
polic polic NCFS000 1
a a SPS00 0.99585
advirti advirti NCMS000 1
que que CS 0.4375
habr habr VMN0000 0.633986
a a SPS00 0.99585
un uno DI0MS0 0.986987
aumento aumento NCMS000 0.916667
de de SPS00 0.999919
la el DA0FS0 0.972146
seguridad seguridad NCFS000 1
en en SPS00 1
la el DA0FS0 0.972146
ciudad ciudad NCFS000 1
este este DD0MS0 0.956743
martes [M:??/??/??:??.??:??] W 1
con con SPS00 1
chequeos chequeo NCMP000 1
aleatorios aleatorio AQ0MP0 1
de de SPS00 0.999919
mochilas mochila NCFP000 1
y y CC 0.999812
bolsos bolso NCMP000 1
en en SPS00 1
autobuses autobús NCMP000 1
as as NCMS000 1
como como CS 0.998579
en en SPS00 1
trenes tren NCMP000 1
Muchas muchas NP00000 1
calles calle NCFP000 0.954545
tambi tambi AQ0CN0 1
n n NCFS000 1
permanecer permanecer VMN0000 1
n n NCFS000 1
cerradas cerrar VMP00PF 0.579294
El el NP00000 1
gobernador gobernador NCMS000 0.64273
Patrick patrick NP00000 1
dijo decir VMIS3S0 1
a a SPS00 0.99585
ltima ltima AQ0FS0 0.166758
hora hora NCFS000 1
de de SPS00 1
el el DA0MS0 1
lunes [L:??/??/??:??.??:??] W 1
que que PR0CN000 0.5625
la el DA0FS0 0.972146
ciudad ciudad NCFS000 1
de de SPS00 0.999919
Boston boston NP00000 1
estar estar VAN0000 1
abierta abrir VMP00SF 1
el el DA0MS0 1
martes [M:??/??/??:??.??:??] W 1
pero pero CC 0.998821
no no RN 0.99778
ser ser VSN0000 0.93883
como como CS 0.998579
todos todo DI0MP0 0.622419
los el DA0MP0 0.97623
d d NCFS000 1
as as NCMS000 1
Estas estas NP00000 1
explosiones explosión NCFP000 0.995706
tienen_lugar tener_lugar VMIP3P0 1
m m NCFS000 0.5
s segundo NCMN000 0.622321
de de SPS00 0.999919
una_d TM_d:1 Zu 1
cada cada DI0CS0 1
despu despu NCMS000 0.774439
s segundo NCMN000 0.622321
de de SPS00 0.999919
los el DA0MP0 0.97623
atentados atentado NCMP000 0.75
contra contra SPS00 0.976316
las el DA0FP0 0.97051
torres torre NCFP000 0.995705
gemelas gemelo AQ0FP0 0.75
de de SPS00 0.999919
Nueva_Yoirk_Washington nueva_yoirk_washington NP00000 1
y y CC 0.999812
Pensilvania pensilvania NP00000 1
que que PR0CN000 0.5625
dejaron dejar VMIS3P0 1
casi casi RG 1
3_000_el_11_de_septiembre_de_2001 [??:11/9/2001:3.0:??] W 1
Los los NP00000 1
niveles nivel NCMP000 0.75
de de SPS00 0.999919
seguridad seguridad NCFS000 1
fueron ser VSIS3P0 0.796296
elevados elevar VMP00PM 1
en en SPS00 1
varias varios DI0FP0 0.939394
ciudades ciudad NCFP000 1
de de SPS00 0.999919
Estados_Unidos estados_unidos NP00000 1
poco poco DI0MS0 0.126016
despu despu NCMS000 0.774439
s segundo NCMN000 0.622321
de de SPS00 0.999919
las el DA0FP0 0.97051
explosiones explosión NCFP000 0.995706
Adem adem NP00000 1
s segundo NCMN000 0.622321
de de SPS00 0.999919
Boston_Nueva_York boston_nueva_york NP00000 1
y y CC 0.999812
Washington washington NP00000 1
blanco blanco AQ0MS0 0.59375
de de SPS00 0.999919
los el DA0MP0 0.97623
ataques ataque NCMP000 0.928571
de de SPS00 1
el el DA0MS0 1
11_S TM_s:11 Zu 1
as as NCMS000 1
como como CS 0.998579
Los los NP00000 1
ngeles ngeles NCMP000 1
incrementaron incrementar VMIS3P0 1
su su DP3CS0 1
presencia presencia NCFS000 0.962963
policial policial AQ0CS0 1
La la NP00000 1
bandera bandera NCFS000 1
nacional nacional AQ0CS0 1
ondeaba ondear VMII3S0 0.65
a a SPS00 0.99585
media medio AQ0FS0 0.72
asta asta NCFS000 1
sobre sobre SPS00 0.994203
el el DA0MS0 1
domo domo NCMS000 0.973305
de de SPS00 1
el el DA0MS0 1
Capitolio capitolio NP00000 1
en en SPS00 1
Washington washington NP00000 1
en en SPS00 1
honor honor NCMS000 1
a a SPS00 0.99585
las el DA0FP0 0.97051
v v NCFS000 1
ctimas ctimas NCFP000 1
de de SPS00 0.999919
las el DA0FP0 0.97051
explosiones explosión NCFP000 0.995706
de de SPS00 0.999919
Boston boston NP00000 1
200 200 Z 1
oficinas oficina NCFP000 1
en en SPS00 1
150 150 Z 1
pa pa NCFS000 0.740689
ses ses NCMP000 0.727093
Ampliar_Desea ampliar_desea NP00000 1
compartir compartir VMN0000 1
una uno DI0FS0 0.951241
informaci informaci AQ0CS0 0.0199855
n n NCFS000 1
un uno DI0MS0 0.986987
comentario comentario NCMS000 1
Escr escr NP00000 1
banos banos NCMP000 0.509288
a a SPS00 0.99585

