BERL_N_AFP_El berl_n_afp_el NP00000 1
presidente presidente NCMS000 1
de de SPS00 0.999919
EEUU_Barack_Obama eeuu_barack_obama NP00000 1
propuso proponer VMIS3S0 1
este este DD0MS0 0.956743
mi mi DP1CSS 0.995536
rcoles rcoles NCMP000 0.750052
en en SPS00 1
Berl berl NP00000 1
n n NCFS000 1
que que CS 0.4375
su su DP3CS0 1
pa pa NCFS000 0.740689
s segundo NCMN000 0.622321
y y CC 0.999812
Rusia rusia NP00000 1
reduzcan reducir VMSP3P0 0.901254
significativamente significativamente RG 1
sus su DP3CP0 0.998462
arsenales arsenal NCMP000 1
de de SPS00 0.999919
armas arma NCFP000 0.982759
nucleares nuclear AQ0CP0 1
estrat estrat NCMS000 1
gicas gicas AQ0FP0 1
para para SPS00 0.998507
crear crear VMN0000 1
un uno DI0MS0 0.986987
mundo mundo NCMS000 1
de de SPS00 0.999919
paz paz NCFS000 1
y y CC 0.999812
justicia justicia NCFS000 1
pero pero CC 0.998821
Mosc mosc NP00000 1
duda dudar VMIP3S0 0.291667
de de SPS00 0.999919
la el DA0FS0 0.972146
seriedad seriedad NCFS000 1
de de SPS00 0.999919
la el DA0FS0 0.972146
propuesta propuesta NCFS000 0.75
Antes_de antes_de NP00000 1
realizar realizar VMN0000 1
estas este DD0FP0 0.960526
declaraciones declaración NCFP000 1
en en SPS00 1
un uno DI0MS0 0.986987
discurso discurso NCMS000 0.75
en en SPS00 1
la el DA0FS0 0.972146
puerta puerta NCFS000 1
de de SPS00 0.999919
Brandenburgo_Obama brandenburgo_obama NP00000 1
defendi defendi VMIS1S0 1
la el DA0FS0 0.972146
vigilancia vigilancia NCFS000 1
mundial mundial AQ0CS0 0.928571
de de SPS00 0.999919
las el DA0FP0 0.97051
comunicaciones comunicación NCFP000 1
telef telef NCMS000 0.500257
nicas nicas AQ0FP0 0.736889
y y CC 0.999812
por por SPS00 1
internet internet NCFS000 1
de de SPS00 0.999919
la el DA0FS0 0.972146
Agencia_de_Seguridad_Nacional_NSA agencia_de_seguridad_nacional_nsa NP00000 1
cuyo cuyo PR0MS000 1
programa programar VMIP3S0 0.0666667
PRISM prism NP00000 1
ha haber VAIP3S0 0.998141
sido ser VSP00SM 1
criticado criticar VMP00SM 1
en en SPS00 1
Alemania alemania NP00000 1
y y CC 0.999812
otros otro DI0MP0 0.56875
pa pa NCFS000 0.740689
ses ses AQ0CP0 0.068278
europeos europeo NCMP000 0.5
asegurando asegurar VMG0000 1
que que CS 0.4375
se se P00CN000 0.465602
trata tratar VMIP3S0 0.946237
de de SPS00 0.999919
un uno DI0MS0 0.986987
programa programa NCMS000 0.866667
limitado limitar VMP00SM 1
que que PR0CN000 0.5625
ha haber VAIP3S0 0.998141
salvado salvar VMP00SM 0.691725
vidas vida NCFP000 1
Cincuenta 50 Z 1
a a SPS00 0.99585
os os PP2CP000 0.722222
despu despu NCMS000 0.774439
s segundo NCMN000 0.622321
de de SPS00 1
el el DA0MS0 1
c c NCFS000 1
lebre lebre AQ0CS0 1
' ' Fe 1
Ich ich NP00000 1
bin bin NCFS000 1
ein ein NCMS000 0.499936
Berliner berliner NP00000 1
' ' Fe 1
Soy ser VSIP1S0 1
berlin berlin AQ0CN0 0.5
s segundo NCMN000 0.622321
de de SPS00 0.999919
John_F_Kennedy john_f_kennedy NP00000 1
y y CC 0.999812
26 26 Z 1
a a SPS00 0.99585
os os PP2CP000 0.722222
despu despu NCMS000 0.774439
s segundo NCMN000 0.622321
de de SPS00 0.999919
que que CS 0.4375
Ronald_Reagan ronald_reagan NP00000 1
lanzara lanzar VMSI3S0 0.65
su su DP3CS0 1
memorable memorable AQ0CS0 1
Se se NP00000 1
or or NCMS000 0.655771
Gorbachov gorbachov NP00000 1
derribe derribar VMSP3S0 0.623432
este este DD0MS0 0.956743
muro muro NCMS000 0.875
dos 2 Z 0.988722
de de SPS00 0.999919
los el DA0MP0 0.97623
momentos momento NCMP000 1
m m NCFS000 0.5
s segundo NCMN000 0.622321
emblem emblem NCMS000 1
ticos ticos AQ0MP0 0.671839
de de SPS00 0.999919
las el DA0FP0 0.97051
relaciones relación NCFP000 0.944444
entre entre SPS00 0.995223
Washington washington NP00000 1
y y CC 0.999812
Mosc_Obama mosc_obama NP00000 1
propuso proponer VMIS3S0 1
que que CS 0.4375
EEUU eeuu NP00000 1
y y CC 0.999812
Rusia rusia NP00000 1
reduzcan reducir VMSP3P0 0.901254
sus su DP3CP0 0.998462
cabezas cabeza NCFP000 1
nucleares nuclear AQ0CP0 1
a a SPS00 0.99585
1 1 Z 1
000 0 Z 1
y y CC 0.999812
pidi pidi VMIS1S0 1
una uno DI0FS0 0.951241
disminuci disminuci AQ0CS0 0.0199855
n n NCFS000 1
de de SPS00 0.999919
los el DA0MP0 0.97623
arsenales arsenal NCMP000 1
nucleares nuclear AQ0CP0 1
t t NCFS000 1
cticos cticos AQ0MP0 1
en en SPS00 1
Europa_Son europa_son NP00000 1
pasos paso NCMP000 0.944444
que que PR0CN000 0.5625
podemos poder VMIP1P0 0.944444
dar dar VMN0000 1
para para SPS00 0.998507
crear crear VMN0000 1
un uno DI0MS0 0.986987
mundo mundo NCMS000 1
de de SPS00 0.999919
paz paz NCFS000 1
y y CC 0.999812
justicia justicia NCFS000 1
afirm afirm NCMS000 0.700265
el el DA0MS0 1
mandatario mandatario NCMS000 1
El el NP00000 1
presidente presidente NCMS000 1
estadounidense estadounidense AQ0CS0 0.833333
quiere querer VMIP3S0 0.982759
que que CS 0.4375
la el DA0FS0 0.972146
lucha lucha NCFS000 0.880952
por por SPS00 1
el el DA0MS0 1
desarme desarme NCMS000 0.625
nuclear nuclear AQ0CS0 1
sea ser VSSP1S0 0.485714
el el DA0MS0 1
eje eje NCMS000 1
de de SPS00 0.999919
su su DP3CS0 1
balance balance NCMS000 1
pol pol NCMS000 0.861706
tico tico AQ0MS0 0.806828
Durante durante NP00000 1
su su DP3CS0 1
primer 1 AO0MS0 1
mandato mandato NCMS000 1
logr logr NCFS000 0.638487
firmar firmar VMN0000 1
un uno DI0MS0 0.986987
nuevo nuevo AQ0MS0 1
tratado tratado NCMS000 0.5
START_Tratado_de_Reducci start_tratado_de_reducci NP00000 1
n n NCFS000 1
de de SPS00 0.999919
Armas_Estrat armas_estrat NP00000 1
gicas gicas AQ0FP0 1
con con SPS00 1
Mosc mosc NP00000 1
en en SPS00 1
el el DA0MS0 1
que que PR0CN000 0.5625
los el DA0MP0 0.97623
dos 2 Z 0.988722
exenemigos exenemigos NCMP000 0.888889
de de SPS00 0.999919
la el DA0FS0 0.972146
Guerra_Fr guerra_fr NP00000 1
a a SPS00 0.99585
acordaron acordar VMIS3P0 1
disminuir disminuir VMN0000 1
sus su DP3CP0 0.998462
arsenales arsenal NCMP000 1
a a SPS00 0.99585
1 1 Z 1
550 550 Z 1
ojivas ojiva NCFP000 1
El el NP00000 1
presidente presidente NCMS000 1
de de SPS00 0.999919
EEUU_Barack_Obama eeuu_barack_obama NP00000 1
propuso proponer VMIS3S0 1
este este DD0MS0 0.956743
mi mi DP1CSS 0.995536
rcoles rcoles NCMP000 0.750052
en en SPS00 1
Berl berl NP00000 1
n n NCFS000 1
que que CS 0.4375
su su DP3CS0 1
pa pa NCFS000 0.740689
s segundo NCMN000 0.622321
y y CC 0.999812
Rusia rusia NP00000 1
reduzcan reducir VMSP3P0 0.901254
significativamente significativamente RG 1
sus su DP3CP0 0.998462
arsenales arsenal NCMP000 1
de de SPS00 0.999919
armas arma NCFP000 0.982759
nucleares nuclear AQ0CP0 1
estrat estrat NCMS000 1
gicas gicas AQ0FP0 1
para para SPS00 0.998507
crear crear VMN0000 1
un uno DI0MS0 0.986987
mundo mundo NCMS000 1
de de SPS00 0.999919
paz paz NCFS000 1
y y CC 0.999812
justicia justicia NCFS000 1
pero pero CC 0.998821
Mosc mosc NP00000 1
duda dudar VMIP3S0 0.291667
de de SPS00 0.999919
la el DA0FS0 0.972146
seriedad seriedad NCFS000 1
de de SPS00 0.999919
la el DA0FS0 0.972146
propuesta propuesta NCFS000 0.75
Sin sin NP00000 1
embargo embargar VMIP1S0 0.0265036
el el DA0MS0 1
contexto contexto NCMS000 1
parece parecer VMIP3S0 0.9875
poco poco RG 0.54065
favorable favorable AQ0CS0 1
para para SPS00 0.998507
que que CS 0.4375
Rusia rusia NP00000 1
responda responder VMSP3S0 0.548445
positivamente positivamente RG 1
a a SPS00 0.99585
esa ese DD0FS0 0.978261
propuesta propuesta NCFS000 0.75
si si CS 0.997706
se se P00CN000 0.465602
toma tomar VMIP3S0 0.533333
en en SPS00 1
cuenta cuenta NCFS000 0.765152
la el DA0FS0 0.972146
fr fr NCMS000 0.224371
a a SPS00 0.99585
atm atmósfera NCFN000 1
sfera sfera NCFS000 1
que que PR0CN000 0.5625
reinaba reinar VMII3S0 0.65
entre entre SPS00 0.995223
Obama obama NP00000 1
y y CC 0.999812
el el DA0MS0 1
presidente presidente NCMS000 1
ruso ruso AQ0MS0 0.75
Vladimir_Putin vladimir_putin NP00000 1
durante durante SPS00 1
la el DA0FS0 0.972146
cumbre cumbre NCFS000 1
de de SPS00 1
el el DA0MS0 1
G8 G8 Z 1
el el DA0MS0 1
lunes [L:??/??/??:??.??:??] W 1
y y CC 0.999812
martes [M:??/??/??:??.??:??] W 1
en en SPS00 1
Irlanda_de_el_Norte_Poco irlanda_de_el_norte_poco NP00000 1
antes antes RG 1
cuando cuando CS 0.983796
ya ya RG 0.996988
se se P00CN000 0.465602
sab sab NCMS000 0.63631
a a SPS00 0.99585
que que CS 0.4375
Obama obama NP00000 1
realizar realizar VMN0000 1
a a SPS00 0.99585
estas este DD0FP0 0.960526
propuestas propuesta NCFP000 0.75
Putin putin NP00000 1
dijo decir VMIS3S0 1
que que CS 0.4375
Rusia rusia NP00000 1
no no RN 0.99778
permitir permitir VMN0000 1
que que CS 0.4375
se se P00CN000 0.465602
rompa romper VMSP1S0 0.444444
el el DA0MS0 1
equilibrio equilibrio NCMS000 1
de de SPS00 0.999919
los el DA0MP0 0.97623
sistemas sistema NCMP000 1
de de SPS00 0.999919
disuasi disuasi RG 1
n n NCFS000 1
estrat estrat NCMS000 1
gica gica AQ0FS0 0.925822
o o CC 0.998845
que que CS 0.4375
se se P00CN000 0.465602
reduzca reducir VMSP3S0 0.62344
la el DA0FS0 0.972146
eficacia eficacia NCFS000 1
de de SPS00 0.999919
nuestras nuestro DP1FPP 0.972222
fuerzas fuerza NCFP000 0.954545
nucleares nuclear AQ0CP0 1
Adem adem NP00000 1
s segundo NCMN000 0.622321
un uno DI0MS0 0.986987
consejero consejero NCMS000 0.342905
de de SPS00 1
el el DA0MS0 1
Kremlin kremlin NP00000 1
afirm afirm NCMS000 0.700265
que que CS 0.4375
un uno DI0MS0 0.986987
acuerdo acuerdo NCMS000 0.958333
de de SPS00 0.999919
desarme desarme NCMS000 0.625
nuclear nuclear AQ0CS0 1
como como CS 0.998579
el el DA0MS0 1
que que PR0CN000 0.5625
propone proponer VMIP3S0 1
Obama obama NP00000 1
deber deber NCMS000 0.9
a a SPS00 0.99585
incluir incluir VMN0000 1
a a SPS00 0.99585
otros otro DI0MP0 0.56875
pa pa NCFS000 0.740689
ses ses AQ0CP0 0.068278
que que PR0CN000 0.5625
poseen poseer VMIP3P0 1
el el DA0MS0 1
arma arma NCFS000 0.944444
at at NCFS000 1
mica mica NCFS000 1
y y CC 0.999812
el el DA0MS0 1
viceprimer viceprimero AQ0MS0 1
ministro ministro NCMS000 1
ruso ruso AQ0MS0 0.75
Dimitri_Rogozin dimitri_rogozin NP00000 1
afirm afirm NCMS000 0.700265
que que CS 0.4375
Rusia rusia NP00000 1
no no RN 0.99778
puede poder VMIP3S0 0.995614
considerar considerar VMN0000 1
seriamente seriamente RG 1
las el DA0FP0 0.97051
proposiciones proposición NCFP000 1
de de SPS00 0.999919
Obama obama NP00000 1
mientras mientras CS 0.881579
Estados_Unidos estados_unidos NP00000 1
desarrolle desarrollar VMSP1S0 0.444444
su su DP3CS0 1
defensa defensa NCCS000 1
antimisiles antimisiles AQ0CN0 1
El el NP00000 1
mandatario mandatario NCMS000 1
estadounidense estadounidense AQ0CS0 0.833333
sigue seguir VMIP3S0 0.982759
siendo ser VSG0000 1
muy muy RG 1
popular popular AQ0CS0 1
en en SPS00 1
Alemania alemania NP00000 1
donde donde PR000000 0.963542
fue ser VSIS3S0 0.932292
recibido recibir VMP00SM 1
como como CS 0.998579
una uno DI0FS0 0.951241
estrella estrella NCFS000 0.916667
por por SPS00 1
200 200 Z 1
000 0 Z 1
berlineses berlinés NCMP000 0.642709
hace hacer VMIP3S0 1
cinco 5 Z 0.98
a a SPS00 0.99585
os os PP2CP000 0.722222
cuando cuando CS 0.983796
era ser VSII1S0 0.490859
candidato candidato NCMS000 1
a a SPS00 0.99585
la el DA0FS0 0.972146
presidencia presidencia NCFS000 1
No_obstante no_obstante NP00000 1
antes_de antes_de SPS00 1
el el DA0MS0 1
viaje viaje NCMS000 0.946429
de de SPS00 0.999919
Obama obama NP00000 1
un uno DI0MS0 0.986987
exagente exagente NCCS000 1
de de SPS00 0.999919
la el DA0FS0 0.972146
CIA cia NP00000 1
y y CC 0.999812
exconsultor exconsultor NCMS000 1
de de SPS00 0.999919
la el DA0FS0 0.972146
Agencia_de_Seguridad_Nacional_NSA agencia_de_seguridad_nacional_nsa NP00000 1
quien quien PR0CS000 1
desde desde SPS00 1
entonces entonces RG 0.97619
se se P00CN000 0.465602
refugi refugi VMIS1S0 0.0691907
en en SPS00 1
Hong_Kong hong_kong NP00000 1
revel revel NCMS000 1
aspectos aspecto NCMP000 1
de de SPS00 0.999919
un uno DI0MS0 0.986987
programa programa NCMS000 0.866667
estadounidense estadounidense AQ0CS0 0.833333
de de SPS00 0.999919
espionaje espionaje NCMS000 1
a a SPS00 0.99585
trav trav AQ0CS0 0.0433699
s segundo NCMN000 0.622321
de de SPS00 0.999919
internet internet NCFS000 1
Se se NP00000 1
trata tratar VMIP3S0 0.946237
de de SPS00 0.999919
un uno DI0MS0 0.986987
tema tema NCMS000 0.953125
delicado delicado AQ0MS0 1
en en SPS00 1
Alemania alemania NP00000 1
donde donde PR000000 0.963542
parte parte NCFS000 0.497967
de de SPS00 0.999919
la el DA0FS0 0.972146
poblaci poblaci AQ0CS0 0.0199855
n n NCFS000 1
fue ser VSIS3S0 0.932292
v v NCFS000 1
ctima ctima NCFS000 1
de de SPS00 0.999919
espionaje espionaje NCMS000 1
sistem sistem NCMS000 1
tico tico AQ0MS0 0.806828
en en SPS00 1
Alemania_Oriental_El alemania_oriental_el NP00000 1
presidente presidente NCMS000 1
de de SPS00 0.999919
Estados_Unidos_Barack_Obama estados_unidos_barack_obama NP00000 1
propuso proponer VMIS3S0 1
este este DD0MS0 0.956743
mi mi DP1CSS 0.995536
rcoles rcoles NCMP000 0.750052
en en SPS00 1
Berl berl NP00000 1
n n NCFS000 1
que que CS 0.4375
Estados_Unidos estados_unidos NP00000 1
y y CC 0.999812
Rusia rusia NP00000 1
reduzcan reducir VMSP3P0 0.901254
significativamente significativamente RG 1
sus su DP3CP0 0.998462
arsenales arsenal NCMP000 1
de de SPS00 0.999919
armas arma NCFP000 0.982759
nucleares nuclear AQ0CP0 1
estrat estrat NCMS000 1
gicas gicas AQ0FP0 1
para para SPS00 0.998507
crear crear VMN0000 1
un uno DI0MS0 0.986987
mundo mundo NCMS000 1
de de SPS00 0.999919
paz paz NCFS000 1
y y CC 0.999812
justicia justicia NCFS000 1
pero pero CC 0.998821
Mosc mosc NP00000 1
duda dudar VMIP3S0 0.291667
de de SPS00 0.999919
la el DA0FS0 0.972146
seriedad seriedad NCFS000 1
de de SPS00 0.999919
la el DA0FS0 0.972146
propuesta propuesta NCFS000 0.75
Este este NP00000 1
mi mi DP1CSS 0.995536
rcoles rcoles NCMP000 0.750052
Obama obama NP00000 1
asegur asegur NCFS000 1
en en SPS00 1
una uno DI0FS0 0.951241
rueda rueda NCFS000 0.666667
de de SPS00 0.999919
prensa prensa NCFS000 0.925926
en en SPS00 1
compa compa VMSP3S0 1
a a SPS00 0.99585
de de SPS00 0.999919
la el DA0FS0 0.972146
canciller canciller NCMS000 1
alemana alemán AQ0FS0 0.833333
Angela_Merkel angela_merkel NP00000 1
que que PR0CN000 0.5625
el el DA0MS0 1
objetivo objetivo NCMS000 0.761905
de de SPS00 0.999919
los el DA0MP0 0.97623
esp esp NCMS000 1
as as NCMS000 1
estadounidenses estadounidense AQ0CP0 0.875
no no RN 0.99778
es ser VSIP3S0 1
hurgar hurgar VMN0000 1
en en SPS00 1
los el DA0MP0 0.97623
mensajes mensaje NCMP000 1
corrientes corriente AQ0CP0 0.5
de de SPS00 0.999919
ciudadanos ciudadano NCMP000 0.875
alemanes alemán AQ0MP0 0.1
ciudadanos ciudadano NCMP000 0.875
estadounidenses estadounidense AQ0CP0 0.875
ciudadanos ciudadano NCMP000 0.875
franceses francés AQ0MP0 0.125
o o CC 0.998845
de de SPS00 0.999919
cualquier cualquiera DI0CS0 1
otro otro DI0MS0 0.61215
lugar lugar NCMS000 1
Tambi tambi NP00000 1
n n NCFS000 1
insisti insisti NCMS000 1
en en SPS00 1
que que CS 0.4375
el el DA0MS0 1
espionaje espionaje NCMS000 1
de de SPS00 0.999919
las el DA0FP0 0.97051
comunicaciones comunicación NCFP000 1
telef telef NCMS000 0.500257
nicas nicas AQ0FP0 0.736889
y y CC 0.999812
electr electr VMN0000 0.633986
nicas nicas AQ0FP0 0.736889
hab hab NCMS000 0.63631
a a SPS00 0.99585
salvado salvar VMP00SM 0.691725
vidas vida NCFP000 1
y y CC 0.999812
que que CS 0.4375
a a SPS00 1
el el DA0MS0 1
menos menos RG 1
50 50 Z 1
ataques ataque NCMP000 0.928571
hab hab NCMS000 0.63631
an an NCFS000 1
sido ser VSP00SM 1
desbaratados desbaratar VMP00PM 1
en en SPS00 1
Estados_Unidos estados_unidos NP00000 1
y y CC 0.999812
otras otro DI0FP0 0.731481
partes parte NCFP000 0.495495
de de SPS00 1
el el DA0MS0 1
mundo mundo NCMS000 1
particularmente particularmente RG 1
en en SPS00 1
Alemania_Las alemania_las NP00000 1
violaciones violación NCFP000 1
de de SPS00 0.999919
la el DA0FS0 0.972146
vida vida NCFS000 1
privada privado AQ0FS0 0.166667
fueron ser VSIS3P0 0.796296
muy muy RG 1
limitadas limitar VMP00PF 1
y y CC 0.999812
todas todo DI0FP0 0.945312
las el DA0FP0 0.97051
operaciones operación NCFP000 1
de de SPS00 0.999919
vigilancia vigilancia NCFS000 1
son ser VSIP3P0 0.986772
supervisadas supervisar VMP00PF 1
por por SPS00 1
un uno DI0MS0 0.986987
tribunal tribunal NCMS000 1
agreg agreg NCMS000 0.714133
Alemania alemania NP00000 1
obtuvo obtener VMIS3S0 1
informaciones información NCFP000 1
importantes importante AQ0CP0 1
gracias_a gracias_a SPS00 1
los el DA0MP0 0.97623
servicios servicio NCMP000 1
estadounidenses estadounidense AQ0CP0 0.875
dijo decir VMIS3S0 1
Merkel merkel NP00000 1
que que PR0CN000 0.5625
vivi vivi VMIS1S0 1
en en SPS00 1
la el DA0FS0 0.972146
antigua antiguo AQ0FS0 0.866667
Alemania alemania NP00000 1
comunista comunista NCCS000 0.25
Los los NP00000 1
intercambios intercambio NCMP000 1
de de SPS00 0.999919
informaciones información NCFP000 1
entre entre SPS00 0.995223
servicios servicio NCMP000 1
alemanes alemán AQ0MP0 0.1
y y CC 0.999812
estadounidenses estadounidense AQ0CP0 0.875
van ir VMIP3P0 1
a a SPS00 0.99585
continuar continuar VMN0000 1
agreg agreg NCMS000 0.714133
Obama obama NP00000 1
y y CC 0.999812
Merkel merkel NP00000 1
dijeron decir VMIS3P0 1
que que CS 0.4375
es ser VSIP3S0 1
necesario necesario AQ0MS0 1
encontrar encontrar VMN0000 1
un uno DI0MS0 0.986987
equilibrio equilibrio NCMS000 1
entre entre SPS00 0.995223
protecci protecci RG 0.751648
n n NCFS000 1
contra contra SPS00 0.976316
las el DA0FP0 0.97051
amenazas amenaza NCFP000 0.916667
terroristas terrorista AQ0CP0 0.375
y y CC 0.999812
defensa defensa NCCS000 1
de de SPS00 0.999919
la el DA0FS0 0.972146
vida vida NCFS000 1
privada privar VMP00SF 0.833333
de de SPS00 0.999919
los el DA0MP0 0.97623
ciudadanos ciudadano NCMP000 0.875
Por por NP00000 1
ltimo ltimo RG 1
Obama obama NP00000 1
tambi tambi AQ0CN0 1
n n NCFS000 1
prometi prometi NCMS000 1
en en SPS00 1
su su DP3CS0 1
discurso discurso NCMS000 0.75
que que CS 0.4375
Estados_Unidos estados_unidos NP00000 1
har har VMN0000 1
m m NCFS000 0.5
s segundo NCMN000 0.622321
contra contra SPS00 0.976316
el el DA0MS0 1
cambio cambio NCMS000 0.97619
clim clim NCMS000 0.700265
tico tico AQ0MS0 0.806828
Nuestra nuestra NP00000 1
generaci generaci RG 0.751648
n n NCFS000 1
debe deber VMIP3S0 0.974359
avanzar avanzar VMN0000 1
hacia hacia SPS00 1
un uno DI0MS0 0.986987
pacto pacto NCMS000 0.875
mundial mundial AQ0CS0 0.928571
para para SPS00 0.998507
luchar luchar VMN0000 1
contra contra SPS00 0.976316
el el DA0MS0 1
cambio cambio NCMS000 0.97619
clim clim NCMS000 0.700265
tico tico AQ0MS0 0.806828
antes_de antes_de SPS00 1
que que CS 0.4375
sea ser VSSP1S0 0.485714
demasiado demasiado RG 0.93
tarde tarde RG 0.704348
a a SPS00 0.99585
adi adar VMIS1S0 0.994868
Con con NP00000 1
una uno DI0FS0 0.951241
clase clase NCFS000 1
media medio AQ0FS0 0.72
mundial mundial AQ0CS0 0.928571
que que PR0CN000 0.5625
consume consumir VMIP3S0 0.878846
cada cada DI0CS0 1
d d NCFS000 1
a a SPS00 0.99585
m m NCFS000 0.5
s segundo NCMN000 0.622321
energ energ NCMS000 0.714133
a a SPS00 0.99585
esto este PD0NS000 1
tiene tener VMIP3S0 1
que que CS 0.4375
ser ser VSN0000 0.93883
de de SPS00 0.999919
ahora ahora RG 1
en en SPS00 1
m m NCFS000 0.5
s segundo NCMN000 0.622321
un uno DI0MS0 0.986987
esfuerzo esfuerzo NCMS000 0.958333
de de SPS00 0.999919
todas todo DI0FP0 0.945312
las el DA0FP0 0.97051
naciones nación NCFP000 1
y y CC 0.999812
no no RN 0.99778
s segundo NCMN000 0.622321
lo el DA0NS0 0.457393
algunas alguno PI0FP000 0.241935
de de SPS00 0.999919
ellas ellos PP3FP000 1
declar declar VMN0000 1
200 200 Z 1
oficinas oficina NCFP000 1
en en SPS00 1
150 150 Z 1
pa pa NCFS000 0.740689
ses ses NCMP000 0.727093
Ampliar_Desea ampliar_desea NP00000 1
compartir compartir VMN0000 1
una uno DI0FS0 0.951241
informaci informaci AQ0CS0 0.0199855
n n NCFS000 1
un uno DI0MS0 0.986987
comentario comentario NCMS000 1
Escr escr NP00000 1
banos banos NCMP000 0.509288
a a SPS00 0.99585

