WASHINGTON_AFP_El washington_afp_el NP00000 1
presidente presidente NCMS000 1
de de SPS00 0.999919
Estados_Unidos_Barack_Obama estados_unidos_barack_obama NP00000 1
manifest manifest NCMS000 1
su su DP3CS0 1
escepticismo escepticismo NCMS000 1
sobre sobre SPS00 0.994203
una uno DI0FS0 0.951241
posible posible AQ0CS0 1
acci acci NCMS000 0.0996348
n n NCFS000 1
militar militar AQ0CS0 0.666667
de de SPS00 0.999919
su su DP3CS0 1
pa pa NCFS000 0.740689
s segundo NCMN000 0.622321
en en SPS00 1
Siria siria NP00000 1
en en SPS00 1
una uno DI0FS0 0.951241
entrevista entrevista NCFS000 0.75
difundida difundir VMP00SF 1
la el DA0FS0 0.972146
noche noche NCFS000 1
de de SPS00 1
el el DA0MS0 1
lunes [L:??/??/??:??.??:??] W 1
en en SPS00 1
la el DA0FS0 0.972146
que que PR0CN000 0.5625
reconoci reconoci RG 0.751648
que que CS 0.4375
China china NP00000 1
ha haber VAIP3S0 0.998141
captado captar VMP00SM 1
las el DA0FP0 0.97051
consecuencias consecuencia NCFP000 1
que que CS 0.4375
tendr tendr VMN0000 0.633986
a a SPS00 0.99585
un uno DI0MS0 0.986987
ciberataque ciberataque NCMS000 1
para para SPS00 0.998507
las el DA0FP0 0.97051
relaciones relación NCFP000 0.944444
bilaterales bilateral AQ0CP0 1
Si si NP00000 1
se se P00CN000 0.465602
instaura instaurar VMIP3S0 0.994851
una uno DI0FS0 0.951241
zona zona NCFS000 1
de de SPS00 0.999919
exclusi exclusi RG 1
n n NCFS000 1
a a SPS00 0.99585
rea reo NCFS000 0.592721
es ser VSIP3S0 1
posible posible AQ0CS0 1
que que CS 0.4375
no no RN 0.99778
se se P00CN000 0.465602
solucione solucionar VMSP3S0 0.623409
el el DA0MS0 1
problema problema NCMS000 1
que que PR0CN000 0.5625
hay haber VMIP3S0 1
dentro_de dentro_de SPS00 1
esta este DD0FS0 0.982143
zona zona NCFS000 1
dijo decir VMIS3S0 1
el el DA0MS0 1
mandatario mandatario NCMS000 1
estadounidense estadounidense AQ0CS0 0.833333
en en SPS00 1
una uno DI0FS0 0.951241
entrevista entrevista NCFS000 0.75
con con SPS00 1
' ' Fe 1
The_Charlie_Rose_Show the_charlie_rose_show NP00000 1
' ' Fe 1
grabada grabar VMP00SF 1
el el DA0MS0 1
domingo [G:??/??/??:??.??:??] W 1
en en SPS00 1
la el DA0FS0 0.972146
Casa_Blanca casa_blanca NP00000 1
pero pero CC 0.998821
emitida emitir VMP00SF 1
la el DA0FS0 0.972146
noche noche NCFS000 1
de de SPS00 1
el el DA0MS0 1
lunes [L:??/??/??:??.??:??] W 1
Es es NP00000 1
dif dif NCFS000 1
cil cil AQ0CS0 1
para para SPS00 0.998507
ustedes usted PP2CP00P 1
entender entender VMN0000 0.9
la el DA0FS0 0.972146
complejidad complejidad NCFS000 1
de de SPS00 0.999919
la el DA0FS0 0.972146
situaci situaci AQ0CS0 0.0199855
n n NCFS000 1
y y CC 0.999812
la el DA0FS0 0.972146
forma forma NCFS000 0.960317
por por SPS00 1
la el DA0FS0 0.972146
que que PR0CN000 0.5625
no no RN 0.99778
debemos deber VMIP1P0 1
precipitar precipitar VMN0000 1
nos nos PP1CP000 1
en en SPS00 1
una uno DI0FS0 0.951241
guerra guerra NCFS000 1
m m NCFS000 0.5
s segundo NCMN000 0.622321
en en SPS00 1
Oriente_Medio oriente_medio NP00000 1
a a SPS00 0.99585
adi adar VMIS1S0 0.994868
Obama_El obama_el NP00000 1
presidente presidente NCMS000 1
estadounidense estadounidense AQ0CS0 0.833333
habl habl AQ0CS0 0.587402
abiertamente abiertamente RG 1
de de SPS00 1
el el DA0MS0 1
conflicto conflicto NCMS000 1
sirio sirio AQ0MS0 0.357349
despu despu NCMS000 0.774439
s segundo NCMN000 0.622321
de de SPS00 0.999919
que que CS 0.4375
el el DA0MS0 1
jueves_uno [J:1/??/??:??.??:??] W 1
de de SPS00 0.999919
sus su DP3CP0 0.998462
consejeros consejero NCMP000 0.75
acusara acusar VMSI3S0 0.65
directamente directamente RG 1
a a SPS00 1
el el DA0MS0 1
r r NCFS000 0.638487
gimen gemir VMIP3P0 1
de de SPS00 0.999919
Bashar bashar NP00000 1
a a SPS00 1
el el DA0MS0 1
Asad asad NP00000 1
de de SPS00 0.999919
haber haber VAN0000 0.744444
utilizado utilizar VMP00SM 1
gas gas NCMS000 1
sar sar VMN0000 1
n n NCFS000 1
contra contra SPS00 0.976316
los el DA0MP0 0.97623
rebeldes rebelde AQ0CP0 0.638481
y y CC 0.999812
prometido prometer VMP00SM 0.391939
apoyo apoyo NCMS000 0.928571
militar militar AQ0CS0 0.666667
a a SPS00 0.99585
la el DA0FS0 0.972146
oposici oposici NCMS000 0.0996348
n n NCFS000 1
armada armar VMP00SF 0.75
La_Casa_Blanca la_casa_blanca NP00000 1
todav todav VMIP3S0 0.0552772
a a SPS00 0.99585
no no RN 0.99778
ha haber VAIP3S0 0.998141
detallado detallar VMP00SM 1
c c NCFS000 1
mo mo AQ0MS0 0.297018
se se P00CN000 0.465602
materializar materializar VMN0000 1
esta este DD0FS0 0.982143
ayuda ayuda NCFS000 0.866667
aunque aunque CC 1
analistas analista NCCP000 1
vaticinan vaticinar VMIP3P0 1
que que CS 0.4375
el el DA0MS0 1
env env NCFS000 0.159442
o o CC 0.998845
de de SPS00 0.999919
armas arma NCFP000 0.982759
ligeras ligero AQ0FP0 1
a a SPS00 0.99585
los el DA0MP0 0.97623
insurgentes insurgente NCCP000 0.75
no no RN 0.99778
har har VMN0000 1
desestabilizar desestabilizar VMN0000 1
la el DA0FS0 0.972146
balanza balanza NCFS000 1
en_contra_de en_contra_de SPS00 1
las el DA0FP0 0.97051
fuerzas fuerza NCFP000 0.954545
leales leal AQ0CP0 0.581802
a a SPS00 0.99585
Asad asad NP00000 1
en en SPS00 1
un uno DI0MS0 0.986987
conflicto conflicto NCMS000 1
que que CS 0.4375
comenz comenz NCFS000 0.620205
en en SPS00 1
marzo_de_2011 [??:??/3/2011:??.??:??] W 1
y y CC 0.999812
que que PR0CN000 0.5625
ya ya RG 0.996988
se se P00CN000 0.465602
ha haber VAIP3S0 0.998141
cobrado cobrar VMP00SM 1
93 93 Z 1
000 0 Z 1
vidas vida NCFP000 1
Dije dije NP00000 1
que que CS 0.4375
ampliar ampliar VMN0000 1
a a SPS00 0.99585
el el DA0MS0 1
apoyo apoyo NCMS000 0.928571
tanto tanto RG 0.857895
a a SPS00 0.99585
la el DA0FS0 0.972146
oposici oposici AQ0CS0 0.0199855
n n NCFS000 1
pol pol NCMS000 0.861706
tica tica AQ0FS0 0.595788
como como CS 0.998579
a a SPS00 0.99585
la el DA0FS0 0.972146
oposici oposici NCMS000 0.0996348
n n NCFS000 1
armada armar VMP00SF 0.75
No no NP00000 1
he haber VAIP1S0 0.984848
precisado precisar VMP00SM 1
exactamente exactamente RG 1
lo el DA0NS0 0.457393
que que PR0CN000 0.5625
hacemos hacer VMIP1P0 1
y y CC 0.999812
no no RN 0.99778
lo lo PP3CNA00 0.271163
har har VMN0000 1
en en SPS00 1
esta este DD0FS0 0.982143
entrevista entrevista NCFS000 0.75
advirti advirti NCMS000 1
de de SPS00 0.999919
forma forma NCFS000 0.960317
tajante tajante AQ0CS0 0.657228
Marcado marcado NP00000 1
por por SPS00 1
lo el DA0NS0 0.457393
que que PR0CN000 0.5625
han haber VAIP3P0 1
supuesto suponer VMP00SM 0.7
los el DA0MP0 0.97623
conflictos conflicto NCMP000 1
de de SPS00 0.999919
Irak irak NP00000 1
y y CC 0.999812
Afganist afganist NP00000 1
n n NCFS000 1
para para SPS00 0.998507
Estados_Unidos estados_unidos NP00000 1
y y CC 0.999812
por_lo_tanto por_lo_tanto RG 1
reticente reticente AQ0CS0 1
desde desde SPS00 1
hace hacer VMIP3S0 1
m m NCFS000 0.5
s segundo NCMN000 0.622321
de de SPS00 0.999919
dos 2 Z 0.988722
a a SPS00 0.99585
os os PP2CP000 0.722222
a a SPS00 0.99585
involucrar involucrar VMN0000 1
a a SPS00 0.99585
su su DP3CS0 1
pa pa NCFS000 0.740689
s segundo NCMN000 0.622321
en en SPS00 1
una uno DI0FS0 0.951241
operaci operaci AQ0CS0 0.0199855
n n NCFS000 1
militar militar AQ0CS0 0.666667
Obama obama NP00000 1
s segundo NCMN000 0.622321
enumer enumer VMN0000 1
las el DA0FP0 0.97051
opciones opción NCFP000 1
y y CC 0.999812
consecuencias consecuencia NCFP000 1
de de SPS00 0.999919
una uno DI0FS0 0.951241
posible posible AQ0CS0 1
intervenci intervenci NCMS000 0.0996348
n n NCFS000 1
de de SPS00 0.999919
la el DA0FS0 0.972146
misma mismo AQ0FS0 0.916667
forma forma NCFS000 0.960317
que que PR0CN000 0.5625
se se P00CN000 0.465602
las lo PP3FPA00 0.0291584
han haber VAIP3P0 1
expuesto exponer VMP00SM 1
sus su DP3CP0 0.998462
consejeros consejero NCMP000 0.75
militares militar AQ0CP0 0.541667
Si si NP00000 1
se se P00CN000 0.465602
crea creer VMSP1S0 0.366667
un uno DI0MS0 0.986987
pasillo pasillo NCMS000 1
humanitario humanitario AQ0MS0 1
logra lograr VMIP3S0 0.833333
usted usted PP2CS00P 1
impedir impedir VMN0000 1
la el DA0FS0 0.972146
llegada llegada NCFS000 0.7
de de SPS00 0.999919
aviones avión NCMP000 1
a a SPS00 0.99585
este este DD0MS0 0.956743
pasillo pasillo NCMS000 1
o o CC 0.998845
tambi tambi AQ0CN0 1
n n NCFS000 1
de de SPS00 0.999919
misiles misil NCMP000 1
se se P00CN000 0.465602
pregunt pregunt NCMS000 0.607342
Obama_INTERESES_EN_LA_REGI_N_Washington obama_intereses_en_la_regi_n_washington NP00000 1
ha haber VAIP3S0 0.998141
destinado destinar VMP00SM 1
250_millones_de_d TM_d:250000000 Zu 1
lares lar NCMP000 1
en_concepto_de en_concepto_de SPS00 1
ayuda ayuda NCFS000 0.866667
no no RN 0.99778
letal letal AQ0CS0 1
para para SPS00 0.998507
los el DA0MP0 0.97623
rebeldes rebelde NCCP000 0.361519
y y CC 0.999812
tiene tener VMIP3S0 1
previsto prever VMP00SM 1
ofrecer ofrecer VMN0000 1
otros otro DI0MP0 0.56875
300_millones 300000000 Zd 1
para para SPS00 0.998507
los el DA0MP0 0.97623
refugiados refugiado NCMP000 0.9
sirios sirio AQ0MP0 0.357326
seg segundo NCMN000 1
n n NCFS000 1
anunci anunci RG 0.751648
el el DA0MS0 1
asesor asesor NCMS000 0.642709
de de SPS00 0.999919
Seguridad_Nacional_de_Obama_Ben_Rhodes seguridad_nacional_de_obama_ben_rhodes NP00000 1
desde desde SPS00 1
Enniskillen enniskillen NP00000 1
en en SPS00 1
Irlanda_de_el_Norte irlanda_de_el_norte NP00000 1
donde donde PR000000 0.963542
estos este DD0MP0 0.990566
d d NCFS000 1
as as NCMS000 1
se se P00CN000 0.465602
re re NCMS000 0.64128
nen nen VMIP3P0 0.987644
los el DA0MP0 0.97623
l l NCFS000 0.639398
deres deres NCMP000 0.800047
de de SPS00 1
el el DA0MS0 1
G8 G8 Z 1
lo lo PP3CNA00 0.271163
que que CS 0.4375
elever elever VMN0000 1
a a SPS00 0.99585
800_millones 800000000 Zd 1
la el DA0FS0 0.972146
asistencia asistencia NCFS000 1
humanitaria humanitario AQ0FS0 1
estadounidense estadounidense AQ0CS0 0.833333
Estados_Unidos estados_unidos NP00000 1
tiene tener VMIP3S0 1
intereses interés NCMP000 0.916667
importantes importante AQ0CP0 1
all all NCFN000 1
en en SPS00 1
Siria siria NP00000 1
y y CC 0.999812
no no RN 0.99778
s segundo NCMN000 0.622321
lo el DA0NS0 0.457393
humanitarios humanitario AQ0MP0 1
record record NCMS000 0.5
el el DA0MS0 1
mandatario mandatario NCMS000 1
No no NP00000 1
podemos poder VMIP1P0 0.944444
tener tener VMN0000 1
una uno DI0FS0 0.951241
situaci situaci AQ0CS0 0.0199855
n n NCFS000 1
ca ca I 1
tica tica NCFS000 0.372209
en en SPS00 1
un uno DI0MS0 0.986987
pa pa NCFS000 0.740689
s segundo NCMN000 0.622321
que que PR0CN000 0.5625
comparte compartir VMIP3S0 0.150894
fronteras frontera NCFP000 0.875
con con SPS00 1
un uno DI0MS0 0.986987
pa pa NCFS000 0.740689
s segundo NCMN000 0.622321
como como CS 0.998579
Jordania jordania NP00000 1
que que CS 0.4375
a a SPS00 0.99585
su su DP3CS0 1
vez vez NCFS000 1
es ser VSIP3S0 1
fronterizo fronterizo AQ0MS0 1
de de SPS00 0.999919
Israel_Obama israel_obama NP00000 1
que que PR0CN000 0.5625
enfrenta enfrentar VMIP3S0 0.75
una uno DI0FS0 0.951241
ola ola NCFS000 1
de de SPS00 0.999919
cr cr NCMS000 1
ticas ticas AQ0FP0 0.760898
despu despu NCMS000 0.774439
s segundo NCMN000 0.622321
de de SPS00 0.999919
que que CS 0.4375
saliera salir VMSI3S0 0.65
a a SPS00 0.99585
la el DA0FS0 0.972146
luz luz NCFS000 1
la el DA0FS0 0.972146
existencia existencia NCFS000 1
de de SPS00 0.999919
programas programa NCMP000 0.9
masivos masivo AQ0MP0 1
de de SPS00 0.999919
espionaje espionaje NCMS000 1
de de SPS00 0.999919
comunicaciones comunicación NCFP000 1
en en SPS00 1
Estados_Unidos estados_unidos NP00000 1
afirm afirm NCMS000 0.700265
en en SPS00 1
la el DA0FS0 0.972146
entrevista entrevista NCFS000 0.75
que que CS 0.4375
China china NP00000 1
ha haber VAIP3S0 0.998141
captado captar VMP00SM 1
las el DA0FP0 0.97051
consecuencias consecuencia NCFP000 1
que que CS 0.4375
tendr tendr VMN0000 0.633986
a a SPS00 0.99585
ataques ataque NCMP000 0.928571
cibern cibern RG 0.116399
ticos ticos AQ0MP0 0.671839
contra contra SPS00 0.976316
su su DP3CS0 1
pa pa NCFS000 0.740689
s segundo NCMN000 0.622321
ya_que ya_que CS 1
pondr pondr VMN0000 0.633986
a a SPS00 0.99585
en en SPS00 1
la el DA0FS0 0.972146
cuerda cuerda NCFS000 0.623915
floja flojo AQ0FS0 1
las el DA0FP0 0.97051
relaciones relación NCFP000 0.944444
entre entre SPS00 0.995223
ambas ambos DI0FP0 0.785714
potencias potencia NCFP000 0.833333
Tuvimos tuvimos NP00000 1
conversaciones conversación NCFP000 1
muy muy RG 1
claras claro AQ0FP0 0.75
sobre sobre SPS00 0.994203
este este DD0MS0 0.956743
tema tema NCMS000 0.953125
Han han NP00000 1
entendido entender VMP00SM 0.75
creo crear VMIP1S0 0.5
que que CS 0.4375
esto este PD0NS000 1
puede poder VMIP3S0 0.995614
perjudicar perjudicar VMN0000 1
las el DA0FP0 0.97051
bases base NCCP000 0.75
de de SPS00 0.999919
la el DA0FS0 0.972146
relaci relaci AQ0CS0 0.0199855
n n NCFS000 1
entre entre SPS00 0.995223
Estados_Unidos estados_unidos NP00000 1
y y CC 0.999812
China china NP00000 1
manifest manifest NCMS000 1
Obama obama NP00000 1
en en SPS00 1
referencia referencia NCFS000 0.666667
a a SPS00 1
el el DA0MS0 1
encuentro encuentro NCMS000 0.5625
que que PR0CN000 0.5625
tuvo tener VMIS3S0 1
con con SPS00 1
el el DA0MS0 1
presidente presidente NCMS000 1
chino chino AQ0MS0 0.291667
Xi_Jinping xi_jinping NP00000 1
durante durante SPS00 1
la el DA0FS0 0.972146
cumbre cumbre NCFS000 1
informal informal AQ0CS0 0.65727
de de SPS00 1
el el DA0MS0 1
7 7 Z 1
y y CC 0.999812
8_de_junio [??:8/6/??:??.??:??] W 1
celebrada celebrar VMP00SF 1
en en SPS00 1
California california NP00000 1
oeste oeste NCMS000 1
Creo creo NP00000 1
que que CS 0.4375
no no RN 0.99778
podemos poder VMIP1P0 0.944444
esperar esperar VMN0000 1
que que CS 0.4375
un_l VL_l:1 Zu 1
der der NCMS000 0.246545
chino chino AQ0MS0 0.291667
diga decir VMSP1S0 0.416667
' ' Fe 1
Sabes saber VMIP2S0 1
qu qu NCMS000 0.774439
Tienes tienes NP00000 1
raz raz AQ0CS0 0.500309
n n NCFS000 1
Nos nos NP00000 1
hab hab NCMS000 0.63631
is i NCFP000 1
pillado pillar VMP00SM 1
con con SPS00 1
las el DA0FP0 0.97051
manos mano NCFP000 1
en en SPS00 1
la el DA0FS0 0.972146
masa masa NCFS000 1
Estamos estamos NP00000 1
robando robar VMG0000 1
toda todo DI0FS0 0.975806
vuestra vuestro DP2FSP 0.92562
informaci informaci AQ0CS0 0.0199855
n n NCFS000 1
y y CC 0.999812
cada cada DI0CS0 1
d d NCFS000 1
a a SPS00 0.99585
intentamos intentar VMIP1P0 0.65
acceder acceder VMN0000 1
a a SPS00 0.99585
Apple apple NP00000 1
' ' Fe 1
expuso exponer VMIS3S0 1
el el DA0MS0 1
mandatario mandatario NCMS000 1
estadounidense estadounidense AQ0CS0 0.833333
Xi xi NP00000 1
reiter reiter NCMS000 1
durante durante SPS00 1
los el DA0MP0 0.97623
dos_d TM_d:2 Zu 1
as as NCMS000 1
de de SPS00 0.999919
cumbre cumbre NCFS000 1
que que CS 0.4375
su su DP3CS0 1
pa pa NCFS000 0.740689
s segundo NCMN000 0.622321
tambi tambi AQ0CN0 1
n n NCFS000 1
es ser VSIP3S0 1
v v NCFS000 1
ctima ctima NCFS000 1
de de SPS00 0.999919
ataques ataque NCMP000 0.928571
inform inform NCMS000 0.700265
ticos ticos AQ0MP0 0.671839
PROGRAMAS_NUCLEARES_Obama programas_nucleares_obama NP00000 1
tambi tambi AQ0CN0 1
n n NCFS000 1
aplaudi aplaudi VMIS1S0 1
el el DA0MS0 1
giro giro NCMS000 0.75
de de SPS00 0.999919
China china NP00000 1
con_respecto_a con_respecto_a SPS00 1
Corea_de_el_Norte corea_de_el_norte NP00000 1
a a SPS00 1
el el DA0MS0 1
juzgar juzgar VMN0000 1
que que CS 0.4375
Pek pek NP00000 1
n n NCFS000 1
ha haber VAIP3S0 0.998141
endurecido endurecer VMP00SM 1
su su DP3CS0 1
pol pol NCMS000 0.861706
tico tico AQ0MS0 0.806828
sobre sobre SPS00 0.994203
el el DA0MS0 1
programa programa NCMS000 0.866667
nuclear nuclear AQ0CS0 1
de de SPS00 0.999919
Pyongyang_China pyongyang_china NP00000 1
es ser VSIP3S0 1
el el DA0MS0 1
principal principal AQ0CS0 0.9375
aliado aliado NCMS000 0.75
econ econ NCMS000 1
mico mico NCMS000 1
y y CC 0.999812
diplom diplom NCMS000 0.500053
tico tico AQ0MS0 0.806828
de de SPS00 1
el el DA0MS0 1
r r NCFS000 0.638487
gimen gemir VMIP3P0 1
de de SPS00 0.999919
Kim_Jong kim_jong NP00000 1
un uno DI0MS0 0.986987
que que PR0CN000 0.5625
desafi desafi VMIS1S0 0.0691907
a a SPS00 0.99585
Pek pek NP00000 1
n n NCFS000 1
y y CC 0.999812
a a SPS00 1
el el DA0MS0 1
mundo mundo NCMS000 1
llevando_a_cabo llevar_a_cabo VMG0000 1
en en SPS00 1
febrero [??:??/2/??:??.??:??] W 1
su su DP3CS0 1
tercer 3 AO0MS0 1
ensayo ensayo NCMS000 0.875
nuclear nuclear AQ0CS0 1
lo el DA0NS0 0.457393
que que PR0CN000 0.5625
provoc provoc NC00000 0.538029
una uno DI0FS0 0.951241
escalada escalada NCFS000 0.308261
de de SPS00 0.999919
la el DA0FS0 0.972146
tensi tensi RG 1
n n NCFS000 1
en en SPS00 1
la el DA0FS0 0.972146
pen pen AQ0CN0 0.249994
nsula nsula NCFS000 0.842094
coreana coreano AQ0FS0 0.514014
Los los NP00000 1
pol pol NCMS000 0.861706
ticos ticos AQ0MP0 0.671839
chinos chino NCMP000 0.944444
suelen soler VMIP3P0 0.916667
dejar_de_lado dejar_de_lado VMN0000 1
este este DD0MS0 0.956743
tipo tipo NCMS000 1
de de SPS00 0.999919
problemas problema NCMP000 1
Ahora ahora NP00000 1
vemos ver VMIP1P0 1
creo crear VMIP1S0 0.5
un uno DI0MS0 0.986987
inter inter AQ0CN0 1
s segundo NCMN000 0.622321
y y CC 0.999812
una uno DI0FS0 0.951241
voluntad voluntad NCFS000 1
de de SPS00 0.999919
implicar implicar VMN0000 1
se se PP3CN000 1
con con SPS00 1
nosotros nosotros PP1MP000 1
en en SPS00 1
negociaciones negociación NCFP000 1
estrat estrat NCMS000 1
gicas gicas AQ0FP0 1
sobre sobre SPS00 0.994203
estos este DD0MP0 0.990566
aspectos aspecto NCMP000 1
precis precis NCMN000 1
Obama_Obama obama_obama NP00000 1
tambi tambi AQ0CN0 1
n n NCFS000 1
ha haber VAIP3S0 0.998141
tenido tener VMP00SM 1
palabras palabra NCFP000 1
para para SPS00 0.998507
el el DA0MS0 1
nuevo nuevo AQ0MS0 1
presidente presidente NCMS000 1
de de SPS00 0.999919
Ir ir NP00000 1
n n NCFS000 1
Hasan_Rohani hasan_rohani NP00000 1
a a SPS00 1
el el DA0MS0 1
ver ver VMN0000 0.987179
en en SPS00 1
su su DP3CS0 1
elecci elecci AQ0CS0 0.0199855
n n NCFS000 1
se se P00CN000 0.465602
ales ale NCFP000 1
positivas positivo AQ0FP0 1
principalmente principalmente RG 1
por por SPS00 1
el el DA0MS0 1
enfoque enfoque NCMS000 0.625
que que PR0CN000 0.5625
ste ste VMIP3S0 0.430364
cl centilitro NCMN000 1
rigo rigo NCMS000 1
moderado moderar VMP00SM 0.691767
pueda poder VMSP1S0 0.490196
aportar aportar VMN0000 1
a a SPS00 0.99585
su su DP3CS0 1
programa programa NCMS000 0.866667
nuclear nuclear AQ0CS0 1
de de SPS00 0.999919
Teher teher NP00000 1
n n NCFS000 1
Rohani rohani NP00000 1
ha haber VAIP3S0 0.998141
compartido compartir VMP00SM 1
creo crear VMIP1S0 0.5
su su DP3CS0 1
inter inter AQ0CN0 1
s segundo NCMN000 0.622321
por por SPS00 1
modificar modificar VMN0000 1
la el DA0FS0 0.972146
posici posici AQ0CS0 0.0199855
n n NCFS000 1
de de SPS00 0.999919
Ir ir NP00000 1
n n NCFS000 1
sobre sobre SPS00 0.994203
muchas mucho DI0FP0 0.819444
cuestiones cuestión NCFP000 0.875
internacionales internacional AQ0CP0 0.928571
Creo creo NP00000 1
que que PR0CN000 0.5625
es ser VSIP3S0 1
posible posible AQ0CS0 1
que que CS 0.4375
los el DA0MP0 0.97623
iran iran VMIP3P0 1
es ser VSIP3S0 1
decidan decidir VMSP3P0 0.75
aceptar aceptar VMN0000 1
nuestra nuestro DP1FSP 0.892857
oferta oferta NCFS000 0.777778
para para SPS00 0.998507
que que CS 0.4375
tengamos tener VMSP1P0 0.901254
una uno DI0FS0 0.951241
relaci relaci AQ0CS0 0.0199855
n n NCFS000 1
m m NCFS000 0.5
s segundo NCMN000 0.622321
seria serio AQ0FS0 0.777778
y y CC 0.999812
m m NCFS000 0.5
s segundo NCMN000 0.622321
trascendente trascendente AQ0CS0 1
a a SPS00 0.99585
adi adar VMIS1S0 0.994868
Obama obama NP00000 1
200 200 Z 1
oficinas oficina NCFP000 1
en en SPS00 1
150 150 Z 1
pa pa NCFS000 0.740689
ses ses NCMP000 0.727093
Ampliar_Desea ampliar_desea NP00000 1
compartir compartir VMN0000 1
una uno DI0FS0 0.951241
informaci informaci AQ0CS0 0.0199855
n n NCFS000 1
un uno DI0MS0 0.986987
comentario comentario NCMS000 1
Escr escr NP00000 1
banos banos NCMP000 0.509288
a a SPS00 0.99585

