ISLAMABAD_AFP_Las islamabad_afp_las NP00000 1
autoridades autoridad NCFP000 1
de de SPS00 0.999919
Pakist pakist NP00000 1
n n NCFS000 1
anunciaron anunciar VMIS3P0 1
este este DD0MS0 0.956743
lunes [L:??/??/??:??.??:??] W 1
que que PR0CN000 0.5625
han haber VAIP3P0 1
identificado identificar VMP00SM 1
los el DA0MP0 0.97623
cuerpos cuerpo NCMP000 1
de de SPS00 0.999919
diez 10 Z 1
alpinistas alpinista NCCP000 1
extranjeros extranjero AQ0MP0 0.833333
y y CC 0.999812
su su DP3CS0 1
gu gu NCMS000 0.774439
a a SPS00 0.99585
local local NCMS000 0.5
que que PR0CN000 0.5625
murieron morir VMIS3P0 1
por por SPS00 1
disparos disparo NCMP000 1
en en SPS00 1
la el DA0FS0 0.972146
madrugada madrugada NCFS000 0.75
de de SPS00 1
el el DA0MS0 1
domingo [G:??/??/??:??.??:??] W 1
en en SPS00 1
el el DA0MS0 1
Himalaya himalaya NP00000 1
paquistan paquistan VMIP3P0 1
en en SPS00 1
un_in LN_in:1 Zu 1
dito do NCMS00D 1
ataque ataque NCMS000 0.9625
en en SPS00 1
esta este DD0FS0 0.982143
pac pac NCMS000 1
fica fica VMIP3S0 0.499738
regi regi RG 0.751648
n n NCFS000 1
reivindicada reivindicar VMP00SF 1
por por SPS00 1
los el DA0MP0 0.97623
talibanes talibanes NCMP000 1
de de SPS00 0.999919
Pakist pakist NP00000 1
n n NCFS000 1
Las las NP00000 1
v v NCFS000 1
ctimas ctimas NCFP000 1
extranjeras extranjero AQ0FP0 0.5
son ser VSIP3P0 0.986772
un uno DI0MS0 0.986987
chino chino NCMS000 0.708333
estadounidense estadounidense AQ0CS0 0.833333
tres 3 Z 1
ucranianos ucraniano NCMP000 0.34283
dos 2 Z 0.988722
eslovacos eslovaco NCMP000 0.642602
dos 2 Z 0.988722
chinos chino NCMP000 0.944444
un uno DI0MS0 0.986987
lituano lituano NCMS000 0.342812
y y CC 0.999812
un uno DI0MS0 0.986987
nepal nepal AQ0CS0 0.857106
indicaron indicar VMIS3P0 1
a a SPS00 0.99585
la el DA0FS0 0.972146
AFP afp NP00000 1
responsables responsable AQ0CP0 0.5
de de SPS00 0.999919
la el DA0FS0 0.972146
provincia provincia NCFS000 1
de de SPS00 0.999919
Gilgit_Baltistan gilgit_baltistan NP00000 1
norte norte NCMS000 1
de de SPS00 0.999919
Pakist pakist NP00000 1
n n NCFS000 1
donde donde PR000000 0.963542
se se P00CN000 0.465602
produjo producir VMIS3S0 1
el el DA0MS0 1
ataque ataque NCMS000 0.9625
Las las NP00000 1
primeras 1 AO0FP0 0.9
informaciones información NCFP000 1
oficiales oficial AQ0CP0 0.866667
indicaron indicar VMIS3P0 1
la el DA0FS0 0.972146
muerte muerte NCFS000 1
de de SPS00 0.999919
nueve 9 Z 1
alpinistas alpinista NCCP000 1
extranjeros extranjero AQ0MP0 0.833333
Un uno DI0MS0 0.986987
turista turista NCCS000 1
chino chino AQ0MS0 0.291667
sobrevivi sobrevivi VMIS1S0 1
a a SPS00 0.99585
el el DA0MS0 1
ataque ataque NCMS000 0.9625
que que PR0CN000 0.5625
tuvo_lugar tener_lugar VMIS3S0 1
en en SPS00 1
un uno DI0MS0 0.986987
campo campo NCMS000 0.979167
base base NCCS000 0.955882
de de SPS00 1
el el DA0MS0 1
Nanga_Parbat nanga_parbat NP00000 1
la el DA0FS0 0.972146
novena 9 AO0FS0 0.601087
monta monta NCFS000 0.166667
a a SPS00 0.99585
m m NCFS000 0.5
s segundo NCMN000 0.622321
alta alto AQ0FS0 0.970588
de de SPS00 1
el el DA0MS0 1
mundo mundo NCMS000 1
8 8 Z 1
126_metros LN_m:126 Zu 1
en en SPS00 1
el el DA0MS0 1
distrito distrito NCMS000 1
de de SPS00 0.999919
Diamer diamer NP00000 1
dentro_de dentro_de SPS00 1
la el DA0FS0 0.972146
provincia provincia NCFS000 1
de de SPS00 0.999919
Gilgit_Baltistan_El gilgit_baltistan_el NP00000 1
sangriento sangriento AQ0MS0 1
ataque ataque NCMS000 0.9625
fue ser VSIS3S0 0.932292
reivindicado reivindicar VMP00SM 1
por por SPS00 1
el el DA0MS0 1
Movimiento movimiento NP00000 1
de de SPS00 0.999919
talibanes talibanes NCMP000 1
de de SPS00 0.999919
Pakist pakist NP00000 1
n n NCFS000 1
TTP ttp NP00000 1
principal principal AQ0CS0 0.9375
grupo grupo NCMS000 1
rebelde rebelde AQ0CS0 0.75
islamista islamista AQ0CS0 0.657183
de de SPS00 1
el el DA0MS0 1
pa pa NCFS000 0.740689
s segundo NCMN000 0.622321
Su su NP00000 1
portavoz portavoz NCCS000 1
Ehsanul_Ehsan ehsanul_ehsan NP00000 1
dijo decir VMIS3S0 1
a a SPS00 0.99585
la el DA0FS0 0.972146
AFP afp NP00000 1
que que CS 0.4375
el el DA0MS0 1
ataque ataque NCMS000 0.9625
fue ser VSIS3S0 0.932292
en en SPS00 1
nombre nombre NCMS000 0.97973
de de SPS00 0.999919
una uno DI0FS0 0.951241
de de SPS00 0.999919
sus su DP3CP0 0.998462
facciones facción NCFP000 1
Junud junud NP00000 1
ul ul NCMS000 0.399988
Hifa hifa NP00000 1
y y CC 0.999812
fue ser VSIS3S0 0.932292
llevado_a_cabo llevar_a_cabo VMP00SM 1
para para SPS00 0.998507
vengar vengar VMN0000 1
la el DA0FS0 0.972146
muerte muerte NCFS000 1
en en SPS00 1
mayo [??:??/5/??:??.??:??] W 1
de de SPS00 1
el el DA0MS0 1
n n NCFS000 1
mero mero AQ0MS0 0.777778
dos 2 Z 0.988722
de de SPS00 0.999919
los el DA0MP0 0.97623
talibanes talibanes NCMP000 1
paquistan paquistan VMIP3P0 1
es ser VSIP3S0 1
Wali wali NP00000 1
ur ur NCMS000 0.75005
Rehman rehman NP00000 1
en en SPS00 1
un uno DI0MS0 0.986987
ataque ataque NCMS000 0.9625
de de SPS00 0.999919
un uno DI0MS0 0.986987
avi aver VMIS1S0 1
n n NCFS000 1
no no RN 0.99778
tripulado tripular VMP00SM 1
estadounidense estadounidense NCCS000 0.166667
Junud junud NP00000 1
ul ul NCMS000 0.399988
Hifa hifa NP00000 1
es ser VSIP3S0 1
una uno DI0FS0 0.951241
nueva nuevo AQ0FS0 0.977273
facci facci NCMS000 0.0996348
n n NCFS000 1
creada crear VMP00SF 1
por por SPS00 1
los el DA0MP0 0.97623
talibanes talibanes NCMP000 1
para para SPS00 0.998507
atacar atacar VMN0000 1
a a SPS00 0.99585
los el DA0MP0 0.97623
extranjeros extranjero NCMP000 0.166667
y y CC 0.999812
lanzar lanzar VMN0000 1
a a SPS00 0.99585
todo todo DI0MS0 0.559816
el el DA0MS0 1
mundo mundo NCMS000 1
nuestro nuestro DP1MSP 0.933333
mensaje mensaje NCMS000 1
contra contra SPS00 0.976316
los el DA0MP0 0.97623
ataques ataque NCMP000 0.928571
de de SPS00 0.999919
drones drones NCMP000 1
explic explic RG 0.5
el el DA0MS0 1
portavoz portavoz NCCS000 1
Este este NP00000 1
ataque ataque NCMS000 0.9625
es ser VSIP3S0 1
un uno DI0MS0 0.986987
golpe golpe NCMS000 1
duro duro AQ0MS0 0.925926
para para SPS00 0.998507
la el DA0FS0 0.972146
industria industria NCFS000 0.833333
de de SPS00 1
el el DA0MS0 1
turismo turismo NCMS000 1
en en SPS00 1
Pakist pakist NP00000 1
n n NCFS000 1
ya ya RG 0.996988
afectada afectar VMP00SF 0.656028
por por SPS00 1
la el DA0FS0 0.972146
reputaci reputaci AQ0CS0 0.0199855
n n NCFS000 1
violenta violento AQ0FS0 0.666667
de de SPS00 1
el el DA0MS0 1
pa pa NCFS000 0.740689
s segundo NCMN000 0.622321
Los los NP00000 1
restos resto NCMP000 1
de de SPS00 0.999919
los el DA0MP0 0.97623
turistas turista NCCP000 1
asesinados asesinar VMP00PM 1
fueron ser VSIS3P0 0.796296
transportados transportar VMP00PM 1
el el DA0MS0 1
domingo [G:??/??/??:??.??:??] W 1
a a SPS00 0.99585
la el DA0FS0 0.972146
capital capital NCFS000 0.372549
Islamabad islamabad NP00000 1
desde desde SPS00 1
donde donde PR000000 0.963542
ser ser VSN0000 0.93883
n n NCFS000 1
repatriados repatriar VMP00PM 1
hacia hacia SPS00 1
sus su DP3CP0 0.998462
pa pa NCFS000 0.740689
ses ses NCMP000 0.727093
de de SPS00 0.999919
origen origen NCMS000 1
200 200 Z 1
oficinas oficina NCFP000 1
en en SPS00 1
150 150 Z 1
pa pa NCFS000 0.740689
ses ses NCMP000 0.727093
Ampliar_Desea ampliar_desea NP00000 1
compartir compartir VMN0000 1
una uno DI0FS0 0.951241
informaci informaci AQ0CS0 0.0199855
n n NCFS000 1
un uno DI0MS0 0.986987
comentario comentario NCMS000 1
Escr escr NP00000 1
banos banos NCMP000 0.509288
a a SPS00 0.99585

