WASHINGTON_AFP_La washington_afp_la NP00000 1
presidenta presidente NCFS000 1
de de SPS00 0.999919
Corea_de_el_Sur_Park_Geun corea_de_el_sur_park_geun NP00000 1
hye hye VMIP3S0 0.888895
ser ser VSN0000 0.93883
recibida recibir VMP00SF 1
en en SPS00 1
la el DA0FS0 0.972146
Casa_Blanca casa_blanca NP00000 1
el el DA0MS0 1
pr pr NCMS000 0.224371
ximo ximo AQ0MS0 0.937453
7_de_mayo [??:7/5/??:??.??:??] W 1
con con SPS00 1
las el DA0FP0 0.97051
tensiones tensión NCFP000 1
con con SPS00 1
Corea_de_el_Norte corea_de_el_norte NP00000 1
como como CS 0.998579
tel tel NCMS000 1
n n NCFS000 1
de de SPS00 0.999919
fondo fondo NCMS000 1
anunci anunci RG 0.751648
este este DD0MS0 0.956743
lunes [L:??/??/??:??.??:??] W 1
la el DA0FS0 0.972146
presidencia presidencia NCFS000 1
estadounidense estadounidense AQ0CS0 0.833333
en en SPS00 1
un uno DI0MS0 0.986987
comunicado comunicado NCMS000 0.345763
Las las NP00000 1
primeras 1 AO0FP0 0.9
conversaciones conversación NCFP000 1
entre entre SPS00 0.995223
el el DA0MS0 1
mandatario mandatario NCMS000 1
estadounidense estadounidense AQ0CS0 0.833333
Barack_Obama barack_obama NP00000 1
y y CC 0.999812
la el DA0FS0 0.972146
presidenta presidente NCFS000 1
surcoreana surcoreano AQ0FS0 0.514014
recientemente recientemente RG 1
electa electo AQ0FS0 1
pondr pondr VMN0000 0.633986
n n NCFS000 1
de de SPS00 0.999919
manifiesto manifiesto NCMS000 0.657546
la el DA0FS0 0.972146
permanente permanente AQ0CS0 0.928571
coordinaci coordinaci NCMS000 0.0996348
n n NCFS000 1
entre entre SPS00 0.995223
ambos ambos DI0MP0 0.361111
pa pa NCFS000 0.740689
ses ses AQ0CP0 0.068278
para para SPS00 0.998507
contrarrestar contrarrestar VMN0000 1
la el DA0FS0 0.972146
amenaza amenaza NCFS000 0.666667
de de SPS00 0.999919
Corea_de_el_Norte corea_de_el_norte NP00000 1
indic indic RG 0.5
el el DA0MS0 1
comunicado comunicado NCMS000 0.345763
200 200 Z 1
oficinas oficina NCFP000 1
en en SPS00 1
150 150 Z 1
pa pa NCFS000 0.740689
ses ses NCMP000 0.727093
Ampliar_Desea ampliar_desea NP00000 1
compartir compartir VMN0000 1
una uno DI0FS0 0.951241
informaci informaci AQ0CS0 0.0199855
n n NCFS000 1
un uno DI0MS0 0.986987
comentario comentario NCMS000 1
Escr escr NP00000 1
banos banos NCMP000 0.509288
a a SPS00 0.99585

