SAO_PAULO_AFP sao_paulo_afp NP00000 1
21H12 21H12 Z 1
GMT_Manifestantes gmt_manifestantes NP00000 1
derribaron derribar VMIS3P0 1
vallas valla NCFP000 0.973497
y y CC 0.999812
forcejean forcejear VMIP3P0 1
con con SPS00 1
policias policias NCFP000 1
a a SPS00 0.99585
las el DA0FP0 0.97051
puertas puerta NCFP000 1
de de SPS00 0.999919
la el DA0FS0 0.972146
Municipalidad_de_Sao_Paulo_Los municipalidad_de_sao_paulo_los NP00000 1
policias policias NCFP000 1
se se P00CN000 0.465602
replegaron replegar VMIS3P0 1
a_el_interior_de al_interior_de SPS00 1
el el DA0MS0 1
edificio edificio NCMS000 1
Algunos algunos NP00000 1
manifestantes manifestante NCCP000 1
lanzan lanzar VMIP3P0 1
piedras piedra NCFP000 1
Bienvenidos bienvenidos NP00000 1
a a SPS00 1
el el DA0MS0 1
Reporte reporte NP00000 1
en en SPS00 1
Vivo_de_AFP vivo_de_afp NP00000 1
sobre sobre SPS00 0.994203
la el DA0FS0 0.972146
mayores mayor AQ0CP0 0.8125
protestas protesta NCFP000 0.75
en en SPS00 1
Brasil brasil NP00000 1
en en SPS00 1
20 20 Z 1
a a SPS00 0.99585
os os PP2CP000 0.722222
En_Sao_Paulo en_sao_paulo NP00000 1
miles mil NCMP000 1
est est NCMS000 1
n n NCFS000 1
congregados congregar VMP00PM 1
en en SPS00 1
el el DA0MS0 1
centro centro NCMS000 0.966667
de de SPS00 0.999919
la el DA0FS0 0.972146
ciudad ciudad NCFS000 1
para para SPS00 0.998507
repudiar repudiar VMN0000 1
el el DA0MS0 1
gasto gasto NCMS000 0.75
p p NCFS000 0.5
blico blico AQ0MS0 0.400224
en en SPS00 1
megaeventos megaevento NCMP000 1
como como CS 0.998579
el el DA0MS0 1
Mundial mundial NP00000 1
de de SPS00 0.999919
f f NCFS000 1
tbol tbol NCMS000 1
acabar acabar VMN0000 1
con con SPS00 1
la el DA0FS0 0.972146
corrupci corrupci AQ0CS0 0.0199855
n n NCFS000 1
y y CC 0.999812
demandar demandar VMN0000 1
a a SPS00 1
el el DA0MS0 1
gobierno gobierno NCMS000 0.9
mejores mejor AQ0CP0 0.964286
servicios servicio NCMP000 1
p p NCFS000 0.5
blicos blicos AQ0MP0 1
200 200 Z 1
oficinas oficina NCFP000 1
en en SPS00 1
150 150 Z 1
pa pa NCFS000 0.740689
ses ses NCMP000 0.727093
Ampliar_Desea ampliar_desea NP00000 1
compartir compartir VMN0000 1
una uno DI0FS0 0.951241
informaci informaci AQ0CS0 0.0199855
n n NCFS000 1
un uno DI0MS0 0.986987
comentario comentario NCMS000 1
Escr escr NP00000 1
banos banos NCMP000 0.509288
a a SPS00 0.99585

