PEK_N_AFP_Rusia pek_n_afp_rusia NP00000 1
se se P00CN000 0.465602
declar declar VMN0000 1
este este DD0MS0 0.956743
jueves [J:??/??/??:??.??:??] W 1
indignada indignar VMP00SF 1
y y CC 0.999812
China china NP00000 1
calific calific NCMN000 0.5
de de SPS00 0.999919
arbitrario arbitrario AQ0MS0 1
un uno DI0MS0 0.986987
informe informe NCMS000 0.185057
estadounidense estadounidense AQ0CS0 0.833333
que que PR0CN000 0.5625
acusa acusar VMIP3S0 0.994868
a a SPS00 0.99585
estos este DD0MP0 0.990566
dos 2 Z 0.988722
pa pa NCFS000 0.740689
ses ses NCMP000 0.727093
de de SPS00 0.999919
no no RN 0.99778
hacer hacer VMN0000 1
lo el DA0NS0 0.457393
suficiente suficiente AQ0CS0 1
en en SPS00 1
la el DA0FS0 0.972146
lucha lucha NCFS000 0.880952
contra contra SPS00 0.976316
el el DA0MS0 1
tr tr NCMS000 0.224371
fico fico AQ0MS0 0.466938
de de SPS00 0.999919
personas persona NCFP000 0.983871
En en NP00000 1
este este DD0MS0 0.956743
documento documento NCMS000 0.973494
publicado publicar VMP00SM 1
el el DA0MS0 1
mi mi DP1CSS 0.995536
rcoles rcoles NCMP000 0.750052
por por SPS00 1
el el DA0MS0 1
departamento departamento NCMS000 1
de de SPS00 0.999919
Estado_Estados_Unidos estado_estados_unidos NP00000 1
a a SPS00 0.99585
ade adir VMIP3S0 0.994868
a a SPS00 0.99585
las el DA0FP0 0.97051
dos 2 Z 0.988722
potencias potencia NCFP000 0.833333
as as NCMS000 1
como como CS 0.998579
a a SPS00 0.99585
Uzbekist uzbekist NP00000 1
n n NCFS000 1
en en SPS00 1
la el DA0FS0 0.972146
lista lista NCFS000 0.125
de de SPS00 0.999919
pa pa NCFS000 0.740689
ses ses AQ0CP0 0.068278
que que PR0CN000 0.5625
no no RN 0.99778
hacen hacer VMIP3P0 1
lo el DA0NS0 0.457393
suficiente suficiente AQ0CS0 1
para para SPS00 0.998507
combatir combatir VMN0000 1
el el DA0MS0 1
tr tr NCMS000 0.224371
fico fico AQ0MS0 0.466938
de de SPS00 0.999919
personas persona NCFP000 0.983871
El el NP00000 1
informe informe AQ0CS0 0.726437
tambi tambi AQ0CN0 1
n n NCFS000 1
mantiene mantener VMIP3S0 1
en en SPS00 1
la el DA0FS0 0.972146
lista lista NCFS000 0.125
a a SPS00 0.99585
Cuba cuba NP00000 1
debido_a debido_a SPS00 1
el el DA0MS0 1
turismo turismo NCMS000 1
sexual sexual AQ0CS0 1
y y CC 0.999812
a a SPS00 1
el el DA0MS0 1
abuso abuso NCMS000 0.875
de de SPS00 0.999919
menores menor AQ0CP0 0.916667
pa pa NCFS000 0.740689
s segundo NCMN000 0.622321
que que CS 0.4375
rechaz rechaz NCFS000 0.178877
en en SPS00 1
rgicamente rgicamente RG 1
esta este DD0FS0 0.982143
calumnia calumnia NCFS000 0.846901
y y CC 0.999812
pidi pidi VMIS1S0 1
de de SPS00 0.999919
una_vez_que una_vez_que CS 1
se se P00CN000 0.465602
ponga poner VMSP1S0 0.484848
fin fin NCMS000 1
a a SPS00 0.99585
esta este DD0FS0 0.982143
bochornosa bochornoso AQ0FS0 1
designaci designaci NCMS000 0.0996348
n n NCFS000 1
inform inform NCMS000 0.700265
el el DA0MS0 1
ministerio ministerio NCMS000 1
de de SPS00 0.999919
Exteriores_Washington exteriores_washington NP00000 1
que que PR0CN000 0.5625
quiere querer VMIP3S0 0.982759
erradicar erradicar VMN0000 1
el el DA0MS0 1
mal mal NCMS000 0.492063
que que PR0CN000 0.5625
representa representar VMIP3S0 0.928571
la el DA0FS0 0.972146
esclavitud esclavitud NCFS000 1
moderna moderno AQ0FS0 0.916667
podr podr VMN0000 0.633986
a a SPS00 0.99585
apoyar apoyar VMN0000 1
se se PP3CN000 1
en en SPS00 1
este este DD0MS0 0.956743
informe informe NCMS000 0.185057
para para SPS00 0.998507
decidir decidir VMN0000 1
unilateralmente unilateralmente RG 1
sancionar sancionar VMN0000 1
a a SPS00 0.99585
Rusia rusia NP00000 1
y y CC 0.999812
China china NP00000 1
dos 2 Z 0.988722
pa pa NCFS000 0.740689
ses ses AQ0CP0 0.068278
en en SPS00 1
su su DP3CS0 1
campo campo NCMS000 0.979167
de de SPS00 0.999919
tiro tiro NCMS000 0.916667
en_materia_de en_materia_de SPS00 1
derechos derecho NCMP000 0.9
humanos humano AQ0MP0 0.681818
Por por NP00000 1
lo lo PP3CNA00 0.271163
que que PR0CN000 0.5625
respecta respectar VMIP3S0 0.833333
a a SPS00 0.99585
la el DA0FS0 0.972146
posibilidad posibilidad NCFS000 1
de de SPS00 0.999919
tomar tomar VMN0000 1
sanciones sanción NCFP000 0.995706
unilaterales unilateral AQ0CP0 1
contra contra SPS00 0.976316
Rusia rusia NP00000 1
el el DA0MS0 1
simple simple AQ0CS0 0.973684
hecho hecho NCMS000 0.381579
de de SPS00 0.999919
plantear plantear VMN0000 1
esta este DD0FS0 0.982143
cuesti cuesti NCMS000 1
n n NCFS000 1
provoca provocar VMIP3S0 0.875
la el DA0FS0 0.972146
indignaci indignaci RG 0.751648
n n NCFS000 1
declar declar VMN0000 1
el el DA0MS0 1
ministerio ministerio NCMS000 1
de de SPS00 0.999919
Exteriores exteriores NP00000 1
en en SPS00 1
un uno DI0MS0 0.986987
comunicado comunicado NCMS000 0.345763
El el NP00000 1
informe informe AQ0CS0 0.726437
denuncia denunciar VMIP3S0 0.583333
por_ejemplo por_ejemplo RG 1
casos caso NCMP000 1
de de SPS00 0.999919
falta falta NCFS000 0.693182
de de SPS00 0.999919
pagos pago NCMP000 1
de de SPS00 0.999919
salarios salario NCMP000 1
de de SPS00 0.999919
agresiones agresión NCFP000 1
f f NCFS000 1
sicas sicas AQ0FP0 1
de de SPS00 0.999919
condiciones condición NCFP000 0.958333
de de SPS00 0.999919
vida vida NCFS000 1
extremadamente extremadamente RG 1
malas malo AQ0FP0 0.833333
en en SPS00 1
Rusia_Desgraciadamente rusia_desgraciadamente NP00000 1
en_vez_de en_vez_de SPS00 1
llevar_a_cabo llevar_a_cabo VMN0000 1
un uno DI0MS0 0.986987
estudio estudio NCMS000 0.954545
profundo profundo AQ0MS0 0.666667
y y CC 0.999812
objetivo objetivo AQ0MS0 0.190476
sobre sobre SPS00 0.994203
el el DA0MS0 1
tr tr NCMS000 0.224371
fico fico AQ0MS0 0.466938
de de SPS00 0.999919
personas persona NCFP000 0.983871
incluido incluir VMP00SM 1
en en SPS00 1
el el DA0MS0 1
territorio territorio NCMS000 1
de de SPS00 0.999919
Estados_Unidos estados_unidos NP00000 1
los el DA0MP0 0.97623
autores autor NCMP000 1
de de SPS00 1
el el DA0MS0 1
informe informe NCMS000 0.185057
utilizan utilizar VMIP3P0 1
de de SPS00 0.999919
nuevo nuevo AQ0MS0 1
una uno DI0FS0 0.951241
metodolog metodolog NCMS000 0.714133
a a SPS00 0.99585
inaceptable inaceptable AQ0CS0 1
seg segundo NCMN000 1
n n NCFS000 1
la el DA0FS0 0.972146
cual cual PR0CS000 0.9
los el DA0MP0 0.97623
gobiernos gobierno NCMP000 1
est est NCMS000 1
n n NCFS000 1
clasificados clasificar VMP00PM 1
en en SPS00 1
funci funci RG 0.751648
n n NCFS000 1
de de SPS00 0.999919
la el DA0FS0 0.972146
simpat simpat NCMS000 1
a a SPS00 0.99585
pol pol NCMS000 0.861706
tica tica AQ0FS0 0.595788
o o CC 0.998845
de de SPS00 0.999919
la el DA0FS0 0.972146
antipat antipat NCMS000 1
a a SPS00 0.99585
de de SPS00 1
el el DA0MS0 1
departamento departamento NCMS000 1
de de SPS00 0.999919
Estado estado NP00000 1
estadounidense estadounidense AQ0CS0 0.833333
a a SPS00 0.99585
adi adar VMIS1S0 0.994868
Rusia rusia NP00000 1
en en SPS00 1
el el DA0MS0 1
comunicado comunicado NCMS000 0.345763
Rusia rusia NP00000 1
se se P00CN000 0.465602
declar declar VMN0000 1
este este DD0MS0 0.956743
jueves [J:??/??/??:??.??:??] W 1
indignada indignar VMP00SF 1
y y CC 0.999812
China china NP00000 1
calific calific NCMN000 0.5
de de SPS00 0.999919
arbitrario arbitrario AQ0MS0 1
un uno DI0MS0 0.986987
informe informe NCMS000 0.185057
estadounidense estadounidense AQ0CS0 0.833333
que que PR0CN000 0.5625
acusa acusar VMIP3S0 0.994868
a a SPS00 0.99585
estos este DD0MP0 0.990566
dos 2 Z 0.988722
pa pa NCFS000 0.740689
ses ses NCMP000 0.727093
de de SPS00 0.999919
no no RN 0.99778
hacer hacer VMN0000 1
lo el DA0NS0 0.457393
suficiente suficiente AQ0CS0 1
en en SPS00 1
la el DA0FS0 0.972146
lucha lucha NCFS000 0.880952
contra contra SPS00 0.976316
el el DA0MS0 1
tr tr NCMS000 0.224371
fico fico AQ0MS0 0.466938
de de SPS00 0.999919
personas persona NCFP000 0.983871
Este este NP00000 1
jueves [J:??/??/??:??.??:??] W 1
Pek pek NP00000 1
n n NCFS000 1
opt opt NCMS000 0.607342
por por SPS00 1
una_l VL_l:1 Zu 1
nea nea NCFS000 0.416762
de de SPS00 0.999919
defensa defensa NCCS000 1
similar similar AQ0CS0 1
a a SPS00 0.99585
la el DA0FS0 0.972146
rusa ruso AQ0FS0 0.875
y y CC 0.999812
pidi pidi VMIS1S0 1
a a SPS00 0.99585
Estados_Unidos estados_unidos NP00000 1
que que PR0CN000 0.5625
deje dejar VMSP1S0 0.3125
de de SPS00 0.999919
emitir emitir VMN0000 1
juicios juicio NCMP000 1
unilaterales unilateral AQ0CP0 1
y y CC 0.999812
arbitrarios arbitrario AQ0MP0 1
en en SPS00 1
su su DP3CS0 1
contra contra SPS00 0.976316
Creemos creemos NP00000 1
que que CS 0.4375
la el DA0FS0 0.972146
parte parte NCFS000 0.497967
estadounidense estadounidense AQ0CS0 0.833333
deber deber NCMS000 0.9
a a SPS00 0.99585
adoptar adoptar VMN0000 1
una uno DI0FS0 0.951241
visi visi NCMS000 1
n n NCFS000 1
objetiva objetivo AQ0FS0 0.841237
e y CC 0.973684
imparcial imparcial AQ0CS0 0.75
respecto_a respecto_a SPS00 1
los el DA0MP0 0.97623
esfuerzos esfuerzo NCMP000 1
de de SPS00 0.999919
China china NP00000 1
para para SPS00 0.998507
acabar acabar VMN0000 1
con con SPS00 1
la el DA0FS0 0.972146
trata trata NCFS000 0.0430108
y y CC 0.999812
dejar dejar VMN0000 1
de de SPS00 0.999919
emitir emitir VMN0000 1
juicios juicio NCMP000 1
unilaterales unilateral AQ0CP0 1
y y CC 0.999812
arbitrarios arbitrario AQ0MP0 1
sobre sobre SPS00 0.994203
China china NP00000 1
declar declar VMN0000 1
la el DA0FS0 0.972146
portavoz portavoz NCCS000 1
de de SPS00 0.999919
la el DA0FS0 0.972146
diplomacia diplomacia NCFS000 1
china chino AQ0FS0 0.75
Hua_Chunying_En hua_chunying_en NP00000 1
el el DA0MS0 1
caso caso NCMS000 0.990741
de de SPS00 0.999919
Pek pek NP00000 1
n n NCFS000 1
bestia bestia NCCS000 1
negra negro AQ0FS0 0.657895
de de SPS00 0.999919
Washington washington NP00000 1
en en SPS00 1
lo el DA0NS0 0.457393
referido referir VMP00SM 1
a a SPS00 0.99585
derechos derecho NCMP000 0.9
humanos humano AQ0MP0 0.681818
el el DA0MS0 1
informe informe NCMS000 0.185057
describe describir VMIP3S0 0.833333
que que CS 0.4375
el el DA0MS0 1
tr tr NCMS000 0.224371
fico fico AQ0MS0 0.466938
de de SPS00 0.999919
personas persona NCFP000 0.983871
es ser VSIP3S0 1
abundante abundante AQ0CS0 1
entre entre SPS00 0.995223
la el DA0FS0 0.972146
poblaci poblaci AQ0CS0 0.0199855
n n NCFS000 1
migrante migrante AQ0CS0 1
interna interno AQ0FS0 0.75
y y CC 0.999812
se se P00CN000 0.465602
ala ala NCFS000 0.961441
que que CS 0.4375
el el DA0MS0 1
trabajo trabajo NCMS000 0.940476
forzado forzar VMP00SM 1
sigue seguir VMIP3S0 0.982759
siendo ser VSG0000 1
un uno DI0MS0 0.986987
problema problema NCMS000 1
incluidos incluir VMP00PM 1
los el DA0MP0 0.97623
hornos horno NCMP000 1
de de SPS00 0.999919
ladrillos ladrillo NCMP000 1
las el DA0FP0 0.97051
minas mina NCFP000 0.75
de de SPS00 0.999919
carb carb NCMS000 0.63631
n n NCFS000 1
y y CC 0.999812
las el DA0FP0 0.97051
f f NCFS000 1
bricas bricas NCFP000 1
Hua hua NP00000 1
prefiri prefiri RG 0.83337
insistir insistir VMN0000 1
en en SPS00 1
los el DA0MP0 0.97623
s segundo NCMN000 0.622321
lidos lido NCMP000 1
esfuerzos esfuerzo NCMP000 1
realizados realizar VMP00PM 1
por por SPS00 1
China china NP00000 1
en en SPS00 1
la el DA0FS0 0.972146
lucha lucha NCFS000 0.880952
contra contra SPS00 0.976316
el el DA0MS0 1
tr tr NCMS000 0.224371
fico fico AQ0MS0 0.466938
de de SPS00 0.999919
personas persona NCFP000 0.983871
y y CC 0.999812
los el DA0MP0 0.97623
destacados destacar VMP00PM 1
progresos progreso NCMP000 1
que que CS 0.4375
habr habr VMN0000 0.633986
a a SPS00 0.99585
registrado registrar VMP00SM 1
el el DA0MS0 1
pa pa NCFS000 0.740689
s segundo NCMN000 0.622321
en en SPS00 1
ese ese DD0MS0 0.98125
mbito mbito NCMS000 1
Hemos hemos NP00000 1
mejorado mejorar VMP00SM 1
continuamente continuamente RG 1
nuestra nuestro DP1FSP 0.892857
legislaci legislaci AQ0CS0 0.0199855
n n NCFS000 1
interior interior AQ0CS0 0.5
reforzado reforzar VMP00SM 0.691767
el el DA0MS0 1
mantenimiento mantenimiento NCMS000 1
de de SPS00 0.999919
la el DA0FS0 0.972146
ley ley NCFS000 1
y y CC 0.999812
las el DA0FP0 0.97051
medidas medida NCFP000 0.944444
judiciales judicial AQ0CP0 1
y y CC 0.999812
cooperado cooperar VMP00SM 1
con con SPS00 1
todos todo DI0MP0 0.622419
los el DA0MP0 0.97623
pa pa NCFS000 0.740689
ses ses NCMP000 0.727093
en en SPS00 1
particular particular NCCS000 0.25
con con SPS00 1
los el DA0MP0 0.97623
vecinos vecino NCMP000 0.928571
de de SPS00 0.999919
China china NP00000 1
afirm afirm NCMS000 0.700265
la el DA0FS0 0.972146
responsable responsable NCCS000 0.416667
El el NP00000 1
departamento departamento NCMS000 1
de de SPS00 0.999919
Estado estado NP00000 1
estadounidense estadounidense AQ0CS0 0.833333
tambi tambi AQ0CN0 1
n n NCFS000 1
denuncia denunciar VMIP3S0 0.583333
la el DA0FS0 0.972146
pol pol NCMS000 0.861706
tica tica AQ0FS0 0.595788
de de SPS00 1
el el DA0MS0 1
hijo hijo NCMS000 1
nico nico AQ0MS0 0.470565
que que PR0CN000 0.5625
condujo conducir VMIS3S0 1
a a SPS00 0.99585
una uno DI0FS0 0.951241
proporci proporci AQ0CS0 0.0199855
n n NCFS000 1
de de SPS00 0.999919
118 118 Z 1
ni ni CC 0.995935
os os PP2CP000 0.722222
por por SPS00 1
cada cada DI0CS0 1
100 100 Z 1
ni ni CC 0.995935
as as NCMS000 1
en en SPS00 1
China china NP00000 1
lo el DA0NS0 0.457393
que que PR0CN000 0.5625
alimenta alimentar VMIP3S0 0.994868
la el DA0FS0 0.972146
demanda demanda NCFS000 0.833333
de de SPS00 1
el el DA0MS0 1
tr tr NCMS000 0.224371
fico fico AQ0MS0 0.466938
de de SPS00 0.999919
mujeres mujer NCFP000 1
extranjeras extranjero AQ0FP0 0.5
para para SPS00 0.998507
casar casar VMN0000 1
se se PP3CN000 1
con con SPS00 1
hombres hombre NCMP000 1
chinos chino AQ0MP0 0.0555556
y y CC 0.999812
de de SPS00 0.999919
la el DA0FS0 0.972146
prostituci prostituci AQ0CS0 0.0199855
n n NCFS000 1
Estados_Unidos estados_unidos NP00000 1
estima estimar VMIP3S0 0.150743
que que CS 0.4375
todav todav VMN0000 0.0464435
a a SPS00 0.99585
hay haber VMIP3S0 1
27_millones 27000000 Zd 1
de de SPS00 0.999919
personas persona NCFP000 0.983871
sometidas someter VMP00PF 1
a a SPS00 0.99585
esclavitud esclavitud NCFS000 1
en en SPS00 1
el el DA0MS0 1
mundo mundo NCMS000 1
Tenemos tenemos NP00000 1
una uno DI0FS0 0.951241
obligaci obligaci AQ0CS0 0.0199855
n n NCFS000 1
moral moral AQ0CS0 0.625
de de SPS00 0.999919
hacer_frente hacer_frente VMN0000 1
a a SPS00 0.99585
este este DD0MS0 0.956743
desaf desaf I 1
o o CC 0.998845
La la NP00000 1
trata tratar VMIP3S0 0.946237
de de SPS00 0.999919
personas persona NCFP000 0.983871
es ser VSIP3S0 1
un uno DI0MS0 0.986987
atentado atentado NCMS000 0.875
a a SPS00 0.99585
nuestros nuestro DP1MPP 0.854167
valores valor NCMP000 0.96875
de de SPS00 0.999919
libertad libertad NCFS000 0.978261
y y CC 0.999812
de de SPS00 0.999919
dignidad dignidad NCFS000 1
humana humano AQ0FS0 0.931818
declar declar VMN0000 1
el el DA0MS0 1
secretario secretario NCMS000 1
de de SPS00 0.999919
Estado_John_Kerry_Unidos estado_john_kerry_unidos NP00000 1
por por SPS00 1
intereses interés NCMP000 0.916667
estrat estrat NCMS000 1
gicos gicos AQ0MP0 1
ante ante SPS00 0.990566
los el DA0MP0 0.97623
pa pa NCFS000 0.740689
ses ses NCMP000 0.727093
occidentales occidental AQ0CP0 0.75
recientemente recientemente RG 1
China china NP00000 1
y y CC 0.999812
Rusia rusia NP00000 1
presentaron presentar VMIS3P0 1
otros otro DI0MP0 0.56875
frentes frente NCMP000 0.65
comunes común AQ0CP0 1
contra contra SPS00 0.976316
Washington washington NP00000 1
como como CS 0.998579
su su DP3CS0 1
apoyo apoyo NCMS000 0.928571
a a SPS00 1
el el DA0MS0 1
r r NCFS000 0.638487
gimen gemir VMIP3P0 1
de de SPS00 1
el el DA0MS0 1
presidente presidente NCMS000 1
sirio sirio AQ0MS0 0.357349
Bashar bashar NP00000 1
a a SPS00 1
el el DA0MS0 1
Asad asad NP00000 1
200 200 Z 1
oficinas oficina NCFP000 1
en en SPS00 1
150 150 Z 1
pa pa NCFS000 0.740689
ses ses NCMP000 0.727093
Ampliar_Desea ampliar_desea NP00000 1
compartir compartir VMN0000 1
una uno DI0FS0 0.951241
informaci informaci AQ0CS0 0.0199855
n n NCFS000 1
un uno DI0MS0 0.986987
comentario comentario NCMS000 1
Escr escr NP00000 1
banos banos NCMP000 0.509288
a a SPS00 0.99585

