WATERTOWN_Estados_Unidos_AFP watertown_estados_unidos_afp NP00000 1
Un uno DI0MS0 0.986987
sospechoso sospechoso NCMS000 0.388768
de de SPS00 1
el el DA0MS0 1
doble doble AQ0CS0 0.927273
atentado atentado NCMS000 0.875
de de SPS00 0.999919
Boston boston NP00000 1
perseguido perseguir VMP00SM 1
desde desde SPS00 1
el el DA0MS0 1
jueves_por_la_noche [J:??/??/??:??.??:pm] W 1
por por SPS00 1
miles mil NCMP000 1
de de SPS00 0.999919
polic polic NCFS000 1
as as NCMS000 1
no no RN 0.99778
fue ser VSIS3S0 0.932292
arrestado arrestar VMP00SM 1
a a SPS00 0.99585
n n NCFS000 1
y y CC 0.999812
sigue seguir VMIP3S0 0.982759
en en SPS00 1
el el DA0MS0 1
estado estado NCMS000 0.662162
de de SPS00 0.999919
Massachusetts massachusetts NP00000 1
anunciaron anunciar VMIS3P0 1
las el DA0FP0 0.97051
autoridades autoridad NCFP000 1
estadounidenses estadounidense AQ0CP0 0.875
en en SPS00 1
una uno DI0FS0 0.951241
conferencia conferencia NCFS000 0.666667
de de SPS00 0.999919
prensa prensa NCFS000 0.925926
este este DD0MS0 0.956743
viernes [V:??/??/??:??.??:??] W 1
Las las NP00000 1
autoridades autoridad NCFP000 1
instaron instar VMIS3P0 1
a a SPS00 0.99585
la el DA0FS0 0.972146
poblaci poblaci AQ0CS0 0.0199855
n n NCFS000 1
a a SPS00 0.99585
permanecer permanecer VMN0000 1
atenta atento AQ0FS0 0.666667
hasta hasta SPS00 0.955172
que que CS 0.4375
el el DA0MS0 1
joven joven NCCS000 0.462963
que que PR0CN000 0.5625
seg segundo NCMN000 1
n n NCFS000 1
ellas ellos PP3FP000 1
a a SPS00 0.99585
n n NCFS000 1
permanece permanecer VMIP3S0 0.875
en en SPS00 1
el el DA0MS0 1
estado estado NCMS000 0.662162
de de SPS00 0.999919
Massachusetts massachusetts NP00000 1
noreste noreste NCMS000 0.833333
sea ser VSSP1S0 0.485714
arrestado arrestar VMP00SM 1
Adem adem NP00000 1
s segundo NCMN000 0.622321
anunciaron anunciar VMIS3P0 1
el el DA0MS0 1
fin fin NCMS000 1
de de SPS00 0.999919
la el DA0FS0 0.972146
prohibici prohibici AQ0CS0 0.0199855
n n NCFS000 1
de de SPS00 0.999919
salir salir VMN0000 1
de de SPS00 0.999919
sus su DP3CP0 0.998462
casas casa NCFP000 0.958333
en en SPS00 1
vigencia vigencia NCFS000 1
desde desde SPS00 1
esta este DD0FS0 0.982143
ma ma AQ0FS0 0.14579
ana ana NCFS000 1
en en SPS00 1
Boston boston NP00000 1
y y CC 0.999812
en en SPS00 1
algunos alguno DI0MP0 0.476562
suburbios suburbio NCMP000 1
vecinos vecino AQ0MP0 0.0714286
200 200 Z 1
oficinas oficina NCFP000 1
en en SPS00 1
150 150 Z 1
pa pa NCFS000 0.740689
ses ses NCMP000 0.727093
Ampliar_Desea ampliar_desea NP00000 1
compartir compartir VMN0000 1
una uno DI0FS0 0.951241
informaci informaci AQ0CS0 0.0199855
n n NCFS000 1
un uno DI0MS0 0.986987
comentario comentario NCMS000 1
Escr escr NP00000 1
banos banos NCMP000 0.509288
a a SPS00 0.99585

