PAR_S_AFP par_s_afp NP00000 1
Tres 3 Z 1
constructores constructor NCMP000 0.507298
aeron aeron VMIS3P0 1
uticos uticos NCMP000 0.499862
Dassault_Aviation_EADS dassault_aviation_eads NP00000 1
y y CC 0.999812
Finmeccanica finmeccanica NP00000 1
pidieron pedir VMIS3P0 1
este este DD0MS0 0.956743
domingo [G:??/??/??:??.??:??] W 1
a a SPS00 0.99585
los el DA0MP0 0.97623
Gobiernos gobiernos NP00000 1
europeos europeo AQ0MP0 0.5
que que PR0CN000 0.5625
pongan poner VMSP3P0 0.901254
en en SPS00 1
marcha marcha NCFS000 0.948718
un uno DI0MS0 0.986987
programa programa NCMS000 0.866667
de de SPS00 0.999919
' ' Fe 1
drones drones NCMP000 1
' ' Fe 1
aviones avión NCMP000 1
no no RN 0.99778
tripulados tripular VMP00PM 1
de de SPS00 0.999919
vigilancia vigilancia NCFS000 1
para para SPS00 0.998507
competir competir VMN0000 1
con con SPS00 1
los el DA0MP0 0.97623
fabricantes fabricante AQ0CP0 0.65721
israel israel NCMS000 0.567351
es ser VSIP3S0 1
y y CC 0.999812
estadounidenses estadounidense AQ0CP0 0.875
El el NP00000 1
franc franc NC00000 0.538029
s segundo NCMN000 0.622321
Dassault dassault NP00000 1
el el DA0MS0 1
grupo grupo NCMS000 1
europeo europeo AQ0MS0 0.9
EADS eads NP00000 1
y y CC 0.999812
el el DA0MS0 1
italiano italiano NCMS000 0.833333
Finmeccanica finmeccanica NP00000 1
indicaron indicar VMIS3P0 1
en en SPS00 1
un uno DI0MS0 0.986987
comunicado comunicar VMP00SM 0.654237
com cometro NCMN000 0.65
n n NCFS000 1
estar estar VAN0000 1
dispuestos disponer VMP00PM 1
a a SPS00 0.99585
trabajar trabajar VMN0000 1
en en SPS00 1
la el DA0FS0 0.972146
creaci creaci AQ0CS0 0.0199855
n n NCFS000 1
un uno DI0MS0 0.986987
' ' Fe 1
dron dron NCMS000 0.0141937
' ' Fe 1
de de SPS00 0.999919
tipo tipo NCMS000 1
MALE male NP00000 1
' ' Fe 1
Media medio AQ0FS0 0.716667
altitud altitud NCFS000 1
larga largo AQ0FS0 0.75
resistencia resistencia NCFS000 1
' ' Fe 1
que que PR0CN000 0.5625
permite permitir VMIP3S0 0.966667
vigilar vigilar VMN0000 1
durante durante SPS00 1
24_horas TM_h:24 Zu 1
amplias amplio AQ0FP0 1
zonas zona NCFP000 1
de de SPS00 0.999919
terreno terreno NCMS000 0.95
Los los NP00000 1
aviones avión NCMP000 1
no no RN 0.99778
tripulados tripular VMP00PM 1
que que PR0CN000 0.5625
hasta hasta SPS00 0.955172
ahora ahora RG 1
fabrican fabricar VMIP3P0 1
Israel israel NP00000 1
y y CC 0.999812
Estados_Unidos estados_unidos NP00000 1
se se P00CN000 0.465602
han haber VAIP3P0 1
convertido convertir VMP00SM 1
en en SPS00 1
un uno DI0MS0 0.986987
elemento elemento NCMS000 0.9
indispensable indispensable AQ0CS0 1
de de SPS00 0.999919
la el DA0FS0 0.972146
guerra guerra NCFS000 1
moderna moderno AQ0FS0 0.916667
en en SPS00 1
pa pa NCFS000 0.740689
ses ses AQ0CP0 0.068278
como como CS 0.998579
Afganist afganist NP00000 1
n n NCFS000 1
o o CC 0.998845
Mal mal NP00000 1
200 200 Z 1
oficinas oficina NCFP000 1
en en SPS00 1
150 150 Z 1
pa pa NCFS000 0.740689
ses ses NCMP000 0.727093
Ampliar_Desea ampliar_desea NP00000 1
compartir compartir VMN0000 1
una uno DI0FS0 0.951241
informaci informaci AQ0CS0 0.0199855
n n NCFS000 1
un uno DI0MS0 0.986987
comentario comentario NCMS000 1
Escr escr NP00000 1
banos banos NCMP000 0.509288
a a SPS00 0.99585

