BAGDAD_AFP bagdad_afp NP00000 1
Cuatro 4 Z 1
personas persona NCFP000 0.983871
murieron morir VMIS3P0 1
y y CC 0.999812
otras otro DI0FP0 0.731481
18 18 Z 1
resultaron resultar VMIS3P0 1
heridas herida NCFP000 0.416667
este este DD0MS0 0.956743
mi mi DP1CSS 0.995536
rcoles rcoles NCMP000 0.750052
en en SPS00 1
atentados atentado NCMP000 0.75
ocurridos ocurrir VMP00PM 1
en en SPS00 1
Irak irak NP00000 1
a a SPS00 0.99585
tres_d TM_d:3 Zu 1
as as NCMS000 1
de de SPS00 0.999919
las el DA0FP0 0.97051
elecciones elección NCFP000 1
provinciales provincial AQ0CP0 1
informaron informar VMIS3P0 1
fuentes fuente NCFP000 1
m m NCFS000 0.5
dicas dica NCFP000 1
y y CC 0.999812
de de SPS00 0.999919
seguridad seguridad NCFS000 1
Un uno DI0MS0 0.986987
coche coche NCMS000 0.964286
bomba bomba NCFS000 0.964286
estall estall AQ0CS0 0.587402
cerca cerca RG 0.925
de de SPS00 0.999919
un uno DI0MS0 0.986987
puesto puesto NCMS000 0.452381
de de SPS00 0.999919
control control NCMS000 1
militar militar AQ0CS0 0.666667
en en SPS00 1
Abu_Ghraib abu_ghraib NP00000 1
20 20 Z 1
kil kil AQ0CS0 0.768581
metros metro NCMP000 1
a a SPS00 1
el el DA0MS0 1
oeste oeste NCMS000 1
de de SPS00 0.999919
Bagdad bagdad NP00000 1
matando matar VMG0000 1
a a SPS00 0.99585
dos 2 Z 0.988722
personas persona NCFP000 0.983871
y y CC 0.999812
dejando dejar VMG0000 1
a a SPS00 0.99585
otras otro DI0FP0 0.731481
seis 6 Z 1
heridas herida NCFP000 0.416667
Otros otros NP00000 1
dos 2 Z 0.988722
atentados atentado NCMP000 0.75
tuvieron_lugar tener_lugar VMIS3P0 1
en en SPS00 1
la el DA0FS0 0.972146
capital capital NCFS000 0.372549
dejando dejar VMG0000 1
un uno DI0MS0 0.986987
saldo saldo NCMS000 0.875
de de SPS00 0.999919
un uno DI0MS0 0.986987
muerto muerto NCMS000 0.323529
y y CC 0.999812
ocho 8 Z 1
heridos herido NCMP000 0.5
mientras mientras CS 0.881579
un uno DI0MS0 0.986987
profesor profesor NCMS000 1
perdi perdar VMIS1S0 0.994868
la el DA0FS0 0.972146
vida vida NCFS000 1
cuando cuando CS 0.983796
una uno DI0FS0 0.951241
bomba bomba NCFS000 0.964286
magn magn RG 0.116399
tica tica AQ0FS0 0.595788
colocada colocar VMP00SF 1
en en SPS00 1
su su DP3CS0 1
veh veh I 1
culo culo NCMS000 1
estall estall AQ0CS0 0.587402
cerca cerca RG 0.925
de de SPS00 0.999919
Ramadi ramadi NP00000 1
a a SPS00 1
el el DA0MS0 1
oeste oeste NCMS000 1
de de SPS00 0.999919
Bagdad_A bagdad_a NP00000 1
el el DA0MS0 1
sur sur NCMS000 1
de de SPS00 0.999919
la el DA0FS0 0.972146
capital capital NCFS000 0.372549
una uno DI0FS0 0.951241
bomba bomba NCFS000 0.964286
estall estall AQ0CS0 0.587402
durante durante SPS00 1
el el DA0MS0 1
paso paso NCMS000 0.89
de de SPS00 0.999919
un uno DI0MS0 0.986987
convoy convoy NCMS000 1
de de SPS00 0.999919
un uno DI0MS0 0.986987
diputado diputado NCMS000 0.833333
de de SPS00 1
el el DA0MS0 1
bloque bloque NCMS000 0.625
Iraqiya iraqiya NP00000 1
laico laico AQ0MS0 0.603779
pero pero CC 0.998821
dominado dominar VMP00SM 0.691767
por por SPS00 1
los el DA0MP0 0.97623
sun sun RG 1
es ser VSIP3S0 1
dejando dejar VMG0000 1
cuatro 4 Z 1
heridos herido NCMP000 0.5
Estos estos NP00000 1
nuevos nuevo AQ0MP0 1
actos acto NCMP000 1
de de SPS00 0.999919
violencia violencia NCFS000 1
ocurren ocurrir VMIP3P0 1
a a SPS00 0.99585
tres_d TM_d:3 Zu 1
as as NCMS000 1
de de SPS00 0.999919
las el DA0FP0 0.97051
elecciones elección NCFP000 1
provinciales provincial AQ0CP0 1
de de SPS00 1
el el DA0MS0 1
20_de_abril [??:20/4/??:??.??:??] W 1
las el DA0FP0 0.97051
primeras 1 AO0FP0 0.9
desde desde SPS00 1
la el DA0FS0 0.972146
salida salida NCFS000 0.8125
de de SPS00 0.999919
las el DA0FP0 0.97051
tropas tropa NCFP000 1
de de SPS00 0.999919
EEUU eeuu NP00000 1
en en SPS00 1
diciembre_de_2011 [??:??/12/2011:??.??:??] W 1
Habr habr NP00000 1
comicios comicio NCMP000 1
en en SPS00 1
12 12 Z 1
de de SPS00 0.999919
las el DA0FP0 0.97051
18 18 Z 1
provincias provincia NCFP000 1
iraqu iraqu NCMS000 0.774439
es ser VSIP3S0 1
La la NP00000 1
campa campar VMIP3S0 0.994867
a a SPS00 0.99585
electoral electoral AQ0CS0 1
se se P00CN000 0.465602
llev llev VMIP3S0 0.0552772
a a SPS00 0.99585
cabo cabo NCMS000 1
en en SPS00 1
un uno DI0MS0 0.986987
contexto contexto NCMS000 1
muy muy RG 1
tenso tenso AQ0MS0 0.974314
Seg seg NP00000 1
n n NCFS000 1
un uno DI0MS0 0.986987
c c NCFS000 1
lculo lculo NCMS000 1
de de SPS00 0.999919
AFP afp NP00000 1
14 14 Z 1
personas persona NCFP000 0.983871
han haber VAIP3P0 1
muerto morir VMP00SM 0.676471
desde desde SPS00 1
el el DA0MS0 1
inicio inicio NCMS000 0.75
de de SPS00 1
el el DA0MS0 1
a a NCFS000 0.00415028
o o CC 0.998845
200 200 Z 1
oficinas oficina NCFP000 1
en en SPS00 1
150 150 Z 1
pa pa NCFS000 0.740689
ses ses NCMP000 0.727093
Ampliar_Desea ampliar_desea NP00000 1
compartir compartir VMN0000 1
una uno DI0FS0 0.951241
informaci informaci AQ0CS0 0.0199855
n n NCFS000 1
un uno DI0MS0 0.986987
comentario comentario NCMS000 1
Escr escr NP00000 1
banos banos NCMP000 0.509288
a a SPS00 0.99585

