Est est NP00000 1
s segundo NCMN000 0.622321
usando usar VMG0000 1
un uno DI0MS0 0.986987
Navegador navegador NP00000 1
desactualizado desactualizar VMP00SM 1
Por_favor por_favor NP00000 1
actual actual AQ0CS0 1
zalo zalo NCMS000 0.888886
a a SPS00 0.99585
una uno DI0FS0 0.951241
versi versi RG 1
n n NCFS000 1
m m NCFS000 0.5
s segundo NCMN000 0.622321
moderna moderno AQ0FS0 0.916667
y y CC 0.999812
podr podr AQ0CS0 0.0829965
s segundo NCMN000 0.622321
ver ver VMN0000 0.987179
este este DD0MS0 0.956743
y y CC 0.999812
otros otro DI0MP0 0.56875
sitios sitio NCMP000 1
como como CS 0.998579
realmente realmente RG 1
fueron ser VSIS3P0 0.796296
pensados pensar VMP00PM 1
X x NP00000 1
5 5 Z 1
Comentarios_El comentarios_el NP00000 1
d d NCFS000 1
a a SPS00 0.99585
que que CS 0.4375
se se P00CN000 0.465602
llenen llenar VMSP3P0 0.901254
de de SPS00 0.999919
homosexuales homosexual NCCP000 0.5
las el DA0FP0 0.97051
FF_AA ff_aa NP00000 1
nos nos PP1CP000 0.933333
van ir VMIP3P0 1
a a SPS00 0.99585
invadir invadir VMN0000 1
de de SPS00 0.999919
cualquier cualquiera DI0CS0 1
pa pa NCFS000 0.740689
s segundo NCMN000 0.622321
Esa esa NP00000 1
frase frase NCFS000 1
dicha decir VMP00SF 0.357143
el el DA0MS0 1
a a NCFS000 0.00415028
o o CC 0.998845
2012 2012 Z 1
por por SPS00 1
el el DA0MS0 1
diputado diputado NCMS000 0.833333
Ignacio_Urrutia ignacio_urrutia NP00000 1
ser ser VSN0000 0.93883
sancionada sancionar VMP00SF 1
por por SPS00 1
la el DA0FS0 0.972146
comisi comisi RG 1
n n NCFS000 1
de de SPS00 0.999919
tica tica NCFS000 0.372209
de de SPS00 0.999919
la el DA0FS0 0.972146
C c NP00000 1
mara mara VMSI3S0 0.142887
de de SPS00 0.999919
Diputados_El diputados_el NP00000 1
numerito número NCMS00D 1
no no RN 0.99778
es ser VSIP3S0 1
el el DA0MS0 1
primero 1 AO0MS0 0.613333
de de SPS00 1
el el DA0MS0 1
pol pol NCMS000 0.861706
mico mico NCMS000 1
gremialista gremialista AQ0CS0 0.597244
El el NP00000 1
d d NCFS000 1
a a SPS00 0.99585
que que CS 0.4375
se se P00CN000 0.465602
llenen llenar VMSP3P0 0.901254
de de SPS00 0.999919
homosexuales homosexual NCCP000 0.5
las el DA0FP0 0.97051
FF_AA ff_aa NP00000 1
nos nos PP1CP000 0.933333
van ir VMIP3P0 1
a a SPS00 0.99585
invadir invadir VMN0000 1
de de SPS00 0.999919
cualquier cualquiera DI0CS0 1
pa pa NCFS000 0.740689
s segundo NCMN000 0.622321
Esa esa NP00000 1
frase frase NCFS000 1
dicha decir VMP00SF 0.357143
el el DA0MS0 1
a a NCFS000 0.00415028
o o CC 0.998845
2012 2012 Z 1
por por SPS00 1
el el DA0MS0 1
diputado diputado NCMS000 0.833333
Ignacio_Urrutia ignacio_urrutia NP00000 1
ser ser VSN0000 0.93883
sancionada sancionar VMP00SF 1
la el DA0FS0 0.972146
pr pr NCMS000 0.224371
xima xima AQ0FS0 0.800006
semana semana NCFS000 1
por por SPS00 1
la el DA0FS0 0.972146
comisi comisi RG 1
n n NCFS000 1
de de SPS00 0.999919
tica tica NCFS000 0.372209
de de SPS00 0.999919
la el DA0FS0 0.972146
C c NP00000 1
mara mara VMSI3S0 0.142887
de de SPS00 0.999919
Diputados diputados NP00000 1
seg segundo NCMN000 1
n n NCFS000 1
informa informar VMIP3S0 0.833333
La_Tercera_Urrutia la_tercera_urrutia NP00000 1
tiene tener VMIP3S0 1
fuero fuero NCMS000 1
parlamentario parlamentario AQ0MS0 0.75
para para SPS00 0.998507
hablar hablar VMN0000 1
dentro_de dentro_de SPS00 1
la el DA0FS0 0.972146
sala sala NCFS000 0.666667
de de SPS00 1
el el DA0MS0 1
Congreso congreso NP00000 1
pero pero CC 0.998821
este este DD0MS0 0.956743
hecho hecho NCMS000 0.381579
habr habr AQ0CS0 0.0829965
a a SPS00 0.99585
ocurrido ocurrir VMP00SM 1
en en SPS00 1
los el DA0MP0 0.97623
pasillos pasillo NCMP000 1
lo el DA0NS0 0.457393
que que PR0CN000 0.5625
permiti permiti NCMS000 1
que que CS 0.4375
el el DA0MS0 1
caso caso NCMS000 0.990741
entrara entrar VMSI3S0 0.649999
a a SPS00 0.99585
la el DA0FS0 0.972146
comisi comisi RG 1
n n NCFS000 1
de de SPS00 0.999919
tica tica NCFS000 0.372209
De de NP00000 1
todas todo DI0FP0 0.945312
formas forma NCFP000 0.921053
la el DA0FS0 0.972146
sanci sanci AQ0CS0 0.0199855
n n NCFS000 1
no no RN 0.99778
es ser VSIP3S0 1
mucha mucho DI0FS0 0.97619
un uno DI0MS0 0.986987
recorte recorte NCMS000 0.75
de de SPS00 0.999919
entre entre SPS00 0.995223
el el DA0MS0 1
2 2 Z 1
y y CC 0.999812
el el DA0MS0 1
6 6 Z 1
de de SPS00 0.999919
la el DA0FS0 0.972146
dieta dieta NCFS000 1
parlamentaria parlamentario AQ0FS0 0.75
o_sea o_sea CC 1
entre entre SPS00 0.995223
160 160 Z 1
y y CC 0.999812
400 400 Z 1
lucas l NCFP00D 0.602094
Pero pero NP00000 1
estos este DD0MP0 0.990566
no no RN 0.99778
han haber VAIP3P0 1
sido ser VSP00SM 1
los el DA0MP0 0.97623
nicos nicos AQ0MP0 0.469818
cap capítulo NCMS000 1
tulos tulos NCMP000 1
donde donde PR000000 0.963542
la el DA0FS0 0.972146
lengua lengua NCFS000 1
de de SPS00 0.999919
Urrutia urrutia NP00000 1
se se P00CN000 0.465602
mueve mover VMIP3S0 0.833333
m m NCFS000 0.5
s segundo NCMN000 0.622321
de de SPS00 0.999919
la el DA0FS0 0.972146
cuenta cuenta NCFS000 0.765152
El el NP00000 1
cobarde cobarde AQ0CS0 0.5
que que PR0CN000 0.5625
se se P00CN000 0.465602
suicid suicid NCFS000 0.961423
sobre sobre SPS00 0.994203
Allende allende NP00000 1
video video NCMS000 1
de de SPS00 0.999919
Chilevisi chilevisi NP00000 1
n n NCFS000 1
Chadwick chadwick NP00000 1
vale valer VMIP3S0 0.904762
callampa callampa NCFS000 1
Audio_de_Radio_Red_G audio_de_radio_red_g NP00000 1
minis minisegundo NCMN000 0.649998
Se se NP00000 1
nota notar VMIP3S0 0.5625
que que CS 0.4375
este este DD0MS0 0.956743
idiota idiota NCCS000 0.64273
no no RN 0.99778
tiene tener VMIP3S0 1
idea idea NCFS000 0.974138
de de SPS00 0.999919
historia historia NCFS000 1
en en SPS00 1
la el DA0FS0 0.972146
Antigua_Grecia antigua_grecia NP00000 1
las el DA0FP0 0.97051
primeras 1 AO0FP0 0.9
l l NCFS000 0.639398
neas neas AQ0FP0 0.199984
de de SPS00 0.999919
combate combate NCMS000 0.75
de de SPS00 0.999919
los el DA0MP0 0.97623
hoplitas hoplita NCMP000 1
eran ser VSII3P0 0.963415
formadas formar VMP00PF 1
por por SPS00 1
parejas pareja NCFP000 0.875
de de SPS00 0.999919
homosexuales homosexual NCCP000 0.5
porque porque CS 1
peleaban pelear VMII3P0 1
fieramente fieramente RG 1
para para SPS00 0.998507
no no RN 0.99778
perder perder VMN0000 1
a a SPS00 0.99585
su su DP3CS0 1
pareja pareja NCFS000 0.928571
Inicie inicie NP00000 1
sesi sesi RG 1
n n NCFS000 1
para para SPS00 0.998507
responder responder VMN0000 1
javieraMar javieramar VMN0000 1
07 7 Z 1
You you NP00000 1
are arar VMSP3S0 0.623437
a a SPS00 0.99585
donkey donkey NCMS000 1
m m NCFS000 0.5
ster ster NCMS000 1
Urrutia_Inicie urrutia_inicie NP00000 1
sesi sesi RG 1
n n NCFS000 1
para para SPS00 0.998507
responder responder VMN0000 1
ALIANZACACAMar alianzacacamar NP00000 1
07 7 Z 1
Este este NP00000 1
huaso huaso NCMS000 0.765611
bruto bruto AQ0MS0 0.75
no no RN 0.99778
deber deber VMN0000 0.1
a a SPS00 0.99585
estar estar VAN0000 1
en en SPS00 1
el el DA0MS0 1
Congreso_Quiz congreso_quiz NP00000 1
un uno DI0MS0 0.986987
chiquero chiquero NCMS000 1
ser ser VSN0000 0.93883
a a SPS00 0.99585
demasiado demasiado RG 0.93
para para SPS00 0.998507
esta este DD0FS0 0.982143
peste peste NCFS000 1
UDI udi NP00000 1
que que PR0CN000 0.5625
desprestigia desprestigiar VMIP3S0 0.994868
a a SPS00 1
el el DA0MS0 1
congreso congreso NCMS000 1
y y CC 0.999812
su su DP3CS0 1
escencia escencia NCFS000 1
como como CS 0.998579
servidor servidor NCMS000 1
p p NCFS000 0.5
blico blico AQ0MS0 0.400224
y y CC 0.999812
no no RN 0.99778
un uno DI0MS0 0.986987
mat mat NCMS000 1
n n NCFS000 1
de de SPS00 0.999919
fundo fundar VMIP1S0 0.444444
Este este NP00000 1
aweonado aweonado VMP00SM 0.846142
cree creer VMIP3S0 0.911111
que que CS 0.4375
todav todav VMN0000 0.0464435
a a SPS00 0.99585
estamos estar VAIP1P0 1
en en SPS00 1
el el DA0MS0 1
siglo_IXX [s:ixx] W 1
Que que NP00000 1
nadie nadie PI0CS000 1
vote votar VMSP3S0 0.623437
por por SPS00 1
es ser VSIP3S0 1
desgraciado desgraciar VMP00SM 0.5
y y CC 0.999812
sepa saber VMSP3S0 0.623423
aprender aprender VMN0000 1
a a SPS00 0.99585
respetar respetar VMN0000 1
a a SPS00 0.99585
todos todo DI0MP0 0.622419
los el DA0MP0 0.97623
ciudadanos ciudadano NCMP000 0.875
Inicie inicie NP00000 1
sesi sesi RG 1
n n NCFS000 1
para para SPS00 0.998507
responder responder VMN0000 1
LebowskiMar lebowskimar NP00000 1
07 7 Z 1
Adem adem NP00000 1
s segundo NCMN000 0.622321
la el DA0FS0 0.972146
homofobia homofobia NCFS000 1
debiera deber VMSI3S0 0.5
ser ser VSN0000 0.93883
causal causal AQ0CS0 0.75
de de SPS00 0.999919
expulsi expulsi RG 1
n n NCFS000 1
inmediata inmediato AQ0FS0 1
de de SPS00 1
el el DA0MS0 1
partido partido NCMS000 0.886364
fundado fundar VMP00SM 1
por por SPS00 1
Jaime_Guzm jaime_guzm NP00000 1
n n NCFS000 1
icono icono NCMS000 1
m m NCFS000 0.5
s segundo NCMN000 0.622321
que que PR0CN000 0.5625
consagrado consagrar VMP00SM 1
de de SPS00 0.999919
la el DA0FS0 0.972146
causa causa NCFS000 0.794872
gey gey NCFS000 0.679997
a a SPS00 0.99585
estas este DD0FP0 0.960526
alturas altura NCFP000 1
A_pesar_de a_pesar_de NP00000 1
que que PR0CN000 0.5625
nunca nunca RG 1
tuvimos tener VMIS1P0 1
el el DA0MS0 1
privilegio privilegio NCMS000 0.75
de de SPS00 0.999919
ver ver VMN0000 1
lo lo PP3CNA00 0.5 lo PP3MSA00 0.5
ataviado ataviar VMP00SM 1
en en SPS00 1
sus su DP3CP0 0.998462
indumentarias indumentaria NCFP000 0.34273
de de SPS00 0.999919
cuero cuero NCMS000 1
Inicie inicie NP00000 1
sesi sesi RG 1
n n NCFS000 1
para para SPS00 0.998507
responder responder VMN0000 1
profesor profesor NCMS000 1
banderasMar banderasmar VMN0000 0.777917
07 7 Z 1
Toda toda NP00000 1
persona persona NCFS000 0.960784
con con SPS00 1
alg alg NCMS000 0.714133
n n NCFS000 1
grado grado NCMS000 0.964286
de de SPS00 0.999919
inteligencia inteligencia NCFS000 1
o o CC 0.998845
cordura cordura NCFS000 1
en en SPS00 1
alg alg NCMS000 0.714133
n n NCFS000 1
momento momento NCMS000 1
de de SPS00 0.999919
su su DP3CS0 1
vida vida NCFS000 1
tiene tener VMIP3S0 1
instantes instante NCMP000 1
de de SPS00 0.999919
lucidez lucidez NCFS000 1
que que PR0CN000 0.5625
le le PP3CSD00 1
permiten permitir VMIP3P0 1
la el DA0FS0 0.972146
autocr autocr NCMS000 1
tica tica AQ0FS0 0.595788
la el DA0FS0 0.972146
cua cua AQ0FS0 1
limplica limplica VMIP3S0 1
por_ejemplo por_ejemplo RG 1
darse_cuenta dar_cuenta VMN0000 1
de de SPS00 0.999919
que que CS 0.4375
no no RN 0.99778
se se P00CN000 0.465602
habla hablar VMIP3S0 0.880952
con con SPS00 1
ideas idea NCFP000 0.939394
propias propio AQ0FP0 1
sino sino CC 0.981707
con con SPS00 1
lemas lema NCMP000 1
aprendidos aprender VMP00PM 1
y y CC 0.999812
nunca nunca RG 1
tamizados tamizar VMP00PM 1
Este este NP00000 1
se se P00CN000 0.465602
or or NCMS000 0.655771
no no RN 0.99778
encuadra encuadrar VMIP3S0 0.75
en en SPS00 1
esta este DD0FS0 0.982143
categor categor NCMS000 0.909104
a a SPS00 0.99585
Inicie inicie NP00000 1
sesi sesi RG 1
n n NCFS000 1
para para SPS00 0.998507
responder responder VMN0000 1
Para para NP00000 1
comentar comentar VMN0000 1
necesitas necesitar VMIP2S0 1
estar estar VAN0000 1
logueado logueado VMP00SM 0.50035
Ingresa ingresa NP00000 1
con con SPS00 1
Enter enter NP00000 1
your your NCMS000 1
WordPress wordpress NP00000 1
com cometro NCMN000 0.65
blog blog NCMS000 0.714133
URL url NP00000 1
http http NCMS000 1
// // Fz 1
wordpress wordpress NC00000 1
com cometro NCMN000 0.65
Proceed_Puede proceed_puede NP00000 1
haber haber VMN0000 0.244444
grandes grande AQ0CP0 0.95
empresarios empresario NCMP000 1
pero pero CC 0.998821
de de SPS00 0.999919
f f NCFS000 1
tbol tbol NCMS000 1
saben saber VMIP3P0 1
poco poco RG 0.54065

