Est est NP00000 1
s segundo NCMN000 0.622321
usando usar VMG0000 1
un uno DI0MS0 0.986987
Navegador navegador NP00000 1
desactualizado desactualizar VMP00SM 1
Por_favor por_favor NP00000 1
actual actual AQ0CS0 1
zalo zalo NCMS000 0.888886
a a SPS00 0.99585
una uno DI0FS0 0.951241
versi versi RG 1
n n NCFS000 1
m m NCFS000 0.5
s segundo NCMN000 0.622321
moderna moderno AQ0FS0 0.916667
y y CC 0.999812
podr podr AQ0CS0 0.0829965
s segundo NCMN000 0.622321
ver ver VMN0000 0.987179
este este DD0MS0 0.956743
y y CC 0.999812
otros otro DI0MP0 0.56875
sitios sitio NCMP000 1
como como CS 0.998579
realmente realmente RG 1
fueron ser VSIS3P0 0.796296
pensados pensar VMP00PM 1
X x NP00000 1
6 6 Z 1
Comentarios_La comentarios_la NP00000 1
tarde tarde RG 0.704348
de de SPS00 0.999919
este este DD0MS0 0.956743
mi mi DP1CSS 0.995536
rcoles rcoles NCMP000 0.750052
la el DA0FS0 0.972146
C c NP00000 1
mara mara VMSI3S0 0.142887
de de SPS00 0.999919
Diputados diputados NP00000 1
rechaz rechaz AQ0CS0 0.803258
el el DA0MS0 1
informe informe AQ0CS0 0.726437
que que CS 0.4375
la el DA0FS0 0.972146
comisi comisi RG 1
n n NCFS000 1
investigadora investigador AQ0FS0 0.75
hab hab NCMS000 0.63631
a a SPS00 0.99585
hecho hecho NCMS000 0.381579
sobre sobre SPS00 0.994203
el el DA0MS0 1
caso caso NCMS000 0.990741
Jonhson jonhson NP00000 1
s segundo NCMN000 0.622321
luego_que luego_que CS 1
la el DA0FS0 0.972146
votaci votaci NCMS000 0.0996348
n n NCFS000 1
tuviese tener VMSI3S0 0.65
como como CS 0.998579
resultado resultado NCMS000 0.807692
49 49 Z 1
votos voto NCMP000 1
a a SPS00 0.99585
favor favor NCMS000 1
y y CC 0.999812
49 49 Z 1
en en SPS00 1
contra contra NCFS000 0.00263158
sin sin SPS00 1
llegar llegar VMN0000 1
a a SPS00 1
el el DA0MS0 1
quorum quorum NCMS000 1
necesario necesario AQ0MS0 1
para para SPS00 0.998507
que que CS 0.4375
se se P00CN000 0.465602
aprobase aprobar VMSI3S0 0.65
seg segundo NCMN000 1
n n NCFS000 1
informa informar VMIP3S0 0.833333
Cooperativa_Este cooperativa_este NP00000 1
informe informe AQ0CS0 0.726437
apuntaba apuntar VMII3S0 0.65
directamente directamente RG 1
a a SPS00 0.99585
Julio [??:??/7/??:??.??:??] W 1
Pereira pereira NP00000 1
director director NCMS000 0.970588
de de SPS00 1
el el DA0MS0 1
Servicio_de_Impuestos_Internos servicio_de_impuestos_internos NP00000 1
como como CS 0.998579
el el DA0MS0 1
responsable responsable AQ0CS0 0.583333
pol pol NCMS000 0.861706
tico tico AQ0MS0 0.806828
de de SPS00 1
el el DA0MS0 1
hecho hecho NCMS000 0.381579
es ser VSIP3S0 1
decir decir VMN0000 0.987805
la el DA0FS0 0.972146
condonaci condonaci AQ0CS0 0.0199855
n n NCFS000 1
de de SPS00 0.999919
una uno DI0FS0 0.951241
deuda deuda NCFS000 1
de de SPS00 0.999919
59_mil_millones_de_d TM_d:59000000000 Zu 1
lares lar NCMP000 1
a a SPS00 0.99585
la el DA0FS0 0.972146
empresa empresa NCFS000 1
Johnson johnson NP00000 1
s segundo NCMN000 0.622321
Esta esta NP00000 1
fue ser VSIS3S0 0.932292
asesorada asesorar VMP00SF 1
por por SPS00 1
Pereira pereira NP00000 1
hasta hasta SPS00 0.955172
el el DA0MS0 1
momento momento NCMS000 1
de de SPS00 0.999919
asumir asumir VMN0000 1
su su DP3CS0 1
nuevo nuevo AQ0MS0 1
puesto puesto NCMS000 0.452381
el el DA0MS0 1
2010 2010 Z 1
a a SPS00 0.99585
o o CC 0.998845
que que CS 0.4375
lleg lleg NCMS000 0.714133
junto_con junto_con SPS00 1
el el DA0MS0 1
nuevo nuevo AQ0MS0 1
Gobierno_Adem gobierno_adem NP00000 1
s segundo NCMN000 0.622321
Cencosud cencosud NP00000 1
empresa empresa NCFS000 1
due due VMIP3S0 0.33068
a a SPS00 0.99585
de de SPS00 0.999919
Johnson johnson NP00000 1
s segundo NCMN000 0.622321
le le PP3CSD00 1
paga pagar VMIP3S0 0.333333
un uno DI0MS0 0.986987
arriendo arriendo NCMS000 0.673608
de de SPS00 0.999919
22 22 Z 1
palos palo NCMP000 1
mensuales mensual AQ0CP0 1
a a SPS00 0.99585
Pereira_Poco pereira_poco NP00000 1
conflicto conflicto NCMS000 1
de de SPS00 0.999919
inter inter AQ0CN0 1
s segundo NCMN000 0.622321
El el NP00000 1
voto votar VMIP1S0 0.0265322
que que CS 0.4375
podr podr VMN0000 0.633986
a a SPS00 0.99585
haber haber VMN0000 0.244444
sido ser VSP00SM 1
decisivo decisivo AQ0MS0 1
fue ser VSIS3S0 0.932292
el el DA0MS0 1
de de SPS00 0.999919
Ren_Alinco ren_alinco NP00000 1
quien quien PR0CS000 1
se se P00CN000 0.465602
abstuvo abstener VMIS3S0 1
de de SPS00 0.999919
la el DA0FS0 0.972146
votaci votaci AQ0CS0 0.0199855
n n NCFS000 1
No no NP00000 1
sab sab NCMS000 0.63631
a a SPS00 0.99585
que que PR0CN000 0.5625
se se P00CN000 0.465602
iba ir VMII3S0 0.635011
a a SPS00 0.99585
producir producir VMN0000 1
un uno DI0MS0 0.986987
empate empate NCMS000 0.75
pero pero CC 0.998821
nadie nadie PI0CS000 1
me me PP1CS000 0.889706
puede poder VMIP3S0 0.995614
acusar acusar VMN0000 1
de de SPS00 0.999919
defender defender VMN0000 1
los el DA0MP0 0.97623
intereses interés NCMP000 0.916667
de de SPS00 0.999919
las el DA0FP0 0.97051
grandes grande AQ0CP0 0.95
empresas empresa NCFP000 1
dijo decir VMIS3S0 1
Ren ren NP00000 1
en en SPS00 1
tono tono NCMS000 1
de de SPS00 0.999919
ni ni CC 0.995935
chicha chicha NCFS000 1
ni ni CC 0.995935
limon limon VMIS3P0 0.923476
Otra otra NP00000 1
vez vez NCFS000 1
el el DA0MS0 1
destino destino NCMS000 0.944444
de de SPS00 0.999919
los el DA0MP0 0.97623
intereses interés NCMP000 0.916667
de de SPS00 0.999919
la el DA0FS0 0.972146
Mayoria_de_los_Chilenos_de_las_Instituciones_de_el_Estado_de_Chile mayoria_de_los_chilenos_de_las_instituciones_de_el_estado_de_chile NP00000 1
quedo quedar VMIP1S0 0.439994
en en SPS00 1
mano mano NCFS000 0.974359
de de SPS00 0.999919
un uno DI0MS0 0.986987
Borracho borracho NP00000 1
ignorante ignorante AQ0CS0 0.634173
y y CC 0.999812
vendido vender VMP00SM 1
como como CS 0.998579
es ser VSIP3S0 1
el el DA0MS0 1
Diputado_Alinco diputado_alinco NP00000 1
acaso acaso RG 0.958333
el el DA0MS0 1
culiao culiao AQ0MS0 1
' ' Fe 1
no no RN 0.99778
tenia tenia NCFS000 1
clarita claro AQDFS0 0.65727
la el DA0FS0 0.972146
pelicula pelicula NCFS000 0.914228
que que PR0CN000 0.5625
atra atra NCCS000 1
vez vez NCFS000 1
andaba andar VMII3S0 0.65
con con SPS00 1
la el DA0FS0 0.972146
ca ca I 1
a a SPS00 0.99585
ni ni CC 0.995935
chicha chicha NCFS000 1
ni ni CC 0.995935
limona lima NCFS00A 0.333412
' ' Fe 1
miren mirar VMM03P0 0.0987461
que que CS 0.4375
guea guea NCFS000 0.60001
' ' Fe 1
en en SPS00 1
un uno DI0MS0 0.986987
una uno PI0FS000 0.026773
votacion votacion VMIS3P0 0.923476
tan tan RG 1
imp imp NCMS000 1
rtante rtante AQ0CS0 1
donde donde PR000000 0.963542
se se P00CN000 0.465602
esta este PD0FS000 0.0178571
velando velar VMG0000 1
por por SPS00 1
la el DA0FS0 0.972146
transparencia transparencia NCFS000 1
en en SPS00 1
la el DA0FS0 0.972146
direccion direccion NCMS000 0.0665581
de de SPS00 1
el el DA0MS0 1
SII sii NP00000 1
y y CC 0.999812
sacar sacar VMN0000 1
a a SPS00 1
el el DA0MS0 1
chanchullento chanchullento NCMS000 0.750165
Julito_Pereira julito_pereira NP00000 1
mapochonavegableMar mapochonavegablemar VMN0000 1
06 6 Z 1
ALINCO_HACE_RATO_QUE_VOTA_CON_LA_DERECHA_OJALA_QUE_ESTA_RALEA_NO_SALGA_N_NCA_M_S_ELEGIDO_REPRESENTANTES_DE_LOS_CIUDADANOS_B_STA_DE_DIPUTADOS_Y_SENADORES_CHANTAS alinco_hace_rato_que_vota_con_la_derecha_ojala_que_esta_ralea_no_salga_n_nca_m_s_elegido_representantes_de_los_ciudadanos_b_sta_de_diputados_y_senadores_chantas NP00000 1
lectorMar lectormar VMN0000 1
06 6 Z 1
Alinco alinco NP00000 1
de de SPS00 0.999919
nuevo nuevo AQ0MS0 1
javieraMar javieramar VMN0000 1
06 6 Z 1
Me me NP00000 1
parece parecer VMIP3S0 0.9875
valeroso valeroso AQ0MS0 1
que que CS 0.4375
el el DA0MS0 1
diputado diputado NCMS000 0.833333
Alinco alinco NP00000 1
presente presentar VMSP1S0 0.0729167
un uno DI0MS0 0.986987
proyecto proyecto NCMS000 0.9375
que que PR0CN000 0.5625
va ir VMIP3S0 1
a a SPS00 0.99585
investigar investigar VMN0000 1
la el DA0FS0 0.972146
conexi conexi NCMS000 1
n n NCFS000 1
que que PR0CN000 0.5625
existe existir VMIP3S0 0.966667
entre entre SPS00 0.995223
el el DA0MS0 1
SII sii NP00000 1
con con SPS00 1
los el DA0MP0 0.97623
120 120 Z 1
diputados diputado NCMP000 0.875
Seguro seguro NP00000 1
se se P00CN000 0.465602
van ir VMIP3P0 1
a a SPS00 0.99585
encontrar encontrar VMN0000 1
con con SPS00 1
varias varios DI0FP0 0.939394
sorpresas sorpresa NCFP000 1
Varios varios NP00000 1
de de SPS00 0.999919
los el DA0MP0 0.97623
diputados diputado NCMP000 0.875
tienen tener VMIP3P0 1
acciones acción NCFP000 0.916667
de de SPS00 0.999919
empresas empresa NCFP000 1
pesqueras pesquero AQ0FP0 0.357331
Yo yo NP00000 1
a a SPS00 1
el el DA0MS0 1
menos menos RG 1
se se P00CN000 0.465602
que que CS 0.4375
un uno DI0MS0 0.986987
diputado diputado NCMS000 0.833333
es ser VSIP3S0 1
due due NCMS000 0.439656
o o CC 0.998845
de de SPS00 0.999919
un uno DI0MS0 0.986987
paquete paquete NCMS000 1
de de SPS00 0.999919
acciones acción NCFP000 0.916667
Recordemos recordemos NP00000 1
que que CS 0.4375
estos este DD0MP0 0.990566
sinverg sinverg NCMS000 0.714133
enzas enzas NCFP000 1
votaron votar VMIS3P0 1
a_favor_de a_favor_de SPS00 1
la el DA0FS0 0.972146
privatizaci privatizaci AQ0CS0 0.0199855
n n NCFS000 1
de de SPS00 1
el el DA0MS0 1
mar mar NCCS000 1
mapochonavegableMar mapochonavegablemar VMN0000 1
06 6 Z 1
OJALA_QUE_DIERA_A_CONOCER_LA_CONEXI_N_PERO_QUE_NO_SE_QUEDE_EN_PURAS_BRAVATAS_HerselenteMar ojala_que_diera_a_conocer_la_conexi_n_pero_que_no_se_quede_en_puras_bravatas_herselentemar NP00000 1
07_Julio [??:7/7/??:??.??:??] W 1
Pereira pereira NP00000 1
ha haber VAIP3S0 0.998141
sido ser VSP00SM 1
reafirmado reafirmar VMP00SM 1
en en SPS00 1
su su DP3CS0 1
honorabilidad honorabilidad NCFS000 1
con con SPS00 1
un uno DI0MS0 0.986987
impresionante impresionante AQ0CS0 1
empate empate NCMS000 0.75
Como como NP00000 1
los el DA0MP0 0.97623
equipos equipo NCMP000 1
de de SPS00 0.999919
futbol futbol NCMS000 1
mas mas CC 0.75
juleros juleros NCMP000 1
que que PR0CN000 0.5625
la el DA0FS0 0.972146
cresta cresta NCFS000 1
cuando cuando CS 0.983796
empatan empatar VMIP3P0 1
se se P00CN000 0.465602
declaran declarar VMIP3P0 1
ganadores ganador NCMP000 0.542782
49 49 Z 1
a a SPS00 0.99585
49 49 Z 1
mas mas CC 0.75
el el DA0MS0 1
aval aval NCMS000 1
de de SPS00 1
el el DA0MS0 1
curaito cura NCMS00D 1
Alinco alinco NP00000 1
tai tai NCMS000 0.642727
super super AQ0CN0 1
bien bien RG 0.898039
Pereira pereira NP00000 1
si si CS 0.997706
te te PP2CS000 0.933962
apoya apoyar VMIP3S0 0.833333
Alinco alinco NP00000 1
no no RN 0.99778
necesitai necesitai NCMS000 1
a a SPS00 0.99585
nadie nadie PI0CS000 1
mas mas CC 0.75
Pura pura NP00000 1
alcurnia alcurnia NCFS000 1
y y CC 0.999812
herselencia herselencia NCFS000 1
pata pata NCFS000 0.5
ag agramo NCMN000 0.645114
nica nica AQ0FS0 0.730709
Para para NP00000 1
comentar comentar VMN0000 1
necesitas necesitar VMIP2S0 1
estar estar VAN0000 1
logueado logueado VMP00SM 0.50035
Ingresa ingresa NP00000 1
con con SPS00 1
Enter enter NP00000 1
your your NCMS000 1
WordPress wordpress NP00000 1
com cometro NCMN000 0.65
blog blog NCMS000 0.714133
URL url NP00000 1
http http NCMS000 1
// // Fz 1
wordpress wordpress NC00000 1
com cometro NCMN000 0.65
Proceed_Puede proceed_puede NP00000 1
haber haber VMN0000 0.244444
grandes grande AQ0CP0 0.95
empresarios empresario NCMP000 1
pero pero CC 0.998821
de de SPS00 0.999919
f f NCFS000 1
tbol tbol NCMS000 1
saben saber VMIP3P0 1
poco poco RG 0.54065

