Est est NP00000 1
s segundo NCMN000 0.622321
usando usar VMG0000 1
un uno DI0MS0 0.986987
Navegador navegador NP00000 1
desactualizado desactualizar VMP00SM 1
Por_favor por_favor NP00000 1
actual actual AQ0CS0 1
zalo zalo NCMS000 0.888886
a a SPS00 0.99585
una uno DI0FS0 0.951241
versi versi RG 1
n n NCFS000 1
m m NCFS000 0.5
s segundo NCMN000 0.622321
moderna moderno AQ0FS0 0.916667
y y CC 0.999812
podr podr AQ0CS0 0.0829965
s segundo NCMN000 0.622321
ver ver VMN0000 0.987179
este este DD0MS0 0.956743
y y CC 0.999812
otros otro DI0MP0 0.56875
sitios sitio NCMP000 1
como como CS 0.998579
realmente realmente RG 1
fueron ser VSIS3P0 0.796296
pensados pensar VMP00PM 1
X x NP00000 1
3 3 Z 1
Comentarios_Despu comentarios_despu NP00000 1
s segundo NCMN000 0.622321
que que PR0CN000 0.5625
el el DA0MS0 1
Presidente_Sebasti presidente_sebasti NP00000 1
n n NCFS000 1
Pi pi NP00000 1
era ser VSII1S0 0.490859
anunciara anunciar VMSI3S0 0.640903
en en SPS00 1
cadena cadena NCFS000 1
nacional nacional AQ0CS0 1
la el DA0FS0 0.972146
entrega entrega NCFS000 0.266667
de de SPS00 0.999919
un uno DI0MS0 0.986987
Bono bono NP00000 1
Marzo_de_40_mil [??:??/3/40000:??.??:??] W 1
pesos peso NCMP000 1
el el DA0MS0 1
timonel timonel NCMS000 1
de de SPS00 0.999919
Renovaci renovaci NP00000 1
n n NCFS000 1
Nacional_Carlos_Larra nacional_carlos_larra NP00000 1
n n NCFS000 1
dijo decir VMIS3S0 1
que que CS 0.4375
l l NCFS000 0.639398
no no RN 0.99778
es ser VSIP3S0 1
partidario partidario AQ0MS0 0.75
de de SPS00 0.999919
la el DA0FS0 0.972146
entrega entrega NCFS000 0.266667
de de SPS00 0.999919
este este DD0MS0 0.956743
tipo tipo NCMS000 1
de de SPS00 0.999919
beneficios beneficio NCMP000 1
Estoy estoy NP00000 1
diciendo decir VMG0000 1
lo el DA0NS0 0.457393
mismo mismo AQ0MS0 0.961905
que que PR0CN000 0.5625
he haber VAIP1S0 0.984848
dicho decir VMP00SM 0.958333
siempre siempre RG 1
los el DA0MP0 0.97623
bonos bono NCMP000 1
no no RN 0.99778
son ser VSIP3P0 0.986772
una uno DI0FS0 0.951241
soluci soluci AQ0CS0 0.0199855
n n NCFS000 1
no no RN 0.99778
he haber VAIP1S0 0.984848
cambiado cambiar VMP00SM 1
En en NP00000 1
este este DD0MS0 0.956743
caso caso NCMS000 0.990741
le le PP3CSD00 1
viene venir VMIP3S0 1
como como CS 0.998579
anillo anillo NCMS000 0.9
a a SPS00 1
el el DA0MS0 1
dedo dedo NCMS000 1
a a SPS00 0.99585
m m NCFS000 0.5
s segundo NCMN000 0.622321
de de SPS00 0.999919
2_millones 2000000 Zd 1
de de SPS00 0.999919
familias familia NCFP000 1
y y CC 0.999812
de de SPS00 0.999919
eso ese PD0NS000 1
me me PP1CS000 0.889706
alegro alegrar VMIP1S0 0.0265034
Los los NP00000 1
bonos bono NCMP000 1
no no RN 0.99778
son ser VSIP3P0 0.986772
nunca nunca RG 1
necesarios necesario AQ0MP0 1
sino sino CC 0.981707
convenientes conveniente AQ0CP0 1
para para SPS00 0.998507
las el DA0FP0 0.97051
familias familia NCFP000 1
lo el DA0NS0 0.457393
que que PR0CN000 0.5625
es ser VSIP3S0 1
distinto distinto AQ0MS0 1
manifest manifest NCMS000 1
el el DA0MS0 1
senador senador NCMS000 1
En en NP00000 1
la el DA0FS0 0.972146
misma mismo AQ0FS0 0.916667
l l NCFS000 0.639398
nea nea AQ0FS0 0.499863
explic explic NCMN000 0.5
que que PR0CN000 0.5625
no no RN 0.99778
le le PP3CSD00 1
gusta gustar VMIP3S0 0.928571
lo el DA0NS0 0.457393
que que PR0CN000 0.5625
parece parecer VMIP3S0 0.9875
como como CS 0.998579
donativos donativo NCMP000 1
estatales estatal AQ0CP0 1
precisando precisar VMG0000 1
que que CS 0.4375
es ser VSIP3S0 1
mucho mucho RG 0.699275
mejor mejor AQ0CS0 0.868421
que que CS 0.4375
la el DA0FS0 0.972146
gente gente NCFS000 1
conserve conservar VMSP3S0 0.62344
lo el DA0NS0 0.457393
que que PR0CN000 0.5625
genere generar VMSP3S0 0.563443
y y CC 0.999812
haga hacer VMSP1S0 0.444444
lo el DA0NS0 0.457393
que que PR0CN000 0.5625
realmente realmente RG 1
quiera querer VMSP1S0 0.416667
con con SPS00 1
sus su DP3CP0 0.998462
ingresos ingreso NCMP000 1
Eso eso NP00000 1
es ser VSIP3S0 1
lo el DA0NS0 0.457393
que que PR0CN000 0.5625
est est NCMS000 1
en en SPS00 1
el el DA0MS0 1
orden orden NCMS000 0.6
de de SPS00 0.999919
las el DA0FP0 0.97051
cosas cosa NCFP000 0.986842
pero pero CC 0.998821
desgraciadamente desgraciadamente RG 1
se se P00CN000 0.465602
ha haber VAIP3S0 0.998141
ido ir VMP00SM 1
aplicando aplicar VMG0000 1
esta este DD0FS0 0.982143
teor teor AQ0CS0 0.928567
a a SPS00 0.99585
de de SPS00 0.999919
que que CS 0.4375
los el DA0MP0 0.97623
gobiernos gobierno NCMP000 1
hacen hacer VMIP3P0 1
los el DA0MP0 0.97623
gastos gasto NCMP000 1
mejor mejor AQ0CS0 0.868421
que que CS 0.4375
los el DA0MP0 0.97623
privados privar VMP00PM 0.833333
y y CC 0.999812
que que PR0CN000 0.5625
nunca nunca RG 1
se se P00CN000 0.465602
equivocan equivocar VMIP3P0 1
agreg agreg NCMS000 0.714133
Continuando continuando NP00000 1
con con SPS00 1
su su DP3CS0 1
opini opini AQ0CS0 0.0199855
n n NCFS000 1
sobre sobre SPS00 0.994203
la el DA0FS0 0.972146
materia materia NCFS000 1
dijo decir VMIS3S0 1
sentir sentir VMN0000 1
se se PP3CN000 1
feliz feliz AQ0CS0 0.958333
de de SPS00 0.999919
que que PR0CN000 0.5625
7_millones 7000000 Zd 1
de de SPS00 0.999919
personas persona NCFP000 0.983871
tengan tener VMSP3P0 0.75
40_mil_pesos $_CUP:40000 Zm 1
pero pero CC 0.998821
no no RN 0.99778
me me PP1CS000 0.889706
gusta gustar VMIP3S0 0.928571
la el DA0FS0 0.972146
idea idea NCFS000 0.974138
de de SPS00 0.999919
que que CS 0.4375
haya haber VMSP3S0 0.235714
que que CS 0.4375
quitar quitar VMN0000 1
le le PP3CSD00 1
el el DA0MS0 1
dinero dinero NCMS000 1
a a SPS00 0.99585
personas persona NCFP000 0.983871
que que PR0CN000 0.5625
ganan ganar VMIP3P0 1
sus su DP3CP0 0.998462
ingresos ingreso NCMP000 1
y y CC 0.999812
que que PR0CN000 0.5625
pagan pagar VMIP3P0 1
impuestos impuesto NCMP000 0.833333
por por SPS00 1
ellos ellos PP3MP000 1
y y CC 0.999812
luego luego RG 0.983871
restitu restitu NCMS000 1
rselo rselo VMIP1S0 0.00917491
asever asever VMN0000 1
Otro otro NP00000 1
manotazo manotazo NCMS000 1
de de SPS00 0.999919
ahogado ahogado NCMS000 0.60804
El el NP00000 1
absurdo absurdo AQ0MS0 0.625
bono bono NCMS000 1
marzo [??:??/3/??:??.??:??] W 1
s segundo NCMN000 0.622321
lo lo PP3CNA00 0.271163
pretende pretender VMIP3S0 0.916667
opacar opacar VMN0000 1
el el DA0MS0 1
inminente inminente AQ0CS0 1
desembarco desembarco NCMS000 0.75
de de SPS00 0.999919
Michelle_Bachelet_Don_CornelioMar michelle_bachelet_don_corneliomar NP00000 1
11 11 Z 1
Si si NP00000 1
es ser VSIP3S0 1
textual textual AQ0CS0 1
el el DA0MS0 1
t t NCFS000 1
tulo tulo NCMS000 1
bruto bruto AQ0MS0 0.75
Mun_Ra mun_ra NP00000 1
y y CC 0.999812
si si CS 0.997706
es ser VSIP3S0 1
el el DA0MS0 1
periodista periodista NCCS000 1
bruto bruto AQ0MS0 0.75
con con SPS00 1
v v NCFS000 1
corta corto AQ0FS0 0.65
O o NP00000 1
se se P00CN000 0.465602
dice decir VMIP3S0 1
nunca nunca RG 1
es ser VSIP3S0 1
necesario necesario AQ0MS0 1
o o CC 0.998845
no no RN 0.99778
es ser VSIP3S0 1
necesario necesario AQ0MS0 1
no no RN 0.99778
es ser VSIP3S0 1
nunca nunca RG 1
necesario necesario AQ0MS0 1
es ser VSIP3S0 1
como como CS 0.998579
campe campar VMSP3S0 0.473452
n n NCFS000 1
mundial mundial AQ0CS0 0.928571
de de SPS00 1
el el DA0MS0 1
mundo mundo NCMS000 1
En en NP00000 1
fin fin NCMS000 1
un uno DI0MS0 0.986987
arado arado NCMS000 0.362779
con con SPS00 1
tenedores tenedor NCMP000 1
lectorMar lectormar VMN0000 1
11 11 Z 1
40 40 Z 1
lucas l NCFP00D 0.602094
de de SPS00 0.999919
limosna limosna NCFS000 1
mientras mientras CS 0.881579
se se P00CN000 0.465602
roban robar VMIP3P0 1
la el DA0FS0 0.972146
educaci educaci AQ0CS0 0.0199855
n n NCFS000 1
y y CC 0.999812
las el DA0FP0 0.97051
familias familia NCFP000 1
se se P00CN000 0.465602
endeudan endeudar VMIP3P0 1
20_millones_de_pesos $_CUP:20000000 Zm 1
para para SPS00 0.998507
estudiar estudiar VMN0000 1
Valen valen NP00000 1
mas mas CC 0.75
las el DA0FP0 0.97051
lacrimongenas lacrimongenas NCCP000 1
que que PR0CN000 0.5625
le le PP3CSD00 1
tiran tirar VMIP3P0 1
a a SPS00 0.99585
los el DA0MP0 0.97623
estudiantes estudiante NCCP000 0.875
que que PR0CN000 0.5625
el el DA0MS0 1
bono bono NCMS000 1
chocman chocman VMIP3P0 0.81821
Para para NP00000 1
comentar comentar VMN0000 1
necesitas necesitar VMIP2S0 1
estar estar VAN0000 1
logueado logueado VMP00SM 0.50035
Ingresa ingresa NP00000 1
con con SPS00 1
Enter enter NP00000 1
your your NCMS000 1
WordPress wordpress NP00000 1
com cometro NCMN000 0.65
blog blog NCMS000 0.714133
URL url NP00000 1
http http NCMS000 1
// // Fz 1
wordpress wordpress NC00000 1
com cometro NCMN000 0.65
Proceed_Puede proceed_puede NP00000 1
haber haber VMN0000 0.244444
grandes grande AQ0CP0 0.95
empresarios empresario NCMP000 1
pero pero CC 0.998821
de de SPS00 0.999919
f f NCFS000 1
tbol tbol NCMS000 1
saben saber VMIP3P0 1
poco poco RG 0.54065

