Est est NP00000 1
s segundo NCMN000 0.622321
usando usar VMG0000 1
un uno DI0MS0 0.986987
Navegador navegador NP00000 1
desactualizado desactualizar VMP00SM 1
Por_favor por_favor NP00000 1
actual actual AQ0CS0 1
zalo zalo NCMS000 0.888886
a a SPS00 0.99585
una uno DI0FS0 0.951241
versi versi RG 1
n n NCFS000 1
m m NCFS000 0.5
s segundo NCMN000 0.622321
moderna moderno AQ0FS0 0.916667
y y CC 0.999812
podr podr AQ0CS0 0.0829965
s segundo NCMN000 0.622321
ver ver VMN0000 0.987179
este este DD0MS0 0.956743
y y CC 0.999812
otros otro DI0MP0 0.56875
sitios sitio NCMP000 1
como como CS 0.998579
realmente realmente RG 1
fueron ser VSIS3P0 0.796296
pensados pensar VMP00PM 1
X x NP00000 1
5 5 Z 1
Comentarios_El comentarios_el NP00000 1
jefe jefe NCMS000 1
de de SPS00 0.999919
bancada bancada NCFS000 1
de de SPS00 1
el el DA0MS0 1
Partido_Socialista_Fidel_Espinoza partido_socialista_fidel_espinoza NP00000 1
asegur asegur NCFS000 1
este este DD0MS0 0.956743
jueves [J:??/??/??:??.??:??] W 1
que que CS 0.4375
la el DA0FS0 0.972146
derecha derecha NCFS000 0.735294
es ser VSIP3S0 1
la el DA0FS0 0.972146
nica nica AQ0FS0 0.730709
que que PR0CN000 0.5625
sabe saber VMIP3S0 0.983333
de de SPS00 0.999919
venganzas venganza NCFP000 1
pol pol NCMS000 0.861706
ticas ticas AQ0FP0 0.760898
luego_que luego_que CS 1
parlamentarios parlamentario AQ0MP0 0.75
oficialistas oficialista NCCP000 0.557044
criticaran criticar VMSI3P0 1
a a SPS00 0.99585
la el DA0FS0 0.972146
oposici oposici AQ0CS0 0.0199855
n n NCFS000 1
por por SPS00 1
la el DA0FS0 0.972146
acusaci acusaci AQ0CS0 0.0199855
n n NCFS000 1
constitucional constitucional AQ0CS0 1
que que PR0CN000 0.5625
preparan preparar VMIP3P0 1
en_contra_de en_contra_de SPS00 1
el el DA0MS0 1
ministro ministro NCMS000 1
de de SPS00 0.999919
Educaci educaci NP00000 1
n n NCFS000 1
Harald_Beyer_La harald_beyer_la NP00000 1
nica nica AQ0FS0 0.730709
que que PR0CN000 0.5625
sabe saber VMIP3S0 0.983333
de de SPS00 0.999919
venganzas venganza NCFP000 1
pol pol NCMS000 0.861706
ticas ticas AQ0FP0 0.760898
es ser VSIP3S0 1
la el DA0FS0 0.972146
derecha derecha NCFS000 0.735294
hay haber VMIP3S0 1
que que CS 0.4375
recordar recordar VMN0000 1
que que CS 0.4375
en en SPS00 1
su su DP3CS0 1
momento momento NCMS000 1
la el DA0FS0 0.972146
destituci destituci AQ0CS0 0.0199855
n n NCFS000 1
de de SPS00 0.999919
la el DA0FS0 0.972146
ex ex AQ0CN0 0.25
ministra ministro NCFS000 1
Yasna_Provoste yasna_provoste NP00000 1
se se P00CN000 0.465602
debi debi AQ0CN0 1
precisamente precisamente RG 1
a a SPS00 0.99585
una uno DI0FS0 0.951241
venganza venganza NCFS000 1
de de SPS00 0.999919
la el DA0FS0 0.972146
Alianza alianza NP00000 1
recod recod NCFS000 0.961423
El el NP00000 1
parlamentario parlamentario AQ0MS0 0.75
advirti advirti NCMS000 1
que que CS 0.4375
la el DA0FS0 0.972146
oposici oposici AQ0CS0 0.0199855
n n NCFS000 1
act act NCMS000 0.607342
a a SPS00 0.99585
solo solo AQ0MS0 0.930556
en en SPS00 1
funci funci RG 0.751648
n n NCFS000 1
de de SPS00 0.999919
proteger proteger VMN0000 1
los el DA0MP0 0.97623
intereses interés NCMP000 0.916667
de de SPS00 0.999919
los el DA0MP0 0.97623
estudiantes estudiante NCCP000 0.875
En en NP00000 1
este este DD0MS0 0.956743
caso caso NCMS000 0.990741
vamos ir VMIP1P0 0.633333
a a SPS00 0.99585
llegar llegar VMN0000 1
hasta hasta SPS00 0.955172
el el DA0MS0 1
ltimo ltimo RG 1
tr tr AQ0CS0 0.0829965
mite mite VMIP3S0 0.839834
para para SPS00 0.998507
materializar materializar VMN0000 1
esta este DD0FS0 0.982143
Acusaci acusaci NP00000 1
n n NCFS000 1
Constitucional constitucional NP00000 1
porque porque CS 1
creemos creer VMIP1P0 0.666667
que que CS 0.4375
existen existir VMIP3P0 1
elementos elemento NCMP000 1
de de SPS00 0.999919
fondo fondo NCMS000 1
que que PR0CN000 0.5625
nos nos PP1CP000 0.933333
permiten permitir VMIP3P0 1
determinar determinar VMN0000 1
que que CS 0.4375
aqu aqu NCMS000 0.774439
el el DA0MS0 1
ministro ministro NCMS000 1
Harald_Beyer harald_beyer NP00000 1
actu actu NCMS000 1
a a SPS00 1
el el DA0MS0 1
menos menos RG 1
de de SPS00 0.999919
una uno DI0FS0 0.951241
manera manera NCFS000 1
negligente negligente AQ0CS0 0.65727
en en SPS00 1
el el DA0MS0 1
caso caso NCMS000 0.990741
de de SPS00 0.999919
la el DA0FS0 0.972146
Universidad_de_el_Mar universidad_de_el_mar NP00000 1
puntualiz puntualiz AQ0CS0 1
Hay hay NP00000 1
que que CS 0.4375
hacer hacer VMN0000 1
pebre pebre NCMS000 1
a a SPS00 0.99585
la el DA0FS0 0.972146
derecha derecha NCFS000 0.735294
ConcertaMierdaMar concertamierdamar NP00000 1
14 14 Z 1
jajajaa jajajaa NCFS000 0.448107
la el DA0FS0 0.972146
asna asno NCFS000 1
provasco provasco AQ0MS0 0.657037
c c NCFS000 1
mo mo AQ0MS0 0.297018
olvidar olvidar VMN0000 1
la lo PP3FSA00 1
Vieja vieja NP00000 1
asquerosa asqueroso AQ0FS0 1
fea feo AQ0FS0 1
Catapilco_MeadoMar catapilco_meadomar NP00000 1
14 14 Z 1
La la NP00000 1
ltima ltima NCFS000 0.833242
gran gran AQ0CS0 1
venganza venganza NCFS000 1
de de SPS00 0.999919
la el DA0FS0 0.972146
derecha derecha NCFS000 0.735294
le le PP3CSD00 1
cost cost NCMS000 1
a a SPS00 1
el el DA0MS0 1
pa pa NCFS000 0.740689
s segundo NCMN000 0.622321
28 28 Z 1
000 0 Z 1
asesinados asesinar VMP00PM 1
torturados torturar VMP00PM 1
o o CC 0.998845
desaparecidos desaparecer VMP00PM 0.541807
ALIANZACACAMar alianzacacamar NP00000 1
14 14 Z 1
La la NP00000 1
gran gran AQ0CS0 1
venganza venganza NCFS000 1
de de SPS00 0.999919
la el DA0FS0 0.972146
derecha derecha NCFS000 0.735294
es ser VSIP3S0 1
seguir seguir VMN0000 1
abusando abusar VMG0000 1
de de SPS00 0.999919
los el DA0MP0 0.97623
trabajadores trabajador NCMP000 0.928571
cagada cagar VMP00SF 0.583781
de de SPS00 0.999919
sueldo sueldo NCMS000 0.875
m m NCFS000 0.5
nimo nimo AQ0MS0 0.200112
para para SPS00 0.998507
seguir seguir VMN0000 1
inflando inflar VMG0000 1
sus su DP3CP0 0.998462
bolsillos bolsillo NCMP000 1
Venganza venganza NP00000 1
es ser VSIP3S0 1
seguir seguir VMN0000 1
estafando estafar VMG0000 1
a a SPS00 0.99585
los el DA0MP0 0.97623
trabajadores trabajador NCMP000 0.928571
cuando cuando CS 0.983796
tienen tener VMIP3P0 1
que que CS 0.4375
jubilar jubilar VMN0000 1
se se PP3CN000 1
con con SPS00 1
una uno DI0FS0 0.951241
cagada cagado NCFS000 0.416219
de de SPS00 0.999919
plata plata NCFS000 1
mientras mientras CS 0.881579
las el DA0FP0 0.97051
AFP afp NP00000 1
ganan ganar VMIP3P0 1
millonadas millonada NCFP000 1
con con SPS00 1
la el DA0FS0 0.972146
plata plata NCFS000 1
de de SPS00 0.999919
ELLOS ellos NP00000 1
y y CC 0.999812
nadie nadie PI0CS000 1
dice decir VMIP3S0 1
nada nada PI0CS000 0.846667
Esa esa NP00000 1
es ser VSIP3S0 1
la el DA0FS0 0.972146
venganza venganza NCFS000 1
y y CC 0.999812
la el DA0FS0 0.972146
estafa estafa NCFS000 0.846904
de de SPS00 0.999919
los el DA0MP0 0.97623
pinochetistas pinochetista AQ0CP0 1
que que PR0CN000 0.5625
crearon crear VMIS3P0 1
y y CC 0.999812
obligaron obligar VMIS3P0 1
a a SPS00 0.99585
los el DA0MP0 0.97623
trabajadores trabajador NCMP000 0.928571
a a SPS00 0.99585
entrar entrar VMN0000 1
a a SPS00 0.99585
ese ese DD0MS0 0.98125
SINIESTRO_SISTEMA siniestro_sistema NP00000 1
huaso huaso RG 0.19818
06Mar 06Mar Z 1
15 15 Z 1
El el NP00000 1
parlamentario parlamentario AQ0MS0 0.75
advirti advirti NCMS000 1
que que CS 0.4375
la el DA0FS0 0.972146
oposici oposici AQ0CS0 0.0199855
n n NCFS000 1
act act NCMS000 0.607342
a a SPS00 0.99585
solo solo AQ0MS0 0.930556
en en SPS00 1
funci funci RG 0.751648
n n NCFS000 1
de de SPS00 0.999919
proteger proteger VMN0000 1
los el DA0MP0 0.97623
intereses interés NCMP000 0.916667
de de SPS00 0.999919
los el DA0MP0 0.97623
estudiantes estudiante NCCP000 0.875
Un uno DI0MS0 0.986987
chiste chiste NCMS000 0.625
durante durante SPS00 1
20 20 Z 1
a a SPS00 0.99585
os os PP2CP000 0.722222
no no RN 0.99778
aplicaron aplicar VMIS3P0 1
ninguna ninguno PI0FS000 0.277778
supervisi supervisi RG 1
n n NCFS000 1
a a SPS00 0.99585
las el DA0FP0 0.97051
casas casa NCFP000 0.958333
de de SPS00 0.999919
estudio estudio NCMS000 0.954545
por_lo_tanto por_lo_tanto RG 1
no no RN 0.99778
defendieron defender VMIS3P0 1
a a SPS00 0.99585
nadie nadie PI0CS000 1
excepto excepto SPS00 1
sus su DP3CP0 0.998462
intereses interés NCMP000 0.916667
e y CC 0.973684
incluso incluso RG 0.988095
participaron participar VMIS3P0 1
de de SPS00 1
el el DA0MS0 1
lucro lucro NCMS000 0.75
en en SPS00 1
la el DA0FS0 0.972146
educaci educaci AQ0CS0 0.0199855
n n NCFS000 1
y y CC 0.999812
ahora ahora RG 1
cuando cuando CS 0.983796
se se P00CN000 0.465602
aprieta apretar VMIP3S0 0.994868
a a SPS00 0.99585
una uno DI0FS0 0.951241
casa casa NCFS000 0.971264
de de SPS00 0.999919
estudios estudio NCMP000 1
surgen surgir VMIP3P0 1
los el DA0MP0 0.97623
defensores defensor NCMP000 0.75
de de SPS00 0.999919
los el DA0MP0 0.97623
estudiantes estudiante NCCP000 0.875
Un uno DI0MS0 0.986987
nuevo nuevo AQ0MS0 1
chiste chiste NCMS000 0.625
Para para NP00000 1
comentar comentar VMN0000 1
necesitas necesitar VMIP2S0 1
estar estar VAN0000 1
logueado logueado VMP00SM 0.50035
Ingresa ingresa NP00000 1
con con SPS00 1
Enter enter NP00000 1
your your NCMS000 1
WordPress wordpress NP00000 1
com cometro NCMN000 0.65
blog blog NCMS000 0.714133
URL url NP00000 1
http http NCMS000 1
// // Fz 1
wordpress wordpress NC00000 1
com cometro NCMN000 0.65
Proceed_Puede proceed_puede NP00000 1
haber haber VMN0000 0.244444
grandes grande AQ0CP0 0.95
empresarios empresario NCMP000 1
pero pero CC 0.998821
de de SPS00 0.999919
f f NCFS000 1
tbol tbol NCMS000 1
saben saber VMIP3P0 1
poco poco RG 0.54065

