Est est NP00000 1
s segundo NCMN000 0.622321
usando usar VMG0000 1
un uno DI0MS0 0.986987
Navegador navegador NP00000 1
desactualizado desactualizar VMP00SM 1
Por_favor por_favor NP00000 1
actual actual AQ0CS0 1
zalo zalo NCMS000 0.888886
a a SPS00 0.99585
una uno DI0FS0 0.951241
versi versi RG 1
n n NCFS000 1
m m NCFS000 0.5
s segundo NCMN000 0.622321
moderna moderno AQ0FS0 0.916667
y y CC 0.999812
podr podr AQ0CS0 0.0829965
s segundo NCMN000 0.622321
ver ver VMN0000 0.987179
este este DD0MS0 0.956743
y y CC 0.999812
otros otro DI0MP0 0.56875
sitios sitio NCMP000 1
como como CS 0.998579
realmente realmente RG 1
fueron ser VSIS3P0 0.796296
pensados pensar VMP00PM 1
X x NP00000 1
9 9 Z 1
Comentarios comentarios NP00000 1
Un uno DI0MS0 0.986987
nuevo nuevo AQ0MS0 1
vuelco vuelco NCMS000 0.943966
se se P00CN000 0.465602
vivi vivi VMIS1S0 1
en en SPS00 1
la el DA0FS0 0.972146
situaci situaci AQ0CS0 0.0199855
n n NCFS000 1
de de SPS00 0.999919
Emilio_Berkhoff emilio_berkhoff NP00000 1
cuando cuando CS 0.983796
esta este DD0FS0 0.982143
ma ma NCFS000 0.391356
ana ana NCFS000 1
la el DA0FS0 0.972146
Corte_de_Apelaciones_de_Concepci corte_de_apelaciones_de_concepci NP00000 1
n n NCFS000 1
acogi acogi RG 0.751648
el el DA0MS0 1
recurso recurso NCMS000 1
de de SPS00 0.999919
amparo amparo NCMS000 0.973497
interpuesto interponer VMP00SM 1
por por SPS00 1
la el DA0FS0 0.972146
defensa defensa NCCS000 1
de de SPS00 1
el el DA0MS0 1
joven joven NCCS000 0.462963
y y CC 0.999812
revoc revoc NC00000 0.538029
la el DA0FS0 0.972146
medida medida NCFS000 0.863636
de de SPS00 0.999919
prisi prisi RG 1
n n NCFS000 1
preventiva preventivo AQ0FS0 1
que que PR0CN000 0.5625
se se P00CN000 0.465602
le le PP3CSD00 1
cumpl cumpl AQ0CS0 0.587402
a a SPS00 0.99585
en en SPS00 1
la el DA0FS0 0.972146
C c NP00000 1
rcel rcel NCFS000 1
de de SPS00 0.999919
ngol ngol NCMS000 1
Seg seg NP00000 1
n n NCFS000 1
informa informar VMIP3S0 0.833333
Radio_Biob radio_biob NP00000 1
o o CC 0.998845
la el DA0FS0 0.972146
justicia justicia NCFS000 1
penquista penquista AQ0CS0 1
acept acept NCMS000 0.607342
los el DA0MP0 0.97623
argumentos argumento NCMP000 1
de de SPS00 0.999919
la el DA0FS0 0.972146
Defensor defensor NP00000 1
a a SPS00 0.99585
en en SPS00 1
la el DA0FS0 0.972146
causa causa NCFS000 0.794872
que que PR0CN000 0.5625
se se P00CN000 0.465602
lleva llevar VMIP3S0 0.975
contra contra SPS00 0.976316
Berkhoff berkhoff NP00000 1
en en SPS00 1
Ca ca NP00000 1
ete ete VMIP3S0 0.227291
referida referir VMP00SF 1
a a SPS00 0.99585
los el DA0MP0 0.97623
delitos delito NCMP000 1
de de SPS00 0.999919
porte porte NCMS000 0.75
ilegal ilegal AQ0CS0 1
de de SPS00 0.999919
arma arma NCFS000 0.944444
y y CC 0.999812
municiones munición NCFP000 0.995706
Un uno DI0MS0 0.986987
nuevo nuevo AQ0MS0 1
vuelco vuelco NCMS000 0.943966
se se P00CN000 0.465602
vivi vivi VMIS1S0 1
en en SPS00 1
la el DA0FS0 0.972146
situaci situaci AQ0CS0 0.0199855
n n NCFS000 1
de de SPS00 0.999919
Emilio_Berkhoff emilio_berkhoff NP00000 1
cuando cuando CS 0.983796
esta este DD0FS0 0.982143
ma ma NCFS000 0.391356
ana ana NCFS000 1
la el DA0FS0 0.972146
Corte_de_Apelaciones_de_Concepci corte_de_apelaciones_de_concepci NP00000 1
n n NCFS000 1
acogi acogi RG 0.751648
el el DA0MS0 1
recurso recurso NCMS000 1
de de SPS00 0.999919
amparo amparo NCMS000 0.973497
interpuesto interponer VMP00SM 1
por por SPS00 1
la el DA0FS0 0.972146
defensa defensa NCCS000 1
de de SPS00 1
el el DA0MS0 1
joven joven NCCS000 0.462963
y y CC 0.999812
revoc revoc NC00000 0.538029
la el DA0FS0 0.972146
medida medida NCFS000 0.863636
de de SPS00 0.999919
prisi prisi RG 1
n n NCFS000 1
preventiva preventivo AQ0FS0 1
que que PR0CN000 0.5625
cumpl cumpl NCMS000 0.279395
a a SPS00 0.99585
en en SPS00 1
la el DA0FS0 0.972146
C c NP00000 1
rcel rcel NCFS000 1
de de SPS00 0.999919
Angol_Seg angol_seg NP00000 1
n n NCFS000 1
informa informar VMIP3S0 0.833333
Radio_Biob radio_biob NP00000 1
o o CC 0.998845
la el DA0FS0 0.972146
justicia justicia NCFS000 1
penquista penquista AQ0CS0 1
acept acept NCMS000 0.607342
los el DA0MP0 0.97623
argumentos argumento NCMP000 1
de de SPS00 0.999919
la el DA0FS0 0.972146
Defensor defensor NP00000 1
a a SPS00 0.99585
en en SPS00 1
la el DA0FS0 0.972146
causa causa NCFS000 0.794872
que que PR0CN000 0.5625
se se P00CN000 0.465602
lleva llevar VMIP3S0 0.975
contra contra SPS00 0.976316
Berkhoff berkhoff NP00000 1
en en SPS00 1
Ca ca NP00000 1
ete ete VMIP3S0 0.227291
referida referir VMP00SF 1
a a SPS00 0.99585
los el DA0MP0 0.97623
delitos delito NCMP000 1
de de SPS00 0.999919
porte porte NCMS000 0.75
ilegal ilegal AQ0CS0 1
de de SPS00 0.999919
arma arma NCFS000 0.944444
y y CC 0.999812
municiones munición NCFP000 0.995706
As_Berkhoff as_berkhoff NP00000 1
volver volver VMN0000 1
a a SPS00 0.99585
cumplir cumplir VMN0000 1
arresto arresto NCMS000 0.973494
domiciliario domiciliario AQ0MS0 1
total total AQ0CS0 0.944444
en en SPS00 1
la el DA0FS0 0.972146
capital capital NCFS000 0.372549
de de SPS00 0.999919
la el DA0FS0 0.972146
Araucan araucan NP00000 1
a a SPS00 0.99585
pero pero CC 0.998821
por por SPS00 1
otra otro DI0FS0 0.801136
causa causa NCFS000 0.794872
relacionada relacionar VMP00SF 1
a a SPS00 0.99585
maltrato maltrato NCMS000 0.973497
de de SPS00 0.999919
obra obra NCFS000 0.972222
a a SPS00 0.99585
Carabineros_Esta carabineros_esta NP00000 1
situaci situaci RG 0.751648
n n NCFS000 1
se se P00CN000 0.465602
da dar VMIP3S0 0.983871
porque porque CS 1
el el DA0MS0 1
dictamen dictamen NCMS000 1
de de SPS00 0.999919
la el DA0FS0 0.972146
justicia justicia NCFS000 1
por por SPS00 1
el el DA0MS0 1
primer 1 AO0MS0 1
caso caso NCMS000 0.990741
solo solo AQ0MS0 0.930556
le le PP3CSD00 1
impone imponer VMIP3S0 1
la el DA0FS0 0.972146
medida medida NCFS000 0.863636
de de SPS00 0.999919
arraigo arraigo NCMS000 0.673497
nacional nacional AQ0CS0 1
Entre entre NP00000 1
los el DA0MP0 0.97623
argumentos argumento NCMP000 1
que que PR0CN000 0.5625
esgrimi esgrimi VMIS1S0 0.0691907
la el DA0FS0 0.972146
Defensor defensor NP00000 1
a a SPS00 0.99585
est est NCMS000 1
n n NCFS000 1
la el DA0FS0 0.972146
baja bajo AQ0FS0 0.90625
pena pena NCFS000 0.925926
que que PR0CN000 0.5625
involucra involucrar VMIP3S0 0.980989
el el DA0MS0 1
delito delito NCMS000 1
que que PR0CN000 0.5625
se se P00CN000 0.465602
le le PP3CSD00 1
achaca achacar VMIP3S0 0.994868
a a SPS00 0.99585
Berkhoff berkhoff NP00000 1
sindicado sindicar VMP00SM 0.631784
por por SPS00 1
La_Moneda la_moneda NP00000 1
como como CS 0.998579
uno uno PI0MS000 0.964744
de de SPS00 0.999919
los el DA0MP0 0.97623
l l NCFS000 0.639398
deres deres NCMP000 0.800047
de de SPS00 0.999919
la el DA0FS0 0.972146
Coordinadora_Arauco_Malleco coordinadora_arauco_malleco NP00000 1
y y CC 0.999812
como como CS 0.998579
uno uno PI0MS000 0.964744
de de SPS00 0.999919
los el DA0MP0 0.97623
m m NCFS000 0.5
s segundo NCMN000 0.622321
importantes importante AQ0CP0 1
activistas activista NCCP000 0.581859
de de SPS00 1
el el DA0MS0 1
sur sur NCMS000 1
de de SPS00 1
el el DA0MS0 1
pa pa NCFS000 0.740689
s segundo NCMN000 0.622321
Qu qu NP00000 1
bueno bueno AQ0MS0 0.453125
para para SPS00 0.998507
que que CS 0.4375
se se P00CN000 0.465602
deje dejar VMSP1S0 0.3125
de de SPS00 0.999919
estrilar estrilar VMN0000 0.714236
y y CC 0.999812
se se P00CN000 0.465602
vaya ir VMSP1S0 0.22
a a SPS00 0.99585
cultivar cultivar VMN0000 1
papas papa NCMP000 0.909172
y y CC 0.999812
a a SPS00 0.99585
atender atender VMN0000 1
sus su DP3CP0 0.998462
colmenas colmena NCFP000 1
Inicie inicie NP00000 1
sesi sesi RG 1
n n NCFS000 1
para para SPS00 0.998507
responder responder VMN0000 1
GuatonMar guatonmar NP00000 1
11 11 Z 1
este este DD0MS0 0.956743
caso caso NCMS000 0.990741
cada cada DI0CS0 1
vez vez NCFS000 1
cae caer VMIP3S0 0.9
cae caer VMIP3S0 0.9
y y CC 0.999812
cae caer VMIP3S0 0.9
sin sin SPS00 1
mayores mayor AQ0CP0 0.8125
pruebas prueba NCFP000 0.9
y y CC 0.999812
solo solo AQ0MS0 0.930556
con con SPS00 1
supuestos supuesto NCMP000 0.608156
igualito igual AQDMS0 0.335106
que que CS 0.4375
los el DA0MP0 0.97623
montajes montaje NCMP000 1
de de SPS00 0.999919
hinzzpeter hinzzpeter VMN0000 1
y y CC 0.999812
el el DA0MS0 1
chico chico NCMS000 0.9
pe pe NCFS000 1
a a SPS00 0.99585
a a SPS00 1
el el DA0MS0 1
final final NCFS000 0.425926
saldra saldra NCFS000 0.91665
libre libre AQ0CS0 0.917647
donde donde PR000000 0.963542
debe deber VMIP3S0 0.974359
estar estar VAN0000 1
Inicie inicie NP00000 1
sesi sesi RG 1
n n NCFS000 1
para para SPS00 0.998507
responder responder VMN0000 1
javieraMar javieramar VMN0000 1
11 11 Z 1
Emilio emilio NP00000 1
te te PP2CS000 0.933962
tengo tener VMIP1S0 1
flor flor NCFS000 1
de de SPS00 0.999919
negocio negocio NCMS000 0.875
Hay hay NP00000 1
problemas problema NCMP000 1
con con SPS00 1
la el DA0FS0 0.972146
polizacion polizacion NCMS000 0.0665581
de de SPS00 0.999919
los el DA0MP0 0.97623
paltos palto NCMP000 1
en en SPS00 1
Ovalle ovalle NP00000 1
lleva llevar VMIP3S0 0.975
tus tu DP2CPS 1
colmenas colmena NCFP000 1
para para SPS00 0.998507
alla alla NCFS000 0.833354
te te PP2CS000 0.933962
vai vai NCMS000 1
a a SPS00 0.99585
hacer hacer VMN0000 1
el el DA0MS0 1
pino pino AQ0MS0 0.415349
logo logo NCMS000 1
Inicie inicie NP00000 1
sesi sesi RG 1
n n NCFS000 1
para para SPS00 0.998507
responder responder VMN0000 1
javieraMar javieramar VMN0000 1
11 11 Z 1
Si si NP00000 1
poh poh I 1
tan tan RG 1
pagando pagar VMG0000 1
100 100 Z 1
luquitas luquitas NCFP000 0.5001
diarias diario AQ0FP0 1
Yo yo NP00000 1
no no RN 0.99778
se se P00CN000 0.465602
de de SPS00 0.999919
donde donde PR000000 0.963542
sacaron sacar VMIS3P0 1
que que CS 0.4375
Emilio emilio NP00000 1
era ser VSII1S0 0.490859
un uno DI0MS0 0.986987
terrorista terrorista NCCS000 0.125
tan tan RG 1
logos logos NCMN000 1
es ser VSIP3S0 1
un uno DI0MS0 0.986987
lamngen lamngen NCMS000 0.612823
de de SPS00 0.999919
trabajo trabajo NCMS000 0.940476
como como CS 0.998579
cualquier cualquiera DI0CS0 1
otro otro DI0MS0 0.61215
Inicie inicie NP00000 1
sesi sesi RG 1
n n NCFS000 1
para para SPS00 0.998507
responder responder VMN0000 1
luzcornejoMar luzcornejomar VMN0000 1
11 11 Z 1
Siempre siempre NP00000 1
he he I 0.0151515
cre cre AQ0CS0 1
do do NCMS000 1
que que CS 0.4375
Miguel miguel NP00000 1
es ser VSIP3S0 1
inocente inocente AQ0CS0 0.875
luzcornejoMar luzcornejomar VMN0000 1
11 11 Z 1
Emilio emilio NP00000 1
te te PP2CS000 0.933962
mando mandar VMIP1S0 0.75
toda todo DI0FS0 0.975806
la el DA0FS0 0.972146
fuerza fuerza NCFS000 0.968254
Javiera javiera NP00000 1
donde donde PR000000 0.963542
pagan pagar VMIP3P0 1
cien_mil 100000 Z 1
por por SPS00 1
colmena colmena NCFS000 1
es ser VSIP3S0 1
porque porque CS 1
no no RN 0.99778
tiene tener VMIP3S0 1
como como CS 0.998579
alimentar alimentar VMN0000 1
mapochonavegableMar mapochonavegablemar VMN0000 1
11 11 Z 1
LA_JUSTICIA_NO_PUDE_SER_TAN_ZIGZAGUEANTE_TODAS_LAS_SEMANAS_HAY_UN_PRONUNCIAMIENTO_DISTINTO_CON_REFERENCIA_A_ESTE_CASO_Inicie la_justicia_no_pude_ser_tan_zigzagueante_todas_las_semanas_hay_un_pronunciamiento_distinto_con_referencia_a_este_caso_inicie NP00000 1
sesi sesi RG 1
n n NCFS000 1
para para SPS00 0.998507
responder responder VMN0000 1
Alex_MenaMar alex_menamar NP00000 1
11 11 Z 1
Un uno DI0MS0 0.986987
delincuente delincuente NCCS000 0.34273
que que PR0CN000 0.5625
tira tirar VMIP3S0 0.583333
bombas bomba NCFP000 0.928571
y y CC 0.999812
asalta asaltar VMIP3S0 0.994868
en en SPS00 1
nombre nombre NCMS000 0.97973
de de SPS00 0.999919
los el DA0MP0 0.97623
Mapuches mapuches NP00000 1
tiene tener VMIP3S0 1
una uno DI0FS0 0.951241
ocupacion ocupacion NCMS000 0.0665581
bastante bastante RG 0.763889
rentable rentable AQ0CS0 1
y y CC 0.999812
de de SPS00 0.999919
poco poco DI0MS0 0.126016
riesgo riesgo NCMS000 1
Esto esto NP00000 1
es ser VSIP3S0 1
increible increible AQ0CS0 1
Inicie inicie NP00000 1
sesi sesi RG 1
n n NCFS000 1
para para SPS00 0.998507
responder responder VMN0000 1
javieraMar javieramar VMN0000 1
11 11 Z 1
juaaaaa juaaaaa NCFS000 0.448107
puro puro AQ0MS0 0.791667
colors colors NCMP000 0.750043
de de SPS00 0.999919
fachito fachito NCMS000 0.607495
Errr errr NP00000 1
certificacion certificacion VMIS3P0 0.923476
queria queria NCFS000 0.933145
Angelini angelini NP00000 1
ya ya RG 0.996988
lo el DA0NS0 0.457393
habia habia NCFS000 1
dicho decir VMP00SM 0.958333
yo yo PP1CSN00 1
antes antes RG 1
Se se NP00000 1
le le PP3CSD00 1
fue ir VMIS3S0 0.0677083
a a SPS00 0.99585
las el DA0FP0 0.97051
pailas paila NCFP000 1
su su DP3CS0 1
proyecto proyecto NCMS000 0.9375
Woodmark_Soil_Association woodmark_soil_association NP00000 1
rechaz rechaz AQ0CS0 0.803258
certificar certificar VMN0000 1
internacionalmente internacionalmente RG 1
con con SPS00 1
el el DA0MS0 1
est est NCMS000 1
ndar ndar AQ0CS0 0.0908502
FSC fsc NP00000 1
a a SPS00 0.99585
la el DA0FS0 0.972146
Forestal_Arauco_de_el_Grupo_Arauco_de_Angelini forestal_arauco_de_el_grupo_arauco_de_angelini NP00000 1
afectando afectar VMG0000 1
a a SPS00 0.99585
todas todo DI0FP0 0.945312
las el DA0FP0 0.97051
filiales filial NCCP000 0.34273
forestales forestal AQ0CP0 0.965
de de SPS00 0.999919
la el DA0FS0 0.972146
empresa empresa NCFS000 1
Cueck_Anticipe cueck_anticipe NP00000 1
que que PR0CN000 0.5625
se se P00CN000 0.465602
iba ir VMII3S0 0.635011
a a SPS00 0.99585
cazar cazar VMN0000 1
los el DA0MP0 0.97623
dedos dedo NCMP000 1
en en SPS00 1
la el DA0FS0 0.972146
puerta puerta NCFS000 1
debido_a debido_a SPS00 1
su su DP3CS0 1
pol pol NCMS000 0.861706
tica tica AQ0FS0 0.595788
abusiva abusivo AQ0FS0 1
para para SPS00 0.998507
con con SPS00 1
nuestro nuestro DP1MSP 0.933333
pueblo pueblo NCMS000 0.978261
Inicie inicie NP00000 1
sesi sesi RG 1
n n NCFS000 1
para para SPS00 0.998507
responder responder VMN0000 1
Para para NP00000 1
comentar comentar VMN0000 1
necesitas necesitar VMIP2S0 1
estar estar VAN0000 1
logueado logueado VMP00SM 0.50035
Ingresa ingresa NP00000 1
con con SPS00 1
Enter enter NP00000 1
your your NCMS000 1
WordPress wordpress NP00000 1
com cometro NCMN000 0.65
blog blog NCMS000 0.714133
URL url NP00000 1
http http NCMS000 1
// // Fz 1
wordpress wordpress NC00000 1
com cometro NCMN000 0.65
Proceed_Puede proceed_puede NP00000 1
haber haber VMN0000 0.244444
grandes grande AQ0CP0 0.95
empresarios empresario NCMP000 1
pero pero CC 0.998821
de de SPS00 0.999919
f f NCFS000 1
tbol tbol NCMS000 1
saben saber VMIP3P0 1
poco poco RG 0.54065

