Alepo alepo NP00000 1
Un uno DI0MS0 0.986987
nuevo nuevo AQ0MS0 1
foco foco NCMS000 1
de de SPS00 0.999919
la el DA0FS0 0.972146
ofensiva ofensiva NCFS000 0.75
militar militar AQ0CS0 0.666667
contra contra SPS00 0.976316
los el DA0MP0 0.97623
mercenarios mercenario NCMP000 0.64273
en en SPS00 1
Siria_Alepo siria_alepo NP00000 1
figura figurar VMIP3S0 0.0555556
hoy hoy RG 0.877358
como como CS 0.998579
el el DA0MS0 1
nuevo nuevo AQ0MS0 1
epicentro epicentro NCMS000 1
de de SPS00 0.999919
la el DA0FS0 0.972146
ofensiva ofensiva NCFS000 0.75
de de SPS00 1
el el DA0MS0 1
Ej ej NP00000 1
rcito rcito NCMS000 1
rabe rabe AQ0CS0 0.333333
Sirio sirio NP00000 1
contra contra SPS00 0.976316
las el DA0FP0 0.97051
bandas banda NCFP000 1
mercenarias mercenario AQ0FP0 0.657264
que que CS 0.4375
financiadas financiar VMP00PF 1
y y CC 0.999812
armadas armar VMP00PF 0.75
por por SPS00 1
gobiernos gobierno NCMP000 1
de de SPS00 0.999919
Oriente_Medio oriente_medio NP00000 1
y y CC 0.999812
Occidente occidente NP00000 1
pretenden pretender VMIP3P0 1
derrocar derrocar VMN0000 1
a a SPS00 1
el el DA0MS0 1
gobierno gobierno NCMS000 0.9
de de SPS00 1
el el DA0MS0 1
presidente presidente NCMS000 1
Bashar bashar NP00000 1
a a SPS00 1
el el DA0MS0 1
Assad_Miles assad_miles NP00000 1
de de SPS00 0.999919
efectivos efectivo NCMP000 0.54266
y y CC 0.999812
equipamiento equipamiento NCMS000 1
b b NCFS000 1
lico lico AQ0MS0 0.392198
se se P00CN000 0.465602
han haber VAIP3P0 1
concentrado concentrar VMP00SM 0.833333
en en SPS00 1
las el DA0FP0 0.97051
ltimas ltimas NCFP000 1
jornadas jornada NCFP000 1
en_torno_a en_torno_a SPS00 1
la el DA0FS0 0.972146
segunda 2 AO0FS0 0.958333
ciudad ciudad NCFS000 1
en en SPS00 1
importancia importancia NCFS000 1
de de SPS00 1
el el DA0MS0 1
pa pa NCFS000 0.740689
s segundo NCMN000 0.622321
con con SPS00 1
el el DA0MS0 1
fin fin NCMS000 1
de de SPS00 0.999919
protagonizar protagonizar VMN0000 1
la el DA0FS0 0.972146
operaci operaci AQ0CS0 0.0199855
n n NCFS000 1
Tormenta_de_el_Norte tormenta_de_el_norte NP00000 1
Una uno DI0FS0 0.951241
fuente fuente NCFS000 1
de de SPS00 1
el el DA0MS0 1
mando mando NCMS000 0.25
militar militar AQ0CS0 0.666667
que que PR0CN000 0.5625
solicit solicit NCMN000 1
el el DA0MS0 1
anonimato anonimato NCMS000 1
explic explic RG 0.5
que que CS 0.4375
la el DA0FS0 0.972146
ofensiva ofensiva NCFS000 0.75
en en SPS00 1
el el DA0MS0 1
septentrional septentrional AQ0CS0 1
territorio territorio NCMS000 1
sucede suceder VMIP3S0 0.944444
a a SPS00 0.99585
la el DA0FS0 0.972146
reciente reciente AQ0CS0 0.925
toma toma NCFS000 0.433333
de de SPS00 0.999919
Qusseir qusseir NP00000 1
en en SPS00 1
la el DA0FS0 0.972146
provincia provincia NCFS000 1
de de SPS00 0.999919
Homs homs NP00000 1
acci acci RG 0.751648
n n NCFS000 1
catalogada catalogar VMP00SF 1
de de SPS00 0.999919
estrat estrat NCMS000 1
gico gico AQ0MS0 1
triunfo triunfo NCMS000 0.928571
sobre sobre SPS00 0.994203
los el DA0MP0 0.97623
irregulares irregular AQ0CP0 1
La la NP00000 1
operaci operaci RG 0.751648
n n NCFS000 1
Flautista_de_Hamelin flautista_de_hamelin NP00000 1
que que CS 0.4375
marc marc NC00000 0.538029
el el DA0MS0 1
5_de_junio [??:5/6/??:??.??:??] W 1
el el DA0MS0 1
asalto asalto NCMS000 0.75
final final AQ0CS0 0.148148
a a SPS00 1
el el DA0MS0 1
feudo feudo NCMS000 1
considerado considerar VMP00SM 1
durante durante SPS00 1
meses mes NCMP000 0.964286
el el DA0MS0 1
pulm pulm NCMS000 0.700265
n n NCFS000 1
de de SPS00 0.999919
los el DA0MP0 0.97623
opositores opositor AQ0MP0 0.357313
permiti permiti NCMS000 1
liquidar liquidar VMN0000 1
a a SPS00 0.99585
unos uno DI0MP0 0.879032
930 930 Z 1
terroristas terrorista NCCP000 0.625
la el DA0FS0 0.972146
captura captura NCFS000 0.666667
de de SPS00 0.999919
m m NCFS000 0.5
s segundo NCMN000 0.622321
de de SPS00 0.999919
300 300 Z 1
de de SPS00 0.999919
diversas diverso AQ0FP0 1
nacionalidades nacionalidad NCFP000 1
rabes rabes VMIP2S0 1
y y CC 0.999812
de de SPS00 0.999919
otras otro DI0FP0 0.731481
regiones región NCFP000 1
adem adem NCMS000 1
s segundo NCMN000 0.622321
de de SPS00 0.999919
mil_500 1500 Z 1
que que PR0CN000 0.5625
resultaron resultar VMIS3P0 1
heridos herir VMP00PM 0.5
sin sin SPS00 1
contar contar VMN0000 1
los el DA0MP0 0.97623
centenares centenar NCMP000 1
que que PR0CN000 0.5625
se se P00CN000 0.465602
rindieron rendir VMIS3P0 1
en en SPS00 1
d d NCFS000 1
as as NCMS000 1
previos previo AQ0MP0 0.75
Con con NP00000 1
la el DA0FS0 0.972146
reconquista reconquista NCFS000 0.846874
de de SPS00 0.999919
Qusseir qusseir NP00000 1
el el DA0MS0 1
mando mando NCMS000 0.25
castrense castrense AQ0CS0 0.965
cort cort NCMS000 1
una uno DI0FS0 0.951241
de de SPS00 0.999919
las el DA0FP0 0.97051
principales principal AQ0CP0 0.875
v v NCFS000 1
as as NCMS000 1
de de SPS00 0.999919
aprovisionamiento aprovisionamiento NCMS000 1
de de SPS00 0.999919
pertrechos pertrechos NCMP000 1
y y CC 0.999812
hombres hombre NCMP000 1
de de SPS00 0.999919
las el DA0FP0 0.97051
bandas banda NCFP000 1
mercenarias mercenario AQ0FP0 0.657264
lo el DA0NS0 0.457393
que que PR0CN000 0.5625
permiti permiti NCMS000 1
fortalecer fortalecer VMN0000 1
nuestras nuestro DP1FPP 0.972222
posiciones posición NCFP000 0.75
en en SPS00 1
los el DA0MP0 0.97623
alrededores alrededor NCMP000 1
de de SPS00 0.999919
la el DA0FS0 0.972146
capital capital NCFS000 0.372549
e y CC 0.973684
iniciar iniciar VMN0000 1
el el DA0MS0 1
avance avance NCMS000 0.8125
hacia hacia SPS00 1
la el DA0FS0 0.972146
parte parte NCFS000 0.497967
septentrional septentrional AQ0CS0 1
Hama_Idleb hama_idleb NP00000 1
y y CC 0.999812
Alepo alepo NP00000 1
analiz analiz AQ0CS0 1
el el DA0MS0 1
informante informante NCCS000 1
El el NP00000 1
diario diario NCMS000 0.5
A_el_Watan a_el_watan NP00000 1
coment coment NCMS000 0.607342
el el DA0MS0 1
domingo [G:??/??/??:??.??:??] W 1
que que PR0CN000 0.5625
el el DA0MS0 1
Ej ej NP00000 1
rcito rcito NCMS000 1
utilizar utilizar VMN0000 1
la el DA0FS0 0.972146
experiencia experiencia NCFS000 1
de de SPS00 0.999919
Qusseir qusseir NP00000 1
para para SPS00 0.998507
el el DA0MS0 1
combate combate NCMS000 0.75
en en SPS00 1
la el DA0FS0 0.972146
otrora otrora RG 1
capital capital AQ0CS0 0.254902
econ econ NCMS000 1
mica mica NCFS000 1
de de SPS00 0.999919
esta este DD0FS0 0.982143
naci naci AQ0CS0 0.0199855
n n NCFS000 1
levantina levantino AQ0FS0 0.65715
A a NP00000 1
juicio juicio NCMS000 1
de de SPS00 0.999919
expertos experto NCMP000 0.9
militares militar AQ0CP0 0.541667
consultados consultar VMP00PM 1
las el DA0FP0 0.97051
operaciones operación NCFP000 1
buscar buscar VMN0000 1
n n NCFS000 1
restablecer restablecer VMN0000 1
la el DA0FS0 0.972146
seguridad seguridad NCFS000 1
en en SPS00 1
la el DA0FS0 0.972146
regi regi AQ0CS0 0.0199855
n n NCFS000 1
septentrional septentrional AQ0CS0 1
antes_de antes_de SPS00 1
la el DA0FS0 0.972146
conferencia conferencia NCFS000 0.666667
internacional internacional AQ0CS0 0.833333
para para SPS00 0.998507
Siria siria NP00000 1
pactada pactar VMP00SF 1
para para SPS00 0.998507
julio [??:??/7/??:??.??:??] W 1
pr pr NCMS000 0.224371
ximo ximo AQ0MS0 0.937453
en en SPS00 1
Ginebra ginebra NP00000 1
a_fin_de a_fin_de SPS00 1
que que PR0CN000 0.5625
las el DA0FP0 0.97051
autoridades autoridad NCFP000 1
se se P00CN000 0.465602
sienten sentir VMIP3P0 0.933564
a a SPS00 0.99585
la el DA0FS0 0.972146
mesa mesa NCFS000 0.939394
de de SPS00 0.999919
negociaciones negociación NCFP000 1
con con SPS00 1
la el DA0FS0 0.972146
carta carta NCFS000 1
de de SPS00 0.999919
su su DP3CS0 1
dominio dominio NCMS000 1
en en SPS00 1
el el DA0MS0 1
terreno terreno NCMS000 0.95
Alepo alepo NP00000 1
uno uno PI0MS000 0.964744
de de SPS00 0.999919
los el DA0MP0 0.97623
bastiones bastión NCMP000 1
de de SPS00 0.999919
la el DA0FS0 0.972146
llamada llamar VMP00SF 0.875
insurgencia insurgencia NCFS000 1
armada armar VMP00SF 0.75
ha haber VAIP3S0 0.998141
sufrido sufrir VMP00SM 0.875
una uno DI0FS0 0.951241
gran gran AQ0CS0 1
destrucci destrucci NCMS000 0.0996348
n n NCFS000 1
de de SPS00 0.999919
su su DP3CS0 1
infraestructura infraestructura NCFS000 1
debido_a debido_a SPS00 1
los el DA0MP0 0.97623
cruentos cruento AQ0MP0 1
combates combate NCMP000 0.875
mantenidos mantener VMP00PM 1
entre entre SPS00 0.995223
las el DA0FP0 0.97051
fuerzas fuerza NCFP000 0.954545
de de SPS00 0.999919
seguridad seguridad NCFS000 1
y y CC 0.999812
los el DA0MP0 0.97623
irregulares irregular AQ0CP0 1
en en SPS00 1
algunos alguno PI0MP000 0.523438
de de SPS00 0.999919
sus su DP3CP0 0.998462
barrios barrio NCMP000 1
El el NP00000 1
triunfo triunfo NCMS000 0.928571
en en SPS00 1
Qusseir qusseir NP00000 1
motiv motiv VMIP3S0 0.0552772
el el DA0MS0 1
festejo festejo NCMS000 0.973497
en en SPS00 1
amplios amplio AQ0MP0 1
sectores sector NCMP000 1
de de SPS00 1
el el DA0MS0 1
pueblo pueblo NCMS000 0.978261
sirio sirio AQ0MS0 0.357349
que que PR0CN000 0.5625
mantienen mantener VMIP3P0 1
su su DP3CS0 1
apoyo apoyo NCMS000 0.928571
a a SPS00 1
el el DA0MS0 1
presidente presidente NCMS000 1
Bashar bashar NP00000 1
a a SPS00 1
el el DA0MS0 1
Assad_La assad_la NP00000 1
v v NCFS000 1
spera spera VMIP3S0 0.444593
una uno DI0FS0 0.951241
numerosa numeroso AQ0FS0 1
concentraci concentraci NCMS000 0.0996348
n n NCFS000 1
de de SPS00 0.999919
residentes residente NCCP000 0.75
de de SPS00 0.999919
la el DA0FS0 0.972146
urbe urbe NCFS000 1
y y CC 0.999812
de de SPS00 0.999919
poblados poblado NCMP000 0.25
aleda aledo AQ0FS0 1
os os PP2CP000 0.722222
as as NCMS000 1
como como CS 0.998579
estudiantes estudiante NCCP000 0.875
de de SPS00 0.999919
la el DA0FS0 0.972146
Universidad_A_el_Baath universidad_a_el_baath NP00000 1
se se P00CN000 0.465602
congregaron congregar VMIS3P0 1
en en SPS00 1
la el DA0FS0 0.972146
plaza plaza NCFS000 1
central central AQ0CS0 0.916667
de de SPS00 0.999919
la el DA0FS0 0.972146
localidad localidad NCFS000 1
para para SPS00 0.998507
celebrar celebrar VMN0000 1
la el DA0FS0 0.972146
eliminaci eliminaci AQ0CS0 0.0199855
n n NCFS000 1
de de SPS00 0.999919
los el DA0MP0 0.97623
mercenarios mercenario NCMP000 0.64273
enquistados enquistar VMP00PM 1
all all NCFN000 1
durante durante SPS00 1
varios varios DI0MP0 0.883333
meses mes NCMP000 0.964286
Los los NP00000 1
congregados congregar VMP00PM 1
manifestaron manifestar VMIS3P0 1
optimismo optimismo NCMS000 1
en en SPS00 1
la el DA0FS0 0.972146
capacidad capacidad NCFS000 1
de de SPS00 1
el el DA0MS0 1
estamento estamento NCMS000 1
castrense castrense AQ0CS0 0.965
para para SPS00 0.998507
enfrentar enfrentar VMN0000 1
el el DA0MS0 1
terrorismo terrorismo NCMS000 1
defender defender VMN0000 1
el el DA0MS0 1
honor honor NCMS000 1
nacional nacional AQ0CS0 1
y y CC 0.999812
frustrar frustrar VMN0000 1
la el DA0FS0 0.972146
conspiraci conspiraci AQ0CS0 0.0199855
n n NCFS000 1
internacional internacional AQ0CS0 0.833333
urdida urdir VMP00SF 1
para para SPS00 0.998507
destruir destruir VMN0000 1
la el DA0FS0 0.972146
tradicional tradicional AQ0CS0 1
resistencia resistencia NCFS000 1
de de SPS00 0.999919
Siria siria NP00000 1
detall detall AQ0CS0 0.587402
el el DA0MS0 1
canal canal NCMS000 1
oficial oficial AQ0CS0 0.916667
de de SPS00 0.999919
noticias noticia NCFP000 0.9375
Por por NP00000 1
su su DP3CS0 1
parte parte NCFS000 0.497967
el el DA0MS0 1
primer 1 AO0MS0 1
ministro ministro NCMS000 1
de de SPS00 0.999919
Siria_Wael siria_wael NP00000 1
a a SPS00 1
el el DA0MS0 1
Halaki halaki NP00000 1
vaticin vaticin RG 0.388954
que que CS 0.4375
el el DA0MS0 1
pueblo pueblo NCMS000 0.978261
celebrar celebrar VMN0000 1
pronto pronto RG 0.791667
la el DA0FS0 0.972146
victoria victoria NCFS000 0.954545
sobre sobre SPS00 0.994203
los el DA0MP0 0.97623
irregulares irregular AQ0CP0 1
Una uno DI0FS0 0.951241
fuente fuente NCFS000 1
diplom diplom NCMS000 0.500053
tica tica AQ0FS0 0.595788
opin opin NCMS000 1
que que PR0CN000 0.5625
a a SPS00 0.99585
los el DA0MP0 0.97623
gobiernos gobierno NCMP000 1
que que PR0CN000 0.5625
apadrinan apadrinar VMIP3P0 1
a a SPS00 0.99585
las el DA0FP0 0.97051
bandas banda NCFP000 1
mercenarias mercenario AQ0FP0 0.657264
desde desde SPS00 1
hace hacer VMIP3S0 1
dos 2 Z 0.988722
a a SPS00 0.99585
os os PP2CP000 0.722222
se se P00CN000 0.465602
les le PP3CPD00 1
agotan agotar VMIP3P0 1
las el DA0FP0 0.97051
opciones opción NCFP000 1
para para SPS00 0.998507
lograr lograr VMN0000 1
el el DA0MS0 1
ansiado ansiar VMP00SM 1
cambio cambio NCMS000 0.97619
de de SPS00 0.999919
r r NCFS000 0.638487
gimen gemir VMIP3P0 1
en en SPS00 1
Damasco_Habr damasco_habr NP00000 1
que que CS 0.4375
ver ver VMN0000 0.987179
si si CS 0.997706
quienes quien PR0CP000 1
han haber VAIP3P0 1
derrochado derrochar VMP00SM 1
centenares centenar NCMP000 1
de de SPS00 0.999919
millones millón NCMP000 1
de de SPS00 0.999919
d d NCFS000 1
lares lar NCMP000 1
para para SPS00 0.998507
mantener mantener VMN0000 1
esa ese DD0FS0 0.978261
maquinaria maquinaria NCFS000 1
b b NCFS000 1
lica lica AQ0FS0 0.500121
est est NCMS000 1
n n NCFS000 1
dispuestos disponer VMP00PM 1
a a SPS00 0.99585
asumir asumir VMN0000 1
su su DP3CS0 1
derrota derrota NCFS000 0.547112
o o CC 0.998845
persistir persistir VMN0000 1
n n NCFS000 1
en en SPS00 1
balcanizar balcanizar VMN0000 1
el el DA0MS0 1
pa pa NCFS000 0.740689
s segundo NCMN000 0.622321
islamizar islamizar VMN0000 1
lo lo PP3CNA00 0.5 lo PP3MSA00 0.5
y y CC 0.999812
repartir repartir VMN0000 1
se se PP3CN000 1
las el DA0FP0 0.97051
enormes enorme AQ0CP0 1
reservas reserva NCFP000 0.875
gas gas NCMS000 1
feras feras AQ0FP0 0.333298
que que PR0CN000 0.5625
all all NCFN000 1
subyacen subyacer VMIP3P0 1
argument argument NCMS000 0.607342
Alert alert NP00000 1
que que PR0CN000 0.5625
permanece permanecer VMIP3S0 0.875
la el DA0FS0 0.972146
interrogante interrogante NCMS000 0.34273
de de SPS00 0.999919
si si CS 0.997706
se se P00CN000 0.465602
concretar concretar VMN0000 1
por por SPS00 1
fin fin NCMS000 1
un uno DI0MS0 0.986987
arreglo arreglo NCMS000 0.75
pol pol NCMS000 0.861706
tico tico AQ0MS0 0.806828
a a SPS00 1
el el DA0MS0 1
contencioso contencioso NCMS000 0.34273
o o CC 0.998845
si si CS 0.997706
antes antes RG 1
se se P00CN000 0.465602
decidir decidir VMN0000 1
lanzar lanzar VMN0000 1
una uno DI0FS0 0.951241
invasi invasi RG 1
n n NCFS000 1
militar militar AQ0CS0 0.666667
contra contra SPS00 0.976316
esta este DD0FS0 0.982143
naci naci AQ0CS0 0.0199855
n n NCFS000 1
de de SPS00 1
el el DA0MS0 1
Levante levante NP00000 1
para para SPS00 0.998507
evitar evitar VMN0000 1
el el DA0MS0 1
triunfo triunfo NCMS000 0.928571
gubernamental gubernamental AQ0CS0 1
analiz analiz AQ0CS0 1
Haga haga NP00000 1
click click NCMS000 0.50012
aqu aqu NCMS000 0.774439
para para SPS00 0.998507
recibir recibir VMN0000 1
gratis gratis RG 0.75
Argenpress argenpress NP00000 1
en en SPS00 1
su su DP3CS0 1
correo correo NCMS000 0.735623
electr electr AQ0CS0 0.0829965
nico no NCMS00D 0.522084

