Argentina_Tucum argentina_tucum NP00000 1
n n NCFS000 1
El_Estado el_estado NP00000 1
detecta detectar VMIP3S0 0.75
el el DA0MS0 1
trabajo trabajo NCMS000 0.940476
en en SPS00 1
negro negro NCMS000 0.458333
pero pero CC 0.998821
no no RN 0.99778
lo lo PP3CNA00 0.271163
soluciona solucionar VMIP3S0 0.75
Tucum tucum NP00000 1
n n NCFS000 1
vive vivir VMIP3S0 0.96875
una uno DI0FS0 0.951241
situaci situaci AQ0CS0 0.0199855
n n NCFS000 1
parad parar VMM02P0 1
jica jica AQ0CS0 1
por por SPS00 1
un uno DI0MS0 0.986987
lado lado NCMS000 1
los lo PP3MPA00 0.023584
ndices ndices VMIP2S0 1
oficiales oficial AQ0CP0 0.866667
la lo PP3FSA00 0.0277626
exhiben exhibir VMIP3P0 1
como como CS 0.998579
la el DA0FS0 0.972146
provincia provincia NCFS000 1
que que PR0CN000 0.5625
lidera liderar VMIP3S0 0.994868
el el DA0MS0 1
trabajo trabajo NCMS000 0.940476
en en SPS00 1
negro negro NCMS000 0.458333
pero pero CC 0.998821
a a SPS00 1
el el DA0MS0 1
mismo mismo AQ0MS0 0.961905
tiempo tiempo NCMS000 1
las el DA0FP0 0.97051
organizaciones organización NCFP000 1
sociales social AQ0CP0 0.9375
denuncian denunciar VMIP3P0 1
que que CS 0.4375
los el DA0MP0 0.97623
controles control NCMP000 0.995706
de de SPS00 1
el el DA0MS0 1
Estado estado NP00000 1
son ser VSIP3P0 0.986772
ineficientes ineficiente AQ0CP0 1
El el NP00000 1
indicador indicador NCMS000 0.75
revelado revelar VMP00SM 0.75
por por SPS00 1
el el DA0MS0 1
Instituto_Nacional_de_Estad instituto_nacional_de_estad NP00000 1
stica stica AQ0FS0 0.76459
y y CC 0.999812
Censos_INDEC censos_indec NP00000 1
es ser VSIP3S0 1
la el DA0FS0 0.972146
prueba prueba NCFS000 0.916667
m m NCFS000 0.5
s segundo NCMN000 0.622321
palpable palpable AQ0CS0 1
de de SPS00 0.999919
esa ese DD0FS0 0.978261
situaci situaci AQ0CS0 0.0199855
n n NCFS000 1
El el NP00000 1
45 45 Z 1
5 5 Z 1
de de SPS00 0.999919
los el DA0MP0 0.97623
asalariados asalariado NCMP000 0.308233
que que PR0CN000 0.5625
residen residir VMIP3P0 1
en en SPS00 1
el el DA0MS0 1
Gran_Tucum gran_tucum NP00000 1
n n NCFS000 1
Taf_Viejo taf_viejo NP00000 1
est est NCMS000 1
n n NCFS000 1
en en SPS00 1
negro negro NCMS000 0.458333
en en SPS00 1
la el DA0FS0 0.972146
marginalidad marginalidad NCFS000 1
en en SPS00 1
la el DA0FS0 0.972146
oscuridad oscuridad NCFS000 1
donde donde PR000000 0.963542
no no RN 0.99778
se se P00CN000 0.465602
goza gozar VMIP3S0 0.833333
de de SPS00 0.999919
la el DA0FS0 0.972146
cobertura cobertura NCFS000 1
de de SPS00 0.999919
una uno DI0FS0 0.951241
obra obra NCFS000 0.972222
social social AQ0CS0 0.977273
y y CC 0.999812
donde donde PR000000 0.963542
tampoco tampoco RG 1
puede poder VMIP3S0 0.995614
aspirar aspirar VMN0000 1
se se PP3CN000 1
a a SPS00 0.99585
obtener obtener VMN0000 1
una uno DI0FS0 0.951241
jubilaci jubilaci AQ0CS0 0.0199855
n n NCFS000 1
en en SPS00 1
el el DA0MS0 1
futuro futuro NCMS000 0.944444
En en NP00000 1
n n NCFS000 1
meros mero AQ0MP0 0.357328
concretos concreto NCMP000 0.56773
durante durante SPS00 1
el el DA0MS0 1
primer 1 AO0MS0 1
trimestre trimestre NCMS000 0.342795
de de SPS00 1
el el DA0MS0 1
a a SPS00 0.99585
o o CC 0.998845
en en SPS00 1
el el DA0MS0 1
principal principal AQ0CS0 0.9375
aglomerado aglomerado NCMS000 0.308284
urbano urbano AQ0MS0 0.357352
hubo haber VMIS3S0 0.95
114 114 Z 1
000 0 Z 1
tucumanos tucumano NCMP000 0.451856
que que PR0CN000 0.5625
no no RN 0.99778
pueden poder VMIP3P0 1
mejorar mejorar VMN0000 1
su su DP3CS0 1
condici condici AQ0CS0 0.0199855
n n NCFS000 1
laboral laboral AQ0CS0 1
y y CC 0.999812
que que CS 0.4375
para para SPS00 0.998507
llevar llevar VMN0000 1
un_m LN_m:1 Zu 1
nimo nimo NCMS000 0.699864
de de SPS00 0.999919
ingresos ingreso NCMP000 1
a a SPS00 0.99585
sus su DP3CP0 0.998462
hogares hogar NCMP000 1
deben deber VMIP3P0 1
trabajar trabajar VMN0000 1
en en SPS00 1
las el DA0FP0 0.97051
situaciones situación NCFP000 1
m m NCFS000 0.5
s segundo NCMN000 0.622321
precarias precario AQ0FP0 1
Y y NP00000 1
sin sin SPS00 1
embargo embargo NCMS000 0.973496
el el DA0MS0 1
Estado estado NP00000 1
detecta detectar VMIP3S0 0.75
el el DA0MS0 1
problema problema NCMS000 1
pero pero CC 0.998821
no no RN 0.99778
lo lo PP3CNA00 0.271163
soluciona solucionar VMIP3S0 0.75
Organizaciones organizaciones NP00000 1
sociales social AQ0CP0 0.9375
y y CC 0.999812
sindicales sindical AQ0CP0 0.75
dijeron decir VMIS3P0 1
que que CS 0.4375
los el DA0MP0 0.97623
controles control NCMP000 0.995706
oficiales oficial AQ0CP0 0.866667
contra contra SPS00 0.976316
el el DA0MS0 1
empleo empleo NCMS000 0.785714
en en SPS00 1
negro negro NCMS000 0.458333
no no RN 0.99778
han haber VAIP3P0 1
sido ser VSP00SM 1
de de SPS00 1
el el DA0MS0 1
todo todo DI0MS0 0.559816
eficientes eficiente AQ0CP0 1
En en NP00000 1
un uno DI0MS0 0.986987
a a NCFS000 0.00415028
o o CC 0.998845
el el DA0MS0 1
ej ej NCMS000 0.692259
rcito rcito NCMS000 1
de de SPS00 0.999919
trabajadores trabajador NCMP000 0.928571
en en SPS00 1
negro negro NCMS000 0.458333
ha haber VAIP3S0 0.998141
crecido crecer VMP00SM 1
casi casi RG 1
en en SPS00 1
6 6 Z 1
000 0 Z 1
personas persona NCFP000 0.983871
Y y NP00000 1
la el DA0FS0 0.972146
tasa tasa NCFS000 0.765137
de de SPS00 0.999919
asalariados asalariado NCMP000 0.308233
sin sin SPS00 1
descuentos descuento NCMP000 1
jubilatorios jubilatorios AQ0MP0 0.10002
subi subi NCFS000 1
de de SPS00 1
el el DA0MS0 1
42 42 Z 1
a a SPS00 1
el el DA0MS0 1
45 45 Z 1
5 5 Z 1
As_Tucum as_tucum NP00000 1
n n NCFS000 1
ascendi ascendi VMIS1S0 1
en en SPS00 1
el el DA0MS0 1
podio podio NCMS000 1
a a SPS00 1
el el DA0MS0 1
primer 1 AO0MS0 1
lugar lugar NCMS000 1
superando superar VMG0000 1
a a SPS00 0.99585
Santiago_de_el_Estero_La_Banda santiago_de_el_estero_la_banda NP00000 1
un uno DI0MS0 0.986987
aglomerado aglomerado NCMS000 0.308284
que que CS 0.4375
pocas poco DI0FP0 0.95
veces vez NCFP000 1
abandon abandon NCMS000 1
la el DA0FS0 0.972146
punta punta NCCS000 1
en en SPS00 1
informalidad informalidad NCFS000 1
laboral laboral AQ0CS0 1
seg segundo NCMN000 1
n n NCFS000 1
detall detall AQ0CS0 0.587402
el el DA0MS0 1
diario diario NCMS000 0.5
local local AQ0CS0 0.5
La_Gaceta_Especialistas la_gaceta_especialistas NP00000 1
universitarios universitario AQ0MP0 0.5
dicen decir VMIP3P0 1
que que CS 0.4375
el el DA0MS0 1
mercado mercado NCMS000 0.9
de de SPS00 0.999919
trabajo trabajo NCMS000 0.940476
tucumano tucumano AQ0MS0 0.657231
perdi perdar VMIS1S0 0.994868
fuerza fuerza NCFS000 0.968254
por por SPS00 1
efecto efecto NCMS000 1
de de SPS00 0.999919
la el DA0FS0 0.972146
desaceleraci desaceleraci AQ0CS0 0.0199855
n n NCFS000 1
econ econ NCMS000 1
mica mica NCFS000 1
y y CC 0.999812
por por SPS00 1
la el DA0FS0 0.972146
estacionalidad estacionalidad NCFS000 1
propia propio AQ0FS0 1
de de SPS00 0.999919
un uno DI0MS0 0.986987
trimestre trimestre NCMS000 0.342795
con con SPS00 1
f f NCFS000 1
bricas bricas NCFP000 1
paradas parar VMP00PF 0.571997
y y CC 0.999812
el el DA0MS0 1
comercio comercio NCMS000 0.833333
trabajando trabajar VMG0000 1
a a SPS00 0.99585
media medio AQ0FS0 0.72
m m NCFS000 0.5
quina quina NCFS000 1
Tambi tambi NP00000 1
n n NCFS000 1
por por SPS00 1
el el DA0MS0 1
efecto efecto NCMS000 1
de de SPS00 1
el el DA0MS0 1
freno freno NCMS000 0.833333
en en SPS00 1
la el DA0FS0 0.972146
obra obra NCFS000 0.972222
p p NCFS000 0.5
blica blica AQ0FS0 1
y y CC 0.999812
privada privar VMP00SF 0.833333
A a NP00000 1
nivel nivel NCMS000 1
nacional nacional AQ0CS0 1
cerca cerca RG 0.925
de de SPS00 0.999919
4_millones 4000000 Zd 1
de de SPS00 0.999919
trabajadores trabajador NCMP000 0.928571
estaba estar VAII1S0 0.5
en en SPS00 1
la el DA0FS0 0.972146
informalidad informalidad NCFS000 1
a a SPS00 1
el el DA0MS0 1
cierre cierre NCMS000 0.899603
de de SPS00 1
el el DA0MS0 1
primer 1 AO0MS0 1
trimestre trimestre NCMS000 0.342795
de de SPS00 1
el el DA0MS0 1
a a NCFS000 0.00415028
o o CC 0.998845
seg segundo NCMN000 1
n n NCFS000 1
consigna consignar VMIP3S0 0.666667
la el DA0FS0 0.972146
agencia agencia NCFS000 0.666667
DyN_Esta dyn_esta NP00000 1
cifra cifra NCFS000 0.799844
corresponde corresponder VMIP3S0 0.95
a a SPS00 0.99585
una uno DI0FS0 0.951241
tasa tasa NCFS000 0.765137
de de SPS00 0.999919
32 32 Z 1
0 0 Z 1
8 8 Z 1
puntos punto NCMP000 1
por por SPS00 1
debajo_de debajo_de SPS00 1
el el DA0MS0 1
registro registro NCMS000 0.973497
de de SPS00 1
el el DA0MS0 1
mismo mismo AQ0MS0 0.961905
per per VMN0000 0.600243
odo odo RG 0.51927
de de SPS00 0.999919
2012 2012 Z 1
Sobre_una_Poblaci sobre_una_poblaci NP00000 1
n n NCFS000 1
Econ econ NP00000 1
micamente micamente RG 1
Activa_PEA activa_pea NP00000 1
de de SPS00 0.999919
18_millones 18000000 Zd 1
de de SPS00 0.999919
personas persona NCFP000 0.983871
con con SPS00 1
una uno DI0FS0 0.951241
tasa tasa NCFS000 0.765137
de de SPS00 0.999919
desocupaci desocupaci RG 0.751648
n n NCFS000 1
de de SPS00 0.999919
7 7 Z 1
9 9 Z 1
y y CC 0.999812
un uno DI0MS0 0.986987
76 76 Z 1
8 8 Z 1
de de SPS00 0.999919
asalariados asalariado NCMP000 0.308233
totales total AQ0CP0 0.75
el el DA0MS0 1
32 32 Z 1
corresponde corresponder VMIP3S0 0.95
a a SPS00 0.99585
4_millones 4000000 Zd 1
de de SPS00 0.999919
trabajadores trabajador NCMP000 0.928571
La la NP00000 1
ca ca I 1
da dar VMIP3S0 0.983871
de de SPS00 0.999919
la el DA0FS0 0.972146
informalidad informalidad NCFS000 1
que que PR0CN000 0.5625
debiera deber VMSI3S0 0.5
ser ser VSN0000 0.93883
un uno DI0MS0 0.986987
signo signo NCMS000 0.916667
de de SPS00 0.999919
mejor mejor AQ0CS0 0.868421
calidad calidad NCFS000 1
en en SPS00 1
el el DA0MS0 1
empleo empleo NCMS000 0.785714
contrasta contrastar VMIP3S0 0.75
con con SPS00 1
los el DA0MP0 0.97623
resultados resultado NCMP000 0.958333
laborales laboral AQ0CP0 0.833333
de de SPS00 1
el el DA0MS0 1
per per NCMS000 0.19998
odo odo RG 0.51927
ya_que ya_que CS 1
el el DA0MS0 1
desempleo desempleo NCMS000 1
en en SPS00 1
el el DA0MS0 1
primer 1 AO0MS0 1
trimestre trimestre NCMS000 0.342795
de de SPS00 0.999919
a a NCFS000 0.00415028
o o CC 0.998845
subi subi NCFS000 1
0 0 Z 1
8 8 Z 1
puntos punto NCMP000 1
respecto_de respecto_de SPS00 1
el el DA0MS0 1
que que PR0CN000 0.5625
se se P00CN000 0.465602
hab hab NCMS000 0.63631
a a SPS00 0.99585
registrado registrar VMP00SM 1
un uno DI0MS0 0.986987
a a NCFS000 0.00415028
o o CC 0.998845
atr atr VMN0000 0.633986
s segundo NCMN000 0.622321
Por por NP00000 1
otra otro DI0FS0 0.801136
parte parte NCFS000 0.497967
en en SPS00 1
el el DA0MS0 1
per per NCMS000 0.19998
odo odo RG 0.51927
en en SPS00 1
estudio estudio NCMS000 0.954545
la el DA0FS0 0.972146
econom econom NCMS000 0.500053
a a SPS00 0.99585
muestra mostrar VMIP3S0 0.703704
un uno DI0MS0 0.986987
crecimiento crecimiento NCMS000 1
promedio promedio NCMS000 0.973497
de de SPS00 1
el el DA0MS0 1
1 1 Z 1
5 5 Z 1
insuficiente insuficiente AQ0CS0 1
para para SPS00 0.998507
estimular estimular VMN0000 1
la el DA0FS0 0.972146
plaza plaza NCFS000 1
de de SPS00 0.999919
trabajo trabajo NCMS000 0.940476
Los los NP00000 1
datos dato NCMP000 1
de de SPS00 1
el el DA0MS0 1
Indec indec NP00000 1
confirman confirmar VMIP3P0 1
adem adem NCMS000 1
s segundo NCMN000 0.622321
que que CS 0.4375
los el DA0MP0 0.97623
j j NCFS000 1
venes venes AQ0CP0 0.35715
son ser VSIP3P0 0.986772
los el DA0MP0 0.97623
m m NCFS000 0.5
s segundo NCMN000 0.622321
castigados castigar VMP00PM 1
por por SPS00 1
el el DA0MS0 1
desempleo desempleo NCMS000 1
con con SPS00 1
una uno DI0FS0 0.951241
tasa tasa NCFS000 0.765137
de de SPS00 1
el el DA0MS0 1
11 11 Z 1
2 2 Z 1
casi casi RG 1
el el DA0MS0 1
doble doble AQ0CS0 0.927273
que que CS 0.4375
el el DA0MS0 1
ndice ndice NCMS000 1
general general AQ0CS0 0.90625
5 5 Z 1
8 8 Z 1
Un uno DI0MS0 0.986987
cambio cambio NCMS000 0.97619
de de SPS00 0.999919
tendencia tendencia NCFS000 1
a a SPS00 1
el el DA0MS0 1
menos menos RG 1
en en SPS00 1
las el DA0FP0 0.97051
estad estar VAM02P0 1
sticas sticas NCFP000 0.583058
oficiales oficial AQ0CP0 0.866667
es ser VSIP3S0 1
que que CS 0.4375
las el DA0FP0 0.97051
j j NCFS000 1
venes venes AQ0CP0 0.35715
tucumanas tucumano AQ0FP0 0.657115
ya ya RG 0.996988
no no RN 0.99778
son ser VSIP3P0 0.986772
tan tan RG 1
golpeadas golpear VMP00PF 1
por por SPS00 1
la el DA0FS0 0.972146
desocupaci desocupaci AQ0CS0 0.0199855
n n NCFS000 1
La la NP00000 1
tasa tasar VMIP3S0 0.232553
femenina femenino AQ0FS0 1
juvenil juvenil NCCS000 0.345922
fue ser VSIS3S0 0.932292
de de SPS00 1
el el DA0MS0 1
10 10 Z 1
1 1 Z 1
El el NP00000 1
doctor doctor NCMS000 1
Carlos_Alberto_Frascarolo carlos_alberto_frascarolo NP00000 1
de de SPS00 0.999919
la el DA0FS0 0.972146
c c NCFS000 1
tedra tedra NCFS000 1
de de SPS00 0.999919
Derecho_de_el_Trabajo derecho_de_el_trabajo NP00000 1
y y CC 0.999812
la el DA0FS0 0.972146
Seguridad_Social_de_la_Universidad_Nacional_de_Tucum seguridad_social_de_la_universidad_nacional_de_tucum NP00000 1
n n NCFS000 1
UNT unt NP00000 1
analiz analiz AQ0CS0 1
que que PR0CN000 0.5625
aument aument NCMS000 0.607342
la el DA0FS0 0.972146
existencia existencia NCFS000 1
de de SPS00 0.999919
numerosos numeroso AQ0MP0 1
j j NCFS000 1
venes venes AQ0CP0 0.35715
con con SPS00 1
capacitaci capacitaci RG 0.751648
n n NCFS000 1
o o CC 0.998845
t t NCFS000 1
tulos tulos NCMP000 1
que que PR0CN000 0.5625
no no RN 0.99778
encuentran encontrar VMIP3P0 1
su su DP3CS0 1
ubicaci ubicaci AQ0CS0 0.0199855
n n NCFS000 1
en en SPS00 1
el el DA0MS0 1
mercado mercado NCMS000 0.9
laboral laboral AQ0CS0 1
y y CC 0.999812
si si CS 0.997706
llegan llegar VMIP3P0 1
a a SPS00 0.99585
insertar insertar VMN0000 1
se se PP3CN000 1
lamentablemente lamentablemente RG 1
todav todav AQ0CS0 0.0433699
a a SPS00 0.99585
deben deber VMIP3P0 1
hacer hacer VMN0000 1
lo lo PP3CNA00 0.5 lo PP3MSA00 0.5
aceptando aceptar VMG0000 1
trabajar trabajar VMN0000 1
en en SPS00 1
negro negro NCMS000 0.458333
El el NP00000 1
desaf desaf I 1
o o CC 0.998845
para para SPS00 0.998507
el el DA0MS0 1
catedr catedr NCMS000 0.224371
tico tico AQ0MS0 0.806828
no no RN 0.99778
s segundo NCMN000 0.622321
lo lo PP3CNA00 0.271163
es ser VSIP3S0 1
tener tener VMN0000 1
trabajo trabajo NCMS000 0.940476
sino_que sino_que CC 1
ste ste NCMS000 0.138565
sea ser VSSP1S0 0.485714
seguro seguro AQ0MS0 0.564103
en en SPS00 1
blanco blanco NCMS000 0.40625
y y CC 0.999812
proyecte proyectar VMM03S0 0.0531209
cierta cierto AQ0FS0 1
estabilidad estabilidad NCFS000 1
hacia hacia SPS00 1
el el DA0MS0 1
futuro futuro NCMS000 0.944444
Toda toda NP00000 1
la el DA0FS0 0.972146
cobertura cobertura NCFS000 1
que que PR0CN000 0.5625
acompa acompa VMSP3S0 1
a a SPS00 0.99585
a a SPS00 1
el el DA0MS0 1
trabajo trabajo NCMS000 0.940476
debidamente debidamente RG 1
registrado registrar VMP00SM 1
est est NCMS000 1
vigente vigente AQ0CS0 1
s segundo NCMN000 0.622321
lo el DA0NS0 0.457393
resta resta NCFS000 0.666667
que que PR0CN000 0.5625
se se P00CN000 0.465602
la lo PP3FSA00 0.0277626
aplique aplicar VMSP1S0 0.416667
con con SPS00 1
responsabilidad responsabilidad NCFS000 1
y y CC 0.999812
de de SPS00 0.999919
manera manera NCFS000 1
estricta estricto AQ0FS0 1
y y CC 0.999812
que que PR0CN000 0.5625
no no RN 0.99778
se se P00CN000 0.465602
tenga tener VMSP1S0 0.452381
que que CS 0.4375
aceptar aceptar VMN0000 1
un uno DI0MS0 0.986987
empleo empleo NCMS000 0.785714
transitorio transitorio AQ0MS0 1
o o CC 0.998845
ef ef NCMS000 0.500257
mero mero AQ0MS0 0.777778
para para SPS00 0.998507
poder poder VMN0000 0.288462
subsistir subsistir VMN0000 1
situaci situaci RG 0.751648
n n NCFS000 1
que que PR0CN000 0.5625
se se P00CN000 0.465602
agudiza agudizar VMIP3S0 0.75
en en SPS00 1
el el DA0MS0 1
caso caso NCMS000 0.990741
de de SPS00 0.999919
que que CS 0.4375
el el DA0MS0 1
trabajador trabajador NCMS000 0.833333
tenga tener VMSP1S0 0.452381
una uno DI0FS0 0.951241
familia familia NCFS000 1
a a SPS00 0.99585
cargo cargo NCMS000 0.916667
concluy concluy RG 0.993863
Haga haga NP00000 1
click click NCMS000 0.50012
aqu aqu NCMS000 0.774439
para para SPS00 0.998507
recibir recibir VMN0000 1
gratis gratis RG 0.75
Argenpress argenpress NP00000 1
en en SPS00 1
su su DP3CS0 1
correo correo NCMS000 0.735623
electr electr AQ0CS0 0.0829965
nico no NCMS00D 0.522084

