Argentina_Comunidad_Qom_de_Formosa_Procesado argentina_comunidad_qom_de_formosa_procesado NP00000 1
por por SPS00 1
usurpar usurpar VMN0000 1
su su DP3CS0 1
propia propio AQ0FS0 1
tierra tierra NCFS000 1
Reproducimos reproducimos NP00000 1
a a SPS00 0.99585
continuaci continuaci RG 0.751648
n n NCFS000 1
una uno DI0FS0 0.951241
carta carta NCFS000 1
escrita escribir VMP00SF 1
por por SPS00 1
F f NP00000 1
lix lix NCMN000 0.545207
D d NP00000 1
az az NCFS000 1
qarashe qarashe NCFS000 0.509017
de de SPS00 0.999919
la el DA0FS0 0.972146
comunidad comunidad NCFS000 1
qom qom NCMS000 0.500053
Potae_Napocna_Navogoh potae_napocna_navogoh NP00000 1
ante ante SPS00 0.990566
su su DP3CS0 1
procesamiento procesamiento NCMS000 1
por por SPS00 1
parte parte NCFS000 0.497967
de de SPS00 0.999919
la el DA0FS0 0.972146
justicia justicia NCFS000 1
de de SPS00 0.999919
Formosa formosa NP00000 1
feudo feudo NCMS000 1
de de SPS00 1
el el DA0MS0 1
ultrakirchnerista ultrakirchnerista NCCS000 0.400063
criminal criminal AQ0CS0 0.625
Gildo_Insfr gildo_insfr NP00000 1
n n NCFS000 1
por por SPS00 1
usurpaci usurpaci RG 0.751648
n n NCFS000 1
de de SPS00 0.999919
su su DP3CS0 1
propio propio AQ0MS0 0.98
territorio territorio NCMS000 1
Basta basta NP00000 1
de de SPS00 0.999919
violaci violaci RG 0.751648
n n NCFS000 1
a a SPS00 0.99585
los el DA0MP0 0.97623
derechos derecho NCMP000 0.9
ind ind AQ0CN0 0.357839
genas genas NCCP000 1
no no RN 0.99778
m m NCFS000 0.5
s segundo NCMN000 0.622321
criminalizaci criminalizaci RG 0.751648
n n NCFS000 1
de de SPS00 0.999919
todos todo DI0MP0 0.622419
los el DA0MP0 0.97623
luchadores luchador NCMP000 0.608934
sociales social AQ0CP0 0.9375
Mi mi NP00000 1
nombre nombre NCMS000 0.97973
es ser VSIP3S0 1
F f NP00000 1
lix lix NCMN000 0.545207
Diaz diaz NP00000 1
qarashe qarashe NCFS000 0.509017
de de SPS00 0.999919
la el DA0FS0 0.972146
comunidad comunidad NCFS000 1
qom qom NCMS000 0.500053
Potae_Napocna_Navogoh_Estoy potae_napocna_navogoh_estoy NP00000 1
muy muy RG 1
preocupado preocupar VMP00SM 1
por por SPS00 1
la el DA0FS0 0.972146
agilidad agilidad NCFS000 1
de de SPS00 0.999919
las el DA0FP0 0.97051
causas causa NCFP000 0.833333
penales penal AQ0CP0 0.331959
cuando cuando CS 0.983796
se se P00CN000 0.465602
trata tratar VMIP3S0 0.946237
de de SPS00 0.999919
nosotros nosotros PP1MP000 1
los el DA0MP0 0.97623
ind ind AQ0CN0 0.357839
genas genas NCCP000 1
Cuando cuando NP00000 1
se se P00CN000 0.465602
trata tratar VMIP3S0 0.946237
de de SPS00 0.999919
pedir pedir VMN0000 1
investigaci investigaci RG 0.751648
n n NCFS000 1
o o CC 0.998845
procesamiento procesamiento NCMS000 1
en en SPS00 1
cualquier cualquiera DI0CS0 1
delito delito NCMS000 1
contra contra SPS00 0.976316
un uno DI0MS0 0.986987
ind ind NCFS000 0.642161
gena gena AQ0FS0 0.426806
nunca nunca RG 1
se se P00CN000 0.465602
investiga investigar VMIP3S0 0.994868
Por_ejemplo por_ejemplo NP00000 1
en en SPS00 1
casos caso NCMP000 1
de de SPS00 0.999919
muertes muerte NCFP000 1
en en SPS00 1
accidentes accidente NCMP000 0.875
enfermedades enfermedad NCFP000 1
homicidios homicidio NCMP000 1
a a SPS00 0.99585
ind ind AQ0CN0 0.357839
genas genas NCCP000 1
Esto esto NP00000 1
es ser VSIP3S0 1
lo el DA0NS0 0.457393
que que PR0CN000 0.5625
a a SPS00 0.99585
nosotros nosotros PP1MP000 1
nos nos PP1CP000 0.933333
preocupa preocupar VMIP3S0 0.875
se se P00CN000 0.465602
trata tratar VMIP3S0 0.946237
de de SPS00 0.999919
silenciar silenciar VMN0000 1
el el DA0MS0 1
reclamo reclamo NCMS000 0.673603
de de SPS00 0.999919
todos todo DI0MP0 0.622419
lo el DA0NS0 0.457393
pueblos pueblo NCMP000 1
ind ind AQ0CN0 0.357839
genas genas NCCP000 1
y y CC 0.999812
sobre sobre SPS00 0.994203
todo todo PI0MS000 0.430982
de de SPS00 0.999919
nosotros nosotros PP1MP000 1
como como CS 0.998579
intengrantes intengrantes NCCP000 1
de de SPS00 0.999919
Potae_Napocna_Navogoh_Este potae_napocna_navogoh_este NP00000 1
es ser VSIP3S0 1
un uno DI0MS0 0.986987
mes mes NCMS000 1
en en SPS00 1
que que CS 0.4375
los el DA0MP0 0.97623
gobiernos gobierno NCMP000 1
latinoamericanos latinoamericano AQ0MP0 0.490617
reconocen reconocer VMIP3P0 1
la el DA0FS0 0.972146
existencia existencia NCFS000 1
de de SPS00 0.999919
los el DA0MP0 0.97623
pueblos pueblo NCMP000 1
indigenas indigenas NCCP000 1
de de SPS00 0.999919
este este DD0MS0 0.956743
continente continente NCMS000 0.875
Es es NP00000 1
un uno DI0MS0 0.986987
mes mes NCMS000 1
de de SPS00 0.999919
reflexion reflexion NCMS000 0.0665581
y y CC 0.999812
de de SPS00 0.999919
exigencia exigencia NCFS000 1
a a SPS00 1
el el DA0MS0 1
estado estado NCMS000 0.662162
por por SPS00 1
el el DA0MS0 1
respeto respeto NCMS000 0.863636
de de SPS00 0.999919
los el DA0MP0 0.97623
derechos derecho NCMP000 0.9
de de SPS00 0.999919
los el DA0MP0 0.97623
Pueblos_Ind pueblos_ind NP00000 1
genas genas NCCP000 1
que que PR0CN000 0.5625
tiene tener VMIP3S0 1
que que CS 0.4375
ver ver VMN0000 0.987179
con con SPS00 1
los el DA0MP0 0.97623
territorios territorio NCMP000 1
que que PR0CN000 0.5625
los el DA0MP0 0.97623
pueblos pueblo NCMP000 1
han haber VAIP3P0 1
ocupado ocupar VMP00SM 1
hist hist NCMS000 1
ricamente ricamente RG 1
Nos nos NP00000 1
siguen seguir VMIP3P0 1
despojando despojar VMG0000 1
de de SPS00 0.999919
nuestros nuestro DP1MPP 0.854167
territorios territorio NCMP000 1
usando usar VMG0000 1
el el DA0MS0 1
codigo codecir VMIP1S0 1
civil civil AQ0CS0 0.95
que que CS 0.4375
nada nada PI0CS000 0.846667
tiene tener VMIP3S0 1
que que CS 0.4375
ver ver VMN0000 0.987179
con con SPS00 1
los el DA0MP0 0.97623
derechos derecho NCMP000 0.9
especiales especial AQ0CP0 1
reconocidos reconocer VMP00PM 1
por por SPS00 1
leyes ley NCFP000 1
internacionles internacionles AQ0CP0 0.545952
gobiernos gobierno NCMP000 1
nacionales nacional AQ0CP0 1
y y CC 0.999812
provinciales provincial AQ0CP0 1
Un uno DI0MS0 0.986987
juez juez NCCS000 1
de de SPS00 0.999919
Formosa formosa NP00000 1
me me PP1CS000 0.889706
acaba acabar VMIP3S0 0.966667
de de SPS00 0.999919
procesar procesar VMN0000 1
por por SPS00 1
una uno DI0FS0 0.951241
causa causa NCFS000 0.794872
de de SPS00 0.999919
usurpaci usurpaci RG 0.751648
n n NCFS000 1
que que PR0CN000 0.5625
nunca nunca RG 1
aceptar aceptar VMN0000 1
porque porque CS 1
no no RN 0.99778
es ser VSIP3S0 1
una uno DI0FS0 0.951241
causa causa NCFS000 0.794872
penal penal AQ0CS0 0.75
Pertenezco pertenezco NP00000 1
a a SPS00 0.99585
aun aun RG 0.84375
pueblo pueblo NCMS000 0.978261
preexistente preexistente AQ0CS0 1
a a SPS00 1
el el DA0MS0 1
estado estado NCMS000 0.662162
y y CC 0.999812
exigimos exigir VMIP1P0 0.649947
el el DA0MS0 1
respeto respeto NCMS000 0.863636
de de SPS00 0.999919
esos ese DD0MP0 0.961538
derechos derecho NCMP000 0.9
consagrados consagrar VMP00PM 1
en en SPS00 1
la el DA0FS0 0.972146
constituci constituci AQ0CS0 0.0199855
n n NCFS000 1
nacional nacional AQ0CS0 1
en en SPS00 1
el el DA0MS0 1
Convenio convenio NP00000 1
169 169 Z 1
de de SPS00 0.999919
la el DA0FS0 0.972146
OIT oit NP00000 1
y y CC 0.999812
en en SPS00 1
otras otro DI0FP0 0.731481
herramientas herramienta NCFP000 1
jur jur NCMS000 0.75005
dicas dica NCFP000 1
que que PR0CN000 0.5625
protegen proteger VMIP3P0 1
y y CC 0.999812
amparan amparar VMIP3P0 1
a a SPS00 0.99585
los el DA0MP0 0.97623
pueblos pueblo NCMP000 1
ind ind AQ0CN0 0.357839
genas genas NCCP000 1
Nadie nadie NP00000 1
puede poder VMIP3S0 0.995614
acusar acusar VMN0000 1
a a SPS00 0.99585
un uno DI0MS0 0.986987
ind ind NCFS000 0.642161
gena gena AQ0FS0 0.426806
por por SPS00 1
vivir vivir VMN0000 0.978261
en en SPS00 1
su su DP3CS0 1
territorio territorio NCMS000 1
tradicional tradicional AQ0CS0 1
se se P00CN000 0.465602
trata tratar VMIP3S0 0.946237
de de SPS00 0.999919
una uno DI0FS0 0.951241
grave grave AQ0CS0 0.90625
falta falta NCFS000 0.693182
a a SPS00 0.99585
la el DA0FS0 0.972146
normativa normativa NCFS000 0.48752
indigenista indigenista AQ0CS0 1
a a SPS00 0.99585
la el DA0FS0 0.972146
justicia justicia NCFS000 1
Se se NP00000 1
intenta intentar VMIP3S0 0.944444
favorecer favorecer VMN0000 1
a a SPS00 0.99585
una uno DI0FS0 0.951241
familia familia NCFS000 1
criolla criollo AQ0FS0 0.357294
y y CC 0.999812
a a SPS00 0.99585
la el DA0FS0 0.972146
Universidad_de_Formosa universidad_de_formosa NP00000 1
por por SPS00 1
sobre sobre SPS00 0.994203
nuestros nuestro DP1MPP 0.854167
derechos derecho NCMP000 0.9
No no NP00000 1
descansaremos descansar VMIF1P0 1
hasta hasta SPS00 0.955172
que que CS 0.4375
nuestros nuestro DP1MPP 0.854167
derechos derecho NCMP000 0.9
se se P00CN000 0.465602
cumplan cumplir VMSP3P0 0.901253
Haga haga NP00000 1
click click NCMS000 0.50012
aqu aqu NCMS000 0.774439
para para SPS00 0.998507
recibir recibir VMN0000 1
gratis gratis RG 0.75
Argenpress argenpress NP00000 1
en en SPS00 1
su su DP3CS0 1
correo correo NCMS000 0.735623
electr electr AQ0CS0 0.0829965
nico no NCMS00D 0.522084

