Brasil_Rousseff brasil_rousseff NP00000 1
defiende defender VMIP3S0 0.875
el el DA0MS0 1
compre comprar VMM03S0 0.666667
nacional nacional AQ0CS0 1
La la NP00000 1
presidenta presidente NCFS000 1
brasile brasile NCMS000 1
a a SPS00 0.99585
Dilma_Rousseff dilma_rousseff NP00000 1
declar declar VMN0000 1
hoy hoy RG 0.877358
que que CS 0.4375
su su DP3CS0 1
gobierno gobierno NCMS000 0.9
destin destin RG 0.388954
4 4 Z 1
000_millones_de_d TM_d:0 Zu 1
lares lar NCMP000 1
a a SPS00 0.99585
un uno DI0MS0 0.986987
programa programa NCMS000 0.866667
de de SPS00 0.999919
compras compra NCFP000 0.964676
estatales estatal AQ0CP0 1
de de SPS00 0.999919
productos producto NCMP000 0.833333
industriales industrial AQ0CP0 0.833333
de de SPS00 0.999919
origen origen NCMS000 1
nacional nacional AQ0CS0 1
como como CS 0.998579
forma forma NCFS000 0.960317
de de SPS00 0.999919
garantizar garantizar VMN0000 1
el el DA0MS0 1
fortalecimiento fortalecimiento NCMS000 1
de de SPS00 0.999919
emprendimientos emprendimiento NCMP000 1
y y CC 0.999812
generar generar VMN0000 1
empleo empleo NCMS000 0.785714
El el NP00000 1
gobierno gobierno NCMS000 0.9
hace hacer VMIP3S0 1
muchas mucho DI0FP0 0.819444
compras compra NCFP000 0.964676
porque porque CS 1
necesita necesitar VMIP3S0 0.95
ofrecer ofrecer VMN0000 1
buenos bueno AQ0MP0 1
servicios servicio NCMP000 1
a a SPS00 0.99585
la el DA0FS0 0.972146
poblaci poblaci AQ0CS0 0.0199855
n n NCFS000 1
y y CC 0.999812
adem adem NCMS000 1
s segundo NCMN000 0.622321
porque porque CS 1
es ser VSIP3S0 1
importante importante AQ0CS0 1
que que CS 0.4375
utilice utilizar VMSP3S0 0.623357
su su DP3CS0 1
poder poder NCMS000 0.711538
de de SPS00 0.999919
compra compra NCFS000 0.541667
para para SPS00 0.998507
estimular estimular VMN0000 1
a a SPS00 0.99585
la el DA0FS0 0.972146
industria industria NCFS000 0.833333
generar generar VMN0000 1
empleo empleo NCMS000 0.785714
y y CC 0.999812
aumentar aumentar VMN0000 1
la el DA0FS0 0.972146
renta renta NCFS000 0.833333
de de SPS00 0.999919
los el DA0MP0 0.97623
trabajadores trabajador NCMP000 0.928571
afirm afirm NCMS000 0.700265
Rousseff_En rousseff_en NP00000 1
ese ese DD0MS0 0.98125
sentido sentido NCMS000 0.948276
mencion mencion VMIS3P0 0.923476
el el DA0MS0 1
Programa_de_Aceleraci programa_de_aceleraci NP00000 1
n n NCFS000 1
de de SPS00 0.999919
Crecimiento_PAC crecimiento_pac NP00000 1
lanzado lanzar VMP00SM 1
en en SPS00 1
2007 2007 Z 1
con con SPS00 1
cerca cerca RG 0.925
de de SPS00 0.999919
300_millones_de_d TM_d:300000000 Zu 1
lares lar NCMP000 1
en en SPS00 1
obras obra NCFP000 0.9375
de de SPS00 0.999919
infraestructura infraestructura NCFS000 1
y y CC 0.999812
un uno DI0MS0 0.986987
cap capítulo NCMS000 1
tulo tulo NCMS000 1
de de SPS00 0.999919
de de SPS00 0.999919
ese ese DD0MS0 0.98125
plan plan NCMS000 1
sobre sobre SPS00 0.994203
el el DA0MS0 1
compre comprar VMM03S0 0.666667
nacional nacional AQ0CS0 1
Creamos_el_PAC_de_los_Equipamientos creamos_el_pac_de_los_equipamientos NP00000 1
que que PR0CN000 0.5625
ya ya RG 0.996988
lleg lleg NCMS000 0.714133
a a SPS00 0.99585
los el DA0MP0 0.97623
8 8 Z 1
000_millones_de_reales $_BRL:0 Zm 1
4 4 Z 1
000_millones_de_d TM_d:0 Zu 1
lares lar NCMP000 1
en en SPS00 1
que que PR0CN000 0.5625
se se P00CN000 0.465602
respeta respetar VMIP3S0 0.75
el el DA0MS0 1
llamado llamar VMP00SM 0.973684
margen margen NCCS000 1
de de SPS00 0.999919
preferencia preferencia NCFS000 1
que que PR0CN000 0.5625
da dar VMIP3S0 0.983871
prioridad prioridad NCFS000 1
a a SPS00 0.99585
los el DA0MP0 0.97623
productos producto NCMP000 0.833333
fabricados fabricar VMP00PM 1
en en SPS00 1
Brasil brasil NP00000 1
con con SPS00 1
lo el DA0NS0 0.457393
que que PR0CN000 0.5625
se se P00CN000 0.465602
ayuda ayudar VMIP3S0 0.0666667
a a SPS00 0.99585
desarrollar desarrollar VMN0000 1
nuestra nuestro DP1FSP 0.892857
industria industria NCFS000 0.833333
sostuvo sostener VMIS3S0 1
Rousseff rousseff NP00000 1
habl habl RG 0.034405
hoy hoy RG 0.877358
en en SPS00 1
su su DP3CS0 1
programa programa NCMS000 0.866667
radial radial AQ0CS0 1
semanal semanal AQ0CS0 1
Caf caf NP00000 1
con con SPS00 1
la el DA0FS0 0.972146
Presidenta presidenta NP00000 1
transmitido transmitir VMP00SM 1
en en SPS00 1
cadena cadena NCFS000 1
de de SPS00 0.999919
medios medio NCMP000 0.95
estatales estatal AQ0CP0 1
y y CC 0.999812
se se P00CN000 0.465602
refiri refiri RG 0.83337
a a SPS00 1
el el DA0MS0 1
impacto impacto NCMS000 0.973497
social social AQ0CS0 0.977273
de de SPS00 0.999919
este este DD0MS0 0.956743
plan plan NCMS000 1
Yo yo NP00000 1
he haber VAIP1S0 0.984848
entregado entregar VMP00SM 1
a a SPS00 0.99585
los el DA0MP0 0.97623
alcaldes alcalde NCMP000 1
m m NCFS000 0.5
quinas quina NCFP000 1
de de SPS00 1
el el DA0MS0 1
PAC_Equipamientos pac_equipamientos NP00000 1
para para SPS00 0.998507
ayudar ayudar VMN0000 1
los lo PP3MPA00 1
y y CC 0.999812
que que CS 0.4375
mejoren mejorar VMSP3P0 0.901254
la el DA0FS0 0.972146
vida vida NCFS000 1
de de SPS00 0.999919
la el DA0FS0 0.972146
poblaci poblaci AQ0CS0 0.0199855
n n NCFS000 1
entregamos entregar VMIP1P0 0.65
excavadoras excavador NCFP000 0.286335
aplanadoras aplanador AQ0FP0 0.657215
de de SPS00 0.999919
terreno terreno NCMS000 0.95
tambi tambi AQ0CN0 1
n n NCFS000 1
entregaremos entregar VMIF1P0 1
a a SPS00 0.99585
esos ese DD0MP0 0.961538
municipios municipio NCMP000 1
camiones camión NCMP000 1
para para SPS00 0.998507
carga carga NCFS000 0.935897
destinados destinar VMP00PM 1
a a SPS00 0.99585
construir construir VMN0000 1
peque peque NCCS000 0.618697
as as NCMS000 1
represas represa NCFP000 0.973497
canales canal NCMP000 1
o o CC 0.998845
reparar reparar VMN0000 1
caminos camino NCMP000 1
vecinales vecinal AQ0CP0 1
acot acot NCCS000 0.727043
Haga haga NP00000 1
click click NCMS000 0.50012
aqu aqu NCMS000 0.774439
para para SPS00 0.998507
recibir recibir VMN0000 1
gratis gratis RG 0.75
Argenpress argenpress NP00000 1
en en SPS00 1
su su DP3CS0 1
correo correo NCMS000 0.735623
electr electr AQ0CS0 0.0829965
nico no NCMS00D 0.522084

