Chile_Declaraci chile_declaraci NP00000 1
n n NCFS000 1
p p NCFS000 0.5
blica blica AQ0FS0 1
con con SPS00 1
motivo motivo NCMS000 0.888889
de de SPS00 0.999919
la el DA0FS0 0.972146
toma toma NCFS000 0.433333
de de SPS00 0.999919
libertad libertad NCFS000 0.978261
2 2 Z 1
La_Asamblea_de_la_Corporaci la_asamblea_de_la_corporaci NP00000 1
n n NCFS000 1
de de SPS00 0.999919
Universidad_ARCIS universidad_arcis NP00000 1
realizada realizar VMP00SF 1
en en SPS00 1
abril [??:??/4/??:??.??:??] W 1
2013 2013 Z 1
crey crey NCMS000 1
necesario necesario AQ0MS0 1
realizar realizar VMN0000 1
este este DD0MS0 0.956743
viraje viraje NCMS000 1
para para SPS00 0.998507
a a SPS00 0.99585
garantizar garantizar VMN0000 1
las el DA0FP0 0.97051
condiciones condición NCFP000 0.958333
de de SPS00 0.999919
sobrevivencia sobrevivencia NCFS000 1
de de SPS00 0.999919
una uno DI0FS0 0.951241
universidad universidad NCFS000 1
con con SPS00 1
las el DA0FP0 0.97051
caracter caracter NCMS000 1
sticas sticas AQ0FP0 0.416942
nuestras nuestro DP1FPP 0.972222
una uno DI0FS0 0.951241
universidad universidad NCFS000 1
peque pecar VMSP3S0 0.305666
a_donde a_donde RG 1
se se P00CN000 0.465602
cultiva cultivar VMIP3S0 0.994868
el el DA0MS0 1
pensamiento pensamiento NCMS000 1
cr cr NCMS000 1
tico tico AQ0MS0 0.806828
y y CC 0.999812
la el DA0FS0 0.972146
experimentalidad experimentalidad NCFS000 1
art artículo NCMS000 1
stica stica AQ0FS0 0.76459
que que PR0CN000 0.5625
se se P00CN000 0.465602
ha haber VAIP3S0 0.998141
visto ver VMP00SM 0.982759
castigada castigar VMP00SF 1
por por SPS00 1
las el DA0FP0 0.97051
reglas regla NCFP000 0.916667
de de SPS00 0.999919
masificaci masificaci RG 0.751648
n n NCFS000 1
y y CC 0.999812
competitividad competitividad NCFS000 1
de de SPS00 0.999919
un uno DI0MS0 0.986987
mercado mercado NCMS000 0.9
educativo educativo AQ0MS0 1
basado basar VMP00SM 1
en en SPS00 1
la el DA0FS0 0.972146
concentraci concentraci AQ0CS0 0.0199855
n n NCFS000 1
de de SPS00 1
el el DA0MS0 1
poder poder NCMS000 0.711538
empresarial empresarial AQ0CS0 1
b b NCFS000 1
trazar trazar VMN0000 1
un uno DI0MS0 0.986987
horizonte horizonte NCMS000 1
de de SPS00 0.999919
futuro futuro NCMS000 0.944444
que que PR0CN000 0.5625
le le PP3CSD00 1
permita permitir VMSP1S0 0.466667
a a SPS00 0.99585
ARCIS arcis NP00000 1
explorar explorar VMN0000 1
nuevas nuevo AQ0FP0 0.961538
formas forma NCFP000 0.921053
de de SPS00 0.999919
ser ser VSN0000 0.93883
/ / Fh 1
hacer hacer VMN0000 1
universidad universidad NCFS000 1
en en SPS00 1
un uno DI0MS0 0.986987
contexto contexto NCMS000 1
de de SPS00 0.999919
fortalecimiento fortalecimiento NCMS000 1
nacional nacional AQ0CS0 1
de de SPS00 0.999919
lo el DA0NS0 0.457393
p p NCFS000 0.5
blico blico AQ0MS0 0.400224
lo el DA0NS0 0.457393
p p NCFS000 0.5
blico blico AQ0MS0 0.400224
como como CS 0.998579
un uno DI0MS0 0.986987
registro registro NCMS000 0.973497
que que PR0CN000 0.5625
atraviesa atravesar VMIP3S0 0.75
lo el DA0NS0 0.457393
estatal estatal AQ0CS0 1
lo lo PP3CNA00 0.271163
civil civil AQ0CS0 0.95
lo el DA0NS0 0.457393
ciudadano ciudadano NCMS000 0.875
y y CC 0.999812
lo el DA0NS0 0.457393
comunitario comunitario AQ0MS0 1
Aunque aunque NP00000 1
se se P00CN000 0.465602
trate tratar VMSP1S0 0.47619
de de SPS00 0.999919
una uno DI0FS0 0.951241
figura figura NCFS000 0.888889
aun aun RG 0.84375
imprecisa impreciso AQ0FS0 1
en en SPS00 1
construcci construcci RG 0.751648
n n NCFS000 1
la el DA0FS0 0.972146
Universidad_ARCIS universidad_arcis NP00000 1
va ir VMIP3S0 1
encaminada encaminar VMP00SF 1
a a SPS00 0.99585
una uno DI0FS0 0.951241
modificaci modificaci AQ0CS0 0.0199855
n n NCFS000 1
de de SPS00 0.999919
su su DP3CS0 1
proyecto proyecto NCMS000 0.9375
para para SPS00 0.998507
merecer merecer VMN0000 1
su su DP3CS0 1
reconocimiento reconocimiento NCMS000 1
legal legal AQ0CS0 1
como como CS 0.998579
universidad universidad NCFS000 1
no no RN 0.99778
estatal estatal AQ0CS0 1
adscrita adscribir VMP00SF 1
a a SPS00 0.99585
un uno DI0MS0 0.986987
r r NCFS000 0.638487
gimen gemir VMIP3P0 1
p p NCFS000 0.5
blico blico AQ0MS0 0.400224
que que PR0CN000 0.5625
le le PP3CSD00 1
permita permitir VMSP1S0 0.466667
beneficiar beneficiar VMN0000 1
se se PP3CN000 1
de de SPS00 0.999919
los el DA0MP0 0.97623
aportes aporte NCMP000 0.995706
basales basal AQ0CP0 0.965
de de SPS00 1
el el DA0MS0 1
Estado_Desde estado_desde NP00000 1
la el DA0FS0 0.972146
obtenci obtenci AQ0CS0 0.0199855
n n NCFS000 1
de de SPS00 0.999919
su su DP3CS0 1
autonom autonom NCMS000 0.500053
a a SPS00 0.99585
la el DA0FS0 0.972146
Universidad_ARCIS universidad_arcis NP00000 1
debi debi AQ0CN0 1
recurrir recurrir VMN0000 1
a a SPS00 0.99585
la el DA0FS0 0.972146
forma forma NCFS000 0.960317
corporativa corporativo AQ0FS0 1
de de SPS00 0.999919
una uno DI0FS0 0.951241
universidad universidad NCFS000 1
privada privar VMP00SF 0.833333
para para SPS00 0.998507
resguardar resguardar VMN0000 1
un uno DI0MS0 0.986987
proyecto proyecto NCMS000 0.9375
cr cr NCMS000 1
tico tico AQ0MS0 0.806828
que que PR0CN000 0.5625
hab hab NCMS000 0.63631
a a SPS00 0.99585
nacido nacido NCMS000 0.0833333
luchando luchar VMG0000 1
contra contra SPS00 0.976316
el el DA0MS0 1
desmantelamiento desmantelamiento NCMS000 1
de de SPS00 0.999919
lo el DA0NS0 0.457393
p p NCFS000 0.5
blico blico AQ0MS0 0.400224
ejecutado ejecutar VMP00SM 1
por por SPS00 1
la el DA0FS0 0.972146
dictadura dictadura NCFS000 1
militar militar AQ0CS0 0.666667
Luego_de luego_de NP00000 1
una uno DI0FS0 0.951241
transici transici AQ0CS0 0.0199855
n n NCFS000 1
marcadamente marcadamente RG 1
neoliberal neoliberal AQ0CS0 0.616364
consideramos considerar VMIP1P0 0.65
que que CS 0.4375
hoy hoy RG 0.877358
existen existir VMIP3P0 1
nuevas nuevo AQ0FP0 0.961538
condiciones condición NCFP000 0.958333
de de SPS00 0.999919
posibilidad posibilidad NCFS000 1
en en SPS00 1
el el DA0MS0 1
pa pa NCFS000 0.740689
s segundo NCMN000 0.622321
para para SPS00 0.998507
que que CS 0.4375
ARCIS arcis NP00000 1
baraje barajar VMSP3S0 0.62344
alternativas alternativa NCFP000 0.567559
de de SPS00 0.999919
educaci educaci RG 0.751648
n n NCFS000 1
superior superior AQ0CS0 0.964286
m m NCFS000 0.5
s segundo NCMN000 0.622321
afines afín AQ0CP0 0.527383
a a SPS00 0.99585
lo el DA0NS0 0.457393
constitutivo constitutivo NCMS000 0.492711
de de SPS00 0.999919
su su DP3CS0 1
misi misi RG 1
n n NCFS000 1
visi visi NCMS000 1
n n NCFS000 1
hist hist NCMS000 1
rica rico AQ0FS0 0.75
3 3 Z 1
En_la_Cuenta_de_el_Presidente_de_el_Directorio_de_la_Corporaci en_la_cuenta_de_el_presidente_de_el_directorio_de_la_corporaci NP00000 1
n n NCFS000 1
ARCIS arcis NP00000 1
abril [??:??/4/??:??.??:??] W 1
2013 2013 Z 1
tambi tambi AQ0CN0 1
n n NCFS000 1
se se P00CN000 0.465602
menciona mencionar VMIP3S0 0.994868
que que CS 0.4375
el el DA0MS0 1
respaldo respaldo NCMS000 0.75
a a SPS00 0.99585
lo el DA0NS0 0.457393
p p NCFS000 0.5
blico blico AQ0MS0 0.400224
como como CS 0.998579
consigna consigna NCFS000 0.166667
ciudadana ciudadano AQ0FS0 0.75
supone suponer VMIP3S0 1
que que CS 0.4375
internamente internamente RG 1
la el DA0FS0 0.972146
Universidad universidad NP00000 1
est est NCMS000 1
dispuesta disponer VMP00SF 1
a a SPS00 0.99585
abrir abrir VMN0000 1
v v NCFS000 1
as as NCMS000 1
de de SPS00 0.999919
democratizaci democratizaci RG 0.751648
n n NCFS000 1
que que PR0CN000 0.5625
resulten resultar VMSP3P0 0.901254
coherentes coherente AQ0CP0 1
con con SPS00 1
los el DA0MP0 0.97623
anhelos anhelo NCMP000 1
de de SPS00 0.999919
cambio cambio NCMS000 0.97619
que que PR0CN000 0.5625
se se P00CN000 0.465602
expresan expresar VMIP3P0 1
en en SPS00 1
el el DA0MS0 1
afuera afuera RG 0.477544
social social AQ0CS0 0.977273
Esto esto NP00000 1
implica implicar VMIP3S0 0.9
pluralizar pluralizar VMN0000 1
los el DA0MP0 0.97623
actuales actual AQ0CP0 1
mecanismos mecanismo NCMP000 1
de de SPS00 0.999919
representaci representaci RG 0.751648
n n NCFS000 1
y y CC 0.999812
delegaci delegaci RG 0.751648
n n NCFS000 1
de de SPS00 0.999919
la el DA0FS0 0.972146
autoridad autoridad NCFS000 1
universitaria universitario AQ0FS0 0.833333
Es es NP00000 1
nuestro nuestro DP1MSP 0.933333
deseo deseo NCMS000 0.5
que que CS 0.4375
sea ser VSSP1S0 0.485714
la el DA0FS0 0.972146
propia propio AQ0FS0 1
comunidad comunidad NCFS000 1
universitaria universitario AQ0FS0 0.833333
la el DA0FS0 0.972146
que que PR0CN000 0.5625
en en SPS00 1
un uno DI0MS0 0.986987
futuro futuro NCMS000 0.944444
pr pr NCMS000 0.224371
ximo ximo AQ0MS0 0.937453
elija elegir VMSP3S0 0.623412
a a SPS00 0.99585
sus su DP3CP0 0.998462
autoridades autoridad NCFP000 1
superiores superior AQ0CP0 0.8125
Se se NP00000 1
trata tratar VMIP3S0 0.946237
de de SPS00 0.999919
que que CS 0.4375
los el DA0MP0 0.97623
miembros miembro NCMP000 0.916667
de de SPS00 0.999919
la el DA0FS0 0.972146
comunidad comunidad NCFS000 1
universitaria universitario AQ0FS0 0.833333
se se P00CN000 0.465602
sientan sentar VMIP3P0 0.666667
activamente activamente RG 1
part part NCMS000 1
cipes cipes NCMP000 1
de de SPS00 0.999919
la el DA0FS0 0.972146
construcci construcci AQ0CS0 0.0199855
n n NCFS000 1
de de SPS00 0.999919
un uno DI0MS0 0.986987
presente presente NCMS000 0.635417
y y CC 0.999812
un uno DI0MS0 0.986987
futuro futuro NCMS000 0.944444
que que PR0CN000 0.5625
abierto abrir VMP00SM 1
a a SPS00 0.99585
la el DA0FS0 0.972146
triestamentalidad triestamentalidad NCFS000 1
se se P00CN000 0.465602
tracen trazar VMSP3P0 0.901254
en en SPS00 1
un_marco $_DEM:1 Zm 1
de de SPS00 0.999919
convivencia convivencia NCFS000 1
pluralista pluralista AQ0CS0 0.65711
Es es NP00000 1
tambi tambi AQ0CN0 1
n n NCFS000 1
nuestro nuestro DP1MSP 0.933333
deseo deseo NCMS000 0.5
activar activar VMN0000 1
los el DA0MP0 0.97623
rganos rganos NCMP000 1
regulares regular AQ0CP0 0.974074
de de SPS00 0.999919
consulta consultar VMIP3S0 0.450743
participaci participaci RG 0.751648
n n NCFS000 1
y y CC 0.999812
decisi decisi RG 1
n n NCFS000 1
de de SPS00 0.999919
nuestra nuestro DP1FSP 0.892857
Universidad_los_Consejos_de_Escuela_el_Consejo_Acad universidad_los_consejos_de_escuela_el_consejo_acad NP00000 1
mico mico NCMS000 1
el el DA0MS0 1
Consejo_Universitario consejo_universitario NP00000 1
dinamizar dinamizar VMN0000 1
las el DA0FP0 0.97051
respectivas respectivo AQ0FP0 1
instancias instancia NCFP000 1
que que PR0CN000 0.5625
conforman conformar VMIP3P0 1
el el DA0MS0 1
sistema sistema NCMS000 1
de de SPS00 0.999919
gobierno gobierno NCMS000 0.9
institucional institucional AQ0CS0 1
La la NP00000 1
voluntad voluntad NCFS000 1
de de SPS00 0.999919
dar dar VMN0000 1
le le PP3CSD00 1
forma forma NCFS000 0.960317
y y CC 0.999812
movimiento movimiento NCMS000 1
a a SPS00 0.99585
una uno DI0FS0 0.951241
Direcci direcci NP00000 1
n n NCFS000 1
Estrat estrat NP00000 1
gica gica AQ0FS0 0.925822
Participativa participativa NP00000 1
se se P00CN000 0.465602
propone proponer VMIP3S0 1
acortar acortar VMN0000 1
las el DA0FP0 0.97051
distancias distancia NCFP000 0.75
y y CC 0.999812
reducir reducir VMN0000 1
las el DA0FP0 0.97051
brechas brecha NCFP000 1
de de SPS00 0.999919
separaci separaci RG 0.751648
n n NCFS000 1
entre entre SPS00 0.995223
las el DA0FP0 0.97051
estructuras estructura NCFP000 0.9
de de SPS00 0.999919
autoridad autoridad NCFS000 1
que que PR0CN000 0.5625
gobiernan gobernar VMIP3P0 1
la el DA0FS0 0.972146
Universidad universidad NP00000 1
y y CC 0.999812
la el DA0FS0 0.972146
comunidad comunidad NCFS000 1
misma mismo AQ0FS0 0.916667
Quedan quedan NP00000 1
a a SPS00 0.99585
la el DA0FS0 0.972146
vista vista NCFS000 0.91
los el DA0MP0 0.97623
varios varios DI0MP0 0.883333
puntos punto NCMP000 1
de de SPS00 0.999919
coincidencia coincidencia NCFS000 1
entre entre SPS00 0.995223
el el DA0MS0 1
discurso discurso NCMS000 0.75
pol pol NCMS000 0.861706
tico tico AQ0MS0 0.806828
estrat estrat NCMS000 1
gico gico AQ0MS0 1
de de SPS00 0.999919
la el DA0FS0 0.972146
Corporaci corporaci NP00000 1
n n NCFS000 1
que que PR0CN000 0.5625
enmarca enmarcar VMIP3S0 0.994868
nuestro nuestro DP1MSP 0.933333
itinerario itinerario NCMS000 0.34273
2013 2013 Z 1
2014 2014 Z 1
y y CC 0.999812
algunas alguno DI0FP0 0.758065
reivindicaciones reivindicación NCFP000 1
expresadas expresar VMP00PF 1
en en SPS00 1
el el DA0MS0 1
Petitorio petitorio NP00000 1
de de SPS00 0.999919
los el DA0MP0 0.97623
estudiantes estudiante NCCP000 0.875
en en SPS00 1
toma tomar VMIP3S0 0.533333
Creemos creemos NP00000 1
que que CS 0.4375
es ser VSIP3S0 1
responsabilidad responsabilidad NCFS000 1
de de SPS00 0.999919
todos todo DI0MP0 0.622419
los el DA0MP0 0.97623
actores actor NCMP000 1
de de SPS00 0.999919
la el DA0FS0 0.972146
comunidad comunidad NCFS000 1
universitaria universitario AQ0FS0 0.833333
priorizar priorizar VMN0000 1
las el DA0FP0 0.97051
convergencias convergencia NCFP000 1
de de SPS00 0.999919
puntos punto NCMP000 1
de de SPS00 0.999919
vista vista NCFS000 0.91
por por SPS00 1
sobre sobre SPS00 0.994203
los el DA0MP0 0.97623
desacuerdos desacuerdo NCMP000 1
o o CC 0.998845
antagonismos antagonismo NCMP000 1
para para SPS00 0.998507
que que PR0CN000 0.5625
esta este DD0FS0 0.982143
Universidad universidad NP00000 1
cuente contar VMSP1S0 0.466667
con con SPS00 1
la el DA0FS0 0.972146
oportunidad oportunidad NCFS000 1
hist hist NCMS000 1
rica rico AQ0FS0 0.75
de de SPS00 0.999919
ensayar ensayar VMN0000 1
un uno DI0MS0 0.986987
camino camino NCMS000 0.978261
in in AQ0CS0 0.0555794
dito do NCMS00D 1
en en SPS00 1
Chile chile NP00000 1
un uno DI0MS0 0.986987
camino camino NCMS000 0.978261
que que PR0CN000 0.5625
no no RN 0.99778
s segundo NCMN000 0.622321
lo lo PP3CNA00 0.271163
le le PP3CSD00 1
restituir restituir VMN0000 1
protagonismo protagonismo NCMS000 1
cr cr NCMS000 1
tico tico AQ0MS0 0.806828
a a SPS00 0.99585
ARCIS arcis NP00000 1
sino_que sino_que CC 1
marcar marcar VMN0000 1
una uno DI0FS0 0.951241
contribuci contribuci AQ0CS0 0.0199855
n n NCFS000 1
decisiva decisivo AQ0FS0 1
a a SPS00 0.99585
la el DA0FS0 0.972146
reestructuraci reestructuraci AQ0CS0 0.0199855
n n NCFS000 1
de de SPS00 0.999919
la el DA0FS0 0.972146
Educaci educaci NP00000 1
n n NCFS000 1
Superior superior NP00000 1
en en SPS00 1
Chile chile NP00000 1
4 4 Z 1
El el NP00000 1
itinerario itinerario AQ0MS0 0.65727
que que PR0CN000 0.5625
la el DA0FS0 0.972146
Universidad universidad NP00000 1
traz traz AQ0CS0 0.500309
para para SPS00 0.998507
su su DP3CS0 1
futuro futuro NCMS000 0.944444
pas pas NCFP000 0.954559
a a SPS00 0.99585
ser ser VSN0000 0.93883
analizado analizar VMP00SM 1
y y CC 0.999812
discutido discutir VMP00SM 1
durante durante SPS00 1
el el DA0MS0 1
ltimo ltimo RG 1
mes mes NCMS000 1
en en SPS00 1
las el DA0FP0 0.97051
principales principal AQ0CP0 0.875
instancias instancia NCFP000 1
de de SPS00 0.999919
representaci representaci RG 0.751648
n n NCFS000 1
colectiva colectivo AQ0FS0 1
de de SPS00 1
el el DA0MS0 1
conjunto conjunto NCMS000 0.944444
de de SPS00 0.999919
la el DA0FS0 0.972146
Universidad_el_Consejo_Acad universidad_el_consejo_acad NP00000 1
mico mico NCMS000 1
el el DA0MS0 1
Consejo_Universitario_Superior_Las consejo_universitario_superior_las NP00000 1
ltimas ltimas NCFP000 1
reuniones reunión NCFP000 1
de de SPS00 1
el el DA0MS0 1
Consejo_Acad consejo_acad NP00000 1
mico mico NCMS000 1
y y CC 0.999812
de de SPS00 1
el el DA0MS0 1
CUS cus NP00000 1
consideraban considerar VMII3P0 1
la el DA0FS0 0.972146
creaci creaci AQ0CS0 0.0199855
n n NCFS000 1
de de SPS00 0.999919
distintas distinto AQ0FP0 1
Comisiones comisiones NP00000 1
que que CS 0.4375
iniciar iniciar VMN0000 1
n n NCFS000 1
un uno DI0MS0 0.986987
trabajo trabajo NCMS000 0.940476
de de SPS00 0.999919
diagn diagn NCFS000 0.321497
stico stico AQ0MS0 0.454818
institucional institucional AQ0CS0 1
y y CC 0.999812
propuestas proponer VMP00PF 0.25
en en SPS00 1
materia materia NCFS000 1
acad acad NCFS000 0.973952
mica mica NCFS000 1
de de SPS00 0.999919
gesti gesti NCMS000 1
n n NCFS000 1
econ econ NCMS000 1
mica mica NCFS000 1
y y CC 0.999812
administrativa administrativo NCFS000 0.46275
de de SPS00 0.999919
gobierno gobierno NCMS000 0.9
universitario universitario AQ0MS0 0.5
y y CC 0.999812
de de SPS00 0.999919
sistema sistema NCMS000 1
de de SPS00 0.999919
representaci representaci RG 0.751648
n n NCFS000 1
y y CC 0.999812
elecci elecci RG 0.751648
n n NCFS000 1
de de SPS00 0.999919
las el DA0FP0 0.97051
autoridades autoridad NCFP000 1
El el NP00000 1
sentido sentido NCMS000 0.948276
de de SPS00 0.999919
estas este DD0FP0 0.960526
reuniones reunión NCFP000 1
era ser VSII1S0 0.490859
el el DA0MS0 1
de de SPS00 0.999919
desplegar desplegar VMN0000 1
con con SPS00 1
nitidez nitidez NCFS000 1
pol pol NCMS000 0.861706
tico tico AQ0MS0 0.806828
estrat estrat NCMS000 1
gica gica AQ0FS0 0.925822
una uno DI0FS0 0.951241
ruta ruta NCFS000 1
institucional institucional AQ0CS0 1
que que PR0CN000 0.5625
debemos deber VMIP1P0 1
hacer hacer VMN0000 1
compatible compatible AQ0CS0 1
con con SPS00 1
la el DA0FS0 0.972146
Reacreditaci reacreditaci NP00000 1
n n NCFS000 1
Universitaria universitaria NP00000 1
buscando buscar VMG0000 1
ensamblar ensamblar VMN0000 1
lo el DA0NS0 0.457393
existente existente AQ0CS0 1
los el DA0MP0 0.97623
procesos proceso NCMP000 1
en en SPS00 1
curso curso NCMS000 0.954545
con con SPS00 1
lo el DA0NS0 0.457393
nuevo nuevo AQ0MS0 1
y y CC 0.999812
lo el DA0NS0 0.457393
diferente diferente AQ0CS0 1
las el DA0FP0 0.97051
alternativas alternativa NCFP000 0.567559
de de SPS00 0.999919
futuro futuro NCMS000 0.944444
Los los NP00000 1
desaf desaf I 1
os o NCFP000 0.222222
de de SPS00 0.999919
esta este DD0FS0 0.982143
tarea tarea NCFS000 1
pol pol NCMS000 0.861706
tico tico AQ0MS0 0.806828
acad acad NCFS000 0.973952
mica mica NCFS000 1
son ser VSIP3P0 0.986772
m m NCFS000 0.5
ltiples ltiples AQ0CP0 1
y y CC 0.999812
suponen suponer VMIP3P0 1
restablecer restablecer VMN0000 1
confianzas confianza NCFP000 1
dentro_de dentro_de SPS00 1
la el DA0FS0 0.972146
comunidad comunidad NCFS000 1
Debemos debemos NP00000 1
generar generar VMN0000 1
un uno DI0MS0 0.986987
renovado renovar VMP00SM 1
sentido sentido NCMS000 0.948276
de de SPS00 0.999919
pertenencia pertenencia NCFS000 1
e y CC 0.973684
identificaci identificaci RG 0.751648
n n NCFS000 1
que que CS 0.4375
combinen combinar VMSP3P0 0.901254
dos 2 Z 0.988722
objetivos objetivo NCMP000 0.875
a a SPS00 1
el el DA0MS0 1
mismo mismo AQ0MS0 0.961905
tiempo tiempo NCMS000 1
transformar transformar VMN0000 1
nuestra nuestro DP1FSP 0.892857
realidad realidad NCFS000 1
institucional institucional AQ0CS0 1
pero pero CC 0.998821
sin sin SPS00 1
descuidar descuidar VMN0000 1
ninguna ninguno PI0FS000 0.277778
de de SPS00 0.999919
las el DA0FP0 0.97051
exigencias exigencia NCFP000 1
formativas formativo AQ0FP0 1
de de SPS00 0.999919
los el DA0MP0 0.97623
compromisos compromiso NCMP000 1
docentes docente AQ0CP0 0.657201
y y CC 0.999812
de de SPS00 0.999919
los el DA0MP0 0.97623
requisitos requisito NCMP000 0.833333
administrativos administrativo AQ0MP0 0.65715
cuya cuyo PR0FS000 1
continuidad continuidad NCFS000 1
de de SPS00 0.999919
procesos proceso NCMP000 1
debe deber VMIP3S0 0.974359
seguir seguir VMN0000 1
garantizada garantizar VMP00SF 1
para para SPS00 0.998507
todos todo DI0MP0 0.622419
nuestros nuestro DP1MPP 0.854167
estudiantes estudiante NCCP000 0.875
acad acad NCFS000 0.973952
micos mico NCMP000 1
y y CC 0.999812
funcionarios funcionario NCMP000 1
Este este NP00000 1
es ser VSIP3S0 1
el el DA0MS0 1
cotidiano cotidiano AQ0MS0 1
institucional institucional AQ0CS0 1
cuya cuyo PR0FS000 1
regularidad regularidad NCFS000 1
de de SPS00 0.999919
funcionamiento funcionamiento NCMS000 1
la el DA0FS0 0.972146
toma toma NCFS000 0.433333
pone poner VMIP3S0 1
dram dram NCMS000 1
ticamente ticamente RG 1
en en SPS00 1
peligro peligro NCMS000 0.928571
5 5 Z 1
Esta esta NP00000 1
toma tomar VMIP3S0 0.533333
nos nos PP1CP000 0.933333
parece parecer VMIP3S0 0.9875
injusta injusto AQ0FS0 0.65727
porque porque CS 1
la el DA0FS0 0.972146
Instituci instituci NP00000 1
n n NCFS000 1
hab hab NCMS000 0.63631
a a SPS00 0.99585
ya ya RG 0.996988
comenzado comenzar VMP00SM 1
a a SPS00 0.99585
implementar implementar VMN0000 1
un uno DI0MS0 0.986987
di dar VMIS1S0 0.833333
logo logo NCMS000 1
amplio amplio AQ0MS0 1
y y CC 0.999812
participativo participativo AQ0MS0 1
para para SPS00 0.998507
que que CS 0.4375
la el DA0FS0 0.972146
comunidad comunidad NCFS000 1
entera entero AQ0FS0 0.777778
fuese ser VSSI1S0 0.477273
parte parte NCFS000 0.497967
activa activo AQ0FS0 0.866667
de de SPS00 1
el el DA0MS0 1
nuevo nuevo AQ0MS0 1
trayecto trayecto NCMS000 1
proyecto proyecto NCMS000 0.9375
de de SPS00 0.999919
ARCIS_Este arcis_este NP00000 1
camino camino NCMS000 0.978261
se se P00CN000 0.465602
ve ver VMIP3S0 0.971154
obstruido obstruir VMP00SM 1
por por SPS00 1
la el DA0FS0 0.972146
toma toma NCFS000 0.433333
justo justo AQ0MS0 0.711538
cuando cuando CS 0.983796
existe existir VMIP3S0 0.966667
m m NCFS000 0.5
s segundo NCMN000 0.622321
necesidad necesidad NCFS000 1
que que PR0CN000 0.5625
nunca nunca RG 1
de de SPS00 0.999919
sumar sumar VMN0000 1
y y CC 0.999812
de de SPS00 0.999919
no no RN 0.99778
restar restar VMN0000 1
esfuerzos esfuerzo NCMP000 1
para para SPS00 0.998507
el el DA0MS0 1
logro logro NCMS000 0.75
colectivo colectivo AQ0MS0 0.75
de de SPS00 0.999919
una uno DI0FS0 0.951241
meta meta NCFS000 0.52
superior superior AQ0CS0 0.964286
Es es NP00000 1
cierto cierto AQ0MS0 1
que que PR0CN000 0.5625
la el DA0FS0 0.972146
din din NCMN000 1
mica mica NCFS000 1
de de SPS00 0.999919
las el DA0FP0 0.97051
tomas toma NCFP000 0.973494
forma_parte formar_parte VMIP3S0 0.994868
de de SPS00 1
el el DA0MS0 1
contexto contexto NCMS000 1
pol pol NCMS000 0.861706
tico tico AQ0MS0 0.806828
nacional nacional AQ0CS0 1
de de SPS00 0.999919
movilizaciones movilización NCFP000 1
que que PR0CN000 0.5625
expresan expresar VMIP3P0 1
a a SPS00 0.99585
trav trav AQ0CS0 0.0433699
s segundo NCMN000 0.622321
de de SPS00 0.999919
ellas ellos PP3FP000 1
su su DP3CS0 1
rechazo rechazo NCMS000 0.75
a a SPS00 1
el el DA0MS0 1
modelo modelo NCCS000 0.973684
neoliberal neoliberal AQ0CS0 0.616364
dominante dominante AQ0CS0 0.833333
Pero pero NP00000 1
a_diferencia_de a_diferencia_de SPS00 1
lo el DA0NS0 0.457393
que que PR0CN000 0.5625
ocurre ocurrir VMIP3S0 0.966667
en en SPS00 1
otros otro DI0MP0 0.56875
establecimientos establecimiento NCMP000 1
la el DA0FS0 0.972146
toma toma NCFS000 0.433333
en en SPS00 1
ARCIS arcis NP00000 1
contradice contradecir VMIP3S0 0.994868
una uno DI0FS0 0.951241
doble doble AQ0CS0 0.927273
realidad realidad NCFS000 1
a a SPS00 0.99585
somos ser VSIP1P0 1
una uno DI0FS0 0.951241
universidad universidad NCFS000 1
que que PR0CN000 0.5625
ya ya RG 0.996988
hab hab NCMS000 0.63631
a a SPS00 0.99585
concertado concertar VMP00SM 1
su su DP3CS0 1
tr tr AQ0CS0 0.0829965
nsito no NCMS00D 1
de de SPS00 0.999919
lo el DA0NS0 0.457393
privado privar VMP00SM 0.875
a a SPS00 0.99585
lo el DA0NS0 0.457393
p p NCFS000 0.5
blico blico AQ0MS0 0.400224
cifrando cifrar VMG0000 1
su su DP3CS0 1
apuesta apuesto AQ0FS0 0.232314
cr cr NCMS000 1
tica tica AQ0FS0 0.595788
en en SPS00 1
realizar realizar VMN0000 1
transformaciones transformación NCFP000 1
precursoras precursor AQ0FP0 0.357382
a a SPS00 1
el el DA0MS0 1
actual actual AQ0CS0 1
dise dise NCFS000 0.99146
o o CC 0.998845
de de SPS00 0.999919
la el DA0FS0 0.972146
reforma reforma NCFS000 0.866667
estructural estructural AQ0CS0 1
de de SPS00 0.999919
la el DA0FS0 0.972146
Educaci educaci NP00000 1
n n NCFS000 1
Superior superior NP00000 1
en en SPS00 1
Chile chile NP00000 1
a a SPS00 0.99585
la el DA0FS0 0.972146
que que PR0CN000 0.5625
apelan apelar VMIP3P0 1
hoy hoy RG 0.877358
los el DA0MP0 0.97623
mismos mismo AQ0MP0 0.884615
estudiantes estudiante NCCP000 0.875
movilizados movilizar VMP00PM 1
b b NCFS000 1
somos ser VSIP1P0 1
una uno DI0FS0 0.951241
universidad universidad NCFS000 1
extremadamente extremadamente RG 1
fr fr AQ0CS0 0.0829965
gil gil NCMS000 1
y y CC 0.999812
vulnerable vulnerable AQ0CS0 1
en en SPS00 1
lo el DA0NS0 0.457393
econ econ NCMS000 1
mico mico NCMS000 1
financiero financiero AQ0MS0 0.75
una uno DI0FS0 0.951241
universidad universidad NCFS000 1
cuya cuyo PR0FS000 1
normalidad normalidad NCFS000 1
de de SPS00 0.999919
funcionamiento funcionamiento NCMS000 1
y y CC 0.999812
garant garant NCMS000 0.607342
as as NCMS000 1
de de SPS00 0.999919
servicios servicio NCMP000 1
no no RN 0.99778
resiste resistir VMIP3S0 0.994868
el el DA0MS0 1
proceso proceso NCMS000 0.973684
desestabilizador desestabilizador AQ0MS0 1
de de SPS00 0.999919
una uno DI0FS0 0.951241
toma toma NCFS000 0.433333
que que PR0CN000 0.5625
afecta afectar VMIP3S0 0.777778
los el DA0MP0 0.97623
mecanismos mecanismo NCMP000 1
diarios diario AQ0MP0 0.25
de de SPS00 0.999919
administraci administraci RG 0.751648
n n NCFS000 1
y y CC 0.999812
gesti gesti NCMS000 1
n n NCFS000 1
de de SPS00 0.999919
los el DA0MP0 0.97623
recursos recurso NCMP000 1
Es es NP00000 1
por por SPS00 1
esta este DD0FS0 0.982143
raz raz AQ0CS0 0.500309
n n NCFS000 1
que que PR0CN000 0.5625
la el DA0FS0 0.972146
toma toma NCFS000 0.433333
conspira conspirar VMIP3S0 0.994788
contra contra SPS00 0.976316
la el DA0FS0 0.972146
viabilidad viabilidad NCFS000 1
de de SPS00 0.999919
aquella aquel DD0FS0 0.948276
universidad universidad NCFS000 1
de de SPS00 0.999919
la el DA0FS0 0.972146
que que PR0CN000 0.5625
todos todo PI0MP000 0.374631
somos ser VSIP1P0 1
parte parte NCFS000 0.497967
y y CC 0.999812
por por SPS00 1
lo el DA0NS0 0.457393
mismo mismo AQ0MS0 0.961905
contra contra SPS00 0.976316
la el DA0FS0 0.972146
posibilidad posibilidad NCFS000 1
de de SPS00 0.999919
que que CS 0.4375
demos dar VMSP1P0 0.666667
en en SPS00 1
conjunto conjunto NCMS000 0.944444
una uno DI0FS0 0.951241
batalla batalla NCFS000 0.904762
universitaria universitario AQ0FS0 0.833333
que que PR0CN000 0.5625
transforme transformar VMSP1S0 0.623349
a a SPS00 0.99585
la el DA0FS0 0.972146
educaci educaci AQ0CS0 0.0199855
n n NCFS000 1
en en SPS00 1
Chile chile NP00000 1
6 6 Z 1
Reconocemos reconocemos NP00000 1
plenamente plenamente RG 1
el el DA0MS0 1
derecho derecho NCMS000 0.884615
de de SPS00 0.999919
los el DA0MP0 0.97623
estudiantes estudiante NCCP000 0.875
a a SPS00 0.99585
transmitir transmitir VMN0000 1
reivindicaciones reivindicación NCFP000 1
que que PR0CN000 0.5625
ellos ellos PP3MP000 1
consideran considerar VMIP3P0 1
v v NCFS000 1
lidas lidas AQ0FP0 0.499829
expresando expresar VMG0000 1
sus su DP3CP0 0.998462
desacuerdos desacuerdo NCMP000 1
y y CC 0.999812
sus su DP3CP0 0.998462
cr cr NCMS000 1
ticas ticas AQ0FP0 0.760898
a a SPS00 0.99585
la el DA0FS0 0.972146
instituci instituci AQ0CS0 0.0199855
n n NCFS000 1
siempre siempre RG 1
cuando cuando CS 0.983796
no no RN 0.99778
adopten adoptar VMSP3P0 0.901254
lenguajes lenguaje NCMP000 1
y y CC 0.999812
actitudes actitud NCFP000 1
que que PR0CN000 0.5625
desaten desatar VMSP3P0 0.901254
una uno DI0FS0 0.951241
violencia violencia NCFS000 1
destructiva destructivo AQ0FS0 1
luego luego RG 0.983871
incontrolable incontrolable AQ0CS0 1
en en SPS00 1
sus su DP3CP0 0.998462
efectos efecto NCMP000 1
y y CC 0.999812
r r NCFS000 0.638487
plicas plica NCFP000 1
A_ARCIS a_arcis NP00000 1
le le PP3CSD00 1
ha haber VAIP3S0 0.998141
costado costar VMP00SM 0.691767
demasiado demasiado RG 0.93
enfrentar enfrentar VMN0000 1
las el DA0FP0 0.97051
amenazas amenaza NCFP000 0.916667
externas externo AQ0FP0 0.557178
con con SPS00 1
las el DA0FP0 0.97051
que que PR0CN000 0.5625
la el DA0FS0 0.972146
dominante dominante AQ0CS0 0.833333
neoliberal neoliberal NCMS000 0.383636
la el DA0FS0 0.972146
misma mismo AQ0FS0 0.916667
que que PR0CN000 0.5625
dicen decir VMIP3P0 1
rechazar rechazar VMN0000 1
los el DA0MP0 0.97623
estudiantes estudiante NCCP000 0.875
en en SPS00 1
toma toma NCFS000 0.433333
quiere querer VMIP3S0 0.982759
hacer hacer VMN0000 1
desaparecer desaparecer VMN0000 1
proyectos proyecto NCMP000 1
como como CS 0.998579
este este DD0MS0 0.956743
Para para NP00000 1
resistir resistir VMN0000 1
estas este DD0FP0 0.960526
amenazas amenaza NCFP000 0.916667
construyendo construir VMG0000 1
futuro futuro NCMS000 0.944444
debemos deber VMIP1P0 1
condenar condenar VMN0000 1
cualquier cualquiera DI0CS0 1
presi presi NCMS000 1
n n NCFS000 1
anti anti AQ0CN0 1
democr democr NCMS000 1
tica tica AQ0FS0 0.595788
en_el_interior_de en_el_interior_de SPS00 1
la el DA0FS0 0.972146
Universidad universidad NP00000 1
y y CC 0.999812
ensanchar ensanchar VMN0000 1
internamente internamente RG 1
todos todo DI0MP0 0.622419
los el DA0MP0 0.97623
canales canal NCMP000 1
de de SPS00 0.999919
di dar VMIS1S0 0.833333
logo logo NCMS000 1
para para SPS00 0.998507
llegar llegar VMN0000 1
a a SPS00 0.99585
acuerdos acuerdo NCMP000 1
mayoritarios mayoritario AQ0MP0 1
Cualquier cualquier NP00000 1
obst obst NCMS000 1
culo culo NCMS000 1
o o CC 0.998845
retraso retraso NCMS000 0.75
en en SPS00 1
el el DA0MS0 1
funcionamiento funcionamiento NCMS000 1
regular regular AQ0CS0 0.833333
de de SPS00 0.999919
la el DA0FS0 0.972146
Universidad universidad NP00000 1
atenta atentar VMIP3S0 0.166667
contra contra SPS00 0.976316
nuestra nuestro DP1FSP 0.892857
propia propio AQ0FS0 1
disponibilidad disponibilidad NCFS000 1
de de SPS00 0.999919
tiempo tiempo NCMS000 1
y y CC 0.999812
nimos nimos AQ0MP0 0.666679
para para SPS00 0.998507
volcar volcar VMN0000 1
toda todo DI0FS0 0.975806
nuestras nuestro DP1FPP 0.972222
energ energ NCMS000 0.714133
as as NCMS000 1
a a SPS00 0.99585
construir construir VMN0000 1
un uno DI0MS0 0.986987
futuro futuro NCMS000 0.944444
distinto distinto AQ0MS0 1
un uno DI0MS0 0.986987
futuro futuro NCMS000 0.944444
que que PR0CN000 0.5625
combine combinar VMSP3S0 0.623409
lo el DA0NS0 0.457393
ya ya RG 0.996988
trazado trazar VMP00SM 0.691767
por por SPS00 1
la el DA0FS0 0.972146
Asamblea_de_la_Corporaci asamblea_de_la_corporaci NP00000 1
n n NCFS000 1
con con SPS00 1
lo el DA0NS0 0.457393
expresado expresar VMP00SM 1
en en SPS00 1
el el DA0MS0 1
Petitorio petitorio NP00000 1
como como CS 0.998579
deseos deseo NCMP000 1
compartidos compartir VMP00PM 1
de de SPS00 0.999919
una uno DI0FS0 0.951241
mayor mayor AQ0CS0 0.989796
participaci participaci NCMS000 0.0996348
n n NCFS000 1
triestamental triestamental AQ0CS0 1
que que PR0CN000 0.5625
avance avanzar VMSP1S0 0.0625
en en SPS00 1
cambios cambio NCMP000 1
democratizadores democratizador AQ0MP0 1
dentro_de dentro_de SPS00 1
la el DA0FS0 0.972146
Instituci instituci NP00000 1
n n NCFS000 1
No no NP00000 1
existe existir VMIP3S0 0.966667
universidad universidad NCFS000 1
sin sin SPS00 1
comunidad comunidad NCFS000 1
ser ser VSN0000 0.93883
parte parte NCFS000 0.497967
de de SPS00 0.999919
/ / Fh 1
hacer hacer VMN0000 1
se se PP3CN000 1
parte parte NCFS000 0.497967
y y CC 0.999812
no no RN 0.99778
existe existir VMIP3S0 0.966667
comunidad comunidad NCFS000 1
argumentativa argumentativo AQ0FS0 1
deliberativa deliberativo AQ0FS0 1
sin sin SPS00 1
disenso disenso NCMS000 1
Los los NP00000 1
conflictos conflicto NCMP000 1
de de SPS00 0.999919
visiones visión NCFP000 0.875
u o CC 0.944444
opiniones opinión NCFP000 1
no no RN 0.99778
se se P00CN000 0.465602
resuelven resolver VMIP3P0 1
mediante mediante SPS00 0.944444
la el DA0FS0 0.972146
fuerza fuerza NCFS000 0.968254
de de SPS00 0.999919
la el DA0FS0 0.972146
intimidaci intimidaci AQ0CS0 0.0199855
n n NCFS000 1
Requieren requieren NP00000 1
de de SPS00 0.999919
la el DA0FS0 0.972146
b b NCFS000 1
squeda squeda NCFS000 1
de de SPS00 0.999919
v v NCFS000 1
nculos nculos NCMP000 0.904785
comunes común AQ0CP0 1
entre entre SPS00 0.995223
las el DA0FP0 0.97051
partes parte NCFP000 0.495495
enfrentadas enfrentar VMP00PF 1
para para SPS00 0.998507
construir construir VMN0000 1
un uno DI0MS0 0.986987
di dar VMIS1S0 0.833333
logo logo NCMS000 1
que que CS 0.4375
desde desde SPS00 1
la el DA0FS0 0.972146
interacci interacci AQ0CS0 0.0199855
n n NCFS000 1
de de SPS00 0.999919
las el DA0FP0 0.97051
voces voz NCFP000 1
trace trazar VMSP3S0 0.623357
un_marco $_DEM:1 Zm 1
de de SPS00 0.999919
entendimiento entendimiento NCMS000 1
y y CC 0.999812
convivencia convivencia NCFS000 1
plurales plural AQ0CP0 0.657262
S s NP00000 1
lo lo PP3CNA00 0.271163
la el DA0FS0 0.972146
validaci validaci AQ0CS0 0.0199855
n n NCFS000 1
inter inter AQ0CN0 1
comunitaria comunitario AQ0FS0 1
de de SPS00 0.999919
este este DD0MS0 0.956743
marco marco NCMS000 0.9
de de SPS00 0.999919
entendimiento entendimiento NCMS000 1
y y CC 0.999812
convivencia convivencia NCFS000 1
plurales plural AQ0CP0 0.657262
que que PR0CN000 0.5625
hoy hoy RG 0.877358
tiene tener VMIP3S0 1
como como CS 0.998579
prioridad prioridad NCFS000 1
la el DA0FS0 0.972146
sobrevivencia sobrevivencia NCFS000 1
de de SPS00 0.999919
ARCIS arcis NP00000 1
har har VMN0000 1
que que CS 0.4375
el el DA0MS0 1
retorno retorno NCMS000 0.9
a a SPS00 0.99585
la el DA0FS0 0.972146
normalidad normalidad NCFS000 1
institucional institucional AQ0CS0 1
sea ser VSSP1S0 0.485714
la el DA0FS0 0.972146
garant garant NCMS000 0.607342
a a SPS00 0.99585
plena pleno AQ0FS0 1
de de SPS00 0.999919
un uno DI0MS0 0.986987
futuro futuro NCMS000 0.944444
colaborativo colaborativo AQ0MS0 1
que que PR0CN000 0.5625
incluya incluir VMSP3S0 0.623432
a a SPS00 0.99585
todos todo DI0MP0 0.622419
los el DA0MP0 0.97623
miembros miembro NCMP000 0.916667
de de SPS00 0.999919
la el DA0FS0 0.972146
universidad universidad NCFS000 1
CONSEJO_UNIVERSITARIO_SUPERIOR_CONSEJO_ACADEMICO_DIRECCI_N_SUPERIOR_DE_LA_UNIVERSIDAD_DE_ARTE_Y_CIENCIAS_SOCIALES_ARCIS_Santiago consejo_universitario_superior_consejo_academico_direcci_n_superior_de_la_universidad_de_arte_y_ciencias_sociales_arcis_santiago NP00000 1
10_de_junio_de_2013 [??:10/6/2013:??.??:??] W 1
Haga haga NP00000 1
click click NCMS000 0.50012
aqu aqu NCMS000 0.774439
para para SPS00 0.998507
recibir recibir VMN0000 1
gratis gratis RG 0.75
Argenpress argenpress NP00000 1
en en SPS00 1
su su DP3CS0 1
correo correo NCMS000 0.735623
electr electr AQ0CS0 0.0829965
nico no NCMS00D 0.522084

