China china NP00000 0.666667
y y CC 0.999812
Estados_Unidos estados_unidos NP00000 1
compiten competir VMIP3P0 1
por por SPS00 1
la el DA0FS0 0.972146
riqueza riqueza NCFS000 1
de de SPS00 0.999919
Am am NP00000 1
rica rico NCFS000 0.25
Latina_La latina_la NP00000 1
econom econom NCMS000 0.500053
a a SPS00 0.99585
libre libre AQ0CS0 0.917647
y y CC 0.999812
el el DA0MS0 1
libre libre AQ0CS0 0.917647
comercio comercio NCMS000 0.833333
son ser VSIP3P0 0.986772
s segundo NCMN000 0.622321
lo el DA0NS0 0.457393
En en NP00000 1
todas todo DI0FP0 0.945312
las el DA0FP0 0.97051
pocas poco PI0FP000 0.05
de de SPS00 0.999919
la el DA0FS0 0.972146
historia historia NCFS000 1
moderna moderno AQ0FS0 0.916667
Latinoam latinoam NP00000 1
rica rico AQ0FS0 0.75
siempre siempre RG 1
ha haber VAIP3S0 0.998141
sido ser VSP00SM 1
una uno DI0FS0 0.951241
presa presa NCFS000 0.875
a a SPS00 0.99585
orada orar VMP00SF 1
por por SPS00 1
las el DA0FP0 0.97051
grandes grande AQ0CP0 0.95
potencias potencia NCFP000 0.833333
de de SPS00 0.999919
turno turno NCMS000 0.9
Sus sus NP00000 1
abundantes abundante AQ0CP0 1
y y CC 0.999812
diversos diverso AQ0MP0 1
recursos recurso NCMP000 1
naturales natural AQ0CP0 0.9
nunca nunca RG 1
han haber VAIP3P0 1
dejado dejar VMP00SM 1
dormir dormir VMN0000 1
en en SPS00 1
paz paz NCFS000 1
a a SPS00 0.99585
los el DA0MP0 0.97623
gobernantes gobernante NCCP000 0.916667
de de SPS00 0.999919
los el DA0MP0 0.97623
pa pa NCFS000 0.740689
ses ses AQ0CP0 0.068278
desarrollados desarrollar VMP00PM 0.75
En en NP00000 1
la el DA0FS0 0.972146
era era NCFS000 0.0171745
de de SPS00 0.999919
la el DA0FS0 0.972146
globalizaci globalizaci AQ0CS0 0.0199855
n n NCFS000 1
el el DA0MS0 1
2013 2013 Z 1
est est NCMS000 1
destinado destinar VMP00SM 1
a a SPS00 0.99585
entrar entrar VMN0000 1
en en SPS00 1
la el DA0FS0 0.972146
historia historia NCFS000 1
como como CS 0.998579
el el DA0MS0 1
a a SPS00 0.99585
o o CC 0.998845
de de SPS00 0.999919
la el DA0FS0 0.972146
competencia competencia NCFS000 1
entre entre SPS00 0.995223
la el DA0FS0 0.972146
primera 1 AO0FS0 0.987179
y y CC 0.999812
la el DA0FS0 0.972146
segunda 2 AO0FS0 0.958333
econom econom NCMS000 0.500053
a a SPS00 0.99585
mundial mundial AQ0CS0 0.928571
Estados_Unidos estados_unidos NP00000 1
y y CC 0.999812
China china NP00000 1
para para SPS00 0.998507
definir definir VMN0000 1
los el DA0MP0 0.97623
lazos lazo NCMP000 1
con con SPS00 1
Am am NP00000 1
rica rico NCFS000 0.25
Latina latina NP00000 1
pues pues CS 0.990385
consideran considerar VMIP3P0 1
que que CS 0.4375
sus su DP3CP0 0.998462
materias materia NCFP000 1
primas primo AQ0FP0 0.45
y y CC 0.999812
su su DP3CS0 1
pujante pujante AQ0CS0 1
clase clase NCFS000 1
media medio AQ0FS0 0.72
la lo PP3FSA00 0.0277626
hacen hacer VMIP3P0 1
no no RN 0.99778
solamente solamente RG 1
muy muy RG 1
atractiva atractivo AQ0FS0 1
como como CS 0.998579
socio socio NCMS000 1
comercial comercial AQ0CS0 1
sino sino CC 0.981707
imprescindible imprescindible AQ0CS0 1
para para SPS00 0.998507
su su DP3CS0 1
crecimiento crecimiento NCMS000 1
econ econ NCMS000 1
mico mico NCMS000 1
Todo todo NP00000 1
esto este PD0NS000 1
explica explicar VMIP3S0 0.95
el el DA0MS0 1
inusitado inusitado AQ0MS0 1
ajetreo ajetreo NCMS000 0.735623
de de SPS00 0.999919
las el DA0FP0 0.97051
recientes reciente AQ0CP0 0.75
giras gira NCFP000 0.873531
a a SPS00 0.99585
Latinoam latinoam NP00000 1
rica rico AQ0FS0 0.75
y y CC 0.999812
el el DA0MS0 1
Caribe caribe NP00000 1
de de SPS00 0.999919
los el DA0MP0 0.97623
dirigentes dirigente NCCP000 0.75
de de SPS00 0.999919
ambos ambos DI0MP0 0.361111
pa pa NCFS000 0.740689
ses ses NCMP000 0.727093
Recientemente recientemente NP00000 1
el el DA0MS0 1
vicepresidente vicepresidente NCMS000 1
de de SPS00 0.999919
los el DA0MP0 0.97623
Estados_Unidos_Joe_Biden estados_unidos_joe_biden NP00000 1
visit visit NCMN000 1
Colombia_Trinidad colombia_trinidad NP00000 1
y y CC 0.999812
Tobago tobago NP00000 1
y y CC 0.999812
Brasil_El brasil_el NP00000 1
presidente presidente NCMS000 1
Barack_Obama barack_obama NP00000 1
hizo hacer VMIS3S0 1
gira gira NCFS000 0.636997
a a SPS00 0.99585
M m NP00000 1
xico xico AQ0MS0 0.500497
y y CC 0.999812
Costa_Rica costa_rica NP00000 1
y y CC 0.999812
pr pr VMN0000 0.633986
ximamente ximamente RG 1
el el DA0MS0 1
secretario secretario NCMS000 1
de de SPS00 0.999919
Estado_John_Kerry estado_john_kerry NP00000 1
se se P00CN000 0.465602
desplazar desplazar VMN0000 1
a a SPS00 0.99585
Guatemala_El guatemala_el NP00000 1
6_de_junio [??:6/6/??:??.??:??] W 1
pasado pasar VMP00SM 0.647727
el el DA0MS0 1
presidente presidente NCMS000 1
de de SPS00 0.999919
Chile_Sebasti chile_sebasti NP00000 1
n n NCFS000 1
Pi pi NP00000 1
era ser VSII1S0 0.490859
fue ser VSIS3S0 0.932292
recibido recibir VMP00SM 1
por por SPS00 1
Barack_Obama barack_obama NP00000 1
en en SPS00 1
la el DA0FS0 0.972146
Casa_Blanca casa_blanca NP00000 1
quien quien PR0CS000 1
permiti permiti NCMS000 1
a a SPS00 1
el el DA0MS0 1
l l NCFS000 0.639398
der der NCMS000 0.246545
chileno chileno AQ0MS0 0.372313
cumplir cumplir VMN0000 1
con con SPS00 1
su su DP3CS0 1
sue sue NCMS000 0.439656
o o CC 0.998845
seg segundo NCMN000 1
n n NCFS000 1
lo lo PP3CNA00 0.271163
dijo decir VMIS3S0 1
sentar sentar VMN0000 1
se se PP3CN000 1
a a SPS00 0.99585
la el DA0FS0 0.972146
mesa mesa NCFS000 0.939394
de de SPS00 1
el el DA0MS0 1
presidente presidente NCMS000 1
de de SPS00 0.999919
la el DA0FS0 0.972146
nica nica AQ0FS0 0.730709
superpotencia superpotencia NCFS000 1
de de SPS00 1
el el DA0MS0 1
mundo mundo NCMS000 1
Vaya vaya NP00000 1
qu qu NCMS000 0.774439
ambici ambici RG 0.751648
n n NCFS000 1
de de SPS00 1
el el DA0MS0 1
presidente presidente NCMS000 1
chileno chileno AQ0MS0 0.372313
Vamos vamos NP00000 1
a a SPS00 0.99585
ver ver VMN0000 0.987179
qu qu NCMS000 0.774439
pedir pedir VMN0000 1
el el DA0MS0 1
presidente presidente NCMS000 1
peruano peruano AQ0MS0 0.75
Ollanta_Humala ollanta_humala NP00000 1
a a SPS00 1
el el DA0MS0 1
encontrar encontrar VMN0000 1
se se PP3CN000 1
esta este DD0FS0 0.982143
semana semana NCFS000 1
con con SPS00 1
Barack_Obama barack_obama NP00000 1
en en SPS00 1
el el DA0MS0 1
Sal sal NP00000 1
n n NCFS000 1
Roosevelt_de_la_Casa_Blanca_Pero roosevelt_de_la_casa_blanca_pero NP00000 1
all all NCFN000 1
no no RN 0.99778
termina terminar VMIP3S0 0.833333
la el DA0FS0 0.972146
historia historia NCFS000 1
de de SPS00 0.999919
la el DA0FS0 0.972146
agitaci agitaci AQ0CS0 0.0199855
n n NCFS000 1
diplom diplom NCMS000 0.500053
tica tica AQ0FS0 0.595788
En en NP00000 1
oto oto VMP00SM 0.44423
o o CC 0.998845
Joe_Biden joe_biden NP00000 1
se se P00CN000 0.465602
desplazar desplazar VMN0000 1
de de SPS00 0.999919
nuevo nuevo AQ0MS0 1
a a SPS00 0.99585
Latinoam latinoam NP00000 1
rica rico AQ0FS0 0.75
y y CC 0.999812
en en SPS00 1
octubre [??:??/10/??:??.??:??] W 1
la el DA0FS0 0.972146
presidenta presidente NCFS000 1
de de SPS00 0.999919
Brasil_Dilma_Rousseff brasil_dilma_rousseff NP00000 1
estar estar VAN0000 1
en en SPS00 1
Washington_Los washington_los NP00000 1
chinos chino NCMP000 0.944444
no no RN 0.99778
se se P00CN000 0.465602
quedan quedar VMIP3P0 1
atr atr VMN0000 0.633986
s segundo NCMN000 0.622321
mostrando mostrar VMG0000 1
gran gran AQ0CS0 1
agilidad agilidad NCFS000 1
y y CC 0.999812
visi visi NCMS000 1
n n NCFS000 1
estrat estrat NCMS000 1
gica gica AQ0FS0 0.925822
en en SPS00 1
el el DA0MS0 1
abordaje abordaje NCMS000 1
financiero financiero AQ0MS0 0.75
y y CC 0.999812
comercial comercial AQ0CS0 1
de de SPS00 0.999919
Am am NP00000 1
rica rico NCFS000 0.25
Latina latina NP00000 1
y y CC 0.999812
sin sin SPS00 1
prestar prestar VMN0000 1
ninguna ninguno DI0FS0 0.722222
atenci atenci AQ0CS0 0.0199855
n n NCFS000 1
a a SPS00 0.99585
la el DA0FS0 0.972146
reacci reacci AQ0CS0 0.0199855
n n NCFS000 1
de de SPS00 0.999919
Washington washington NP00000 1
que que CS 0.4375
seg segundo NCMN000 1
n n NCFS000 1
su su DP3CS0 1
secretario secretario NCMS000 1
de de SPS00 0.999919
Estado_John_Kerry estado_john_kerry NP00000 1
no no RN 0.99778
puede poder VMIP3S0 0.995614
asimilar asimilar VMN0000 1
la el DA0FS0 0.972146
idea idea NCFS000 0.974138
de de SPS00 0.999919
que que PR0CN000 0.5625
ya ya RG 0.996988
no no RN 0.99778
exista existir VMSP1S0 0.47619
su su DP3CS0 1
patio patio NCMS000 1
trasero trasero AQ0MS0 0.833333
China china NP00000 1
ha haber VAIP3S0 0.998141
desplazado desplazar VMP00SM 1
ya ya RG 0.996988
a a SPS00 0.99585
los el DA0MP0 0.97623
Estados_Unidos estados_unidos NP00000 1
como como CS 0.998579
el el DA0MS0 1
principal principal AQ0CS0 0.9375
socio socio NCMS000 1
comercial comercial AQ0CS0 1
de de SPS00 0.999919
Brasil brasil NP00000 1
y y CC 0.999812
Chile_Durante chile_durante NP00000 1
su su DP3CS0 1
reciente reciente AQ0CS0 0.925
visita visita NCFS000 0.866667
a a SPS00 0.99585
Latinoam latinoam NP00000 1
rica rico AQ0FS0 0.75
y y CC 0.999812
a a SPS00 1
el el DA0MS0 1
Caribe caribe NP00000 1
el el DA0MS0 1
presidente presidente NCMS000 1
de de SPS00 0.999919
la el DA0FS0 0.972146
Rep rep NP00000 1
blica blica AQ0FS0 1
Popular_China_Xi_Jimping popular_china_xi_jimping NP00000 1
se se P00CN000 0.465602
reuni reuni VMIS1S0 0.0691907
en en SPS00 1
Trinidad trinidad NP00000 1
y y CC 0.999812
Tobago tobago NP00000 1
con con SPS00 1
los el DA0MP0 0.97623
l l NCFS000 0.639398
deres deres NCMP000 0.800047
de de SPS00 0.999919
Barbados_Bahamas_Dominica_Granada_Guyana_Jamaica_Surinam barbados_bahamas_dominica_granada_guyana_jamaica_surinam NP00000 1
y y CC 0.999812
Antigua antigua NP00000 1
y y CC 0.999812
Barbuda_Tambi barbuda_tambi NP00000 1
n n NCFS000 1
realiz realiz AQ0CS0 1
una uno DI0FS0 0.951241
fruct fruct NCMS000 0.607342
fera fera AQ0FS0 0.333303
visita visita NCFS000 0.866667
a a SPS00 0.99585
M m NP00000 1
xico xico AQ0MS0 0.500497
y y CC 0.999812
Costa_Rica_Hace costa_rica_hace NP00000 1
poco poco RG 0.54065
el el DA0MS0 1
presidente presidente NCMS000 1
peruano peruano AQ0MS0 0.75
Ollanta_Humala ollanta_humala NP00000 1
recalc recalc NC00000 0.538029
que que PR0CN000 0.5625
hoy hoy RG 0.877358
China china NP00000 1
se se P00CN000 0.465602
ha haber VAIP3S0 0.998141
convertido convertir VMP00SM 1
en en SPS00 1
un uno DI0MS0 0.986987
gigante gigante NCCS000 0.375
y y CC 0.999812
nosotros nosotros PP1MP000 1
queremos querer VMIP1P0 1
caminar caminar VMN0000 1
junto_a junto_a SPS00 1
ese ese DD0MS0 0.98125
gigante gigante AQ0CS0 0.625
Pr pr NP00000 1
cticamente cticamente RG 1
la el DA0FS0 0.972146
mayor mayor AQ0CS0 0.989796
a a SPS00 0.99585
de de SPS00 0.999919
los el DA0MP0 0.97623
presidentes presidente NCMP000 1
latinoamericanos latinoamericano AQ0MP0 0.490617
comparten compartir VMIP3P0 1
esta este DD0FS0 0.982143
idea idea NCFS000 0.974138
aunque aunque CC 1
tambi tambi AQ0CN0 1
n n NCFS000 1
quieren querer VMIP3P0 1
seguir seguir VMN0000 1
a a SPS00 1
el el DA0MS0 1
comp comp NCMS000 1
s segundo NCMN000 0.622321
de de SPS00 0.999919
los el DA0MP0 0.97623
Estados_Unidos_El estados_unidos_el NP00000 1
problema problema NCMS000 1
es ser VSIP3S0 1
ver ver VMN0000 0.987179
qu qu NCMS000 0.774439
es ser VSIP3S0 1
lo el DA0NS0 0.457393
que que PR0CN000 0.5625
quieren querer VMIP3P0 1
en en SPS00 1
Am am NP00000 1
rica rico AQ0FS0 0.75
Latina latina NP00000 1
estos este DD0MP0 0.990566
dos 2 Z 0.988722
gigantes gigante NCCP000 0.75
y y CC 0.999812
qu qu NCMS000 0.774439
es ser VSIP3S0 1
lo el DA0NS0 0.457393
que que PR0CN000 0.5625
ofrecen ofrecer VMIP3P0 1
a a SPS00 0.99585
los el DA0MP0 0.97623
latinoamericanos latinoamericano NCMP000 0.509383
a_cambio a_cambio RG 1
Ya ya NP00000 1
es ser VSIP3S0 1
harto harto RG 0.444444
conocido conocer VMP00SM 0.954545
que que CS 0.4375
la el DA0FS0 0.972146
pol pol NCMS000 0.861706
tica tica AQ0FS0 0.595788
de de SPS00 0.999919
EEUU eeuu NP00000 1
est est NCMS000 1
basada basar VMP00SF 0.833333
en en SPS00 1
su su DP3CS0 1
supuesta suponer VMP00SF 1
misi misi RG 1
n n NCFS000 1
divina divino AQ0FS0 1
En en NP00000 1
el el DA0MS0 1
discurso discurso NCMS000 0.75
preparado preparar VMP00SM 0.7
pero pero CC 0.998821
nunca nunca RG 1
pronunciado pronunciar VMP00SM 1
por por SPS00 1
John_F_Kennedy john_f_kennedy NP00000 1
en en SPS00 1
Dallas_Texas dallas_texas NP00000 1
aquel aquel DD0MS0 0.985714
tr tr NCMS000 0.224371
gico gico AQ0MS0 1
noviembre_de_1963 [??:??/11/1963:??.??:??] W 1
l l NCFS000 0.639398
iba ir VMII3S0 0.635011
a a SPS00 0.99585
decir decir VMN0000 0.987805
que que CS 0.4375
nosotros nosotros PP1MP000 1
en en SPS00 1
este este DD0MS0 0.956743
pa pa NCFS000 0.740689
s segundo NCMN000 0.622321
somos ser VSIP1P0 1
por por SPS00 1
destino destino NCMS000 0.944444
m m NCFS000 0.5
s segundo NCMN000 0.622321
que que PR0CN000 0.5625
por por SPS00 1
opci opci RG 0.751648
n n NCFS000 1
los el DA0MP0 0.97623
guardianes guardián NCMP000 0.642728
en en SPS00 1
los el DA0MP0 0.97623
muros muro NCMP000 1
de de SPS00 0.999919
la el DA0FS0 0.972146
libertad libertad NCFS000 0.978261
mundial mundial AQ0CS0 0.928571
Por_supuesto por_supuesto NP00000 1
su su DP3CS0 1
patio patio NCMS000 1
trasero trasero AQ0MS0 0.833333
tambi tambi AQ0CN0 1
n n NCFS000 1
estaba estar VAII1S0 0.5
bajo bajo SPS00 0.866071
la el DA0FS0 0.972146
protecci protecci AQ0CS0 0.0199855
n n NCFS000 1
de de SPS00 0.999919
estos este DD0MP0 0.990566
muros muro NCMP000 1
que que PR0CN000 0.5625
edificaron edificar VMIS3P0 1
los el DA0MP0 0.97623
vecinos vecino NCMP000 0.928571
de de SPS00 1
el el DA0MS0 1
norte norte NCMS000 1
para para SPS00 0.998507
abrir abrir VMN0000 1
las el DA0FP0 0.97051
venas vena NCFP000 1
de de SPS00 0.999919
Am am NP00000 1
rica rico NCFS000 0.25
Latina_El latina_el NP00000 1
problema problema NCMS000 1
de de SPS00 0.999919
los el DA0MP0 0.97623
muros muro NCMP000 1
es ser VSIP3S0 1
que que CS 0.4375
siempre siempre RG 1
caen caer VMIP3P0 1
con con SPS00 1
el el DA0MS0 1
tiempo tiempo NCMS000 1
y y CC 0.999812
actualmente actualmente RG 1
como como CS 0.998579
recalc recalc NC00000 0.538029
recientemente recientemente RG 1
el el DA0MS0 1
presidente presidente NCMS000 1
de de SPS00 1
el el DA0MS0 1
Ecuador_Rafael_Correa_Am ecuador_rafael_correa_am NP00000 1
rica rico AQ0FS0 0.75
Latina latina NP00000 1
ya ya RG 0.996988
no no RN 0.99778
es ser VSIP3S0 1
el el DA0MS0 1
patio patio NCMS000 1
trasero trasero AQ0MS0 0.833333
de de SPS00 0.999919
nadie nadie PI0CS000 1
Lo lo NP00000 1
nico nico AQ0MS0 0.470565
que que PR0CN000 0.5625
queda quedar VMIP3S0 0.885417
a a SPS00 0.99585
Norteam norteam NP00000 1
rica rico AQ0FS0 0.75
en en SPS00 1
estas este DD0FP0 0.960526
condiciones condición NCFP000 0.958333
para para SPS00 0.998507
no no RN 0.99778
ver ver VMN0000 1
se se PP3CN000 1
desplazado desplazar VMP00SM 1
por por SPS00 1
otras otro DI0FP0 0.731481
potencias potencia NCFP000 0.833333
en en SPS00 1
Latinoam latinoam NP00000 1
rica rico AQ0FS0 0.75
es ser VSIP3S0 1
construir construir VMN0000 1
muros muro NCMP000 1
de de SPS00 1
el el DA0MS0 1
neoliberalismo neoliberalismo NCMS000 1
econ econ NCMS000 1
mico mico NCMS000 1
dependencia dependencia NCFS000 1
financiera financiero AQ0FS0 0.666667
y y CC 0.999812
de de SPS00 0.999919
la el DA0FS0 0.972146
permanente permanente AQ0CS0 0.928571
presi presi NCMS000 1
n n NCFS000 1
psicol psicol NCFS000 0.639398
gica gica AQ0FS0 0.925822
sobre sobre SPS00 0.994203
los el DA0MP0 0.97623
gobiernos gobierno NCMP000 1
de de SPS00 1
el el DA0MS0 1
continente continente NCMS000 0.875
aplicando aplicar VMG0000 1
su su DP3CS0 1
preferida preferir VMP00SF 1
m m NCFS000 0.5
xima xima AQ0FS0 0.800006
pol pol NCMS000 0.861706
tica tica AQ0FS0 0.595788
de de SPS00 0.999919
Nicol nicol NP00000 1
s segundo NCMN000 0.622321
Maquiavelo_Divide maquiavelo_divide NP00000 1
y y CC 0.999812
reinar reinar VMN0000 1
s segundo NCMN000 0.622321
en en SPS00 1
combinaci combinaci RG 0.751648
n n NCFS000 1
con con SPS00 1
su su DP3CS0 1
tradicional tradicional AQ0CS0 1
m m NCFS000 0.5
todo todo PI0MS000 0.430982
de de SPS00 0.999919
palo palo NCMS000 1
y y CC 0.999812
zanahoria zanahoria NCFS000 1
Tambi tambi NP00000 1
n n NCFS000 1
peri peri NCFS000 1
dicamente dicamente RG 1
designa designar VMIP3S0 0.833333
all all NCFN000 1
a a SPS00 0.99585
sus su DP3CP0 0.998462
tigres tigre NCMP000 1
econ econ NCMS000 1
micos mico NCMP000 1
De de NP00000 1
los el DA0MP0 0.97623
m m NCFS000 0.5
s segundo NCMN000 0.622321
conocidos conocer VMP00PM 0.7
y y CC 0.999812
mimados mimar VMP00PM 1
por por SPS00 1
los el DA0MP0 0.97623
Estados_Unidos estados_unidos NP00000 1
fueron ser VSIS3P0 0.796296
Carlos_Menem_de_Argentina carlos_menem_de_argentina NP00000 1
y y CC 0.999812
Alberto_Fujimori_de_Per alberto_fujimori_de_per NP00000 1
en en SPS00 1
los el DA0MP0 0.97623
a a SPS00 0.99585
os os PP2CP000 0.722222
1990 1990 Z 1
Ahora ahora NP00000 1
en en SPS00 1
la el DA0FS0 0.972146
poca poco PI0FS000 0.1
cuando cuando CS 0.983796
el el DA0MS0 1
proceso proceso NCMS000 0.973684
integracionista integracionista AQ0CS0 0.35739
empez empez NCMS000 1
a a SPS00 0.99585
tomar tomar VMN0000 1
fuerza fuerza NCFS000 0.968254
en en SPS00 1
Am am NP00000 1
rica rico NCFS000 0.25
Latina latina NP00000 1
aparecieron aparecer VMIS3P0 1
como como CS 0.998579
por por SPS00 1
magia magia NCFS000 1
cuatro 4 Z 1
nuevos nuevo AQ0MP0 1
tigres tigre NCMP000 1
M m NP00000 1
xico xico NCMS000 0.499503
Colombia_Chile colombia_chile NP00000 1
y y CC 0.999812
el el DA0MS0 1
Per per NP00000 1
seducidos seducir VMP00PM 1
h h NCFS000 0.5
bilmente bilmente RG 1
por por SPS00 1
Washington washington NP00000 1
para para SPS00 0.998507
formar formar VMN0000 1
la el DA0FS0 0.972146
Alianza_de_el_Pac alianza_de_el_pac NP00000 1
fico fico AQ0MS0 0.466938
AP ap NP00000 1
que que PR0CN000 0.5625
es ser VSIP3S0 1
programada programar VMP00SF 1
ser ser VSN0000 0.93883
una uno DI0FS0 0.951241
sucursal sucursal NCFS000 0.34281
regional regional AQ0CS0 1
de de SPS00 1
el el DA0MS0 1
Transpacific_Partnership_TPP_El transpacific_partnership_tpp_el NP00000 1
rol rol NCMS000 1
primordial primordial AQ0CS0 1
de de SPS00 0.999919
la el DA0FS0 0.972146
AP ap NP00000 1
ser ser VSN0000 0.93883
contrapesar contrapesar VMN0000 1
el el DA0MS0 1
modelo modelo NCCS000 0.973684
Mercosur mercosur NP00000 1
facilitar facilitar VMN0000 1
el el DA0MS0 1
reposicionamiento reposicionamiento NCMS000 1
de de SPS00 0.999919
Washington washington NP00000 1
en en SPS00 1
la el DA0FS0 0.972146
regi regi RG 0.751648
n n NCFS000 1
contener contener VMN0000 1
el el DA0MS0 1
avance avance NCMS000 0.8125
comercial comercial AQ0CS0 1
y y CC 0.999812
financiero financiero AQ0MS0 0.75
chino chino NCMS000 0.708333
y y CC 0.999812
en en SPS00 1
especial especial AQ0CS0 1
en en SPS00 1
Argentina_Brasil argentina_brasil NP00000 1
y y CC 0.999812
Venezuela venezuela NP00000 1
debilitar debilitar VMN0000 1
a a SPS00 0.99585
los el DA0MP0 0.97623
gobiernos gobierno NCMP000 1
de de SPS00 0.999919
los el DA0MP0 0.97623
pa pa NCFS000 0.740689
ses ses AQ0CP0 0.068278
de de SPS00 1
el el DA0MS0 1
ALBA alba NP00000 1
y y CC 0.999812
tratar tratar VMN0000 1
de de SPS00 0.999919
restablecer restablecer VMN0000 1
en en SPS00 1
Latinoam latinoam NP00000 1
rica rico AQ0FS0 0.75
una uno DI0FS0 0.951241
situaci situaci AQ0CS0 0.0199855
n n NCFS000 1
previa previo AQ0FS0 1
a a SPS00 0.99585
la el DA0FS0 0.972146
revoluci revoluci AQ0CS0 0.0199855
n n NCFS000 1
cubana cubano AQ0FS0 0.65705
Para para NP00000 1
realizar realizar VMN0000 1
esta este DD0FS0 0.982143
haza haza NCFS000 1
a a SPS00 0.99585
los el DA0MP0 0.97623
globalizadores globalizador AQ0MP0 1
se se P00CN000 0.465602
valen valer VMIP3P0 1
de de SPS00 0.999919
todo todo PI0MS000 0.430982
y y CC 0.999812
como como CS 0.998579
por por SPS00 1
magia magia NCFS000 1
convirtieron convertir VMIS3P0 1
a a SPS00 0.99585
M m NP00000 1
xico xico NCMS000 0.499503
en en SPS00 1
un uno DI0MS0 0.986987
Tigre tigre NP00000 1
pese_a pese_a SPS00 1
estar estar VAN0000 1
considerado considerar VMP00SM 1
por por SPS00 1
el el DA0MS0 1
Consejo_Regulador_de_la_Industria consejo_regulador_de_la_industria NP00000 1
y y CC 0.999812
Servicios_de_Seguridad_de_la_Rep servicios_de_seguridad_de_la_rep NP00000 1
blica blica AQ0FS0 1
Mexicana_CRISSRM mexicana_crissrm NP00000 1
de de SPS00 0.999919
acercar acercar VMN0000 1
se se PP3CN000 1
cada cada DI0CS0 1
d d NCFS000 1
a a SPS00 0.99585
m m NCFS000 0.5
s segundo NCMN000 0.622321
a a SPS00 0.99585
ser ser VSN0000 0.93883
un uno DI0MS0 0.986987
Estado_Fallido estado_fallido NP00000 1
con con SPS00 1
cincuenta_mil 50000 Z 1
muertos muerto NCMP000 0.681818
y y CC 0.999812
desaparecidos desaparecido NCMP000 0.458193
Pero pero NP00000 1
en en SPS00 1
la el DA0FS0 0.972146
percepci percepci NCMS000 0.0996348
n n NCFS000 1
interesada interesar VMP00SF 0.691767
de de SPS00 0.999919
Barack_Obama_M barack_obama_m NP00000 1
xico xico AQ0MS0 0.500497
registra registrar VMIP3S0 0.75
un uno DI0MS0 0.986987
progreso progreso NCMS000 0.9375
impresionante impresionante AQ0CS0 1
Lo lo NP00000 1
que que PR0CN000 0.5625
olvid olvid NCFS000 0.961423
decir decir VMN0000 0.987805
el el DA0MS0 1
presidente presidente NCMS000 1
norteamericano norteamericano AQ0MS0 0.833333
fue ser VSIS3S0 0.932292
que que CS 0.4375
M m NP00000 1
xico xico NCMS000 0.499503
es ser VSIP3S0 1
realmente realmente RG 1
impresionante impresionante AQ0CS0 1
por por SPS00 1
sus su DP3CP0 0.998462
60_millones 60000000 Zd 1
de de SPS00 0.999919
pobres pobre NCCP000 0.625
y y CC 0.999812
por por SPS00 1
el el DA0MS0 1
ritmo ritmo NCMS000 0.9375
de de SPS00 0.999919
10 10 Z 1
ejecuciones ejecución NCFP000 1
por por SPS00 1
d d NCFS000 1
a a SPS00 0.99585
desde desde SPS00 1
diciembre [??:??/12/??:??.??:??] W 1
pasado pasar VMP00SM 0.647727
a a SPS00 0.99585
la el DA0FS0 0.972146
fecha fecha NCFS000 0.892857
De de NP00000 1
los el DA0MP0 0.97623
cuatro 4 Z 1
tigres tigre NCMP000 1
el el DA0MS0 1
pa pa NCFS000 0.740689
s segundo NCMN000 0.622321
m m NCFS000 0.5
s segundo NCMN000 0.622321
mimado mimar VMP00SM 1
actualmente actualmente RG 1
por por SPS00 1
Washington washington NP00000 1
es ser VSIP3S0 1
Chile chile NP00000 1
que que PR0CN000 0.5625
es ser VSIP3S0 1
referido referir VMP00SM 1
por por SPS00 1
el el DA0MS0 1
presidente presidente NCMS000 1
estadounidense estadounidense AQ0CS0 0.833333
pa pa NCFS000 0.740689
s segundo NCMN000 0.622321
amigo amigo NCMS000 0.861111
y y CC 0.999812
su su DP3CS0 1
gobernante gobernante NCCS000 0.342743
Sebasti sebasti NP00000 1
n n NCFS000 1
Pi pi NP00000 1
era ser VSII1S0 0.490859
un_l VL_l:1 Zu 1
der der NCMS000 0.246545
sobresaliente sobresaliente AQ0CS0 0.75
Como como NP00000 1
premio premiar VMIP1S0 0.1
por por SPS00 1
su su DP3CS0 1
permanente permanente AQ0CS0 0.928571
fidelidad fidelidad NCFS000 1
a a SPS00 1
el el DA0MS0 1
modelo modelo NCCS000 0.973684
neoliberal neoliberal AQ0CS0 0.616364
y y CC 0.999812
a a SPS00 0.99585
la el DA0FS0 0.972146
ideolog ideolog NCMS000 0.714133
a a SPS00 0.99585
norteamericana norteamericano NCFS000 0.25
el el DA0MS0 1
pa pa NCFS000 0.740689
s segundo NCMN000 0.622321
fue ser VSIS3S0 0.932292
nominado nominar VMP00SM 1
a a SPS00 1
el el DA0MS0 1
programa programa NCMS000 0.866667
de de SPS00 0.999919
exenci exenci RG 0.751648
n n NCFS000 1
de de SPS00 0.999919
visas visar VMIP2S0 1
igual igual RG 0.266667
como como CS 0.998579
pas pas NCFP000 0.954559
con con SPS00 1
Argentina argentina NP00000 1
en en SPS00 1
la el DA0FS0 0.972146
poca poco PI0FS000 0.1
de de SPS00 0.999919
Carlos_Menem_Colombia carlos_menem_colombia NP00000 1
es ser VSIP3S0 1
el el DA0MS0 1
tercer 3 AO0MS0 1
tigre tigre NCMS000 1
sudamericano sudamericano AQ0MS0 0.63727
completamente completamente RG 1
controlado controlar VMP00SM 1
por por SPS00 1
los el DA0MP0 0.97623
Estados_Unidos estados_unidos NP00000 1
a a SPS00 0.99585
trav trav AQ0CS0 0.0433699
s segundo NCMN000 0.622321
de de SPS00 0.999919
sus su DP3CP0 0.998462
siete 7 Z 1
bases base NCCP000 0.75
militares militar AQ0CP0 0.541667
instaladas instalar VMP00PF 1
en en SPS00 1
los el DA0MP0 0.97623
lugares lugar NCMP000 1
estrat estrat NCMS000 1
gicos gicos AQ0MP0 1
con con SPS00 1
abundantes abundante AQ0CP0 1
recursos recurso NCMP000 1
naturales natural AQ0CP0 0.9
Resulta resulta NP00000 1
que que CS 0.4375
Colombia colombia NP00000 1
es ser VSIP3S0 1
tambi tambi AQ0CN0 1
n n NCFS000 1
para para SPS00 0.998507
ellos ellos PP3MP000 1
el el DA0MS0 1
s segundo NCMN000 0.622321
mbolo mbolo NCMS000 1
de de SPS00 0.999919
la el DA0FS0 0.972146
democracia democracia NCFS000 1
y y CC 0.999812
cada cada DI0CS0 1
d d NCFS000 1
a a SPS00 0.99585
m m NCFS000 0.5
s segundo NCMN000 0.622321
este este DD0MS0 0.956743
pa pa NCFS000 0.740689
s segundo NCMN000 0.622321
seg segundo NCMN000 1
n n NCFS000 1
el el DA0MS0 1
vicepresidente vicepresidente NCMS000 1
norteamericano norteamericano AQ0MS0 0.833333
Joe_Biden joe_biden NP00000 1
muestra mostrar VMIP3S0 0.703704
destacado destacar VMP00SM 1
progreso progresar VMIP1S0 0.0625
agregando agregar VMG0000 1
que que CS 0.4375
actualmente actualmente RG 1
entrena entrenar VMIP3S0 0.994868
a a SPS00 0.99585
miles mil NCMP000 1
de de SPS00 0.999919
oficiales oficial AQ0CP0 0.866667
de de SPS00 0.999919
ley ley NCFS000 1
y y CC 0.999812
seguridad seguridad NCFS000 1
en en SPS00 1
m m NCFS000 0.5
s segundo NCMN000 0.622321
de de SPS00 0.999919
40 40 Z 1
pa pa NCFS000 0.740689
ses ses NCMP000 0.727093
Pero pero NP00000 1
qu qu NCMS000 0.774439
cambio cambio NCMS000 0.97619
agreg agreg NCMS000 0.714133
Lo lo NP00000 1
que que CS 0.4375
no no RN 0.99778
menciona mencionar VMIP3S0 0.994868
Joe_Biden joe_biden NP00000 1
es ser VSIP3S0 1
que que CS 0.4375
muchos mucho PI0MP000 0.458333
de de SPS00 0.999919
estos este DD0MP0 0.990566
instructores instructor NCMP000 0.507298
participaron participar VMIS3P0 1
en en SPS00 1
la el DA0FS0 0.972146
desaparici desaparici AQ0CS0 0.0199855
n n NCFS000 1
de de SPS00 0.999919
m m NCFS000 0.5
s segundo NCMN000 0.622321
250 250 Z 1
000 0 Z 1
personas persona NCFP000 0.983871
en en SPS00 1
su su DP3CS0 1
pa pa NCFS000 0.740689
s segundo NCMN000 0.622321
y y CC 0.999812
de de SPS00 0.999919
esta este DD0FS0 0.982143
cantidad cantidad NCFS000 1
38 38 Z 1
255 255 Z 1
han haber VAIP3P0 1
sido ser VSP00SM 1
v v NCFS000 1
ctimas ctimas NCFP000 1
en en SPS00 1
los el DA0MP0 0.97623
ltimos ltimos VMIP1P0 0.856975
tres 3 Z 1
a a SPS00 0.99585
os os PP2CP000 0.722222
Despu despu NP00000 1
s segundo NCMN000 0.622321
de de SPS00 1
el el DA0MS0 1
halago halago NCMS000 0.75
de de SPS00 0.999919
Biden biden NP00000 1
las el DA0FP0 0.97051
ambiciones ambición NCFP000 0.995706
de de SPS00 1
el el DA0MS0 1
presidente presidente NCMS000 1
Juan_Manuel_Santos juan_manuel_santos NP00000 1
crecieron crecer VMIS3P0 1
tanto tanto RG 0.857895
que que CS 0.4375
sinti sinti NCMS000 1
que que CS 0.4375
Am am NP00000 1
rica rico NCFS000 0.25
Latina latina NP00000 1
representa representar VMIP3S0 0.928571
demasiado demasiado RG 0.93
poco poco DI0MS0 0.126016
espacio espacio NCMS000 0.96875
para para SPS00 0.998507
Colombia colombia NP00000 1
y y CC 0.999812
que que PR0CN000 0.5625
debe deber VMIP3S0 0.974359
ser ser VSN0000 0.93883
el el DA0MS0 1
miembro miembro NCMS000 0.9
de de SPS00 0.999919
la el DA0FS0 0.972146
OTAN otan NP00000 1
porque porque CS 1
necesita necesitar VMIP3S0 0.95
la el DA0FS0 0.972146
experiencia experiencia NCFS000 1
de de SPS00 0.999919
los el DA0MP0 0.97623
soldados soldado NCMP000 0.928571
colombianos colombiano AQ0MP0 0.75
Dijo dijo NP00000 1
que que PR0CN000 0.5625
Colombia colombia NP00000 1
debe deber VMIP3S0 0.974359
pensar pensar VMN0000 1
en en SPS00 1
grande grande AQ0CS0 0.9
para para SPS00 0.998507
ser ser VSN0000 0.93883
ya ya RG 0.996988
no no RN 0.99778
de de SPS00 0.999919
la el DA0FS0 0.972146
regi regi AQ0CS0 0.0199855
n n NCFS000 1
sino sino CC 0.981707
de de SPS00 1
el el DA0MS0 1
mundo mundo NCMS000 1
para para SPS00 0.998507
ser ser VSN0000 0.93883
uno uno PI0MS000 0.964744
de de SPS00 0.999919
los el DA0MP0 0.97623
mejores mejor AQ0CP0 0.964286
El el NP00000 1
ltimo ltimo RG 1
tigre tigre NCMS000 1
econ econ NCMS000 1
mico mico NCMS000 1
en en SPS00 1
la el DA0FS0 0.972146
actual actual AQ0CS0 1
percepci percepci NCMS000 0.0996348
n n NCFS000 1
de de SPS00 1
el el DA0MS0 1
departamento departamento NCMS000 1
de de SPS00 0.999919
Estado estado NP00000 1
norteamericano norteamericano AQ0MS0 0.833333
es ser VSIP3S0 1
Per_Su per_su NP00000 1
presidente presidente NCMS000 1
Ollanta_Humala ollanta_humala NP00000 1
reforz reforz RG 0.101752
el el DA0MS0 1
modelo modelo NCCS000 0.973684
neoliberal neoliberal AQ0CS0 0.616364
profundizando profundizar VMG0000 1
igual igual RG 0.266667
como como CS 0.998579
sus su DP3CP0 0.998462
otros otro DI0MP0 0.56875
tigres tigre NCMP000 1
colegas colega AQ0CP0 0.3
la el DA0FS0 0.972146
problem problem NCMS000 1
tica tica AQ0FS0 0.595788
de de SPS00 0.999919
la el DA0FS0 0.972146
inserci inserci AQ0CS0 0.0199855
n n NCFS000 1
en en SPS00 1
el el DA0MS0 1
mercado mercado NCMS000 0.9
internacional internacional AQ0CS0 0.833333
de de SPS00 0.999919
acuerdo acuerdo NCMS000 0.958333
a a SPS00 1
el el DA0MS0 1
estudio estudio NCMS000 0.954545
de de SPS00 1
el el DA0MS0 1
economista economista NCCS000 0.342817
Diego_Rubinzal diego_rubinzal NP00000 1
a a SPS00 0.99585
trav trav AQ0CS0 0.0433699
s segundo NCMN000 0.622321
de de SPS00 1
el el DA0MS0 1
modelo modelo NCCS000 0.973684
de de SPS00 1
el el DA0MS0 1
monoproducto monoproducto NCMS000 0.64273
y y CC 0.999812
la el DA0FS0 0.972146
primarizaci primarizaci AQ0CS0 0.0199855
n n NCFS000 1
alentados alentar VMP00PM 1
por por SPS00 1
el el DA0MS0 1
boom boom NCMS000 1
de de SPS00 0.999919
los el DA0MP0 0.97623
precios precio NCMP000 1
de de SPS00 0.999919
los el DA0MP0 0.97623
minerales mineral NCMP000 0.44273
Esta esta NP00000 1
pol pol NCMS000 0.861706
tica tica AQ0FS0 0.595788
ha haber VAIP3S0 0.998141
debilitado debilitar VMP00SM 1
a a SPS00 1
el el DA0MS0 1
sector sector NCMS000 1
industrial industrial AQ0CS0 0.833333
peruano peruano AQ0MS0 0.75
cuyas cuyo PR0FP000 1
exportaciones exportación NCFP000 1
desde desde SPS00 1
2003 2003 Z 1
se se P00CN000 0.465602
han haber VAIP3P0 1
reducido reducir VMP00SM 1
dr dr VMN0000 0.633986
sticamente sticamente RG 1
mientras_que mientras_que CS 1
las el DA0FP0 0.97051
exportaciones exportación NCFP000 1
de de SPS00 1
el el DA0MS0 1
sector sector NCMS000 1
minero minero AQ0MS0 0.357278
se se P00CN000 0.465602
duplicaron duplicar VMIS3P0 1
Ollanta_Humala ollanta_humala NP00000 1
es ser VSIP3S0 1
el el DA0MS0 1
pol pol NCMS000 0.861706
tico tico AQ0MS0 0.806828
m m NCFS000 0.5
s segundo NCMN000 0.622321
habilidoso habilidoso AQ0MS0 1
de de SPS00 0.999919
los el DA0MP0 0.97623
cuatro 4 Z 1
de de SPS00 0.999919
la el DA0FS0 0.972146
AP ap NP00000 1
pues pues CS 0.990385
ha haber VAIP3S0 0.998141
sabido saber VMP00SM 1
navegar navegar VMN0000 1
entre entre SPS00 0.995223
las el DA0FP0 0.97051
diferentes diferente AQ0CP0 1
corrientes corriente NCFP000 0.5
ideol ideol NCMS000 0.861706
gicas gicas AQ0FP0 1
en en SPS00 1
Latinoam latinoam NP00000 1
rica rico AQ0FS0 0.75
tratando tratar VMG0000 1
de de SPS00 0.999919
mantener mantener VMN0000 1
buenas bueno AQ0FP0 1
relaciones relación NCFP000 0.944444
con con SPS00 1
todos todo DI0MP0 0.622419
sus su DP3CP0 0.998462
representantes representante NCCP000 0.875
Lo lo NP00000 1
que que CS 0.4375
no no RN 0.99778
est est NCMS000 1
calculando calcular VMG0000 1
bien bien RG 0.898039
es ser VSIP3S0 1
el el DA0MS0 1
rol rol NCMS000 1
que que CS 0.4375
su su DP3CS0 1
pa pa NCFS000 0.740689
s segundo NCMN000 0.622321
y y CC 0.999812
toda todo DI0FS0 0.975806
la el DA0FS0 0.972146
Alianza_de_el_Pac alianza_de_el_pac NP00000 1
fico fico VMIP1S0 0.0666217
tendr tendr VMN0000 0.633986
en en SPS00 1
el el DA0MS0 1
Transpacific_Partnership_TPP transpacific_partnership_tpp NP00000 1
cuyos cuyo PR0MP000 1
estatutos estatuto NCMP000 1
se se P00CN000 0.465602
han haber VAIP3P0 1
estado estar VAP00SM 0.337838
negociando negociar VMG0000 1
los el DA0MP0 0.97623
grandes grande AQ0CP0 0.95
globalizadores globalizador AQ0MP0 1
en en SPS00 1
gran gran AQ0CS0 1
secreto secreto NCMS000 0.916667
desde desde SPS00 1
2008 2008 Z 1
En en NP00000 1
un uno DI0MS0 0.986987
reciente reciente AQ0CS0 0.925
art artículo NCMS000 1
culo culo NCMS000 1
de de SPS00 0.999919
James_Corbet_de_el_International_Forecaster james_corbet_de_el_international_forecaster NP00000 1
el el DA0MS0 1
autor autor NCMS000 1
se se P00CN000 0.465602
ala ala NCFS000 0.961441
que que CS 0.4375
el el DA0MS0 1
p p NCFS000 0.5
blico blico AQ0MS0 0.400224
norteamericano norteamericano AQ0MS0 0.833333
inclusive inclusive RG 1
el el DA0MS0 1
Congreso congreso NP00000 1
y y CC 0.999812
el el DA0MS0 1
de de SPS00 0.999919
los el DA0MP0 0.97623
pa pa NCFS000 0.740689
ses ses AQ0CP0 0.068278
part part NCMS000 1
cipes cipes NCMP000 1
en en SPS00 1
el el DA0MS0 1
TPP tpp NP00000 1
no no RN 0.99778
saben saber VMIP3P0 1
nada nada PI0CS000 0.846667
de de SPS00 0.999919
que que PR0CN000 0.5625
se se P00CN000 0.465602
trata tratar VMIP3S0 0.946237
Solamente solamente NP00000 1
las el DA0FP0 0.97051
transnacionales transnacional AQ0CP0 1
como como CS 0.998579
Halliburton_Chevron_PHRMA halliburton_chevron_phrma NP00000 1
y y CC 0.999812
otros otro DI0MP0 0.56875
gigantes gigante NCCP000 0.75
participan participar VMIP3P0 1
en en SPS00 1
la el DA0FS0 0.972146
discusi discusi RG 1
n n NCFS000 1
de de SPS00 0.999919
esta este DD0FS0 0.982143
alianza alianza NCFS000 1
Sin sin NP00000 1
embargo embargar VMIP1S0 0.0265036
ya ya RG 0.996988
se se P00CN000 0.465602
sabe saber VMIP3S0 0.983333
que que CS 0.4375
el el DA0MS0 1
control control NCMS000 1
de de SPS00 1
el el DA0MS0 1
Estado estado NP00000 1
de de SPS00 0.999919
cada cada DI0CS0 1
pa pa NCFS000 0.740689
s segundo NCMN000 0.622321
signatario signatario AQ0MS0 0.35727
de de SPS00 0.999919
la el DA0FS0 0.972146
alianza alianza NCFS000 1
sobre sobre SPS00 0.994203
el el DA0MS0 1
fluido fluido NCMS000 0.308233
de de SPS00 1
el el DA0MS0 1
capital capital NCFS000 0.372549
va ir VMIP3S0 1
a a SPS00 0.99585
ser ser VSN0000 0.93883
pr pr NCMS000 0.224371
cticamente cticamente RG 1
abolido abolir VMP00SM 1
y y CC 0.999812
todo todo DI0MS0 0.559816
el el DA0MS0 1
poder poder NCMS000 0.711538
financiero financiero AQ0MS0 0.75
estar estar VAN0000 1
en_manos_de en_manos_de SPS00 1
los el DA0MP0 0.97623
banqueros banquero NCMP000 1
Se se NP00000 1
incrementar incrementar VMN0000 1
el el DA0MS0 1
costo costo NCMS000 1
de de SPS00 0.999919
la el DA0FS0 0.972146
medicina medicina NCFS000 0.866667
debido_a debido_a SPS00 1
el el DA0MS0 1
mayor mayor AQ0CS0 0.989796
control control NCMS000 1
sobre sobre SPS00 0.994203
los el DA0MP0 0.97623
productos producto AQ0MP0 0.166667
gen gen NCMS000 1
ricos rico AQ0MP0 0.4375
y y CC 0.999812
se se P00CN000 0.465602
relajar relajar VMN0000 1
n n NCFS000 1
las el DA0FP0 0.97051
leyes ley NCFP000 1
laborales laboral AQ0CP0 0.833333
y y CC 0.999812
las el DA0FP0 0.97051
de de SPS00 1
el el DA0MS0 1
medio medio AQ0MS0 0.312821
ambiente ambiente NCMS000 0.866667
mientras_que mientras_que CS 1
las el DA0FP0 0.97051
leyes ley NCFP000 1
de de SPS00 0.999919
la el DA0FS0 0.972146
propiedad propiedad NCFS000 1
intelectual intelectual AQ0CS0 0.944444
se se P00CN000 0.465602
reforzar reforzar VMN0000 1
n n NCFS000 1
Las las NP00000 1
transnacionales transnacional AQ0CP0 1
recibir recibir VMN0000 1
n n NCFS000 1
poder poder NCMS000 0.711538
m m NCFS000 0.5
s segundo NCMN000 0.622321
amplio amplio AQ0MS0 1
para para SPS00 0.998507
enjuiciar enjuiciar VMN0000 1
a a SPS00 0.99585
los el DA0MP0 0.97623
Estados_En estados_en NP00000 1
la el DA0FS0 0.972146
econom econom NCMS000 0.500053
a a SPS00 0.99585
ser ser VSN0000 0.93883
prioritario prioritario AQ0MS0 1
el el DA0MS0 1
actual actual AQ0CS0 1
modelo modelo NCCS000 0.973684
de de SPS00 0.999919
Hayek hayek NP00000 1
que que PR0CN000 0.5625
excluye excluir VMIP3S0 0.994868
completamente completamente RG 1
la el DA0FS0 0.972146
planificaci planificaci AQ0CS0 0.0199855
n n NCFS000 1
de de SPS00 0.999919
la el DA0FS0 0.972146
econom econom NCMS000 0.500053
a a SPS00 0.99585
por por SPS00 1
el el DA0MS0 1
Estado estado NP00000 1
porque porque CS 1
rompe romper VMIP3S0 0.875
el el DA0MS0 1
concepto concepto NCMS000 1
de de SPS00 0.999919
la el DA0FS0 0.972146
libertad libertad NCFS000 0.978261
de de SPS00 1
el el DA0MS0 1
mercado mercado NCMS000 0.9
La_TPP la_tpp NP00000 1
exigir exigir VMN0000 1
a a SPS00 0.99585
sus su DP3CP0 0.998462
miembros miembro NCMP000 0.916667
a a SPS00 0.99585
aplicar aplicar VMN0000 1
de de SPS00 0.999919
nuevo nuevo AQ0MS0 1
lo el DA0NS0 0.457393
que que PR0CN000 0.5625
hizo hacer VMIS3S0 1
el el DA0MS0 1
Consenso_de_Washington consenso_de_washington NP00000 1
nueva nuevo AQ0FS0 0.977273
oleada oleada NCFS000 0.875
de de SPS00 0.999919
privatizaciones privatización NCFP000 1
de de SPS00 0.999919
lo el DA0NS0 0.457393
que que PR0CN000 0.5625
todav todav VMIP3S0 0.0552772
a a SPS00 0.99585
queda queda NCFS000 0.09375
de de SPS00 0.999919
la el DA0FS0 0.972146
propiedad propiedad NCFS000 1
nacional nacional AQ0CS0 1
la el DA0FS0 0.972146
apertura apertura NCFS000 1
indiscriminada indiscriminado AQ0FS0 1
de de SPS00 0.999919
mercados mercado NCMP000 0.75
una uno DI0FS0 0.951241
completa completo AQ0FS0 0.888889
desregulaci desregulaci NCMS000 0.0996348
n n NCFS000 1
econ econ NCMS000 1
mica mica NCFS000 1
aniquilamiento aniquilamiento NCMS000 1
de de SPS00 0.999919
derechos derecho NCMP000 0.9
sociales social AQ0CP0 0.9375
y y CC 0.999812
laborales laboral AQ0CP0 0.833333
orientaci orientaci RG 0.751648
n n NCFS000 1
de de SPS00 0.999919
cada cada DI0CS0 1
pa pa NCFS000 0.740689
s segundo NCMN000 0.622321
hacia hacia SPS00 1
el el DA0MS0 1
modelo modelo NCCS000 0.973684
de de SPS00 0.999919
monoproducto monoproducto NCMS000 0.64273
y y CC 0.999812
la el DA0FS0 0.972146
primarizaci primarizaci AQ0CS0 0.0199855
n n NCFS000 1
y y CC 0.999812
muchas mucho DI0FP0 0.819444
otras otro DI0FP0 0.731481
exigencias exigencia NCFP000 1
que que CS 0.4375
las el DA0FP0 0.97051
trasnacionales trasnacional AQ0CP0 1
y y CC 0.999812
los el DA0MP0 0.97623
grandes grande AQ0CP0 0.95
pa pa NCFS000 0.740689
ses ses AQ0CP0 0.068278
necesitan necesitar VMIP3P0 1
para para SPS00 0.998507
salir salir VMN0000 1
de de SPS00 0.999919
su su DP3CS0 1
crisis crisis NCFN000 1
a a SPS00 0.99585
costa costa NCFS000 1
de de SPS00 0.999919
los el DA0MP0 0.97623
recursos recurso NCMP000 1
de de SPS00 0.999919
los el DA0MP0 0.97623
cuatro 4 Z 1
tigres tigre NCMP000 1
y y CC 0.999812
de de SPS00 0.999919
otros otro DI0MP0 0.56875
aspirantes aspirante NCCP000 0.56768
a a SPS00 0.99585
este este DD0MS0 0.956743
t t NCFS000 1
tulo tulo NCMS000 1
dentro_de dentro_de SPS00 1
el el DA0MS0 1
TPP_Ser tpp_ser NP00000 1
a a SPS00 0.99585
conveniente conveniente AQ0CS0 1
para para SPS00 0.998507
que que CS 0.4375
los el DA0MP0 0.97623
l l NCFS000 0.639398
deres deres NCMP000 0.800047
de de SPS00 0.999919
los el DA0MP0 0.97623
tigres tigre NCMP000 1
econ econ NCMS000 1
micos mico NCMP000 1
repasen repasar VMSP3P0 0.901254
la el DA0FS0 0.972146
experiencia experiencia NCFS000 1
de de SPS00 0.999919
M m NP00000 1
xico xico AQ0MS0 0.500497
solamente solamente RG 1
con con SPS00 1
la el DA0FS0 0.972146
privatizaci privatizaci AQ0CS0 0.0199855
n n NCFS000 1
Seg seg NP00000 1
n n NCFS000 1
el el DA0MS0 1
Reporte reporte NP00000 1
de de SPS00 0.999919
la el DA0FS0 0.972146
secretar secretar VMN0000 1
a a SPS00 0.99585
de de SPS00 0.999919
Hacienda hacienda NP00000 1
de de SPS00 0.999919
las el DA0FP0 0.97051
1155 1155 Z 1
empresas empresa NCFP000 1
p p NCFS000 0.5
blicas blicas AQ0FP0 1
que que PR0CN000 0.5625
hab hab NCMS000 0.63631
a a SPS00 0.99585
en en SPS00 1
M m NP00000 1
xico xico NCMS000 0.499503
hasta hasta SPS00 0.955172
1982 1982 Z 1
se se P00CN000 0.465602
privatizaron privatizar VMIS3P0 1
957 957 Z 1
obteniendo obtener VMG0000 1
el el DA0MS0 1
Estado estado NP00000 1
33_mil_millones_de_d TM_d:33000000000 Zu 1
lares lar NCMP000 1
por por SPS00 1
su su DP3CS0 1
venta venta NCFS000 1
Posteriormente posteriormente NP00000 1
por por SPS00 1
la el DA0FS0 0.972146
quiebra quiebra NCFS000 0.796984
de de SPS00 0.999919
algunas alguno PI0FP000 0.241935
de de SPS00 0.999919
ellas ellos PP3FP000 1
como como CS 0.998579
bancos banco NCMP000 1
l l NCFS000 0.639398
neas neas AQ0FP0 0.199984
a a SPS00 0.99585
reas reo NCFP000 0.588186
etc etcétera Fs 1
la el DA0FS0 0.972146
naci naci NCMS000 0.0996348
n n NCFS000 1
tuvo tener VMIS3S0 1
que que CS 0.4375
aportar aportar VMN0000 1
109_mil_millones_de_d TM_d:109000000000 Zu 1
lares lar NCMP000 1
para para SPS00 0.998507
salvar salvar VMN0000 1
las lo PP3FPA00 1
de de SPS00 0.999919
la el DA0FS0 0.972146
bancarrota bancarrota NCFS000 1
es ser VSIP3S0 1
decir decir VMN0000 0.987805
tres 3 Z 1
veces vez NCFP000 1
m m NCFS000 0.5
s segundo NCMN000 0.622321
de de SPS00 0.999919
lo el DA0NS0 0.457393
que que PR0CN000 0.5625
ingres ingres NCMN000 0.567926
por por SPS00 1
la el DA0FS0 0.972146
venta venta NCFS000 1
La_Rep la_rep NP00000 1
blica blica AQ0FS0 1
Popular_China popular_china NP00000 1
est est NCMS000 1
igual igual AQ0CS0 0.716667
como como CS 0.998579
los el DA0MP0 0.97623
Estados_Unidos estados_unidos NP00000 1
ansiosa ansioso AQ0FS0 1
de de SPS00 0.999919
entrar entrar VMN0000 1
en en SPS00 1
el el DA0MS0 1
mercado mercado NCMS000 0.9
latinoamericano latinoamericano AQ0MS0 0.63727
y y CC 0.999812
tener tener VMN0000 1
acceso acceso NCMS000 1
a a SPS00 0.99585
sus su DP3CP0 0.998462
abundantes abundante AQ0CP0 1
recursos recurso NCMP000 1
naturales natural AQ0CP0 0.9
Pero pero NP00000 1
su su DP3CS0 1
t t NCFS000 1
ctica ctica AQ0FS0 0.300042
difiere diferir VMIP3S0 0.994868
notoriamente notoriamente RG 1
de de SPS00 0.999919
la el DA0FS0 0.972146
norteamericana norteamericano NCFS000 0.25
Para para NP00000 1
abrir abrir VMN0000 1
los el DA0MP0 0.97623
negocios negocio NCMP000 1
siguen seguir VMIP3P0 1
la el DA0FS0 0.972146
premisa premisa NCFS000 0.642693
de de SPS00 0.999919
Confucio confucio NP00000 1
que que PR0CN000 0.5625
dice decir VMIP3S0 1
Es es NP00000 1
posible posible AQ0CS0 1
conseguir conseguir VMN0000 1
algo algo PI0CS000 0.896341
despu despu NCMS000 0.774439
s segundo NCMN000 0.622321
de de SPS00 0.999919
tres_horas TM_h:3 Zu 1
de de SPS00 0.999919
pelea pelea NCFS000 0.846923
y y CC 0.999812
presiones presión NCFP000 0.995706
pero pero CC 0.998821
es ser VSIP3S0 1
seguro seguro AQ0MS0 0.564103
que que CS 0.4375
se se P00CN000 0.465602
podr podr VMN0000 0.633986
conseguir conseguir VMN0000 1
con con SPS00 1
apenas apenas RG 0.979167
tres 3 Z 1
palabras palabra NCFP000 1
impregnadas impregnar VMP00PF 1
de de SPS00 0.999919
afecto afecto NCMS000 0.833333
Por_supuesto por_supuesto NP00000 1
hay haber VMIP3S0 1
que que CS 0.4375
tener tener VMN0000 1
mucho mucho DI0MS0 0.275362
cuidado cuidado NCMS000 0.733333
con con SPS00 1
estas este DD0FP0 0.960526
tres 3 Z 1
palabras palabra NCFP000 1
a a SPS00 1
el el DA0MS0 1
tratar tratar VMN0000 1
con con SPS00 1
las el DA0FP0 0.97051
propuestas propuesta NCFP000 0.75
chinas chino AQ0FP0 0.380366
pero pero CC 0.998821
esta este DD0FS0 0.982143
t t NCFS000 1
ctica ctica AQ0FS0 0.300042
es ser VSIP3S0 1
mucho mucho DI0MS0 0.275362
m m NCFS000 0.5
s segundo NCMN000 0.622321
aceptable aceptable AQ0CS0 1
que que CS 0.4375
la el DA0FS0 0.972146
de de SPS00 0.999919
sobornos soborno NCMP000 1
presiones presión NCFP000 0.995706
amenazas amenaza NCFP000 0.916667
chantaje chantaje NCMS000 1
y y CC 0.999812
mentira mentira NCFS000 1
que que PR0CN000 0.5625
frecuentemente frecuentemente RG 1
usan usar VMIP3P0 1
las el DA0FP0 0.97051
transnacionales transnacional AQ0CP0 1
para para SPS00 0.998507
entrar entrar VMN0000 1
en en SPS00 1
un uno DI0MS0 0.986987
pa pa NCFS000 0.740689
s segundo NCMN000 0.622321
El el NP00000 1
economista economista AQ0CS0 0.657183
norteamericano norteamericano AQ0MS0 0.833333
John_Perkins john_perkins NP00000 1
describe describir VMIP3S0 0.833333
con con SPS00 1
detalles detalle NCMP000 0.928571
estos este DD0MP0 0.990566
m m NCFS000 0.5
todos todo PI0MP000 0.374631
en en SPS00 1
su su DP3CS0 1
libro libro NCMS000 0.986111
Confesiones_de_un_Sicario_Econ confesiones_de_un_sicario_econ NP00000 1
mico mico NCMS000 1
En en NP00000 1
su su DP3CS0 1
pol pol NCMS000 0.861706
tica tica AQ0FS0 0.595788
hacia hacia SPS00 1
Latinoam latinoam NP00000 1
rica rico AQ0FS0 0.75
los el DA0MP0 0.97623
dirigentes dirigente AQ0CP0 0.25
chinos chino NCMP000 0.944444
que que PR0CN000 0.5625
en en SPS00 1
su su DP3CS0 1
mayor mayor AQ0CS0 0.989796
a a SPS00 0.99585
no no RN 0.99778
son ser VSIP3P0 0.986772
abogados abogado NCMP000 0.833333
o o CC 0.998845
pol pol NCMS000 0.861706
ticos ticos AQ0MP0 0.671839
profesionales profesional AQ0CP0 0.642857
como como CS 0.998579
son ser VSIP3P0 0.986772
los el DA0MP0 0.97623
norteamericanos norteamericano NCMP000 0.3
sino sino CC 0.981707
ingenieros ingeniero NCMP000 1
cient cient NCMS000 0.607342
ficos ficos AQ0MP0 0.227615
m m NCFS000 0.5
dicos do NCMP00D 1
etc etcétera Fs 1
definieron definir VMIS3P0 1
en en SPS00 1
2008 2008 Z 1
en en SPS00 1
el el DA0MS0 1
Documento documento NP00000 1
sobre sobre SPS00 0.994203
la el DA0FS0 0.972146
Pol pol NP00000 1
tica tica AQ0FS0 0.595788
de de SPS00 0.999919
China china NP00000 1
hacia hacia SPS00 1
Am am NP00000 1
rica rico NCFS000 0.25
Latina latina NP00000 1
y y CC 0.999812
el el DA0MS0 1
Caribe_En caribe_en NP00000 1
este este DD0MS0 0.956743
informe informe NCMS000 0.185057
hablan hablar VMIP3P0 1
de de SPS00 0.999919
la el DA0FS0 0.972146
multipolarizaci multipolarizaci AQ0CS0 0.0199855
n n NCFS000 1
de de SPS00 1
el el DA0MS0 1
mundo mundo NCMS000 1
para para SPS00 0.998507
dar dar VMN0000 1
una uno DI0FS0 0.951241
estabilidad estabilidad NCFS000 1
que que PR0CN000 0.5625
es ser VSIP3S0 1
el el DA0MS0 1
concepto concepto NCMS000 1
opuesto oponer VMP00SM 1
a a SPS00 1
el el DA0MS0 1
norteamericano norteamericano AQ0MS0 0.833333
que que PR0CN000 0.5625
insiste insistir VMIP3S0 0.9
en en SPS00 1
la el DA0FS0 0.972146
unipolarizaci unipolarizaci AQ0CS0 0.0199855
n n NCFS000 1
de de SPS00 1
el el DA0MS0 1
planeta planeta NCMS000 1
bajo bajo SPS00 0.866071
la el DA0FS0 0.972146
gu gu NCMS000 0.774439
a a SPS00 0.99585
de de SPS00 0.999919
Washington_La washington_la NP00000 1
estrategia estrategia NCFS000 1
china chino AQ0FS0 0.75
de de SPS00 0.999919
apertura apertura NCFS000 1
de de SPS00 0.999919
mercados mercado NCMP000 0.75
de de SPS00 0.999919
acuerdo acuerdo NCMS000 0.958333
a a SPS00 0.99585
este este DD0MS0 0.956743
documento documento NCMS000 0.973494
est est NCMS000 1
basada basar VMP00SF 0.833333
en en SPS00 1
el el DA0MS0 1
beneficio beneficio NCMS000 0.833333
rec rec NCFS000 1
proco proco AQ0MS0 1
y y CC 0.999812
la el DA0FS0 0.972146
ganancia ganancia NCFS000 1
compartida compartir VMP00SF 1
Su su NP00000 1
experiencia experiencia NCFS000 1
en en SPS00 1
frica fricar VMIP3S0 0.994868
confirma confirmar VMIP3S0 0.994868
la el DA0FS0 0.972146
validez validez NCFS000 1
de de SPS00 0.999919
esta este DD0FS0 0.982143
pol pol NCMS000 0.861706
tica tica AQ0FS0 0.595788
Env env NP00000 1
a a SPS00 0.99585
a a SPS00 0.99585
los el DA0MP0 0.97623
ingenieros ingeniero NCMP000 1
y y CC 0.999812
t t NCFS000 1
cnicos cnicos AQ0MP0 0.500309
en_vez_de en_vez_de SPS00 1
los el DA0MP0 0.97623
militares militar NCCP000 0.416667
cumple cumplir VMIP3S0 0.944444
con con SPS00 1
lo el DA0NS0 0.457393
prometido prometido NCMS000 0.608061
en en SPS00 1
t t NCFS000 1
rminos rminos NCMP000 1
de de SPS00 0.999919
plazos plazo NCMP000 1
y y CC 0.999812
finanzas finanzas NCFP000 1
y y CC 0.999812
ofrece ofrecer VMIP3S0 0.9
becas beca NCFP000 0.75
universitarias universitario AQ0FP0 0.75
a a SPS00 0.99585
los el DA0MP0 0.97623
j j NCFS000 1
venes venes AQ0CP0 0.35715
africanos africano AQ0MP0 0.75
Am am NP00000 1
rica rico NCFS000 0.25
Latina latina NP00000 1
y y CC 0.999812
el el DA0MS0 1
Caribe caribe NP00000 1
en en SPS00 1
la el DA0FS0 0.972146
perspectiva perspectiva NCFS000 0.9375
china chino AQ0FS0 0.75
tienen tener VMIP3P0 1
gran gran AQ0CS0 1
potencial potencial NCMS000 0.75
econ econ NCMS000 1
mico mico NCMS000 1
e y CC 0.973684
igual igual AQ0CS0 0.716667
como como CS 0.998579
China china NP00000 1
se se P00CN000 0.465602
encuentran encontrar VMIP3P0 1
actualmente actualmente RG 1
en en SPS00 1
fases fase NCFP000 1
similares similar AQ0CP0 1
de de SPS00 0.999919
desarrollo desarrollo NCMS000 0.964286
compartiendo compartir VMG0000 1
las el DA0FP0 0.97051
mismas mismo AQ0FP0 0.928571
tareas tarea NCFP000 1
emanadas emanar VMP00PF 1
de de SPS00 0.999919
estas este DD0FP0 0.960526
y y CC 0.999812
el el DA0MS0 1
deseo deseo NCMS000 0.5
com cometro NCMN000 0.65
n n NCFS000 1
de de SPS00 0.999919
incrementar incrementar VMN0000 1
el el DA0MS0 1
conocimiento conocimiento NCMS000 1
mutuo mutuo AQ0MS0 0.55009
y y CC 0.999812
fortalecer fortalecer VMN0000 1
la el DA0FS0 0.972146
cooperaci cooperaci AQ0CS0 0.0199855
n n NCFS000 1
Actualmente_la_Rep actualmente_la_rep NP00000 1
blica blica AQ0FS0 1
Popular_China popular_china NP00000 1
est est NCMS000 1
cooperando cooperar VMG0000 1
a a SPS00 0.99585
nivel nivel NCMS000 1
bilateral bilateral AQ0CS0 1
en en SPS00 1
la el DA0FS0 0.972146
econom econom NCMS000 0.500053
a a SPS00 0.99585
comercio comercio NCMS000 0.833333
ciencia ciencia NCFS000 1
tecnolog tecnolog NCMS000 0.714133
a a SPS00 0.99585
agricultura agricultura NCFS000 1
ganader ganader NCMS000 0.246545
a a SPS00 0.99585
energ energ NCMS000 0.714133
a a SPS00 0.99585
turismo turismo NCMS000 1
cultura cultura NCFS000 1
y y CC 0.999812
educaci educaci RG 0.751648
n n NCFS000 1
y y CC 0.999812
en en SPS00 1
muchas mucho DI0FP0 0.819444
otras otro DI0FP0 0.731481
reas reo NCFP000 0.588186
en en SPS00 1
Latinoam latinoam NP00000 1
rica rico NCFS000 0.25
El el NP00000 1
comercio comerciar VMIP1S0 0.166667
bilateral bilateral AQ0CS0 1
aument aument NCMS000 0.607342
en en SPS00 1
10 10 Z 1
a a SPS00 0.99585
os os PP2CP000 0.722222
de de SPS00 0.999919
40_mil_millones_de_d TM_d:40000000000 Zu 1
lares lar NCMP000 1
a a SPS00 0.99585
261 261 Z 1
200_millones 200000000 Zd 1
Las las NP00000 1
inversiones inversión NCFP000 1
no no RN 0.99778
financieras financiera NCFP000 0.355299
de de SPS00 0.999919
China china NP00000 1
en en SPS00 1
Am am NP00000 1
rica rico NCFS000 0.25
Latina latina NP00000 1
y y CC 0.999812
el el DA0MS0 1
Caribe caribe NP00000 1
han haber VAIP3P0 1
superado superar VMP00SM 1
los el DA0MP0 0.97623
54_mil_millones_de_d TM_d:54000000000 Zu 1
lares lar NCMP000 1
y y CC 0.999812
en en SPS00 1
su su DP3CS0 1
mayor mayor AQ0CS0 0.989796
a a SPS00 0.99585
se se P00CN000 0.465602
han haber VAIP3P0 1
destinado destinar VMP00SM 1
a a SPS00 0.99585
los el DA0MP0 0.97623
sectores sector NCMP000 1
de de SPS00 0.999919
miner miner VMN0000 1
a a SPS00 0.99585
y y CC 0.999812
energ energ NCMS000 0.714133
a a SPS00 0.99585
Se se NP00000 1
sabe saber VMIP3S0 0.983333
que que CS 0.4375
Brasil brasil NP00000 1
obtuvo obtener VMIS3S0 1
ventajas ventaja NCFP000 1
de de SPS00 0.999919
China china NP00000 1
en en SPS00 1
convenios convenio NCMP000 0.991463
referidos referir VMP00PM 1
a a SPS00 0.99585
la el DA0FS0 0.972146
tecnolog tecnolog NCMS000 0.714133
a a SPS00 0.99585
inform inform NCMS000 0.700265
tica tica AQ0FS0 0.595788
de de SPS00 1
el el DA0MS0 1
sector sector NCMS000 1
financiero financiero AQ0MS0 0.75
en en SPS00 1
las el DA0FP0 0.97051
inversiones inversión NCFP000 1
en en SPS00 1
infraestructura infraestructura NCFS000 1
energ energ NCMS000 0.714133
a a SPS00 0.99585
gas gas NCMS000 1
natural natural AQ0CS0 0.833333
biotecnolog biotecnolog NCMS000 0.714133
a a SPS00 0.99585
y y CC 0.999812
miner miner VMN0000 1
a a SPS00 0.99585
A_la_vez_Brasil a_la_vez_brasil NP00000 1
present present NCMS000 0.607342
11 11 Z 1
reclamos reclamo NCMP000 1
antidumping antidumping NCMN000 1
pr pr AQ0CS0 0.0829965
ctica cuenta NCFS00D 0.60002
discriminatoria discriminatorio AQ0FS0 1
consistente consistente AQ0CS0 1
en en SPS00 1
vender vender VMN0000 1
un uno DI0MS0 0.986987
mismo mismo AQ0MS0 0.961905
producto producto NCMS000 0.916667
a a SPS00 0.99585
precios precio NCMP000 1
diferentes diferente AQ0CP0 1
en en SPS00 1
el el DA0MS0 1
mercado mercado NCMS000 0.9
interno interno AQ0MS0 0.777778
y y CC 0.999812
externo externo AQ0MS0 0.875
contra contra SPS00 0.976316
China_Esto china_esto NP00000 1
significa significar VMIP3S0 0.958333
que que CS 0.4375
las el DA0FP0 0.97051
relaciones relación NCFP000 0.944444
econ econ NCMS000 1
micas mica NCFP000 1
con con SPS00 1
China china NP00000 1
tambi tambi AQ0CN0 1
n n NCFS000 1
tienen tener VMIP3P0 1
sus su DP3CP0 0.998462
discrepancias discrepancia NCFP000 1
y y CC 0.999812
conflictos conflicto NCMP000 1
y y CC 0.999812
cada cada DI0CS0 1
pa pa NCFS000 0.740689
s segundo NCMN000 0.622321
no no RN 0.99778
debe deber VMIP3S0 0.974359
bajar bajar VMN0000 1
su su DP3CS0 1
guardia guardia NCCS000 1
y y CC 0.999812
proteger proteger VMN0000 1
sus su DP3CP0 0.998462
intereses interés NCMP000 0.916667
tanto tanto RG 0.857895
con con SPS00 1
China china NP00000 1
como como CS 0.998579
con con SPS00 1
los el DA0MP0 0.97623
Estados_Unidos estados_unidos NP00000 1
o o CC 0.998845
cualquier cualquiera DI0CS0 1
naci naci AQ0CS0 0.0199855
n n NCFS000 1
de de SPS00 1
el el DA0MS0 1
mundo mundo NCMS000 1
Nadie nadie NP00000 1
tiene tener VMIP3S0 1
que que CS 0.4375
tomar tomar VMN0000 1
China china NP00000 1
como como CS 0.998579
un uno DI0MS0 0.986987
protector protector NCMS000 0.642707
de de SPS00 0.999919
Am am NP00000 1
rica rico NCFS000 0.25
Latina latina NP00000 1
ni ni CC 0.995935
tampoco tampoco RG 1
como como CS 0.998579
una uno DI0FS0 0.951241
potencia potencia NCFS000 0.916667
que que PR0CN000 0.5625
aspire aspirar VMSP3S0 0.580581
a a SPS00 0.99585
la el DA0FS0 0.972146
hegemon hegemon NCMS000 0.0665581
a a SPS00 0.99585
global global AQ0CS0 1
Am am NP00000 1
rica rico AQ0FS0 0.75
latina latino NCFS000 0.544541
debe deber VMIP3S0 0.974359
seguir seguir VMN0000 1
su su DP3CS0 1
curso curso NCMS000 0.954545
pragm pragm NCMS000 0.700265
tico tico AQ0MS0 0.806828
en en SPS00 1
relaci relaci RG 0.751648
n n NCFS000 1
con con SPS00 1
China china NP00000 1
que que PR0CN000 0.5625
representa representar VMIP3S0 0.928571
oportunidades oportunidad NCFP000 1
como como CS 0.998579
nuevo nuevo AQ0MS0 1
mercado mercado NCMS000 0.9
de de SPS00 0.999919
exportaciones exportación NCFP000 1
y y CC 0.999812
como como CS 0.998579
el el DA0MS0 1
pa pa NCFS000 0.740689
s segundo NCMN000 0.622321
que que PR0CN000 0.5625
pueda poder VMSP1S0 0.490196
aportar aportar VMN0000 1
significativamente significativamente RG 1
el el DA0MS0 1
conocimiento conocimiento NCMS000 1
a a SPS00 0.99585
la el DA0FS0 0.972146
ciencia ciencia NCFS000 1
en en SPS00 1
Am am NP00000 1
rica rico AQ0FS0 0.75
Latina latina NP00000 1
que que PR0CN000 0.5625
en en SPS00 1
la el DA0FS0 0.972146
poca poco PI0FS000 0.1
de de SPS00 1
el el DA0MS0 1
neoliberalismo neoliberalismo NCMS000 1
ha haber VAIP3S0 0.998141
entrado entrar VMP00SM 1
en en SPS00 1
una uno DI0FS0 0.951241
profunda profundo AQ0FS0 0.666667
decadencia decadencia NCFS000 1
Todo todo NP00000 1
depende depender VMIP3S0 0.916667
de de SPS00 1
el el DA0MS0 1
ngulo ngulo NCMS000 0.948035
con con SPS00 1
que que CS 0.4375
se se P00CN000 0.465602
mire mirar VMSP1S0 0.166667
a a SPS00 1
el el DA0MS0 1
asunto asunto NCMS000 1
de de SPS00 0.999919
las el DA0FP0 0.97051
reflexiones reflexión NCFP000 0.75
que que PR0CN000 0.5625
se se P00CN000 0.465602
hagan hacer VMSP3P0 0.875
y y CC 0.999812
de de SPS00 0.999919
las el DA0FP0 0.97051
decisiones decisión NCFP000 1
que que PR0CN000 0.5625
tomen tomar VMSP3P0 0.901254
los el DA0MP0 0.97623
l l NCFS000 0.639398
deres deres NCMP000 0.800047
de de SPS00 0.999919
los el DA0MP0 0.97623
pa pa NCFS000 0.740689
ses ses NCMP000 0.727093
latinoamericanos latinoamericano AQ0MP0 0.490617
Haga haga NP00000 1
click click NCMS000 0.50012
aqu aqu NCMS000 0.774439
para para SPS00 0.998507
recibir recibir VMN0000 1
gratis gratis RG 0.75
Argenpress argenpress NP00000 1
en en SPS00 1
su su DP3CS0 1
correo correo NCMS000 0.735623
electr electr AQ0CS0 0.0829965
nico no NCMS00D 0.522084

