Colombia_Declaraci colombia_declaraci NP00000 1
n n NCFS000 1
de de SPS00 0.999919
la el DA0FS0 0.972146
Asociaci asociaci NP00000 1
n n NCFS000 1
Americana_de_Juristas americana_de_juristas NP00000 1
repudiando repudiar VMG0000 1
intenci intenci RG 0.751648
n n NCFS000 1
de de SPS00 1
el el DA0MS0 1
presidente presidente NCMS000 1
Juan_Manuel_Santos juan_manuel_santos NP00000 1
de de SPS00 0.999919
suscribir suscribir VMN0000 1
acuerdo acuerdo NCMS000 0.958333
con con SPS00 1
la el DA0FS0 0.972146
OTAN_En otan_en NP00000 1
efecto efecto NCMS000 1
la el DA0FS0 0.972146
Constituci constituci NP00000 1
n n NCFS000 1
de de SPS00 0.999919
Colombia colombia NP00000 1
establece establecer VMIP3S0 0.833333
en en SPS00 1
su su DP3CS0 1
pre pre AQ0CN0 0.35872
mbulo mbulo NCMS000 1
el el DA0MS0 1
compromiso compromiso NCMS000 1
de de SPS00 0.999919
impulsar impulsar VMN0000 1
la el DA0FS0 0.972146
integraci integraci AQ0CS0 0.0199855
n n NCFS000 1
de de SPS00 0.999919
la el DA0FS0 0.972146
comunidad comunidad NCFS000 1
latinoamericana latinoamericano AQ0FS0 0.65727
y y CC 0.999812
su su DP3CS0 1
art artículo NCMS000 1
culo culo NCMS000 1
9 9 Z 1
que que PR0CN000 0.5625
la el DA0FS0 0.972146
pol pol NCMS000 0.861706
tica tica AQ0FS0 0.595788
exterior exterior AQ0CS0 0.6875
de de SPS00 0.999919
Colombia colombia NP00000 1
se se P00CN000 0.465602
orientar orientar VMN0000 1
hacia hacia SPS00 1
la el DA0FS0 0.972146
integraci integraci AQ0CS0 0.0199855
n n NCFS000 1
latinoamericana latinoamericano AQ0FS0 0.65727
y y CC 0.999812
de de SPS00 1
el el DA0MS0 1
Caribe_El caribe_el NP00000 1
tratado tratado NCMS000 0.5
constitutivo constitutivo AQ0MS0 0.507289
de de SPS00 0.999919
la el DA0FS0 0.972146
UNASUR unasur NP00000 1
ordena ordenar VMIP3S0 0.994868
en en SPS00 1
su su DP3CS0 1
art artículo NCMS000 1
culo culo NCMS000 1
3 3 Z 1
inc inc AQ0CN0 0.358528
q q NCFN000 0.5
la el DA0FS0 0.972146
coordinaci coordinaci AQ0CS0 0.0199855
n n NCFS000 1
entre entre SPS00 0.995223
los el DA0MP0 0.97623
organismos organismo NCMP000 1
especializados especializar VMP00PM 1
de de SPS00 0.999919
los el DA0MP0 0.97623
Estados_Miembros estados_miembros NP00000 1
teniendo_en_cuenta tener_en_cuenta VMG0000 1
las el DA0FP0 0.97051
normas norma NCFP000 1
internacionales internacional AQ0CP0 0.928571
para para SPS00 0.998507
fortalecer fortalecer VMN0000 1
la el DA0FS0 0.972146
lucha lucha NCFS000 0.880952
contra contra SPS00 0.976316
el el DA0MS0 1
terrorismo terrorismo NCMS000 1
la el DA0FS0 0.972146
corrupci corrupci AQ0CS0 0.0199855
n n NCFS000 1
el el DA0MS0 1
problema problema NCMS000 1
mundial mundial AQ0CS0 0.928571
de de SPS00 0.999919
las el DA0FP0 0.97051
drogas droga NCFP000 0.916667
la lo PP3FSA00 0.0277626
trata tratar VMIP3S0 0.946237
de de SPS00 0.999919
personas persona NCFP000 0.983871
el el DA0MS0 1
tr tr NCMS000 0.224371
fico fico AQ0MS0 0.466938
de de SPS00 0.999919
armas arma NCFP000 0.982759
peque pecar VMSP3S0 0.305666
as as NCMS000 1
y y CC 0.999812
ligeras ligero AQ0FP0 1
el el DA0MS0 1
crimen crimen NCMS000 1
organizado organizar VMP00SM 1
transnacional transnacional AQ0CS0 1
y y CC 0.999812
otras otro DI0FP0 0.731481
amenazas amenaza NCFP000 0.916667
as as NCMS000 1
como como CS 0.998579
para para SPS00 0.998507
el el DA0MS0 1
desarme desarme NCMS000 0.625
la el DA0FS0 0.972146
no no RN 0.99778
proliferaci proliferaci VMIS1S0 0.0691907
n n NCFS000 1
de de SPS00 0.999919
armas arma NCFP000 0.982759
nucleares nuclear AQ0CP0 1
y y CC 0.999812
de de SPS00 0.999919
destrucci destrucci RG 0.751648
n n NCFS000 1
masiva masivo AQ0FS0 1
y y CC 0.999812
el el DA0MS0 1
desminado desminar VMP00SM 1
A a NP00000 1
su su DP3CS0 1
vez vez NCFS000 1
el el DA0MS0 1
art artículo NCMS000 1
culo culo NCMS000 1
15 15 Z 1
estipula estipular VMIP3S0 0.994868
que que CS 0.4375
UNASUR unasur NP00000 1
promover promover VMN0000 1
iniciativas iniciativa NCFP000 0.75
de de SPS00 0.999919
di dar VMIS1S0 0.833333
logo logo NCMS000 1
sobre sobre SPS00 0.994203
temas tema NCMP000 0.625
de de SPS00 0.999919
inter inter AQ0CN0 1
s segundo NCMN000 0.622321
regional regional AQ0CS0 1
o o CC 0.998845
internacional internacional AQ0CS0 0.833333
y y CC 0.999812
buscar buscar VMN0000 1
consolidar consolidar VMN0000 1
mecanismos mecanismo NCMP000 1
de de SPS00 0.999919
cooperaci cooperaci RG 0.751648
n n NCFS000 1
con con SPS00 1
otros otro DI0MP0 0.56875
grupos grupo NCMP000 1
regionales regional AQ0CP0 1
Estados estados NP00000 1
y y CC 0.999812
otras otro DI0FP0 0.731481
entidades entidad NCFP000 1
con con SPS00 1
personalidad personalidad NCFS000 1
jur jur NCMS000 0.75005
dica dica VMIP3S0 0.768885
internacional internacional AQ0CS0 0.833333
priorizando priorizar VMG0000 1
proyectos proyecto NCMP000 1
en en SPS00 1
las el DA0FP0 0.97051
reas reo NCFP000 0.588186
de de SPS00 0.999919
energ energ NCMS000 0.714133
a a SPS00 0.99585
financiamiento financiamiento NCMS000 1
infraestructura infraestructura NCFS000 1
pol pol NCMS000 0.861706
ticas ticas AQ0FP0 0.760898
sociales social AQ0CP0 0.9375
educaci educaci RG 0.751648
n n NCFS000 1
y y CC 0.999812
otras otro PI0FP000 0.268519
a a SPS00 0.99585
definir definir VMN0000 1
se se PP3CN000 1
El_Consejo_de_Delegadas el_consejo_de_delegadas NP00000 1
y y CC 0.999812
Delegados delegados NP00000 1
es ser VSIP3S0 1
el el DA0MS0 1
responsable responsable NCCS000 0.416667
de de SPS00 0.999919
hacer hacer VMN0000 1
seguimiento seguimiento NCMS000 1
a a SPS00 0.99585
las el DA0FP0 0.97051
actividades actividad NCFP000 1
de de SPS00 0.999919
implementaci implementaci RG 0.751648
n n NCFS000 1
con con SPS00 1
el el DA0MS0 1
apoyo apoyo NCMS000 0.928571
de de SPS00 0.999919
la el DA0FS0 0.972146
Presidencia_Pro_Tempore presidencia_pro_tempore NP00000 1
y y CC 0.999812
de de SPS00 0.999919
la el DA0FS0 0.972146
Secretar secretar NP00000 1
a a SPS00 0.99585
General_Con general_con NP00000 1
el el DA0MS0 1
prop prop NCFS000 0.5
sito sito AQ0MS0 1
de de SPS00 0.999919
contar contar VMN0000 1
con con SPS00 1
una uno DI0FS0 0.951241
adecuada adecuar VMP00SF 1
coordinaci coordinaci RG 0.751648
n n NCFS000 1
el el DA0MS0 1
Consejo_de_Delegadas consejo_de_delegadas NP00000 1
y y CC 0.999812
Delegados delegados NP00000 1
deber deber NCMS000 0.9
conocer conocer VMN0000 1
y y CC 0.999812
considerar considerar VMN0000 1
expresamente expresamente RG 1
las el DA0FP0 0.97051
posiciones posición NCFP000 0.75
que que CS 0.4375
sustentar sustentar VMN0000 1
UNASUR unasur NP00000 1
en en SPS00 1
su su DP3CS0 1
relacionamiento relacionamiento NCMS000 1
con con SPS00 1
terceros tercero NCMP000 0.398913
Por por NP00000 1
su su DP3CS0 1
parte parte NCFS000 0.497967
los el DA0MP0 0.97623
33 33 Z 1
pa pa NCFS000 0.740689
ses ses AQ0CP0 0.068278
que que PR0CN000 0.5625
integran integrar VMIP3P0 1
la el DA0FS0 0.972146
Comunidad_de_Estados_de_Latinoam comunidad_de_estados_de_latinoam NP00000 1
rica rico AQ0FS0 0.75
y y CC 0.999812
el el DA0MS0 1
Caribe_CELAC caribe_celac NP00000 1
han haber VAIP3P0 1
decidido decidir VMP00SM 1
promover promover VMN0000 1
y y CC 0.999812
proyectar proyectar VMN0000 1
una uno DI0FS0 0.951241
voz voz NCFS000 1
concertada concertar VMP00SF 1
de de SPS00 0.999919
Am am NP00000 1
rica rico NCFS000 0.25
Latina latina NP00000 1
y y CC 0.999812
el el DA0MS0 1
Caribe caribe NP00000 1
en en SPS00 1
la el DA0FS0 0.972146
discusi discusi RG 1
n n NCFS000 1
de de SPS00 0.999919
los el DA0MP0 0.97623
grandes grande AQ0CP0 0.95
temas tema NCMP000 0.625
y y CC 0.999812
en en SPS00 1
el el DA0MS0 1
posicionamiento posicionamiento NCMS000 1
de de SPS00 0.999919
la el DA0FS0 0.972146
regi regi AQ0CS0 0.0199855
n n NCFS000 1
en en SPS00 1
la el DA0FS0 0.972146
interlocuci interlocuci AQ0CS0 0.0199855
n n NCFS000 1
con con SPS00 1
otras otro DI0FP0 0.731481
regiones región NCFP000 1
y y CC 0.999812
pa pa NCFS000 0.740689
ses ses NCMP000 0.727093
con con SPS00 1
apego apego NCMS000 1
a a SPS00 0.99585
los el DA0MP0 0.97623
Prop prop NP00000 1
sitos sito AQ0MP0 1
y y CC 0.999812
Principios principios NP00000 1
enunciados enunciar VMP00PM 0.591817
en en SPS00 1
la el DA0FS0 0.972146
Carta_de_las_Naciones_Unidas carta_de_las_naciones_unidas NP00000 1
y y CC 0.999812
el el DA0MS0 1
respeto respeto NCMS000 0.863636
a a SPS00 1
el el DA0MS0 1
Derecho_Internacional_Se derecho_internacional_se NP00000 1
ha haber VAIP3S0 0.998141
definido definir VMP00SM 0.75
como como CS 0.998579
nico nico AQ0MS0 0.470565
mecanismo mecanismo NCMS000 1
de de SPS00 0.999919
di dar VMIS1S0 0.833333
logo logo NCMS000 1
y y CC 0.999812
concertaci concertaci RG 0.751648
n n NCFS000 1
la el DA0FS0 0.972146
m m NCFS000 0.5
s segundo NCMN000 0.622321
alta alto AQ0FS0 0.970588
expresi expresi RG 1
n n NCFS000 1
de de SPS00 0.999919
nuestra nuestro DP1FSP 0.892857
voluntad voluntad NCFS000 1
de de SPS00 0.999919
unidad unidad NCFS000 1
en en SPS00 1
la el DA0FS0 0.972146
diversidad diversidad NCFS000 1
donde donde PR000000 0.963542
en_lo_sucesivo en_lo_sucesivo RG 1
se se P00CN000 0.465602
fortalecer fortalecer VMN0000 1
n n NCFS000 1
nuestros nuestro DP1MPP 0.854167
v v NCFS000 1
nculos nculos AQ0MP0 0.0952152
pol pol NCMS000 0.861706
ticos ticos AQ0MP0 0.671839
econ econ NCMS000 1
micos mico NCMP000 1
sociales social AQ0CP0 0.9375
y y CC 0.999812
culturales cultural AQ0CP0 1
sobre sobre SPS00 0.994203
la el DA0FS0 0.972146
base base NCCS000 0.955882
de de SPS00 0.999919
una uno DI0FS0 0.951241
agenda agenda NCFS000 1
com cometro NCMN000 0.65
n n NCFS000 1
de de SPS00 0.999919
bienestar bienestar NCMS000 1
paz paz NCFS000 1
y y CC 0.999812
seguridad seguridad NCFS000 1
para para SPS00 0.998507
nuestros nuestro DP1MPP 0.854167
pueblos pueblo NCMP000 1
a a SPS00 0.99585
objeto objeto NCMS000 0.95
de de SPS00 0.999919
consolidar consolidar VMN0000 1
nos nos PP1CP000 1
como como CS 0.998579
una uno DI0FS0 0.951241
comunidad comunidad NCFS000 1
regional regional AQ0CS0 1
Caracas caracas NP00000 1
cuna cunar VMIP3S0 0.166667
de de SPS00 1
el el DA0MS0 1
Libertador_Sim libertador_sim NP00000 1
n n NCFS000 1
Bol bol NP00000 1
var var VMN0000 1
Rep rep NP00000 1
blica blica AQ0FS0 1
Bolivariana_de_Venezuela bolivariana_de_venezuela NP00000 1
el el DA0MS0 1
3_de_diciembre_de_2011 [??:3/12/2011:??.??:??] W 1
Ese ese NP00000 1
esp esp NCMS000 1
ritu ritu NCMS000 1
fue ser VSIS3S0 0.932292
ratificado ratificar VMP00SM 1
en en SPS00 1
la el DA0FS0 0.972146
Cumbre_de_Santiago_Chile cumbre_de_santiago_chile NP00000 1
27 27 Z 1
y y CC 0.999812
28_de_enero_de_2013 [??:28/1/2013:??.??:??] W 1
en en SPS00 1
la el DA0FS0 0.972146
que que PR0CN000 0.5625
se se P00CN000 0.465602
reafirm reafirm NCMS000 0.700265
la el DA0FS0 0.972146
convicci convicci AQ0CS0 0.0199855
n n NCFS000 1
de de SPS00 0.999919
que que PR0CN000 0.5625
decisiones decisión NCFP000 1
consensuales consensual AQ0CP0 0.965
logradas lograr VMP00PF 1
en en SPS00 1
el el DA0MS0 1
marco marco NCMS000 0.9
de de SPS00 1
el el DA0MS0 1
multilateralismo multilateralismo NCMS000 1
constituyen constituir VMIP3P0 1
el el DA0MS0 1
fundamento fundamento NCMS000 0.875
de de SPS00 0.999919
un uno DI0MS0 0.986987
orden orden NCMS000 0.6
internacional internacional AQ0CS0 0.833333
eficaz eficaz AQ0CS0 1
que que PR0CN000 0.5625
pueda poder VMSP1S0 0.490196
contribuir contribuir VMN0000 1
a a SPS00 0.99585
la el DA0FS0 0.972146
paz paz NCFS000 1
y y CC 0.999812
la el DA0FS0 0.972146
seguridad seguridad NCFS000 1
mundial mundial AQ0CS0 0.928571
Rechazamos rechazamos NP00000 1
por_lo_tanto por_lo_tanto RG 1
medidas medida NCFP000 0.944444
unilaterales unilateral AQ0CP0 1
con con SPS00 1
efectos efecto NCMP000 1
extraterritoriales extraterritorial AQ0CP0 1
que que CS 0.4375
sean ser VSSP3P0 0.958333
contrarias contrario AQ0FP0 0.657264
a a SPS00 1
el el DA0MS0 1
derecho derecho NCMS000 0.884615
internacional internacional AQ0CS0 0.833333
y y CC 0.999812
que que PR0CN000 0.5625
puedan poder VMSP3P0 0.928571
amenazar amenazar VMN0000 1
el el DA0MS0 1
multilateralismo multilateralismo NCMS000 1
se se P00CN000 0.465602
alando alando VMG0000 1
la el DA0FS0 0.972146
importancia importancia NCFS000 1
de de SPS00 0.999919
perfeccionar perfeccionar VMN0000 1
la el DA0FS0 0.972146
coordinaci coordinaci AQ0CS0 0.0199855
n n NCFS000 1
intra intra VMIP3S0 0.884626
CELAC celac NP00000 1
en en SPS00 1
su su DP3CS0 1
acercamiento acercamiento NCMS000 1
con con SPS00 1
otras otro DI0FP0 0.731481
regiones región NCFP000 1
y y CC 0.999812
pa pa NCFS000 0.740689
ses ses NCMP000 0.727093
El el NP00000 1
estatuto estatuto NCMS000 1
de de SPS00 1
el el DA0MS0 1
Consejo_de_Defensa_Suramericano consejo_de_defensa_suramericano NP00000 1
aprobado aprobar VMP00SM 0.691767
en en SPS00 1
diciembre_de_2008 [??:??/12/2008:??.??:??] W 1
en en SPS00 1
Costa costa NP00000 1
do do NCMS000 1
Sauipe_Brasil sauipe_brasil NP00000 1
establece establecer VMIP3S0 0.833333
que que CS 0.4375
se se P00CN000 0.465602
trata tratar VMIP3S0 0.946237
de de SPS00 0.999919
una uno DI0FS0 0.951241
instancia instancia NCFS000 1
de de SPS00 0.999919
consulta consulta NCFS000 0.546947
cooperaci cooperaci RG 0.751648
n n NCFS000 1
y y CC 0.999812
coordinaci coordinaci RG 0.751648
n n NCFS000 1
en_materia_de en_materia_de SPS00 1
defensa defensa NCCS000 1
cuyos cuyo PR0MP000 1
objetivos objetivo NCMP000 0.875
centrales central AQ0CP0 0.666667
son ser VSIP3P0 0.986772
Consolidar_Suram consolidar_suram NP00000 1
rica rico AQ0FS0 0.75
como como CS 0.998579
una uno DI0FS0 0.951241
zona zona NCFS000 1
de de SPS00 0.999919
paz paz NCFS000 1
base base NCCS000 0.955882
para para SPS00 0.998507
la el DA0FS0 0.972146
estabilidad estabilidad NCFS000 1
democr democr NCMS000 1
tica tica AQ0FS0 0.595788
y y CC 0.999812
el el DA0MS0 1
desarrollo desarrollo NCMS000 0.964286
integral integral AQ0CS0 0.6277
de de SPS00 0.999919
nuestros nuestro DP1MPP 0.854167
pueblos pueblo NCMP000 1
y y CC 0.999812
como como CS 0.998579
contribuci contribuci RG 0.751648
n n NCFS000 1
a a SPS00 0.99585
la el DA0FS0 0.972146
paz paz NCFS000 1
mundial mundial AQ0CS0 0.928571
Construir construir NP00000 1
una uno DI0FS0 0.951241
identidad identidad NCFS000 1
suramericana suramericano AQ0FS0 0.65727
en_materia_de en_materia_de SPS00 1
defensa defensa NCCS000 1
que que PR0CN000 0.5625
tome tomar VMSP1S0 0.466667
en en SPS00 1
cuenta cuenta NCFS000 0.765152
las el DA0FP0 0.97051
caracter caracter NCMS000 1
sticas sticas AQ0FP0 0.416942
subregionales subregional AQ0CP0 1
y y CC 0.999812
nacionales nacional AQ0CP0 1
y y CC 0.999812
que que PR0CN000 0.5625
contribuya contribuir VMSP3S0 0.623432
a a SPS00 1
el el DA0MS0 1
fortalecimiento fortalecimiento NCMS000 1
de de SPS00 0.999919
la el DA0FS0 0.972146
unidad unidad NCFS000 1
de de SPS00 0.999919
Am am NP00000 1
rica rico NCFS000 0.25
Latina latina NP00000 1
y y CC 0.999812
el el DA0MS0 1
Caribe_Generar caribe_generar NP00000 1
consensos consenso NCMP000 1
para para SPS00 0.998507
fortalecer fortalecer VMN0000 1
la el DA0FS0 0.972146
cooperaci cooperaci AQ0CS0 0.0199855
n n NCFS000 1
regional regional AQ0CS0 1
en_materia_de en_materia_de SPS00 1
defensa defensa NCCS000 1
El el NP00000 1
d d NCFS000 1
a a SPS00 0.99585
10_de_marzo_de_2009 [??:10/3/2009:??.??:??] W 1
los el DA0MP0 0.97623
ministros ministro NCMP000 1
de de SPS00 0.999919
Defensa_de_UNASUR defensa_de_unasur NP00000 1
aprobaron aprobar VMIS3P0 1
por por SPS00 1
unanimidad unanimidad NCFS000 1
la el DA0FS0 0.972146
creaci creaci AQ0CS0 0.0199855
n n NCFS000 1
de de SPS00 1
el el DA0MS0 1
Centro_de_Estudios_Estrat centro_de_estudios_estrat NP00000 1
gicos gicos AQ0MP0 1
de de SPS00 0.999919
Defensa_de_el_Consejo_de_Defensa_Suramericano_CEED_CDS defensa_de_el_consejo_de_defensa_suramericano_ceed_cds NP00000 1
con con SPS00 1
el el DA0MS0 1
objeto objeto NCMS000 0.95
de de SPS00 0.999919
generar generar VMN0000 1
un uno DI0MS0 0.986987
pensamiento pensamiento NCMS000 1
estrat estrat NCMS000 1
gico gico AQ0MS0 1
a a SPS00 0.99585
nivel nivel NCMS000 1
regional regional AQ0CS0 1
que que PR0CN000 0.5625
coadyuve coadyuvar VMSP3S0 0.623426
a a SPS00 0.99585
la el DA0FS0 0.972146
coordinaci coordinaci AQ0CS0 0.0199855
n n NCFS000 1
y y CC 0.999812
la el DA0FS0 0.972146
armonizaci armonizaci AQ0CS0 0.0199855
n n NCFS000 1
en_materia_de en_materia_de SPS00 1
pol pol NCMS000 0.861706
ticas ticas AQ0FP0 0.760898
de de SPS00 0.999919
Defensa defensa NP00000 1
en en SPS00 1
Suram suram NP00000 1
rica rico NCFS000 0.25
El_CEED el_ceed NP00000 1
buscar buscar VMN0000 1
contribuir contribuir VMN0000 1
a a SPS00 0.99585
estructurar estructurar VMN0000 1
un uno DI0MS0 0.986987
subsistema subsistema NCMS000 1
regional regional AQ0CS0 1
de de SPS00 0.999919
defensa defensa NCCS000 1
cooperativo cooperativo AQ0MS0 1
interoperable interoperable AQ0CS0 1
y y CC 0.999812
en en SPS00 1
funci funci RG 0.751648
n n NCFS000 1
de de SPS00 0.999919
la el DA0FS0 0.972146
protecci protecci AQ0CS0 0.0199855
n n NCFS000 1
efectiva efectivo AQ0FS0 1
de de SPS00 0.999919
los el DA0MP0 0.97623
intereses interés NCMP000 0.916667
comunes común AQ0CP0 1
y y CC 0.999812
compartidos compartir VMP00PM 1
base base NCCS000 0.955882
fundamental fundamental AQ0CS0 1
para para SPS00 0.998507
la el DA0FS0 0.972146
construcci construcci AQ0CS0 0.0199855
n n NCFS000 1
de de SPS00 0.999919
un uno DI0MS0 0.986987
verdadero verdadero AQ0MS0 1
sistema sistema NCMS000 1
pol pol NCMS000 0.861706
tico tico AQ0MS0 0.806828
subregional subregional AQ0CS0 1
integrado integrar VMP00SM 1
como como CS 0.998579
el el DA0MS0 1
que que PR0CN000 0.5625
pretende pretender VMIP3S0 0.916667
UNASUR_El unasur_el NP00000 1
4_de_mayo_de_2010 [??:4/5/2010:??.??:??] W 1
el el DA0MS0 1
Consejo_de_Defensa_Suramericano_CDS consejo_de_defensa_suramericano_cds NP00000 1
mediante mediante SPS00 0.944444
la el DA0FS0 0.972146
Declaraci declaraci NP00000 1
n n NCFS000 1
de de SPS00 0.999919
Guayaquil guayaquil NP00000 1
aprob aprob NCMS000 0.63631
el el DA0MS0 1
Estatuto_de_el_Centro estatuto_de_el_centro NP00000 1
que que PR0CN000 0.5625
establece establecer VMIP3S0 0.833333
tres 3 Z 1
objetivos objetivo NCMP000 0.875
fundamentales fundamental AQ0CP0 0.875
a a SPS00 0.99585
Contribuir contribuir NP00000 1
a a SPS00 0.99585
la el DA0FS0 0.972146
identificaci identificaci AQ0CS0 0.0199855
n n NCFS000 1
de de SPS00 0.999919
desaf desaf I 1
os os PP2CP000 0.722222
factores factor NCMP000 1
de de SPS00 0.999919
riesgo riesgo NCMS000 1
y y CC 0.999812
amenaza amenazar VMIP3S0 0.291667
oportunidades oportunidad NCFP000 1
y y CC 0.999812
escenarios escenario NCMP000 1
relevantes relevante AQ0CP0 1
para para SPS00 0.998507
la el DA0FS0 0.972146
defensa defensa NCCS000 1
y y CC 0.999812
la el DA0FS0 0.972146
seguridad seguridad NCFS000 1
regional regional AQ0CS0 1
y y CC 0.999812
mundial mundial AQ0CS0 0.928571
tanto tanto RG 0.857895
en en SPS00 1
el el DA0MS0 1
presente presente NCMS000 0.635417
como como CS 0.998579
en en SPS00 1
el el DA0MS0 1
mediano mediano AQ0MS0 1
y y CC 0.999812
largo largo AQ0MS0 0.458333
plazo plazo NCMS000 1
b b NCFS000 1
Promover promover NP00000 1
la el DA0FS0 0.972146
construcci construcci AQ0CS0 0.0199855
n n NCFS000 1
de de SPS00 0.999919
una uno DI0FS0 0.951241
visi visi NCMS000 1
n n NCFS000 1
compartida compartir VMP00SF 1
en_materia_de en_materia_de SPS00 1
defensa defensa NCCS000 1
y y CC 0.999812
seguridad seguridad NCFS000 1
regional regional AQ0CS0 1
c c NCFS000 1
Contribuir contribuir NP00000 1
a a SPS00 0.99585
la el DA0FS0 0.972146
identificaci identificaci AQ0CS0 0.0199855
n n NCFS000 1
de de SPS00 0.999919
enfoques enfoque NCMP000 0.75
conceptuales conceptual AQ0CP0 1
y y CC 0.999812
lineamientos lineamiento NCMP000 1
b b NCFS000 1
sicos sicosegundo NCMN000 0.628558
comunes común AQ0CP0 1
que que PR0CN000 0.5625
permitan permitir VMSP3P0 0.75
la el DA0FS0 0.972146
articulaci articulaci AQ0CS0 0.0199855
n n NCFS000 1
de de SPS00 0.999919
pol pol NCMS000 0.861706
ticas ticas AQ0FP0 0.760898
en_materia_de en_materia_de SPS00 1
defensa defensa NCCS000 1
y y CC 0.999812
seguridad seguridad NCFS000 1
regional regional AQ0CS0 1
En en NP00000 1
cambio cambiar VMIP1S0 0.0238095
la el DA0FS0 0.972146
Organizaci organizaci NP00000 1
n n NCFS000 1
de de SPS00 1
el el DA0MS0 1
Tratado_de_el_Atl tratado_de_el_atl NP00000 1
ntico ntico AQ0MS0 1
Norte_OTAN norte_otan NP00000 1
es ser VSIP3S0 1
una uno DI0FS0 0.951241
organizaci organizaci AQ0CS0 0.0199855
n n NCFS000 1
de de SPS00 0.999919
car car NCMS000 1
cter cter NCMS000 1
militar militar AQ0CS0 0.666667
creada crear VMP00SF 1
por por SPS00 1
los el DA0MP0 0.97623
Estados_Unidos_de_Am estados_unidos_de_am NP00000 1
rica rico AQ0FS0 0.75
y y CC 0.999812
los el DA0MP0 0.97623
pa pa NCFS000 0.740689
ses ses AQ0CP0 0.068278
de de SPS00 0.999919
Europa_Occidental europa_occidental NP00000 1
en en SPS00 1
el el DA0MS0 1
marco marco NCMS000 0.9
de de SPS00 0.999919
la el DA0FS0 0.972146
guerra guerra NCFS000 1
fr fr AQ0CS0 0.0829965
a a SPS00 0.99585
presuntamente presuntamente RG 1
para para SPS00 0.998507
la el DA0FS0 0.972146
defensa defensa NCCS000 1
frente_a frente_a SPS00 1
una uno DI0FS0 0.951241
posible posible AQ0CS0 1
agresi agresi RG 1
n n NCFS000 1
de de SPS00 0.999919
la el DA0FS0 0.972146
Uni uni NP00000 1
n n NCFS000 1
Sovi sovi NP00000 1
tica tica AQ0FS0 0.595788
que que PR0CN000 0.5625
sin sin SPS00 1
embargo embargo NCMS000 0.973496
no no RN 0.99778
se se P00CN000 0.465602
disolvi disolvi VMIS1S0 1
con con SPS00 1
la el DA0FS0 0.972146
desaparici desaparici AQ0CS0 0.0199855
n n NCFS000 1
de de SPS00 0.999919
aquella aquel DD0FS0 0.948276
y y CC 0.999812
act act NCMS000 0.607342
a a SPS00 0.99585
como como CS 0.998579
un uno DI0MS0 0.986987
instrumento instrumento NCMS000 0.973494
de de SPS00 0.999919
agresi agresi RG 1
n n NCFS000 1
y y CC 0.999812
colonialismo colonialismo NCMS000 1
imperialista imperialista AQ0CS0 1
Resulta resulta NP00000 1
evidente evidente AQ0CS0 1
que que PR0CN000 0.5625
tanto tanto RG 0.857895
su su DP3CS0 1
Constituci constituci NP00000 1
n n NCFS000 1
Nacional nacional NP00000 1
como como CS 0.998579
los el DA0MP0 0.97623
compromisos compromiso NCMP000 1
adquiridos adquirir VMP00PM 1
con con SPS00 1
los el DA0MP0 0.97623
pa pa NCFS000 0.740689
ses ses AQ0CP0 0.068278
de de SPS00 0.999919
la el DA0FS0 0.972146
CELAC celac NP00000 1
y y CC 0.999812
de de SPS00 0.999919
la el DA0FS0 0.972146
UNASUR unasur NP00000 1
le le PP3CSD00 1
impiden impedir VMIP3P0 1
a a SPS00 0.99585
Colombia colombia NP00000 1
cualquier cualquiera DI0CS0 1
clase clase NCFS000 1
de de SPS00 0.999919
asociaci asociaci RG 0.751648
n n NCFS000 1
con con SPS00 1
la el DA0FS0 0.972146
OTAN_Ante otan_ante NP00000 1
el el DA0MS0 1
rechazo rechazo NCMS000 0.75
que que PR0CN000 0.5625
suscitaron suscitar VMIS3P0 1
sus su DP3CP0 0.998462
intenciones intención NCFP000 1
el el DA0MS0 1
Presidente_Santos presidente_santos NP00000 1
se se P00CN000 0.465602
vio ver VMIS3S0 1
obligado obligar VMP00SM 0.833333
a a SPS00 0.99585
expresar expresar VMN0000 1
que que CS 0.4375
el el DA0MS0 1
eventual eventual NCCS000 0.34273
acuerdo acordar VMIP1S0 0.0416667
ser ser VSN0000 0.93883
a a SPS00 0.99585
de de SPS00 0.999919
cooperaci cooperaci RG 0.751648
n n NCFS000 1
para para SPS00 0.998507
tres 3 Z 1
temas tema NCMP000 0.625
espec espec RG 0.0770614
ficos ficos AQ0MP0 0.227615
derechos derecho NCMP000 0.9
humanos humano AQ0MP0 0.681818
justicia justicia NCFS000 1
militar militar AQ0CS0 0.666667
y y CC 0.999812
educaci educaci RG 0.751648
n n NCFS000 1
a a SPS00 0.99585
las el DA0FP0 0.97051
tropas tropa NCFP000 1
No_obstante no_obstante NP00000 1
ese ese DD0MS0 0.98125
repliegue repliegue NCMS000 0.625
es ser VSIP3S0 1
insuficiente insuficiente AQ0CS0 1
ya_que ya_que CS 1
ning ning NCMS000 0.833333
n n NCFS000 1
acuerdo acuerdo NCMS000 0.958333
de de SPS00 0.999919
esa ese DD0FS0 0.978261
naturaleza naturaleza NCFS000 1
puede poder VMIP3S0 0.995614
ser ser VSN0000 0.93883
adoptado adoptar VMP00SM 0.75
unilateralmente unilateralmente RG 1
sino_que sino_que CC 1
debe deber VMIP3S0 0.974359
ser ser VSN0000 0.93883
consensuado consensuar VMP00SM 1
con con SPS00 1
los el DA0MP0 0.97623
dem dem NCMS000 1
s segundo NCMN000 0.622321
miembros miembro NCMP000 0.916667
de de SPS00 0.999919
las el DA0FP0 0.97051
organizaciones organización NCFP000 1
regionales regional AQ0CP0 1
En_consecuencia_la_AAJ en_consecuencia_la_aaj NP00000 1
repudia repudiar VMIP3S0 0.994868
la el DA0FS0 0.972146
tentativa tentativa NCFS000 0.642606
de de SPS00 1
el el DA0MS0 1
presidente presidente NCMS000 1
de de SPS00 0.999919
Colombia colombia NP00000 1
y y CC 0.999812
reclama reclamar VMIP3S0 0.833333
el el DA0MS0 1
cese cese NCMS000 0.618775
de de SPS00 0.999919
toda todo DI0FS0 0.975806
negociaci negociaci AQ0CS0 0.0199855
n n NCFS000 1
con con SPS00 1
la el DA0FS0 0.972146
OTAN_A otan_a NP00000 1
11_de_junio_de_2013 [??:11/6/2013:??.??:??] W 1
Vanessa_Ramos_Presidenta_AAJ_Continental_Hern vanessa_ramos_presidenta_aaj_continental_hern NP00000 1
n n NCFS000 1
Rivadeneira_J_Secretario_General_Beinusz_Szmukler_Presidente_de_el_Consejo_Consultivo_de_la_AAJHaga rivadeneira_j_secretario_general_beinusz_szmukler_presidente_de_el_consejo_consultivo_de_la_aajhaga NP00000 1
click click NCMS000 0.50012
aqu aqu NCMS000 0.774439
para para SPS00 0.998507
recibir recibir VMN0000 1
gratis gratis RG 0.75
Argenpress argenpress NP00000 1
en en SPS00 1
su su DP3CS0 1
correo correo NCMS000 0.735623
electr electr AQ0CS0 0.0829965
nico no NCMS00D 0.522084

