Desciende descender VMIP3S0 0.994868
en en SPS00 1
abril [??:??/4/??:??.??:??] W 1
la el DA0FS0 0.972146
deuda deuda NCFS000 1
p p NCFS000 0.5
blica blica AQ0FS0 1
espa espa NCFS000 1
ola ola NCFS000 1
pero pero CC 0.998821
sigue seguir VMIP3S0 0.982759
en en SPS00 1
m m NCFS000 0.5
ximos ximos AQ0MP0 1
La la NP00000 1
deuda deuda NCFS000 1
p p NCFS000 0.5
blica blica AQ0FS0 1
espa espa NCFS000 1
ola ola NCFS000 1
se se P00CN000 0.465602
redujo reducir VMIS3S0 1
en en SPS00 1
abril [??:??/4/??:??.??:??] W 1
en en SPS00 1
ocho_mil_843_millones_de_euros $_ECU:8843000000 Zm 1
y y CC 0.999812
alcanz alcanz NCFS000 0.620205
el el DA0MS0 1
87 87 Z 1
3_por_ciento 3/100 Zp 1
de de SPS00 1
el el DA0MS0 1
Producto_Interno_Bruto_PIB producto_interno_bruto_pib NP00000 1
inform inform NCMS000 0.700265
hoy hoy RG 0.877358
en en SPS00 1
Madrid_el_Banco_de_Espa madrid_el_banco_de_espa NP00000 1
a a SPS00 0.99585
La la NP00000 1
deuda deuda NCFS000 1
de de SPS00 1
el el DA0MS0 1
conjunto conjunto NCMS000 0.944444
de de SPS00 0.999919
las el DA0FP0 0.97051
administraciones administración NCFP000 1
p p NCFS000 0.5
blicas blicas AQ0FP0 1
Estado estado NP00000 1
comunidades comunidad NCFP000 1
aut aut NCMS000 0.607342
nomas nomas NCFP000 0.625047
y y CC 0.999812
ayuntamientos ayuntamiento NCMP000 1
se se P00CN000 0.465602
situ situ NCMS000 1
ese ese DD0MS0 0.98125
mes mes NCMS000 1
en en SPS00 1
913_mil_985_millones_de_euros $_ECU:913985000000 Zm 1
lo el DA0NS0 0.457393
que que PR0CN000 0.5625
supone suponer VMIP3S0 1
un uno DI0MS0 0.986987
descenso descenso NCMS000 1
de de SPS00 0.999919
casi casi RG 1
un uno DI0MS0 0.986987
punto punto NCMS000 1
respecto_a respecto_a SPS00 1
marzo [??:??/3/??:??.??:??] W 1
cuando cuando CS 0.983796
ascendi ascendi VMIS1S0 1
a a SPS00 1
el el DA0MS0 1
88 88 Z 1
2_por_ciento 2/100 Zp 1
de de SPS00 1
el el DA0MS0 1
PIB_De pib_de NP00000 1
esa ese DD0FS0 0.978261
manera manera NCFS000 1
en en SPS00 1
abril [??:??/4/??:??.??:??] W 1
se se P00CN000 0.465602
rompi rompi AQ0MS0 1
la el DA0FS0 0.972146
tendencia tendencia NCFS000 1
de de SPS00 0.999919
incremento incremento NCMS000 0.75
paulatino paulatino AQ0MS0 1
que que PR0CN000 0.5625
comenz comenz NCFS000 0.620205
en en SPS00 1
agosto_de_2012 [??:??/8/2012:??.??:??] W 1
subray subray I 1
la el DA0FS0 0.972146
entidad entidad NCFS000 1
central central AQ0CS0 0.916667
Pese_a pese_a NP00000 1
esa ese DD0FS0 0.978261
moderaci moderaci AQ0CS0 0.0199855
n n NCFS000 1
el el DA0MS0 1
endeudamiento endeudamiento NCMS000 1
en en SPS00 1
los el DA0MP0 0.97623
primeros 1 AO0MP0 0.975
cuatro 4 Z 1
meses mes NCMP000 0.964286
de de SPS00 1
el el DA0MS0 1
actual actual AQ0CS0 1
ejercicio ejercicio NCMS000 1
repunto repuntar VMIP1S0 1
19_por_ciento 19/100 Zp 1
en en SPS00 1
comparaci comparaci RG 0.751648
n n NCFS000 1
con con SPS00 1
el el DA0MS0 1
mismo mismo AQ0MS0 0.961905
per per VMN0000 0.600243
odo odo RG 0.51927
de de SPS00 0.999919
2012 2012 Z 1
cuando cuando CS 0.983796
se se P00CN000 0.465602
ubic ubic NCMN000 1
en en SPS00 1
768_mil_640_millones_de_euros $_ECU:768640000000 Zm 1
La la NP00000 1
informaci informaci RG 0.751648
n n NCFS000 1
de de SPS00 1
el el DA0MS0 1
supervisor supervisor NCMS000 0.609381
se se P00CN000 0.465602
ala ala NCFS000 0.961441
que que PR0CN000 0.5625
de de SPS00 0.999919
los el DA0MP0 0.97623
913_mil_985_millones_de_euros $_ECU:913985000000 Zm 1
617_mil_203_millones 617203000000 Zd 1
correspond correspond NC00000 1
an an NCFS000 1
a a SPS00 0.99585
valores valor NCMP000 0.96875
a a SPS00 0.99585
medio medio AQ0MS0 0.312821
y y CC 0.999812
largo largo AQ0MS0 0.458333
plazos plazo NCMP000 1
81_mil_174_millones 81174000000 Zd 1
a a SPS00 0.99585
corto corto AQ0MS0 0.9
plazo plazo NCMS000 1
y y CC 0.999812
215_mil_607_millones 215607000000 Zd 1
son ser VSIP3P0 0.986772
cr cr NCMS000 1
ditos ditos NCFS000 0.65
no no RN 0.99778
comerciales comercial AQ0CP0 0.75
Para para NP00000 1
2013 2013 Z 1
el el DA0MS0 1
gobierno gobierno NCMS000 0.9
conservador conservador AQ0MS0 0.875
de de SPS00 0.999919
Mariano_Rajoy mariano_rajoy NP00000 1
espera esperar VMIP3S0 0.619048
que que CS 0.4375
las el DA0FP0 0.97051
obligaciones obligación NCFP000 1
escalen escalar VMSP3P0 0.901254
a a SPS00 1
el el DA0MS0 1
90 90 Z 1
5_por_ciento 5/100 Zp 1
de de SPS00 1
el el DA0MS0 1
PIB pib NP00000 1
previsi previsi RG 1
n n NCFS000 1
que que CS 0.4375
podr podr VMN0000 0.633986
a a SPS00 0.99585
ser ser VSN0000 0.93883
superada superar VMP00SF 1
si si CS 0.997706
el el DA0MS0 1
endeudamiento endeudamiento NCMS000 1
de de SPS00 0.999919
las el DA0FP0 0.97051
administraciones administración NCFP000 1
p p NCFS000 0.5
blicas blicas AQ0FP0 1
avanza avanzar VMIP3S0 0.875
a a SPS00 1
el el DA0MS0 1
ritmo ritmo NCMS000 0.9375
de de SPS00 0.999919
los el DA0MP0 0.97623
cuatro 4 Z 1
primeros 1 AO0MP0 0.975
meses mes NCMP000 0.964286
de de SPS00 1
el el DA0MS0 1
a a NCFS000 0.00415028
o o CC 0.998845
A a NP00000 1
el el DA0MS0 1
cierre cierre NCMS000 0.899603
de de SPS00 1
el el DA0MS0 1
primer 1 AO0MS0 1
trimestre trimestre NCMS000 0.342795
la el DA0FS0 0.972146
deuda deuda NCFS000 1
p p NCFS000 0.5
blica blica AQ0FS0 1
de de SPS00 0.999919
este este DD0MS0 0.956743
pa pa NCFS000 0.740689
s segundo NCMN000 0.622321
europeo europeo AQ0MS0 0.9
trep trep NCMS000 1
a a SPS00 1
el el DA0MS0 1
88 88 Z 1
2_por_ciento 2/100 Zp 1
de de SPS00 1
el el DA0MS0 1
PIB pib NP00000 1
su su DP3CS0 1
nivel nivel NCMS000 1
m m NCFS000 0.5
s segundo NCMN000 0.622321
alto alto AQ0MS0 0.973684
de de SPS00 0.999919
toda todo DI0FS0 0.975806
la el DA0FS0 0.972146
serie serie NCFS000 0.925
hist hist NCMS000 1
rica rico AQ0FS0 0.75
Ese ese NP00000 1
nivel nivel NCMS000 1
sobrepasa sobrepasar VMIP3S0 0.75
en en SPS00 1
m m NCFS000 0.5
s segundo NCMN000 0.622321
de de SPS00 0.999919
28 28 Z 1
puntos punto NCMP000 1
porcentuales porcentual AQ0CP0 1
el el DA0MS0 1
tope tope NCMS000 0.918587
establecido establecer VMP00SM 1
por por SPS00 1
el el DA0MS0 1
Pacto_de_Estabilidad pacto_de_estabilidad NP00000 1
y y CC 0.999812
Crecimiento_de_la_Uni crecimiento_de_la_uni NP00000 1
n n NCFS000 1
Europea europea NP00000 1
fijado fijar VMP00SM 1
en en SPS00 1
el el DA0MS0 1
60_por_ciento 60/100 Zp 1
Haga haga NP00000 1
click click NCMS000 0.50012
aqu aqu NCMS000 0.774439
para para SPS00 0.998507
recibir recibir VMN0000 1
gratis gratis RG 0.75
Argenpress argenpress NP00000 1
en en SPS00 1
su su DP3CS0 1
correo correo NCMS000 0.735623
electr electr AQ0CS0 0.0829965
nico no NCMS00D 0.522084

