El el DA0MS0 1
FMI fmi NP00000 1
rebaja rebajar VMIP3S0 0.777778
previsi previsi RG 1
n n NCFS000 1
de de SPS00 0.999919
crecimiento crecimiento NCMS000 1
econ econ NCMS000 1
mico mico NCMS000 1
de de SPS00 0.999919
Brasil brasil NP00000 1
para para SPS00 0.998507
2013 2013 Z 1
El_Fondo_Monetario_Internacional_FMI el_fondo_monetario_internacional_fmi NP00000 1
rebaj rebaj NCMS000 0.692259
sus su DP3CP0 0.998462
previsiones previsión NCFP000 1
para para SPS00 0.998507
el el DA0MS0 1
crecimiento crecimiento NCMS000 1
de de SPS00 0.999919
la el DA0FS0 0.972146
econom econom NCMS000 0.500053
a a SPS00 0.99585
brasile brasile NCMS000 1
a a SPS00 0.99585
en en SPS00 1
2013 2013 Z 1
de de SPS00 1
el el DA0MS0 1
3 3 Z 1
50 50 Z 1
a a SPS00 1
el el DA0MS0 1
3 3 Z 1
00_por_ciento 0/100 Zp 1
aunque aunque CC 1
aument aument NCMS000 0.607342
sus su DP3CP0 0.998462
c c NCFS000 1
lculos lculos NCMP000 1
para para SPS00 0.998507
la el DA0FS0 0.972146
expansi expansi RG 1
n n NCFS000 1
de de SPS00 0.999919
la el DA0FS0 0.972146
econom econom NCMS000 0.500053
a a SPS00 0.99585
de de SPS00 1
el el DA0MS0 1
pa pa NCFS000 0.740689
s segundo NCMN000 0.622321
sudamericano sudamericano AQ0MS0 0.63727
para para SPS00 0.998507
2014 2014 Z 1
de de SPS00 1
el el DA0MS0 1
3 3 Z 1
90 90 Z 1
a a SPS00 1
el el DA0MS0 1
4 4 Z 1
00_por_ciento 0/100 Zp 1
El el NP00000 1
recorte recorte NCMS000 0.75
de de SPS00 1
el el DA0MS0 1
FMI fmi NP00000 1
en en SPS00 1
las el DA0FP0 0.97051
proyecciones proyección NCFP000 1
de de SPS00 0.999919
la el DA0FS0 0.972146
expansi expansi RG 1
n n NCFS000 1
de de SPS00 0.999919
la el DA0FS0 0.972146
econom econom NCMS000 0.500053
a a SPS00 0.99585
brasile brasile NCMS000 1
a a SPS00 0.99585
para para SPS00 0.998507
este este DD0MS0 0.956743
a a NCFS000 0.00415028
o o CC 0.998845
coincide coincidir VMIP3S0 0.875
con con SPS00 1
los el DA0MP0 0.97623
previstos prever VMP00PM 1
por por SPS00 1
el el DA0MS0 1
organismo organismo NCMS000 1
de de SPS00 0.999919
la el DA0FS0 0.972146
econom econom NCMS000 0.500053
a a SPS00 0.99585
mundial mundial AQ0CS0 0.928571
que que PR0CN000 0.5625
cay cay VMIP3S0 0.917803
de de SPS00 1
el el DA0MS0 1
3 3 Z 1
5_por_ciento 5/100 Zp 1
en en SPS00 1
enero [??:??/1/??:??.??:??] W 1
a a SPS00 1
el el DA0MS0 1
3 3 Z 1
3_por_ciento 3/100 Zp 1
mientras_que mientras_que CS 1
para para SPS00 0.998507
2014 2014 Z 1
aument aument NCMS000 0.607342
la el DA0FS0 0.972146
previsi previsi RG 1
n n NCFS000 1
de de SPS00 1
el el DA0MS0 1
4 4 Z 1
00_por_ciento 0/100 Zp 1
a a SPS00 1
el el DA0MS0 1
4 4 Z 1
1_por_ciento 1/100 Zp 1
El el NP00000 1
informe informe AQ0CS0 0.726437
alerta alerta NCFS000 0.316248
sobre sobre SPS00 0.994203
la el DA0FS0 0.972146
ca ca I 1
a a SPS00 0.99585
de de SPS00 0.999919
las el DA0FP0 0.97051
econom econom NCMS000 0.500053
as as NCMS000 1
de de SPS00 0.999919
Am am NP00000 1
rica rico AQ0FS0 0.75
de de SPS00 1
el el DA0MS0 1
Sur sur NP00000 1
y y CC 0.999812
el el DA0MS0 1
Caribe caribe NP00000 1
entre entre SPS00 0.995223
2011 2011 Z 1
y y CC 0.999812
2012 2012 Z 1
que que PR0CN000 0.5625
fue ser VSIS3S0 0.932292
particularmente particularmente RG 1
fuerte fuerte AQ0CS0 0.892857
en en SPS00 1
Brasil brasil NP00000 1
la el DA0FS0 0.972146
mayor mayor AQ0CS0 0.989796
econom econom NCMS000 0.500053
a a SPS00 0.99585
de de SPS00 0.999919
la el DA0FS0 0.972146
regi regi AQ0CS0 0.0199855
n n NCFS000 1
donde donde PR000000 0.963542
las el DA0FP0 0.97051
pol pol NCMS000 0.861706
ticas ticas AQ0FP0 0.760898
de de SPS00 0.999919
est est NCMS000 1
mulo mulo NCMS000 1
no no RN 0.99778
han haber VAIP3P0 1
logrado lograr VMP00SM 1
estimular estimular VMN0000 1
la el DA0FS0 0.972146
inversi inversi RG 1
n n NCFS000 1
privada privar VMP00SF 0.833333
Seg seg NP00000 1
n n NCFS000 1
el el DA0MS0 1
FMI fmi NP00000 1
la el DA0FS0 0.972146
desaceleraci desaceleraci AQ0CS0 0.0199855
n n NCFS000 1
econ econ NCMS000 1
mica mica NCFS000 1
de de SPS00 0.999919
Brasil brasil NP00000 1
a a SPS00 0.99585
ade adir VMIP3S0 0.994868
el el DA0MS0 1
pa pa NCFS000 0.740689
s segundo NCMN000 0.622321
a a SPS00 0.99585
la el DA0FS0 0.972146
larga larga NCFS000 0.0833333
lista listo AQ0FS0 0.625
de de SPS00 0.999919
sus su DP3CP0 0.998462
socios socio NCMP000 1
comerciales comercial AQ0CP0 0.75
en en SPS00 1
la el DA0FS0 0.972146
regi regi AQ0CS0 0.0199855
n n NCFS000 1
con con SPS00 1
problemas problema NCMP000 1
como como CS 0.998579
son ser VSIP3P0 0.986772
Argentina_Paraguay argentina_paraguay NP00000 1
y y CC 0.999812
Uruguay_No_obstante uruguay_no_obstante NP00000 1
la el DA0FS0 0.972146
entidad entidad NCFS000 1
prev prev NCFS000 1
para para SPS00 0.998507
2014 2014 Z 1
una uno DI0FS0 0.951241
recuperaci recuperaci AQ0CS0 0.0199855
n n NCFS000 1
de de SPS00 0.999919
la el DA0FS0 0.972146
actividad actividad NCFS000 1
econ econ NCMS000 1
mica mica NCFS000 1
en en SPS00 1
Brasil brasil NP00000 1
debido_a debido_a SPS00 1
varias varios DI0FP0 0.939394
pol pol NCMS000 0.861706
ticas ticas AQ0FP0 0.760898
empleadas emplear VMP00PF 0.691707
por por SPS00 1
el el DA0MS0 1
gobierno gobierno NCMS000 0.9
para para SPS00 0.998507
estimular estimular VMN0000 1
la el DA0FS0 0.972146
econom econom NCMS000 0.500053
a a SPS00 0.99585
nacional nacional AQ0CS0 1
El_FMI el_fmi NP00000 1
recomienda recomendar VMIP3S0 0.75
los el DA0MP0 0.97623
pa pa NCFS000 0.740689
ses ses NCMP000 0.727093
latinoamericanos latinoamericano AQ0MP0 0.490617
a a SPS00 0.99585
consolidar consolidar VMN0000 1
el el DA0MS0 1
crecimiento crecimiento NCMS000 1
y y CC 0.999812
a a SPS00 0.99585
fortalecer fortalecer VMN0000 1
las el DA0FP0 0.97051
medidas medida NCFP000 0.944444
fiscales fiscal AQ0CP0 0.75
para para SPS00 0.998507
contener contener VMN0000 1
el el DA0MS0 1
avance avance NCMS000 0.8125
de de SPS00 0.999919
las el DA0FP0 0.97051
vulnerabilidades vulnerabilidad NCFP000 1
financieras financiero AQ0FP0 0.289402
y y CC 0.999812
llevar_a_cabo llevar_a_cabo VMN0000 1
reformas reforma NCFP000 0.956832
que que PR0CN000 0.5625
estimulen estimular VMSP3P0 0.901254
el el DA0MS0 1
crecimiento crecimiento NCMS000 1
econ econ NCMS000 1
mico mico NCMS000 1
apuntando apuntar VMG0000 1
que que CS 0.4375
espera esperar VMIP3S0 0.619048
que que CS 0.4375
la el DA0FS0 0.972146
actividad actividad NCFS000 1
econ econ NCMS000 1
mica mica NCFS000 1
en en SPS00 1
los el DA0MP0 0.97623
principales principal AQ0CP0 0.875
pa pa NCFS000 0.740689
ses ses NCMP000 0.727093
exportadores exportador AQ0MP0 0.507225
de de SPS00 0.999919
Am am NP00000 1
rica rico NCFS000 0.25
Latina latina NP00000 1
como como CS 0.998579
Brasil brasil NP00000 1
y y CC 0.999812
M m NP00000 1
xico xico AQ0MS0 0.500497
se se P00CN000 0.465602
mantenga mantener VMSP3S0 0.62344
fuerte fuerte AQ0CS0 0.892857
durante durante SPS00 1
todo todo DI0MS0 0.559816
el el DA0MS0 1
a a NCFS000 0.00415028
o o CC 0.998845
Adem adem NP00000 1
s segundo NCMN000 0.622321
el el DA0MS0 1
informe informe NCMS000 0.185057
agrega agregar VMIP3S0 0.994861
que que CS 0.4375
entre entre SPS00 0.995223
las el DA0FP0 0.97051
econom econom NCMS000 0.500053
as as NCMS000 1
emergentes emergente AQ0CP0 1
de de SPS00 1
el el DA0MS0 1
planeta planeta NCMS000 1
el el DA0MS0 1
desempe desempe VMIP3S0 1
o o CC 0.998845
econ econ NCMS000 1
mico mico NCMS000 1
de de SPS00 0.999919
Asia asia NP00000 1
y y CC 0.999812
Am am NP00000 1
rica rico NCFS000 0.25
Latina latina NP00000 1
depende depender VMIP3S0 0.916667
respectivamente respectivamente RG 1
de de SPS00 0.999919
la el DA0FS0 0.972146
reaceleraci reaceleraci AQ0CS0 0.0199855
n n NCFS000 1
de de SPS00 0.999919
la el DA0FS0 0.972146
actividad actividad NCFS000 1
econ econ NCMS000 1
mica mica NCFS000 1
en en SPS00 1
la el DA0FS0 0.972146
India india NP00000 1
y y CC 0.999812
Brasil_Entre brasil_entre NP00000 1
los el DA0MP0 0.97623
pa pa NCFS000 0.740689
ses ses AQ0CP0 0.068278
de de SPS00 1
el el DA0MS0 1
bloque bloque NCMS000 0.625
BRICS_Brasil_Rusia_la_India_China brics_brasil_rusia_la_india_china NP00000 1
y y CC 0.999812
Sud sud NP00000 1
frica fricar VMIP3S0 0.994868
el el DA0MS0 1
crecimiento crecimiento NCMS000 1
brasile brasile NCMS000 1
o o CC 0.998845
para para SPS00 0.998507
este este DD0MS0 0.956743
a a NCFS000 0.00415028
o o CC 0.998845
es ser VSIP3S0 1
el el DA0MS0 1
segundo 2 AO0MS0 0.742424
m m NCFS000 0.5
s segundo NCMN000 0.622321
bajo bajo SPS00 0.866071
apenas apenas RG 0.979167
por por SPS00 1
detr detr VMN0000 0.633986
s segundo NCMN000 0.622321
de de SPS00 0.999919
Sud sud NP00000 1
frica fricar VMIP3S0 0.994868
cuya cuyo PR0FS000 1
econom econom NCMS000 0.500053
a a SPS00 0.99585
debe deber VMIP3S0 0.974359
expandir expandir VMN0000 1
se se PP3CN000 1
un uno DI0MS0 0.986987
2 2 Z 1
8_por_ciento 8/100 Zp 1
Haga haga NP00000 1
click click NCMS000 0.50012
aqu aqu NCMS000 0.774439
para para SPS00 0.998507
recibir recibir VMN0000 1
gratis gratis RG 0.75
Argenpress argenpress NP00000 1
en en SPS00 1
su su DP3CS0 1
correo correo NCMS000 0.735623
electr electr AQ0CS0 0.0829965
nico no NCMS00D 0.522084

