El el DA0MS0 1
presidente presidente NCMS000 1
paname paname AQ0CS0 0.333391
o o CC 0.998845
revela revelar VMIP3S0 0.989811
que que CS 0.4375
compr compr VMN0000 0.633986
seis 6 Z 1
emisoras emisora NCFP000 0.642618
de de SPS00 0.999919
radio radio NCFS000 0.491228
El el NP00000 1
mbito mbito NCMS000 1
medi medi VMIS1S0 1
tico tico AQ0MS0 0.806828
de de SPS00 1
el el DA0MS0 1
presidente presidente NCMS000 1
de de SPS00 0.999919
Panam_Ricardo_Martinelli panam_ricardo_martinelli NP00000 1
contin contin NCMS000 0.499936
a a SPS00 0.99585
expandi expandi VMIS1S0 1
ndose ndose NCFS000 0.31746
a a SPS00 1
el el DA0MS0 1
revelar revelar VMN0000 1
que que CS 0.4375
compr compr VMN0000 0.633986
seis 6 Z 1
emisoras emisora NCFP000 0.642618
de de SPS00 0.999919
radio radio NCFS000 0.491228
aunque aunque CC 1
aclar aclar VMN0000 1
que que CS 0.4375
la el DA0FS0 0.972146
intenci intenci AQ0CS0 0.0199855
n n NCFS000 1
dista distar VMIP3S0 0.994868
mucho mucho RG 0.699275
de de SPS00 0.999919
buscar buscar VMN0000 1
protecci protecci RG 0.751648
n n NCFS000 1
en en SPS00 1
esos ese DD0MP0 0.961538
medios medio NCMP000 0.95
El el NP00000 1
mandatario mandatario NCMS000 1
dijo decir VMIS3S0 1
en en SPS00 1
entrevista entrevista NCFS000 0.75
a a SPS00 0.99585
la el DA0FS0 0.972146
W_Radio_para_Colombia w_radio_para_colombia NP00000 1
que que PR0CN000 0.5625
hoy hoy RG 0.877358
reproducen reproducir VMIP3P0 1
La_Estrella la_estrella NP00000 1
y y CC 0.999812
otros otro DI0MP0 0.56875
medios medio NCMP000 0.95
nacionales nacional AQ0CP0 1
que que CS 0.4375
compr compr VMN0000 0.633986
esas ese DD0FP0 0.961538
radioemisoras radioemisor NCFP000 0.380052
a a SPS00 1
el el DA0MS0 1
Grupo grupo NP00000 1
espa espa NCFS000 1
ol ol NCMS000 0.861706
PRISA prisa NP00000 1
porque porque CS 1
le le PP3CSD00 1
pareci pareci VMIS1S0 0.0691907
una uno DI0FS0 0.951241
propuesta propuesta NCFS000 0.75
provechosamente provechosamente RG 1
rentable rentable AQ0CS0 1
El_Grupo_Promotora_de_Informaciones_Sociedad_An el_grupo_promotora_de_informaciones_sociedad_an NP00000 1
nima nima AQ0FS0 1
PRISA prisa NP00000 1
con con SPS00 1
sede sede NCFS000 0.8125
en en SPS00 1
Espa espa NP00000 1
a a SPS00 0.99585
es ser VSIP3S0 1
l l NCFS000 0.639398
der der VMN0000 0.630215
en en SPS00 1
televisi televisi RG 1
n n NCFS000 1
radio radio NCFS000 0.491228
prensa prensa NCFS000 0.925926
escrita escribir VMP00SF 1
y y CC 0.999812
editoriales editorial AQ0CP0 0.111111
presente presente NCMS000 0.635417
en en SPS00 1
22 22 Z 1
pa pa NCFS000 0.740689
ses ses NCMP000 0.727093
de de SPS00 0.999919
Europa europa NP00000 1
y y CC 0.999812
Am am NP00000 1
rica rico AQ0FS0 0.75
y y CC 0.999812
re re AQ0CN0 0.35872
ne ne VMIP3S0 0.792275
a a SPS00 1
el el DA0MS0 1
diario diario AQ0MS0 0.5
espa espa NCFS000 1
ol ol AQ0MS0 0.138294
El_Pa el_pa NP00000 1
s segundo NCMN000 0.622321
Canal_Caracol_Radio_Cineman canal_caracol_radio_cineman NP00000 1
a a SPS00 0.99585
Moderna moderna NP00000 1
y y CC 0.999812
Santillana santillana NP00000 1
entre entre SPS00 0.995223
otros otro DI0MP0 0.56875
En en NP00000 1
2012 2012 Z 1
Martinelli martinelli NP00000 1
compr compr NCMS000 0.224371
RCM rcm NP00000 1
canal canal NCMS000 1
21 21 Z 1
y y CC 0.999812
lo el DA0NS0 0.457393
remodel remodel NC00000 0.333333
para para SPS00 0.998507
inaugurar inaugurar VMN0000 1
NexTv nextv NP00000 1
el el DA0MS0 1
mi mi DP1CSS 0.995536
rcoles rcoles NCMP000 0.750052
31_de_octubre [??:31/10/??:??.??:??] W 1
de de SPS00 0.999919
ese ese DD0MS0 0.98125
a a NCFS000 0.00415028
o o CC 0.998845
adem adem NCMS000 1
s segundo NCMN000 0.622321
ha haber VAIP3S0 0.998141
dicho decir VMP00SM 0.958333
que que PR0CN000 0.5625
tiene tener VMIP3S0 1
acciones acción NCFP000 0.916667
en en SPS00 1
otros otro DI0MP0 0.56875
canales canal NCMP000 1
y y CC 0.999812
seg segundo NCMN000 1
n n NCFS000 1
algunos alguno DI0MP0 0.476562
medios medio NCMP000 0.95
su su DP3CS0 1
familia familia NCFS000 1
adquiri adquiri RG 0.83337
el el DA0MS0 1
diario diario NCMS000 0.5
Panam_Am panam_am NP00000 1
rica rico AQ0FS0 0.75
Dijo dijo NP00000 1
que que PR0CN000 0.5625
l l NCFS000 0.639398
entr entr AQ0CS0 0.0829965
a a SPS00 1
el el DA0MS0 1
gobierno gobierno NCMS000 0.9
como como CS 0.998579
empresario empresario NCMS000 1
y y CC 0.999812
sigue seguir VMIP3S0 0.982759
siendo ser VSG0000 1
empresario empresario NCMS000 1
Le le NP00000 1
doy dar VMIP1S0 1
trabajo trabajo NCMS000 0.940476
a a SPS00 0.99585
m m NCFS000 0.5
s segundo NCMN000 0.622321
de de SPS00 0.999919
10_mil 10000 Z 1
personas persona NCFP000 0.983871
y y CC 0.999812
quiz quiz AQ0CS0 0.464124
s segundo NCMN000 0.622321
sea ser VSSP1S0 0.485714
el el DA0MS0 1
segundo segundo NCMS000 0.242424
o o CC 0.998845
tercer 3 AO0MS0 1
empresario empresario NCMS000 1
m m NCFS000 0.5
s segundo NCMN000 0.622321
grande grande AQ0CS0 0.9
de de SPS00 0.999919
este este DD0MS0 0.956743
pa pa NCFS000 0.740689
s segundo NCMN000 0.622321
y y CC 0.999812
tengo tener VMIP1S0 1
demasiado demasiado RG 0.93
que que CS 0.4375
hacer hacer VMN0000 1
para para SPS00 0.998507
perder perder VMN0000 1
el el DA0MS0 1
tiempo tiempo NCMS000 1
En en NP00000 1
una uno DI0FS0 0.951241
entrevista entrevista NCFS000 0.75
alg alg NCMS000 0.714133
n n NCFS000 1
tiempo tiempo NCMS000 1
atr atr AQ0CS0 0.0829965
s segundo NCMN000 0.622321
en en SPS00 1
TVN_Martinelli tvn_martinelli NP00000 1
dijo decir VMIS3S0 1
que que CS 0.4375
cuando cuando CS 0.983796
termine terminar VMSP3S0 0.623409
su su DP3CS0 1
mandato mandato NCMS000 1
presidencial presidencial AQ0CS0 1
tendr tendr VMN0000 0.633986
m m NCFS000 0.5
s segundo NCMN000 0.622321
poder poder VMN0000 0.288462
que que CS 0.4375
en en SPS00 1
la el DA0FS0 0.972146
actualidad actualidad NCFS000 1
refiri refiri RG 0.83337
ndose ndose VMSI3S0 0.317009
precisamente precisamente RG 1
a a SPS00 0.99585
los el DA0MP0 0.97623
medios medio NCMP000 0.95
de de SPS00 0.999919
comunicaci comunicaci RG 0.751648
n n NCFS000 1
Haga haga NP00000 1
click click NCMS000 0.50012
aqu aqu NCMS000 0.774439
para para SPS00 0.998507
recibir recibir VMN0000 1
gratis gratis RG 0.75
Argenpress argenpress NP00000 1
en en SPS00 1
su su DP3CS0 1
correo correo NCMS000 0.735623
electr electr AQ0CS0 0.0829965
nico no NCMS00D 0.522084

