El el DA0MS0 1
primer 1 AO0MS0 1
ministro ministro NCMS000 1
turco turco AQ0MS0 0.875
culpa culpa NCFS000 0.866667
a a SPS00 0.99585
grupos grupo NCMP000 1
extremistas extremista AQ0CP0 0.657113
de de SPS00 0.999919
los el DA0MP0 0.97623
disturbios disturbio NCMP000 1
El el NP00000 1
primer 1 AO0MS0 1
ministro ministro NCMS000 1
turco turco AQ0MS0 0.875
Recep_Tayyip_Erdogan recep_tayyip_erdogan NP00000 1
atribuy atribuy RG 0.993863
los el DA0MP0 0.97623
disturbios disturbio NCMP000 1
registrados registrar VMP00PM 1
en en SPS00 1
varias varios DI0FP0 0.939394
ciudades ciudad NCFP000 1
de de SPS00 1
el el DA0MS0 1
pa pa NCFS000 0.740689
s segundo NCMN000 0.622321
a a SPS00 0.99585
la el DA0FS0 0.972146
actividad actividad NCFS000 1
de de SPS00 0.999919
los el DA0MP0 0.97623
grupos grupo NCMP000 1
extremistas extremista AQ0CP0 0.657113
Todos todos NP00000 1
los el DA0MP0 0.97623
disturbios disturbio NCMP000 1
son ser VSIP3P0 0.986772
resultado resultar VMP00SM 0.192308
de de SPS00 0.999919
actos acto NCMP000 1
de de SPS00 0.999919
grupos grupo NCMP000 1
radicales radical AQ0CP0 0.581818
declar declar VMN0000 1
el el DA0MS0 1
primer 1 AO0MS0 1
ministro ministro NCMS000 1
e y CC 0.973684
inst inst NCMS000 1
a a SPS00 1
el el DA0MS0 1
pueblo pueblo NCMS000 0.978261
a a SPS00 0.99585
no no RN 0.99778
hacer hacer VMN0000 1
caso caso NCMS000 0.990741
a a SPS00 0.99585
las el DA0FP0 0.97051
provocaciones provocación NCFP000 1
A_la_vez a_la_vez NP00000 1
el el DA0MS0 1
presidente presidente NCMS000 1
turco turco AQ0MS0 0.875
Abdullah_G abdullah_g NP00000 1
l l NCFS000 0.639398
consider consider VMN0000 0.630215
que que CS 0.4375
las el DA0FP0 0.97051
protestas protesta NCFP000 0.75
son ser VSIP3P0 0.986772
una uno DI0FS0 0.951241
manifestaci manifestaci AQ0CS0 0.0199855
n n NCFS000 1
de de SPS00 0.999919
la el DA0FS0 0.972146
democracia democracia NCFS000 1
y y CC 0.999812
asegur asegur NCFS000 1
que que PR0CN000 0.5625
acepta aceptar VMIP3S0 0.777778
esta este DD0FS0 0.982143
se se P00CN000 0.465602
a a SPS00 1
el el DA0MS0 1
de de SPS00 0.999919
parte parte NCFS000 0.497967
de de SPS00 0.999919
la el DA0FS0 0.972146
sociedad sociedad NCFS000 1
Turqu turqu NP00000 1
a a SPS00 0.99585
registra registrar VMIP3S0 0.75
en en SPS00 1
los el DA0MP0 0.97623
ltimos ltimos AQ0MP0 0.143025
d d NCFS000 1
as as NCMS000 1
acciones acción NCFP000 0.916667
de de SPS00 0.999919
protesta protesta NCFS000 0.916667
desencadenadas desencadenar VMP00PF 1
por por SPS00 1
la el DA0FS0 0.972146
decisi decisi RG 1
n n NCFS000 1
de de SPS00 0.999919
las el DA0FP0 0.97051
autoridades autoridad NCFP000 1
de de SPS00 0.999919
talar talar VMN0000 0.5
el el DA0MS0 1
parque parque NCMS000 1
Gezi gezi NP00000 1
en en SPS00 1
Estambul estambul NP00000 1
para para SPS00 0.998507
construir construir VMN0000 1
un uno DI0MS0 0.986987
centro centro NCMS000 0.966667
comercial comercial AQ0CS0 1
Las las NP00000 1
protestas protestar VMIP2S0 0.25
adquirieron adquirir VMIS3P0 1
muy muy RG 1
pronto pronto RG 0.791667
un uno DI0MS0 0.986987
car car NCMS000 1
cter cter NCMS000 1
pol pol NCMS000 0.861706
tico tico AQ0MS0 0.806828
Los los NP00000 1
manifestantes manifestante NCCP000 1
exigen exigir VMIP3P0 1
la el DA0FS0 0.972146
dimisi dimisi RG 1
n n NCFS000 1
de de SPS00 0.999919
Erdogan erdogan NP00000 1
y y CC 0.999812
le le PP3CSD00 1
acusan acusar VMIP3P0 1
en en SPS00 1
particular particular NCCS000 0.25
de de SPS00 0.999919
intentar intentar VMN0000 1
de de SPS00 0.999919
islamizar islamizar VMN0000 1
el el DA0MS0 1
pa pa NCFS000 0.740689
s segundo NCMN000 0.622321
A a NP00000 1
las el DA0FP0 0.97051
manifestaciones manifestación NCFP000 1
se se P00CN000 0.465602
unieron unir VMIS3P0 1
la el DA0FS0 0.972146
mitad mitad NCFS000 1
de de SPS00 0.999919
las el DA0FP0 0.97051
provincias provincia NCFP000 1
de de SPS00 1
el el DA0MS0 1
pa pa NCFS000 0.740689
s segundo NCMN000 0.622321
y y CC 0.999812
los el DA0MP0 0.97623
turcos turco NCMP000 0.642602
que que PR0CN000 0.5625
viven vivir VMIP3P0 1
en en SPS00 1
Europa_Esta europa_esta NP00000 1
ma ma VMIP3S0 0.109986
ana ana NCFS000 1
en en SPS00 1
Esmirna esmirna NP00000 1
la el DA0FS0 0.972146
tercera 3 AO0FS0 0.928571
ciudad ciudad NCFS000 1
de de SPS00 1
el el DA0MS0 1
pa pa NCFS000 0.740689
s segundo NCMN000 0.622321
los el DA0MP0 0.97623
activistas activista NCCP000 0.581859
lanzaron lanzar VMIS3P0 1
un uno DI0MS0 0.986987
c c NCFS000 1
ctel ctel NCMS000 1
molotov molotov AQ0CS0 0.0433699
a a SPS00 0.99585
la el DA0FS0 0.972146
delegaci delegaci AQ0CS0 0.0199855
n n NCFS000 1
de de SPS00 1
el el DA0MS0 1
partido partido NCMS000 0.886364
gobernante gobernante AQ0CS0 0.657257
provocando provocar VMG0000 1
un uno DI0MS0 0.986987
incendio incendio NCMS000 0.973494
En_Estambul en_estambul NP00000 1
los el DA0MP0 0.97623
manifestantes manifestante NCCP000 1
construyeron construir VMIS3P0 1
barricadas barricada NCFP000 1
y y CC 0.999812
la el DA0FS0 0.972146
polic polic NCFS000 1
a a SPS00 0.99585
utiliz utiliz AQ0CS0 1
contra contra SPS00 0.976316
ellos ellos PP3MP000 1
gases gas NCMP000 1
lacrim lacrim NCMS000 0.700265
genos genos AQ0MP0 1
y y CC 0.999812
ca ca I 1
ones ones NCFP000 0.783391
de de SPS00 0.999919
agua agua NCCS000 0.973333
Los los NP00000 1
agentes agente NCCP000 0.928571
de de SPS00 1
el el DA0MS0 1
orden orden NCMS000 0.6
usaron usar VMIS3P0 1
gases gas NCMP000 1
lacrim lacrim NCMS000 0.700265
genos genos AQ0MP0 1
tambi tambi AQ0CN0 1
n n NCFS000 1
para para SPS00 0.998507
parar parar VMN0000 1
a a SPS00 0.99585
la el DA0FS0 0.972146
multitud multitud NCFS000 1
que que PR0CN000 0.5625
se se P00CN000 0.465602
encaminaba encaminar VMII3S0 0.65
hacia hacia SPS00 1
la el DA0FS0 0.972146
residencia residencia NCFS000 0.666667
de de SPS00 1
el el DA0MS0 1
primer 1 AO0MS0 1
ministro ministro NCMS000 1
En_Ankara en_ankara NP00000 1
la el DA0FS0 0.972146
polic polic NCFS000 1
a a SPS00 0.99585
asalt asalt NCMS000 0.607342
un uno DI0MS0 0.986987
centro centro NCMS000 0.966667
comercial comercial AQ0CS0 1
donde donde PR000000 0.963542
se se P00CN000 0.465602
refugiaban refugiar VMII3P0 1
los el DA0MP0 0.97623
manifestantes manifestante NCCP000 1
y y CC 0.999812
detuvo detener VMIS3S0 1
a a SPS00 0.99585
cientos ciento NCMP000 1
de de SPS00 0.999919
personas persona NCFP000 0.983871
A_la_vez a_la_vez NP00000 1
los el DA0MP0 0.97623
hackers hackers NCMP000 0.75
de de SPS00 0.999919
Anonymous anonymous NP00000 1
realizaron realizar VMIS3P0 1
la el DA0FS0 0.972146
noche noche NCFS000 1
de de SPS00 1
el el DA0MS0 1
domingo [G:??/??/??:??.??:??] W 1
un uno DI0MS0 0.986987
ataque ataque NCMS000 0.9625
a a SPS00 0.99585
las el DA0FP0 0.97051
p p NCFS000 0.5
ginas ginas NCFP000 1
de de SPS00 0.999919
instituciones institución NCFP000 1
p p NCFS000 0.5
blicas blicas AQ0FP0 1
y y CC 0.999812
medios medio NCMP000 0.95
de de SPS00 0.999919
Turqu turqu NP00000 1
a a SPS00 0.99585
bloqueando bloquear VMG0000 1
en en SPS00 1
particular particular AQ0CS0 0.75
el el DA0MS0 1
sitio sitio NCMS000 0.916667
de de SPS00 1
el el DA0MS0 1
presidente presidente NCMS000 1
de de SPS00 1
el el DA0MS0 1
pa pa NCFS000 0.740689
s segundo NCMN000 0.622321
Seg seg NP00000 1
n n NCFS000 1
medios medio NCMP000 0.95
nacionales nacional AQ0CP0 1
durante durante SPS00 1
los el DA0MP0 0.97623
disturbios disturbio NCMP000 1
resultaron resultar VMIS3P0 1
heridas herir VMP00PF 0.166667
536 536 Z 1
personas persona NCFP000 0.983871
y y CC 0.999812
m m NCFS000 0.5
s segundo NCMN000 0.622321
de de SPS00 0.999919
2 2 Z 1
300 300 Z 1
fueron ser VSIS3P0 0.796296
detenidas detenido NCFP000 0.608233
Haga haga NP00000 1
click click NCMS000 0.50012
aqu aqu NCMS000 0.774439
para para SPS00 0.998507
recibir recibir VMN0000 1
gratis gratis RG 0.75
Argenpress argenpress NP00000 1
en en SPS00 1
su su DP3CS0 1
correo correo NCMS000 0.735623
electr electr AQ0CS0 0.0829965
nico no NCMS00D 0.522084

