El el DA0MS0 1
Salvador_Cuarto salvador_cuarto NP00000 1
aniversario aniversario NCMS000 0.75
de de SPS00 1
el el DA0MS0 1
gobierno gobierno NCMS000 0.9
de de SPS00 1
el el DA0MS0 1
cambio cambio NCMS000 0.97619
avances avance NCMP000 0.75
y y CC 0.999812
desaf desaf I 1
os o NCFP000 0.222222
para para SPS00 0.998507
la el DA0FS0 0.972146
transformaci transformaci AQ0CS0 0.0199855
n n NCFS000 1
social social AQ0CS0 0.977273
El el NP00000 1
primer 1 AO0MS0 1
aspecto aspecto NCMS000 1
a a SPS00 0.99585
destacar destacar VMN0000 1
en en SPS00 1
el el DA0MS0 1
marco marco NCMS000 0.9
de de SPS00 1
el el DA0MS0 1
cuarto 4 AO0MS0 0.333333
aniversario aniversario NCMS000 0.75
de de SPS00 1
el el DA0MS0 1
gobierno gobierno NCMS000 0.9
de de SPS00 1
el el DA0MS0 1
cambio cambio NCMS000 0.97619
en en SPS00 1
El_Salvador el_salvador NP00000 1
es ser VSIP3S0 1
la el DA0FS0 0.972146
m m NCFS000 0.5
s segundo NCMN000 0.622321
reciente reciente AQ0CS0 0.925
encuesta encuesta NCFS000 0.666667
de de SPS00 0.999919
CID_Gallup cid_gallup NP00000 1
refleja reflejar VMIP3S0 0.351536
que que CS 0.4375
el el DA0MS0 1
presidente presidente NCMS000 1
Mauricio_Funes mauricio_funes NP00000 1
mantiene mantener VMIP3S0 1
altos alto AQ0MP0 0.625
ndices ndices VMIP2S0 1
de de SPS00 0.999919
opini opini RG 0.751648
n n NCFS000 1
y y CC 0.999812
respeto respeto NCMS000 0.863636
con con SPS00 1
un uno DI0MS0 0.986987
76 76 Z 1
de de SPS00 0.999919
imagen imagen NCFS000 1
favorable favorable AQ0CS0 1
entre entre SPS00 0.995223
los el DA0MP0 0.97623
salvadore salvadore VMSP3S0 1
os o NCFP000 0.222222
La la NP00000 1
aprobaci aprobaci VMIS1S0 0.0691907
n n NCFS000 1
de de SPS00 1
el el DA0MS0 1
mandatario mandatario NCMS000 1
se se P00CN000 0.465602
da dar VMIP3S0 0.983871
a a SPS00 0.99585
pocos poco DI0MP0 0.583333
d d NCFS000 1
as as NCMS000 1
de de SPS00 0.999919
cumplir cumplir VMN0000 1
se se PP3CN000 1
su su DP3CS0 1
cuarto cuarto NCMS000 0.641026
a a SPS00 0.99585
o o CC 0.998845
de de SPS00 0.999919
gesti gesti NCMS000 1
n n NCFS000 1
a_el_frente_de al_frente_de SPS00 1
el el DA0MS0 1
Ejecutivo ejecutivo NP00000 1
lo el DA0NS0 0.457393
cual cual PR0CS000 0.9
nunca nunca RG 1
fue ser VSIS3S0 0.932292
alcanzado alcanzar VMP00SM 1
por por SPS00 1
los el DA0MP0 0.97623
presidentes presidente NCMP000 1
anteriores anterior AQ0CP0 1
de de SPS00 0.999919
la el DA0FS0 0.972146
derecha derecha NCFS000 0.735294
salvadore salvadore VMSP3S0 1
a a SPS00 0.99585
De de NP00000 1
acuerdo acuerdo NCMS000 0.958333
a a SPS00 0.99585
la el DA0FS0 0.972146
encuesta encuesta NCFS000 0.666667
Su su NP00000 1
imagen imagen NCFS000 1
tiende tender VMIP3S0 0.833333
a a SPS00 0.99585
gustar gustar VMN0000 1
tanto tanto RG 0.857895
a a SPS00 0.99585
los el DA0MP0 0.97623
seguidores seguidor NCMP000 0.9
de de SPS00 0.999919
su su DP3CS0 1
partido partido NCMS000 0.886364
como como CS 0.998579
simpatizantes simpatizante NCCP000 0.34273
de de SPS00 0.999919
oposici oposici RG 0.751648
n n NCFS000 1
respaldando respaldar VMG0000 1
la el DA0FS0 0.972146
respuesta respuesta NCFS000 1
a a SPS00 1
el el DA0MS0 1
decir decir VMN0000 0.987805
que que CS 0.4375
el el DA0MS0 1
Presidente_Funes presidente_funes NP00000 1
se se P00CN000 0.465602
ha haber VAIP3S0 0.998141
dedicado dedicar VMP00SM 1
a a SPS00 0.99585
gobernar gobernar VMN0000 1
en en SPS00 1
beneficio beneficio NCMS000 0.833333
de de SPS00 0.999919
todos todo DI0MP0 0.622419
los el DA0MP0 0.97623
salvadore salvadore VMSP3S0 1
os o NCFP000 0.222222
y y CC 0.999812
no no RN 0.99778
en_pro_de en_pro_de SPS00 1
grupos grupo NCMP000 1
o o CC 0.998845
simpatizantes simpatizante NCCP000 0.34273
de de SPS00 0.999919
uno uno PI0MS000 0.964744
u o CC 0.944444
otro otro DI0MS0 0.61215
partido partido NCMS000 0.886364
P p NP00000 1
gina gina VMIP3S0 0.333217
2013 2013 Z 1
En en NP00000 1
otra otro DI0FS0 0.801136
encuesta encuesta NCFS000 0.666667
de de SPS00 0.999919
la el DA0FS0 0.972146
UCA uca NP00000 1
de de SPS00 1
el el DA0MS0 1
28_de_mayo [??:28/5/??:??.??:??] W 1
de de SPS00 1
el el DA0MS0 1
presente presente NCMS000 0.635417
a a SPS00 0.99585
o o CC 0.998845
los lo PP3MPA00 0.023584
salvadore salvadore VMSP3S0 1
os o NCFP000 0.222222
y y CC 0.999812
salvadore salvadore VMSP3S0 1
as as NCMS000 1
calificaron calificar VMIS3P0 1
con con SPS00 1
una uno DI0FS0 0.951241
nota noto AQ0FS0 0.0625
promedio promedio NCMS000 0.973497
de de SPS00 0.999919
6 6 Z 1
87_sobre_una 87/1 Zp 1
escala escala NCFS000 0.833333
de de SPS00 0.999919
0 0 Z 1
a a SPS00 0.99585
10 10 Z 1
el el DA0MS0 1
desempe desempe VMIP3S0 1
o o CC 0.998845
de de SPS00 1
el el DA0MS0 1
gobierno gobierno NCMS000 0.9
de de SPS00 0.999919
Mauricio_Funes mauricio_funes NP00000 1
seg segundo NCMN000 1
n n NCFS000 1
revela revelar VMIP3S0 0.989811
la el DA0FS0 0.972146
m m NCFS000 0.5
s segundo NCMN000 0.622321
reciente reciente AQ0CS0 0.925
encuesta encuesta NCFS000 0.666667
de de SPS00 1
el el DA0MS0 1
Instituto_Universitario_de_Opini instituto_universitario_de_opini NP00000 1
n n NCFS000 1
P p NP00000 1
blica blica AQ0FS0 1
IUDOP_IUDOP iudop_iudop NP00000 1
2013 2013 Z 1
esto este PD0NS000 1
refleja reflejar VMIP3S0 0.351536
que que CS 0.4375
a_pesar_de a_pesar_de SPS00 1
las el DA0FP0 0.97051
cr cr NCMS000 1
ticas ticas AQ0FP0 0.760898
de de SPS00 1
el el DA0MS0 1
principal principal AQ0CS0 0.9375
partido partido NCMS000 0.886364
de de SPS00 0.999919
oposici oposici RG 0.751648
n n NCFS000 1
ARENA arena NP00000 1
el el DA0MS0 1
presidente presidente NCMS000 1
es ser VSIP3S0 1
bien bien RG 0.898039
evaluado evaluar VMP00SM 1
por por SPS00 1
la el DA0FS0 0.972146
ciudadan ciudadan VMIP3P0 0.790742
a a SPS00 0.99585
Muchos muchos NP00000 1
salvadore salvadore VMSP3S0 1
os o NCFP000 0.222222
y y CC 0.999812
salvadore salvadore VMSP3S0 1
as as NCMS000 1
dentro dentro RG 1
y y CC 0.999812
fuera_de fuera_de SPS00 1
el el DA0MS0 1
pa pa NCFS000 0.740689
s segundo NCMN000 0.622321
e y CC 0.973684
incluso incluso RG 0.988095
algunos alguno DI0MP0 0.476562
adversarios adversario NCMP000 1
pol pol NCMS000 0.861706
ticos ticos AQ0MP0 0.671839
se se P00CN000 0.465602
preguntan preguntar VMIP3P0 1
Qu qu NP00000 1
ha haber VAIP3S0 0.998141
hecho hacer VMP00SM 0.618421
el el DA0MS0 1
presidente presidente NCMS000 1
Funes funes NP00000 1
o o CC 0.998845
el el DA0MS0 1
Gobierno gobierno NP00000 1
de de SPS00 1
el el DA0MS0 1
cambio cambio NCMS000 0.97619
de de SPS00 1
el el DA0MS0 1
fmln fmln NCFS000 0.321497
en en SPS00 1
estos este DD0MP0 0.990566
cuatro 4 Z 1
a a SPS00 0.99585
os o NCFP000 0.222222
de de SPS00 0.999919
gesti gesti NCMS000 1
n n NCFS000 1
para para SPS00 0.998507
muchos mucho PI0MP000 0.458333
ha haber VAIP3S0 0.998141
hecho hacer VMP00SM 0.618421
bastante bastante RG 0.763889
para para SPS00 0.998507
otros otro DI0MP0 0.56875
habr habr NCMS000 0.224371
hecho hacer VMP00SM 0.618421
poco poco RG 0.54065
y y CC 0.999812
para para SPS00 0.998507
los el DA0MP0 0.97623
cr cr NCMS000 1
ticos ticos AQ0MP0 0.671839
nada nada PI0CS000 0.846667
pero pero CC 0.998821
cu cu NCFS000 1
l l NCFS000 0.639398
es ser VSIP3S0 1
la el DA0FS0 0.972146
realidad realidad NCFS000 1
veamos ver VMSP1P0 0.5
algunas alguno DI0FP0 0.758065
acciones acción NCFP000 0.916667
concretas concreto AQ0FP0 0.75
lo el DA0NS0 0.457393
m m NCFS000 0.5
s segundo NCMN000 0.622321
relevante relevante AQ0CS0 1
en en SPS00 1
los el DA0MP0 0.97623
aspectos aspecto NCMP000 1
econ econ NCMS000 1
micos mico NCMP000 1
pol pol NCMS000 0.861706
ticos ticos AQ0MP0 0.671839
y y CC 0.999812
sociales social AQ0CP0 0.9375
de de SPS00 0.999919
la el DA0FS0 0.972146
sociedad sociedad NCFS000 1
Para para NP00000 1
muchos mucho DI0MP0 0.541667
cr cr NCMS000 1
ticos ticos AQ0MP0 0.671839
el el DA0MS0 1
gobierno gobierno NCMS000 0.9
de de SPS00 0.999919
Funes funes NP00000 1
posee poseer VMIP3S0 0.9375
un uno DI0MS0 0.986987
car car NCMS000 1
cter cter NCMS000 1
burgu burgu NCMS000 0.774439
s segundo NCMN000 0.622321
y y CC 0.999812
pro pro NCMS000 0.544882
imperialista imperialista AQ0CS0 1
el el DA0MS0 1
gobierno gobierno NCMS000 0.9
actual actual AQ0CS0 1
es ser VSIP3S0 1
un uno DI0MS0 0.986987
gobierno gobierno NCMS000 0.9
de de SPS00 0.999919
conciliaci conciliaci RG 0.751648
n n NCFS000 1
de de SPS00 0.999919
clases clase NCFP000 1
un uno DI0MS0 0.986987
gobierno gobierno NCMS000 0.9
de de SPS00 0.999919
frente frente NCFS000 0.263889
popular popular AQ0CS0 1
preventivo preventivo AQ0MS0 1
que que PR0CN000 0.5625
aplica aplicar VMIP3S0 0.833333
fielmente fielmente RG 1
las el DA0FP0 0.97051
pol pol NCMS000 0.861706
ticas ticas AQ0FP0 0.760898
de de SPS00 0.999919
los el DA0MP0 0.97623
imperialismos imperialismo NCMP000 1
en en SPS00 1
pugna pugna NCFS000 0.54701
Asocio_para_el_Crecimiento_Asocios_P asocio_para_el_crecimiento_asocios_p NP00000 1
blico blico NCMS000 0.599776
Privados_Proyecto_de_Ley_de_la_Funci privados_proyecto_de_ley_de_la_funci NP00000 1
n n NCFS000 1
P p NP00000 1
blica blica AQ0FS0 1
reformas reforma NCFP000 0.956832
a a SPS00 0.99585
la el DA0FS0 0.972146
Ley_de_Zonas_Francas ley_de_zonas_francas NP00000 1
tregua tregua NCFS000 1
entre entre SPS00 0.995223
pandillas pandilla NCFP000 1
Acuerdo_de_Asociaci acuerdo_de_asociaci NP00000 1
n n NCFS000 1
Este este NP00000 1
gobierno gobernar VMIP1S0 0.1
pues pues CS 0.990385
viene venir VMIP3S0 1
en_gran_medida en_gran_medida RG 1
a a SPS00 0.99585
complementar complementar VMN0000 1
lo el DA0NS0 0.457393
que que PR0CN000 0.5625
los el DA0MP0 0.97623
gobiernos gobierno NCMP000 1
de de SPS00 0.999919
ARENA arena NP00000 1
por por SPS00 1
su su DP3CS0 1
desgaste desgaste NCMS000 0.693717
pol pol NCMS000 0.861706
tico tico AQ0MS0 0.806828
ya ya RG 0.996988
no no RN 0.99778
pod pod NCFS000 0.961423
an an NCFS000 1
llevar llevar VMN0000 1
adelante adelante RG 0.911111
es ser VSIP3S0 1
decir decir VMN0000 0.987805
todas todo DI0FP0 0.945312
las el DA0FP0 0.97051
pol pol NCMS000 0.861706
ticas ticas AQ0FP0 0.760898
pro pro NCMS000 0.544882
imperialistas imperialista AQ0CP0 1
principalmente principalmente RG 1
el el DA0MS0 1
Asocio_Para_el_Crecimiento asocio_para_el_crecimiento NP00000 1
y y CC 0.999812
el el DA0MS0 1
acuerdo acuerdo NCMS000 0.958333
Stand_By stand_by NP00000 1
con con SPS00 1
el el DA0MS0 1
FMI fmi NP00000 1
y y CC 0.999812
a_partir_de a_partir_de SPS00 1
all all NCFN000 1
todos todo DI0MP0 0.622419
los el DA0MP0 0.97623
recortes recorte NCMP000 0.995706
sociales social AQ0CP0 0.9375
Arriola arriola NP00000 1
2013 2013 Z 1
Sin sin NP00000 1
embargo embargo NCMS000 0.973496
hay haber VMIP3S0 1
que que CS 0.4375
tener tener VMN0000 1
claro claro RG 0.490741
que que CS 0.4375
el el DA0MS0 1
fmln fmln NCFS000 0.321497
ha haber VAIP3S0 0.998141
sido ser VSP00SM 1
cr cr NCMS000 1
tico tico AQ0MS0 0.806828
de de SPS00 0.999919
estos este DD0MP0 0.990566
proyectos proyecto NCMP000 1
y y CC 0.999812
para para SPS00 0.998507
la el DA0FS0 0.972146
aprobaci aprobaci AQ0CS0 0.0199855
n n NCFS000 1
de de SPS00 0.999919
esas ese DD0FP0 0.961538
medidas medida NCFP000 0.944444
ha haber VAIP3S0 0.998141
estado estar VAP00SM 0.337838
proponiendo proponer VMG0000 1
reformas reforma NCFP000 0.956832
a a SPS00 0.99585
los el DA0MP0 0.97623
proyectos proyecto NCMP000 1
de de SPS00 0.999919
ley ley NCFS000 1
que que PR0CN000 0.5625
atentan atentar VMIP3P0 1
con con SPS00 1
los el DA0MP0 0.97623
recursos recurso NCMP000 1
esenciales esencial AQ0CP0 1
para para SPS00 0.998507
la el DA0FS0 0.972146
vida vida NCFS000 1
de de SPS00 0.999919
los el DA0MP0 0.97623
salvadore salvadore VMSP3S0 1
os os PP2CP000 0.722222
como como CS 0.998579
el el DA0MS0 1
agua agua NCCS000 0.973333
educaci educaci RG 0.751648
n n NCFS000 1
superior superior AQ0CS0 0.964286
salud salud NCFS000 1
y y CC 0.999812
energ energ NCMS000 0.714133
a a SPS00 0.99585
el el DA0MS0 1
ctrica ctrica AQ0FS0 1
entre entre SPS00 0.995223
otros otro DI0MP0 0.56875
esto este PD0NS000 1
por_supuesto por_supuesto RG 1
ha haber VAIP3S0 0.998141
sido ser VSP00SM 1
visto ver VMP00SM 0.982759
como como CS 0.998579
oposici oposici RG 0.751648
n n NCFS000 1
a a SPS00 1
el el DA0MS0 1
gobierno gobierno NCMS000 0.9
lo el DA0NS0 0.457393
cual cual PR0CS000 0.9
es ser VSIP3S0 1
una uno DI0FS0 0.951241
diferencia diferencia NCFS000 0.738095
de de SPS00 0.999919
fondo fondo NCMS000 1
en_cuanto_a en_cuanto_a SPS00 1
visi visi NCMS000 1
n n NCFS000 1
program program NCMS000 0.700265
tica tica AQ0FS0 0.595788
y y CC 0.999812
la el DA0FS0 0.972146
derecha derecha NCFS000 0.735294
ha haber VAIP3S0 0.998141
estado estar VAP00SM 0.337838
a a SPS00 1
el el DA0MS0 1
asecho asecho NCMS000 0.947413
de de SPS00 0.999919
sacar sacar VMN0000 1
ventaja ventaja NCFS000 1
pol pol NCMS000 0.861706
tica tica AQ0FS0 0.595788
apoyando apoyar VMG0000 1
a a SPS00 0.99585
Funes funes NP00000 1
en en SPS00 1
el el DA0MS0 1
discurso discurso NCMS000 0.75
porque porque CS 1
en en SPS00 1
la el DA0FS0 0.972146
pr pr NCMS000 0.224371
ctica ctica AQ0FS0 0.300042
lo lo PP3CNA00 0.271163
critican criticar VMIP3P0 1
duramente duramente RG 1
Ahora_bien ahora_bien NP00000 1
habr habr VMN0000 0.633986
que que CS 0.4375
revisar revisar VMN0000 1
cual cual PR0CS000 0.9
es ser VSIP3S0 1
el el DA0MS0 1
balance balance NCMS000 1
de de SPS00 0.999919
las el DA0FP0 0.97051
cuestiones cuestión NCFP000 0.875
positivas positivo AQ0FP0 1
de de SPS00 0.999919
este este DD0MS0 0.956743
gobierno gobierno NCMS000 0.9
a a SPS00 0.99585
cuatro 4 Z 1
a a SPS00 0.99585
os os PP2CP000 0.722222
de de SPS00 0.999919
su su DP3CS0 1
gesti gesti NCMS000 1
n n NCFS000 1
en en SPS00 1
comparaci comparaci RG 0.751648
n n NCFS000 1
a a SPS00 0.99585
lo el DA0NS0 0.457393
que que PR0CN000 0.5625
hicieron hacer VMIS3P0 1
los el DA0MP0 0.97623
gobiernos gobierno NCMP000 1
de de SPS00 0.999919
derecha derecha NCFS000 0.735294
pertenecientes perteneciente AQ0CP0 1
a a SPS00 1
el el DA0MS0 1
partido partido NCMS000 0.886364
ARENA arena NP00000 1
con con SPS00 1
su su DP3CS0 1
modelo modelo NCCS000 0.973684
neoliberal neoliberal AQ0CS0 0.616364
de de SPS00 0.999919
privatizaciones privatización NCFP000 1
tratados tratar VMP00PM 0.75
de de SPS00 0.999919
libre libre AQ0CS0 0.917647
comercio comercio NCMS000 0.833333
dolarizaci dolarizaci AQ0CS0 0.0199855
n n NCFS000 1
de de SPS00 0.999919
la el DA0FS0 0.972146
econom econom NCMS000 0.500053
a a SPS00 0.99585
y y CC 0.999812
de de SPS00 0.999919
manos mano NCFP000 1
duras duro AQ0FP0 0.875
para para SPS00 0.998507
resolver resolver VMN0000 1
la el DA0FS0 0.972146
delincuencia delincuencia NCFS000 1
y y CC 0.999812
el el DA0MS0 1
combate combate NCMS000 0.75
de de SPS00 0.999919
las el DA0FP0 0.97051
maras maras NCFP000 0.750094
en en SPS00 1
el el DA0MS0 1
pa pa NCFS000 0.740689
s segundo NCMN000 0.622321
Para para NP00000 1
los lo PP3MPA00 0.023584
salvadore salvadore VMSP3S0 1
os o NCFP000 0.222222
y y CC 0.999812
salvadore salvadore VMSP3S0 1
as as NCMS000 1
que que PR0CN000 0.5625
opinan opinar VMIP3P0 1
en en SPS00 1
las el DA0FP0 0.97051
encuestas encuesta NCFP000 0.973497
el el DA0MS0 1
principal principal AQ0CS0 0.9375
logro logro NCMS000 0.75
o o CC 0.998845
avance avance NCMS000 0.8125
de de SPS00 1
el el DA0MS0 1
cuarto cuarto NCMS000 0.641026
a a SPS00 0.99585
o o CC 0.998845
de de SPS00 0.999919
gesti gesti NCMS000 1
n n NCFS000 1
de de SPS00 1
el el DA0MS0 1
presidente presidente NCMS000 1
Funes funes NP00000 1
sigue seguir VMIP3S0 0.982759
siendo ser VSG0000 1
en en SPS00 1
el el DA0MS0 1
rea reo NCFS000 0.592721
de de SPS00 0.999919
educaci educaci RG 0.751648
n n NCFS000 1
con con SPS00 1
los el DA0MP0 0.97623
paquetes paquete NCMP000 1
escolares escolar AQ0CP0 0.75
el el DA0MS0 1
vaso vaso NCMS000 1
de de SPS00 0.999919
leche leche NCFS000 1
los el DA0MP0 0.97623
zapatos zapato NCMP000 1
y y CC 0.999812
los el DA0MP0 0.97623
uniformes uniforme NCMP000 0.3
en en SPS00 1
el el DA0MS0 1
aspecto aspecto NCMS000 1
social social AQ0CS0 0.977273
sobresale sobresalir VMIP3S0 1
la el DA0FS0 0.972146
entrega entrega NCFS000 0.266667
de de SPS00 0.999919
dinero dinero NCMS000 1
a a SPS00 0.99585
las el DA0FP0 0.97051
familias familia NCFP000 1
pobres pobre AQ0CP0 0.375
ciudad ciudad NCFS000 1
mujer mujer NCFS000 0.959459
y y CC 0.999812
la el DA0FS0 0.972146
implementaci implementaci AQ0CS0 0.0199855
n n NCFS000 1
de de SPS00 0.999919
los el DA0MP0 0.97623
ECOS ecos NP00000 1
y y CC 0.999812
en en SPS00 1
el el DA0MS0 1
aspecto aspecto NCMS000 1
econ econ NCMS000 1
mico mico NCMS000 1
lo el DA0NS0 0.457393
relativo relativo NCMS000 0.166667
a a SPS00 1
el el DA0MS0 1
apoyo apoyo NCMS000 0.928571
a a SPS00 0.99585
la el DA0FS0 0.972146
agricultura agricultura NCFS000 1
con con SPS00 1
los el DA0MP0 0.97623
paquetes paquete NCMP000 1
agr agramo NCMN000 1
colas cola NCFP000 1
a a SPS00 0.99585
los el DA0MP0 0.97623
campesinos campesino NCMP000 0.5
sin sin SPS00 1
politizaci politizaci RG 0.751648
n n NCFS000 1
partidaria partidario AQ0FS0 0.657236
La la NP00000 1
poblaci poblaci VMIS1S0 0.0691907
n n NCFS000 1
tambi tambi AQ0CN0 1
n n NCFS000 1
se se P00CN000 0.465602
ala ala NCFS000 0.961441
en en SPS00 1
las el DA0FP0 0.97051
encuetas encuetas NCFP000 1
algunas alguno DI0FP0 0.758065
deudas deuda NCFP000 1
pendientes pendiente AQ0CP0 0.111111
tales tal DD0CP0 0.880952
como como CS 0.998579
la el DA0FS0 0.972146
falta falta NCFS000 0.693182
de de SPS00 0.999919
combate combate NCMS000 0.75
a a SPS00 0.99585
la el DA0FS0 0.972146
delincuencia delincuencia NCFS000 1
a_pesar_de a_pesar_de SPS00 1
el el DA0MS0 1
impacto impacto NCMS000 0.973497
positivo positivo AQ0MS0 0.875
de de SPS00 0.999919
la el DA0FS0 0.972146
tregua tregua NCFS000 1
entre entre SPS00 0.995223
pandillas pandilla NCFP000 1
que que PR0CN000 0.5625
ha haber VAIP3S0 0.998141
bajado bajar VMP00SM 1
los el DA0MP0 0.97623
homicidios homicidio NCMP000 1
y y CC 0.999812
que que CS 0.4375
la el DA0FS0 0.972146
oposici oposici AQ0CS0 0.0199855
n n NCFS000 1
no no RN 0.99778
le le PP3CSD00 1
da dar VMIP3S0 0.983871
credibilidad credibilidad NCFS000 1
la el DA0FS0 0.972146
situaci situaci AQ0CS0 0.0199855
n n NCFS000 1
econ econ NCMS000 1
mica mica NCFS000 1
particularmente particularmente RG 1
el el DA0MS0 1
tema tema NCMS000 0.953125
de de SPS00 0.999919
la el DA0FS0 0.972146
pobreza pobreza NCFS000 1
y y CC 0.999812
el el DA0MS0 1
desempleo desempleo NCMS000 1
siguen seguir VMIP3P0 1
generando generar VMG0000 1
dudas duda NCFP000 0.9375
en en SPS00 1
su su DP3CS0 1
soluci soluci AQ0CS0 0.0199855
n n NCFS000 1
y y CC 0.999812
se se P00CN000 0.465602
percibe percibir VMIP3S0 0.994868
como como CS 0.998579
una uno DI0FS0 0.951241
deuda deuda NCFS000 1
de de SPS00 0.999919
la el DA0FS0 0.972146
actual actual AQ0CS0 1
gesti gesti NCMS000 1
n n NCFS000 1
gubernamental gubernamental AQ0CS0 1
La la NP00000 1
derecha derecha NCFS000 0.735294
partidaria partidario AQ0FS0 0.657236
aglutinada aglutinar VMP00SF 1
en en SPS00 1
ARENA arena NP00000 1
y y CC 0.999812
la el DA0FS0 0.972146
empresarial empresarial AQ0CS0 1
aglutinada aglutinar VMP00SF 1
en en SPS00 1
la el DA0FS0 0.972146
ANEP anep NP00000 1
y y CC 0.999812
FUSADES fusades NP00000 1
hacen hacer VMIP3P0 1
sus su DP3CP0 0.998462
propias propio AQ0FP0 1
valoraciones valoración NCFP000 1
en en SPS00 1
las el DA0FP0 0.97051
que que PR0CN000 0.5625
se se P00CN000 0.465602
alan alan NCMN000 1
fracasos fracaso NCMP000 1
y y CC 0.999812
retrocesos retroceso NCMP000 1
adem adem NCMS000 1
s segundo NCMN000 0.622321
manifiestan manifestar VMIP3P0 1
que que CS 0.4375
hay haber VMIP3S0 1
bajos bajo AQ0MP0 0.833333
niveles nivel NCMP000 0.75
de de SPS00 0.999919
cumplimiento cumplimiento NCMS000 1
de de SPS00 0.999919
las el DA0FP0 0.97051
promesas promesa NCFP000 1
y y CC 0.999812
apuestas apuesta NCFP000 0.687584
de de SPS00 1
el el DA0MS0 1
Gobierno_Para gobierno_para NP00000 1
el el DA0MS0 1
caso caso NCMS000 0.990741
FUSADES fusades NP00000 1
plantea plantear VMIP3S0 0.994868
que que CS 0.4375
las el DA0FP0 0.97051
apuestas apuesto AQ0FP0 0.305369
estrat estrat NCMS000 1
gicas gicas AQ0FP0 1
delineadas delinear VMP00PF 1
por por SPS00 1
el el DA0MS0 1
gobierno gobierno NCMS000 0.9
presentan presentar VMIP3P0 1
muy muy RG 1
pocos poco DI0MP0 0.583333
avances avance NCMP000 0.75
y y CC 0.999812
a_manera_de a_manera_de SPS00 1
ejemplo ejemplo NCMS000 1
destacan destacar VMIP3P0 1
el el DA0MS0 1
aletargado aletargar VMP00SM 1
proceso proceso NCMS000 0.973684
de de SPS00 0.999919
concesi concesi RG 1
n n NCFS000 1
de de SPS00 1
el el DA0MS0 1
puerto puerto NCMS000 1
de de SPS00 0.999919
La_Uni la_uni NP00000 1
n n NCFS000 1
de de SPS00 0.999919
la el DA0FS0 0.972146
construcci construcci AQ0CS0 0.0199855
n n NCFS000 1
de de SPS00 0.999919
la el DA0FS0 0.972146
presa presa NCFS000 0.875
hidroel hidroel NCMS000 0.567351
ctrica ctrica AQ0FS0 1
El_Chaparral el_chaparral NP00000 1
de de SPS00 0.999919
la el DA0FS0 0.972146
modernizaci modernizaci AQ0CS0 0.0199855
n n NCFS000 1
y y CC 0.999812
ampliaci ampliaci RG 0.751648
n n NCFS000 1
de de SPS00 1
el el DA0MS0 1
Aeropuerto_Internacional aeropuerto_internacional NP00000 1
e y CC 0.973684
incluso incluso RG 0.988095
de de SPS00 1
el el DA0MS0 1
Sistema_Integrado_de_Transporte sistema_integrado_de_transporte NP00000 1
de de SPS00 1
el el DA0MS0 1
rea reo NCFS000 0.592721
Metropolitana_de_San_Salvador_SITRAMSS metropolitana_de_san_salvador_sitramss NP00000 1
obviamente obviamente RG 1
estos este DD0MP0 0.990566
empresarios empresario NCMP000 1
est est NCMS000 1
n n NCFS000 1
en en SPS00 1
campa campar VMIP3S0 0.994867
a a SPS00 0.99585
a_favor_de a_favor_de SPS00 1
el el DA0MS0 1
partido partido NCMS000 0.886364
ARENA arena NP00000 1
son ser VSIP3P0 0.986772
su su DP3CS0 1
tanque tanque NCMS000 1
de de SPS00 0.999919
pensamiento pensamiento NCMS000 1
por por SPS00 1
tanto tanto RG 0.857895
no no RN 0.99778
es ser VSIP3S0 1
extra extra AQ0CS0 0.357298
o o CC 0.998845
que que CS 0.4375
hagan hacer VMSP3P0 0.875
tales tal DD0CP0 0.880952
aseveraciones aseveración NCFP000 1
y y CC 0.999812
valoraciones valoración NCFP000 1
Pero pero NP00000 1
adem adem NCMS000 1
s segundo NCMN000 0.622321
de de SPS00 0.999919
las el DA0FP0 0.97051
cr cr NCMS000 1
ticas ticas AQ0FP0 0.760898
de de SPS00 0.999919
FUSADES fusades NP00000 1
reconoce reconocer VMIP3S0 0.75
la el DA0FS0 0.972146
finalizaci finalizaci AQ0CS0 0.0199855
n n NCFS000 1
de de SPS00 0.999919
obras obra NCFP000 0.9375
iniciadas iniciar VMP00PF 0.691735
por por SPS00 1
la el DA0FS0 0.972146
administraci administraci AQ0CS0 0.0199855
n n NCFS000 1
anterior anterior AQ0CS0 1
como como CS 0.998579
el el DA0MS0 1
proyecto proyecto NCMS000 0.9375
Fomilenio fomilenio NP00000 1
financiado financiar VMP00SM 1
por por SPS00 1
EE_UU_En ee_uu_en NP00000 1
la el DA0FS0 0.972146
zona zona NCFS000 1
norte norte NCMS000 1
de de SPS00 1
el el DA0MS0 1
pa pa NCFS000 0.740689
s segundo NCMN000 0.622321
la el DA0FS0 0.972146
finalizaci finalizaci AQ0CS0 0.0199855
n n NCFS000 1
de de SPS00 1
el el DA0MS0 1
bulevar bulevar NCMS000 1
Diego_de_Holgu diego_de_holgu NP00000 1
n n NCFS000 1
hoy hoy RG 0.877358
llamado llamar VMP00SM 0.973684
Monse monse NP00000 1
or or NCMS000 0.655771
Romero romero NP00000 1
y y CC 0.999812
la el DA0FS0 0.972146
renovaci renovaci AQ0CS0 0.0199855
n n NCFS000 1
de de SPS00 0.999919
la el DA0FS0 0.972146
carretera carretera NCFS000 0.5
de de SPS00 0.999919
Los_Chorros los_chorros NP00000 1
en en SPS00 1
el el DA0MS0 1
aspecto aspecto NCMS000 1
econ econ NCMS000 1
mico mico NCMS000 1
un uno DI0MS0 0.986987
logro logro NCMS000 0.75
importante importante AQ0CS0 1
y y CC 0.999812
adem adem NCMS000 1
s segundo NCMN000 0.622321
novedoso novedoso AQ0MS0 1
en en SPS00 1
su su DP3CS0 1
dise dise NCFS000 0.99146
o o CC 0.998845
aunque aunque CC 1
puede poder VMIP3S0 0.995614
ser ser VSN0000 0.93883
problem problem NCMS000 1
tica tica AQ0FS0 0.595788
la el DA0FS0 0.972146
creaci creaci RG 0.751648
n n NCFS000 1
de de SPS00 1
el el DA0MS0 1
Sistema_Financiero_para_el_Fomento sistema_financiero_para_el_fomento NP00000 1
a a SPS00 1
el el DA0MS0 1
Desarrollo desarrollo NP00000 1
que que CS 0.4375
entr entr VMN0000 0.633986
en en SPS00 1
vigor vigor NCMS000 1
en en SPS00 1
mayo_de_2012 [??:??/5/2012:??.??:??] W 1
a_fines_de a_fines_de SPS00 1
el el DA0MS0 1
tercer 3 AO0MS0 1
a a SPS00 0.99585
o o CC 0.998845
de de SPS00 0.999919
gesti gesti NCMS000 1
n n NCFS000 1
de de SPS00 1
el el DA0MS0 1
actual actual AQ0CS0 1
gobierno gobierno NCMS000 0.9
Sus sus NP00000 1
instrumentos instrumento NCMP000 1
principales principal AQ0CP0 0.875
el el DA0MS0 1
Banco_de_Desarrollo_BANDESAL_el_Fondo_de_Desarrollo_Econ banco_de_desarrollo_bandesal_el_fondo_de_desarrollo_econ NP00000 1
mico mico NCMS000 1
FDE fde NP00000 1
y y CC 0.999812
el el DA0MS0 1
Fondo_Salvadore fondo_salvadore NP00000 1
o o CC 0.998845
de de SPS00 0.999919
Garant garant NP00000 1
as as NCMS000 1
FSG fsg NP00000 1
comenzaron comenzar VMIS3P0 1
a a SPS00 0.99585
operar operar VMN0000 1
durante durante SPS00 1
el el DA0MS0 1
cuarto cuarto NCMS000 0.641026
a a SPS00 0.99585
o o CC 0.998845
de de SPS00 0.999919
gobierno gobierno NCMS000 0.9
con con SPS00 1
un uno DI0MS0 0.986987
patrimonio patrimonio NCMS000 1
de de SPS00 0.999919
283_millones 283000000 Zd 1
y y CC 0.999812
supuestamente supuestamente RG 1
han haber VAIP3P0 1
otorgado otorgar VMP00SM 1
ya ya RG 0.996988
unos uno DI0MP0 0.879032
20 20 Z 1
000 0 Z 1
cr cr NCMS000 1
ditos ditos NCFS000 0.65
productivos productivo AQ0MP0 1
a a SPS00 0.99585
peque peque NCCS000 0.618697
os os PP2CP000 0.722222
y y CC 0.999812
medianos mediano AQ0MP0 0.965
empresarios empresario NCMP000 1
de de SPS00 0.999919
diversos diverso AQ0MP0 1
sectores sector NCMP000 1
econ econ NCMS000 1
micos mico NCMP000 1
Samayoa samayoa NP00000 1
2013 2013 Z 1
Para_el_FMLN para_el_fmln NP00000 1
los el DA0MP0 0.97623
logros logro NCMP000 1
alcanzados alcanzar VMP00PM 1
por por SPS00 1
el el DA0MS0 1
actual actual AQ0CS0 1
gobierno gobierno NCMS000 0.9
en en SPS00 1
su su DP3CS0 1
cuarto cuarto NCMS000 0.641026
a a SPS00 0.99585
o o CC 0.998845
de de SPS00 0.999919
gesti gesti NCMS000 1
n n NCFS000 1
se se P00CN000 0.465602
pueden poder VMIP3P0 1
sintetizar sintetizar VMN0000 1
en en SPS00 1
los el DA0MP0 0.97623
siguientes siguiente AQ0CP0 1
aspectos aspecto NCMP000 1
en en SPS00 1
educaci educaci RG 0.751648
n n NCFS000 1
zapatos zapato NCMP000 1
uniformes uniforme AQ0CP0 0.685714
y y CC 0.999812
tiles tiles AQ0CP0 0.555497
escolares escolar NCMP000 0.25
alfabetizaci alfabetizaci AQ0CS0 0.0199855
n n NCFS000 1
de de SPS00 0.999919
adultos adulto NCMP000 0.916667
en en SPS00 1
el el DA0MS0 1
rea reo NCFS000 0.592721
de de SPS00 0.999919
salud salud NCFS000 1
fin fin NCMS000 1
de de SPS00 0.999919
cuotas cuota NCFP000 1
en en SPS00 1
los el DA0MP0 0.97623
hospitales hospital NCMP000 1
y y CC 0.999812
medicinas medicina NCFP000 0.75
hasta hasta SPS00 0.955172
el el DA0MS0 1
60_m LN_m:60 Zu 1
s segundo NCMN000 0.622321
barata barato AQ0FS0 0.75
en en SPS00 1
obras obra NCFP000 0.9375
publicas publicar VMIP2S0 1
carreteras carretera NCFP000 0.5
modernas moderno AQ0FP0 0.833333
como como CS 0.998579
la el DA0FS0 0.972146
de de SPS00 0.999919
los el DA0MP0 0.97623
chorros chorro NCMP000 1
y y CC 0.999812
el el DA0MS0 1
bulevar bulevar NCMS000 1
monse monse AQ0CS0 0.333328
or or NCMS000 0.655771
Romero romero NP00000 1
obras obra NCFP000 0.9375
de de SPS00 0.999919
protecci protecci RG 0.751648
n n NCFS000 1
en en SPS00 1
c c NCFS000 1
rcavas rcavas AQ0FP0 0.672234
y y CC 0.999812
r r NCFS000 0.638487
os o NCFP000 0.222222
en en SPS00 1
econom econom NCMS000 0.500053
a a SPS00 0.99585
cr cr NCMS000 1
ditos ditos NCFS000 0.65
agrarios agrario AQ0MP0 1
t t NCFS000 1
tulos tulos NCMP000 1
de de SPS00 0.999919
propiedad propiedad NCFS000 1
agraria agrario AQ0FS0 1
en en SPS00 1
lo el DA0NS0 0.457393
social social AQ0CS0 0.977273
ciudad ciudad NCFS000 1
mujer mujer NCFS000 0.959459
como como CS 0.998579
proyecto proyecto NCMS000 0.9375
estrella estrella NCFS000 0.916667
pensi pensi RG 1
n n NCFS000 1
b b NCFS000 1
sica sica AQ0FS0 0.478446
para para SPS00 0.998507
adultos adulto NCMP000 0.916667
mayores mayor AQ0CP0 0.8125
y y CC 0.999812
en en SPS00 1
lo el DA0NS0 0.457393
pol pol NCMS000 0.861706
tico tico AQ0MS0 0.806828
el el DA0MS0 1
voto voto NCMS000 0.973468
desde desde SPS00 1
el el DA0MS0 1
exterior exterior NCMS000 0.3125
y y CC 0.999812
ley ley NCFS000 1
de de SPS00 0.999919
protecci protecci RG 0.751648
n n NCFS000 1
a a SPS00 1
el el DA0MS0 1
migrante migrante AQ0CS0 1
entre entre SPS00 0.995223
lo el DA0NS0 0.457393
que que PR0CN000 0.5625
m m NCFS000 0.5
s segundo NCMN000 0.622321
sobresale sobresalir VMIP3S0 1
El el NP00000 1
d d NCFS000 1
a a SPS00 0.99585
primero 1 AO0MS0 0.613333
de de SPS00 0.999919
junio [??:??/6/??:??.??:??] W 1
en en SPS00 1
presidente presidente NCMS000 1
Funes funes NP00000 1
ha haber VAIP3S0 0.998141
dicho decir VMP00SM 0.958333
ante ante SPS00 0.990566
el el DA0MS0 1
pleno pleno NCMS000 0.166667
de de SPS00 0.999919
la el DA0FS0 0.972146
Asamblea asamblea NP00000 1
legislativa legislativo AQ0FS0 1
en en SPS00 1
el el DA0MS0 1
marco marco NCMS000 0.9
de de SPS00 0.999919
su su DP3CS0 1
rendici rendici AQ0CS0 0.0199855
n n NCFS000 1
de de SPS00 0.999919
cuentas cuenta NCFP000 0.673497
en en SPS00 1
su su DP3CS0 1
cuarto cuarto NCMS000 0.641026
a a SPS00 0.99585
o o CC 0.998845
de de SPS00 0.999919
gobierno gobierno NCMS000 0.9
que que PR0CN000 0.5625
durante durante SPS00 1
su su DP3CS0 1
gesti gesti NCMS000 1
n n NCFS000 1
se se P00CN000 0.465602
ha haber VAIP3S0 0.998141
dejado dejar VMP00SM 1
atr atr VMN0000 0.633986
s segundo NCMN000 0.622321
el el DA0MS0 1
modelo modelo NCCS000 0.973684
olig olig RG 0.14318
rquico rquico AQ0MS0 0.811875
y y CC 0.999812
de de SPS00 0.999919
exclusi exclusi RG 1
n n NCFS000 1
que que CS 0.4375
predomin predomin NCMS000 0.499936
en en SPS00 1
el el DA0MS0 1
pasado pasado NCMS000 0.352273
Ante ante NP00000 1
el el DA0MS0 1
paso paso NCMS000 0.89
de de SPS00 0.999919
un uno DI0MS0 0.986987
modelo modelo NCCS000 0.973684
olig olig RG 0.14318
rquico rquico AQ0MS0 0.811875
se se P00CN000 0.465602
ha haber VAIP3S0 0.998141
abierto abrir VMP00SM 1
un uno DI0MS0 0.986987
proceso proceso NCMS000 0.973684
de de SPS00 0.999919
cambio cambio NCMS000 0.97619
cultural cultural AQ0CS0 1
en en SPS00 1
lo el DA0NS0 0.457393
relativo relativo NCMS000 0.166667
en en SPS00 1
la el DA0FS0 0.972146
conciencia conciencia NCFS000 0.958333
de de SPS00 1
el el DA0MS0 1
pueblo pueblo NCMS000 0.978261
sobre sobre SPS00 0.994203
sus su DP3CP0 0.998462
derechos derecho NCMP000 0.9
y y CC 0.999812
el el DA0MS0 1
tipo tipo NCMS000 1
de de SPS00 0.999919
gobierno gobierno NCMS000 0.9
que que PR0CN000 0.5625
desea desear VMIP3S0 0.833333
Rodr rodr NP00000 1
gez gez RG 0.208241
2013 2013 Z 1
Funes funes NP00000 1
dijo decir VMIS3S0 1
ademas adema NCFP000 0.973483
que que CS 0.4375
como como CS 0.998579
parte parte NCFS000 0.497967
de de SPS00 1
el el DA0MS0 1
cambio cambio NCMS000 0.97619
social social AQ0CS0 0.977273
impulsado impulsar VMP00SM 1
en en SPS00 1
su su DP3CS0 1
gesti gesti NCMS000 1
n n NCFS000 1
la el DA0FS0 0.972146
masiva masivo AQ0FS0 1
entrega entrega NCFS000 0.266667
de de SPS00 0.999919
decenas decena NCFP000 1
de de SPS00 0.999919
miles mil NCMP000 1
de de SPS00 0.999919
t t NCFS000 1
tulos tulos NCMP000 1
de de SPS00 0.999919
propiedad propiedad NCFS000 1
a a SPS00 0.99585
familias familia NCFP000 1
campesinas campesino AQ0FP0 0.380366
algo algo PI0CS000 0.896341
que que PR0CN000 0.5625
dijo decir VMIS3S0 1
han haber VAIP3P0 1
debido deber VMP00SM 1
esperar esperar VMN0000 1
se se P00CN000 0.465602
ores orar VMSP2S0 1
de de SPS00 0.999919
ARENA arena NP00000 1
hasta hasta SPS00 0.955172
20 20 Z 1
a a SPS00 0.99585
os o NCFP000 0.222222
para para SPS00 0.998507
que que PR0CN000 0.5625
se se P00CN000 0.465602
les le PP3CPD00 1
reconociera reconocer VMSI3S0 0.649991
el el DA0MS0 1
derecho derecho NCMS000 0.884615
a a SPS00 0.99585
la el DA0FS0 0.972146
propiedad propiedad NCFS000 1
Esto esto NP00000 1
por_supuesto por_supuesto RG 1
a a SPS00 0.99585
la el DA0FS0 0.972146
bancada bancada NCFS000 1
de de SPS00 0.999919
ARENA arena NP00000 1
no no RN 0.99778
le le PP3CSD00 1
parece parecer VMIP3S0 0.9875
ya_que ya_que CS 1
en en SPS00 1
la el DA0FS0 0.972146
visi visi NCMS000 1
n n NCFS000 1
de de SPS00 0.999919
ellos ellos PP3MP000 1
son ser VSIP3P0 0.986772
cuatro 4 Z 1
a a SPS00 0.99585
os o NCFP000 0.222222
de de SPS00 0.999919
retroceso retroceso NCMS000 1
pero pero CC 0.998821
para para SPS00 0.998507
la el DA0FS0 0.972146
gente gente NCFS000 1
de de SPS00 0.999919
m m NCFS000 0.5
s segundo NCMN000 0.622321
escasos escaso AQ0MP0 1
recurso recurso NCMS000 1
esto este PD0NS000 1
es ser VSIP3S0 1
un uno DI0MS0 0.986987
gran gran AQ0CS0 1
cambio cambio NCMS000 0.97619
Otro otro NP00000 1
aspecto aspecto NCMS000 1
que que PR0CN000 0.5625
destaco destacar VMIP1S0 1
en en SPS00 1
su su DP3CS0 1
discurso discurso NCMS000 0.75
a a SPS00 0.99585
la el DA0FS0 0.972146
asamblea asamblea NCFS000 1
el el DA0MS0 1
presidente presidente NCMS000 1
Funes funes NP00000 1
es ser VSIP3S0 1
lo el DA0NS0 0.457393
relacionado relacionar VMP00SM 1
con con SPS00 1
las el DA0FP0 0.97051
mujeres mujer NCFP000 1
a a SPS00 1
el el DA0MS0 1
respecto respecto NCMS000 0.75
sostuvo sostener VMIS3S0 1
que que CS 0.4375
La la NP00000 1
mujer mujer NCFS000 0.959459
ha haber VAIP3S0 0.998141
tenido tener VMP00SM 1
un uno DI0MS0 0.986987
rol rol NCMS000 1
importante importante AQ0CS0 1
en en SPS00 1
la el DA0FS0 0.972146
sociedad sociedad NCFS000 1
ning ning NCMS000 0.833333
n n NCFS000 1
gobierno gobierno NCMS000 0.9
anterior anterior AQ0CS0 1
hab hab NCMS000 0.63631
a a SPS00 0.99585
tomado tomar VMP00SM 1
en en SPS00 1
cuenta cuenta NCFS000 0.765152
el el DA0MS0 1
verdadero verdadero AQ0MS0 1
problema problema NCMS000 1
de de SPS00 0.999919
la el DA0FS0 0.972146
mujer mujer NCFS000 0.959459
La la NP00000 1
mujer mujer NCFS000 0.959459
ha haber VAIP3S0 0.998141
sido ser VSP00SM 1
sometida someter VMP00SF 1
a a SPS00 1
el el DA0MS0 1
machismo machismo NCMS000 1
ha haber VAIP3S0 0.998141
sido ser VSP00SM 1
violada violar VMP00SF 0.691739
golpeada golpear VMP00SF 1
discriminada discriminar VMP00SF 1
pero pero CC 0.998821
eso ese PD0NS000 1
ha haber VAIP3S0 0.998141
empezado empezar VMP00SM 1
a a SPS00 0.99585
cambiar cambiar VMN0000 1
Para para NP00000 1
el el DA0MS0 1
caso caso NCMS000 0.990741
ejemplifico ejemplificar VMIP1S0 1
que que CS 0.4375
con con SPS00 1
la el DA0FS0 0.972146
construcci construcci AQ0CS0 0.0199855
n n NCFS000 1
de de SPS00 0.999919
las el DA0FP0 0.97051
cuatro 4 Z 1
cedes ceder VMIP2S0 1
de de SPS00 0.999919
Ciudad_Mujer ciudad_mujer NP00000 1
se se P00CN000 0.465602
ha haber VAIP3S0 0.998141
logrado lograr VMP00SM 1
una uno DI0FS0 0.951241
atenci atenci AQ0CS0 0.0199855
n n NCFS000 1
de de SPS00 0.999919
por_lo_menos por_lo_menos RG 1
200_mil 200000 Z 1
mujeres mujer NCFP000 1
y y CC 0.999812
400_mil 400000 Z 1
servicios servicio NCMP000 1
prestados prestar VMP00PM 1
a a SPS00 0.99585
las el DA0FP0 0.97051
usuarias usuario NCFP000 0.342736
de de SPS00 0.999919
este este DD0MS0 0.956743
que que PR0CN000 0.5625
es ser VSIP3S0 1
uno uno PI0MS000 0.964744
de de SPS00 0.999919
los el DA0MP0 0.97623
proyectos proyecto NCMP000 1
insignias insignia NCFP000 1
de de SPS00 0.999919
la el DA0FS0 0.972146
administraci administraci AQ0CS0 0.0199855
n n NCFS000 1
Funes funes NP00000 1
y y CC 0.999812
adem adem NCMS000 1
s segundo NCMN000 0.622321
afirm afirm NCMS000 0.700265
que que CS 0.4375
en en SPS00 1
los el DA0MP0 0.97623
pr pr NCMS000 0.224371
ximos ximos AQ0MP0 1
meses mes NCMP000 0.964286
finalizar finalizar VMN0000 1
la el DA0FS0 0.972146
construcci construcci AQ0CS0 0.0199855
n n NCFS000 1
de de SPS00 0.999919
dos 2 Z 0.988722
cedes ceder VMIP2S0 1
m m NCFS000 0.5
s segundo NCMN000 0.622321
una uno DI0FS0 0.951241
en en SPS00 1
Moraz moraz NP00000 1
n n NCFS000 1
y y CC 0.999812
la el DA0FS0 0.972146
otra otro PI0FS000 0.198864
en en SPS00 1
San_Miguel_En_cuanto_a san_miguel_en_cuanto_a NP00000 1
el el DA0MS0 1
tema tema NCMS000 0.953125
de de SPS00 0.999919
seguridad seguridad NCFS000 1
p p NCFS000 0.5
blica blica AQ0FS0 1
a_pesar_de a_pesar_de SPS00 1
las el DA0FP0 0.97051
fuertes fuerte AQ0CP0 0.916667
criticas criticar VMIP2S0 1
de de SPS00 0.999919
la el DA0FS0 0.972146
oposici oposici AQ0CS0 0.0199855
n n NCFS000 1
y y CC 0.999812
de de SPS00 0.999919
buena bueno AQ0FS0 1
parte parte NCFS000 0.497967
de de SPS00 0.999919
la el DA0FS0 0.972146
ciudadan ciudadan VMIP3P0 0.790742
a a SPS00 0.99585
en en SPS00 1
las el DA0FP0 0.97051
encuestas encuesta NCFP000 0.973497
el el DA0MS0 1
presidente presidente NCMS000 1
sostuvo sostener VMIS3S0 1
que que CS 0.4375
el el DA0MS0 1
programa programa NCMS000 0.866667
de de SPS00 0.999919
seguridad seguridad NCFS000 1
de de SPS00 0.999919
su su DP3CS0 1
gobierno gobierno NCMS000 0.9
con con SPS00 1
el el DA0MS0 1
que que PR0CN000 0.5625
El_Salvador el_salvador NP00000 1
sali sali AQ0CS0 0.5
de de SPS00 0.999919
la el DA0FS0 0.972146
lista lista NCFS000 0.125
de de SPS00 0.999919
los el DA0MP0 0.97623
pa pa NCFS000 0.740689
ses ses AQ0CP0 0.068278
m m NCFS000 0.5
s segundo NCMN000 0.622321
violentos violento AQ0MP0 1
de de SPS00 1
el el DA0MS0 1
mundo mundo NCMS000 1
en en SPS00 1
la el DA0FS0 0.972146
que que PR0CN000 0.5625
ocupaba ocupar VMII3S0 0.65
el el DA0MS0 1
segundo 2 AO0MS0 0.742424
lugar lugar NCMS000 1
con con SPS00 1
70 70 Z 1
homicidios homicidio NCMP000 1
diarios diario AQ0MP0 0.25
Ahora ahora NP00000 1
seg segundo NCMN000 1
n n NCFS000 1
el el DA0MS0 1
presidente presidente NCMS000 1
hay haber VMIP3S0 1
una uno DI0FS0 0.951241
reducci reducci AQ0CS0 0.0199855
n n NCFS000 1
de de SPS00 1
el el DA0MS0 1
52 52 Z 1
de de SPS00 0.999919
homicidios homicidio NCMP000 1
en en SPS00 1
todo todo DI0MS0 0.559816
el el DA0MS0 1
pa pa NCFS000 0.740689
s segundo NCMN000 0.622321
En en NP00000 1
el el DA0MS0 1
mismo mismo AQ0MS0 0.961905
orden orden NCMS000 0.6
de de SPS00 0.999919
la el DA0FS0 0.972146
seguridad seguridad NCFS000 1
Funes funes NP00000 1
anunci anunci VMIS1S0 0.0691907
que que CS 0.4375
crear crear VMN0000 1
una uno DI0FS0 0.951241
fuerza fuerza NCFS000 0.968254
especial especial AQ0CS0 1
llamada llamar VMP00SF 0.875
Grupo_Especial_Anti grupo_especial_anti NP00000 1
extorsiones extorsión NCFP000 0.995706
GEA gea NP00000 1
constituido constituir VMP00SM 1
sobre sobre SPS00 0.994203
la el DA0FS0 0.972146
base base NCCS000 0.955882
de de SPS00 0.999919
la el DA0FS0 0.972146
actual actual AQ0CS0 1
plataforma plataforma NCFS000 1
creada crear VMP00SF 1
en en SPS00 1
la el DA0FS0 0.972146
polic polic NCFS000 1
a a SPS00 0.99585
Continuando continuando NP00000 1
con con SPS00 1
la el DA0FS0 0.972146
din din NCMN000 1
mica mica NCFS000 1
de de SPS00 0.999919
la el DA0FS0 0.972146
cooperaci cooperaci AQ0CS0 0.0199855
n n NCFS000 1
entre entre SPS00 0.995223
la el DA0FS0 0.972146
polic polic NCFS000 1
a a SPS00 0.99585
y y CC 0.999812
la el DA0FS0 0.972146
Fuerza_Armada fuerza_armada NP00000 1
en en SPS00 1
tareas tarea NCFP000 1
de de SPS00 0.999919
anti anti AQ0CN0 1
delincuenciales delincuencial AQ0CP0 1
Funes funes NP00000 1
detall detall AQ0CS0 0.587402
que que PR0CN000 0.5625
el el DA0MS0 1
GEA gea NP00000 1
contar contar VMN0000 1
inicialmente inicialmente RG 1
con con SPS00 1
mil 1000 Z 0.928571
efectivos efectivo NCMP000 0.54266
500 500 Z 1
polic polic NCFS000 1
as as NCMS000 1
y y CC 0.999812
500 500 Z 1
efectivos efectivo NCMP000 0.54266
militares militar AQ0CP0 0.541667
Otra otra NP00000 1
novedad novedad NCFS000 1
de de SPS00 1
el el DA0MS0 1
presidente presidente NCMS000 1
Funes funes NP00000 1
en en SPS00 1
su su DP3CS0 1
discurso discurso NCMS000 0.75
de de SPS00 0.999919
cuatro 4 Z 1
a a SPS00 0.99585
os o NCFP000 0.222222
de de SPS00 0.999919
gesti gesti NCMS000 1
n n NCFS000 1
es ser VSIP3S0 1
que que CS 0.4375
con con SPS00 1
el el DA0MS0 1
objetivo objetivo NCMS000 0.761905
de de SPS00 0.999919
mejorar mejorar VMN0000 1
el el DA0MS0 1
desempe desempe VMIP3S0 1
o o CC 0.998845
de de SPS00 1
el el DA0MS0 1
Estado estado NP00000 1
en en SPS00 1
la el DA0FS0 0.972146
aplicaci aplicaci AQ0CS0 0.0199855
n n NCFS000 1
de de SPS00 0.999919
las el DA0FP0 0.97051
pol pol NCMS000 0.861706
ticas ticas AQ0FP0 0.760898
sociales social AQ0CP0 0.9375
y y CC 0.999812
a a SPS00 0.99585
la el DA0FS0 0.972146
luz luz NCFS000 1
de de SPS00 0.999919
la el DA0FS0 0.972146
nueva nuevo AQ0FS0 0.977273
legislaci legislaci NCMS000 0.0996348
n n NCFS000 1
de de SPS00 0.999919
Protecci protecci NP00000 1
n n NCFS000 1
Social_Universal social_universal NP00000 1
ha haber VAIP3S0 0.998141
resuelto resolver VMP00SM 1
la el DA0FS0 0.972146
creaci creaci AQ0CS0 0.0199855
n n NCFS000 1
de de SPS00 1
el el DA0MS0 1
Ministerio_de_Desarrollo_Humano ministerio_de_desarrollo_humano NP00000 1
y y CC 0.999812
Social_Este social_este NP00000 1
nuevo nuevo AQ0MS0 1
ministerio ministerio NCMS000 1
dijo decir VMIS3S0 1
el el DA0MS0 1
mandatario mandatario NCMS000 1
centralizar centralizar VMN0000 1
funciones función NCFP000 0.916667
de de SPS00 0.999919
varias varios DI0FP0 0.939394
entidades entidad NCFP000 1
hoy hoy RG 0.877358
dispersas disperso AQ0FP0 0.605369
disminuir disminuir VMN0000 1
sensiblemente sensiblemente RG 1
la el DA0FS0 0.972146
burocracia burocracia NCFS000 1
y y CC 0.999812
los el DA0MP0 0.97623
costos costo NCMP000 1
de de SPS00 0.999919
aplicaci aplicaci RG 0.751648
n n NCFS000 1
de de SPS00 0.999919
los el DA0MP0 0.97623
programas programa NCMP000 0.9
Un uno DI0MS0 0.986987
aspecto aspecto NCMS000 1
importante importante AQ0CS0 1
de de SPS00 0.999919
destacar destacar VMN0000 1
en en SPS00 1
el el DA0MS0 1
discurso discurso NCMS000 0.75
de de SPS00 0.999919
Funes funes NP00000 1
es ser VSIP3S0 1
que que CS 0.4375
cuando cuando CS 0.983796
dijo decir VMIS3S0 1
en en SPS00 1
El_Salvador el_salvador NP00000 1
ahora ahora RG 1
se se P00CN000 0.465602
reconoce reconocer VMIP3S0 0.75
en en SPS00 1
todo todo DI0MS0 0.559816
ser ser VSN0000 0.93883
humano humano AQ0MS0 0.964912
cualquiera cualquiera PI0CS000 0.863636
sea ser VSSP1S0 0.485714
su su DP3CS0 1
condici condici AQ0CS0 0.0199855
n n NCFS000 1
social social AQ0CS0 0.977273
un uno DI0MS0 0.986987
sujeto sujeto NCMS000 0.666667
de de SPS00 0.999919
derecho derecho NCMS000 0.884615
y y CC 0.999812
ello ello PD0NS000 1
obliga obligar VMIP3S0 0.75
a a SPS00 1
el el DA0MS0 1
Estado estado NP00000 1
a a SPS00 0.99585
garantizar garantizar VMN0000 1
el el DA0MS0 1
ejercicio ejercicio NCMS000 1
de de SPS00 0.999919
ese ese DD0MS0 0.98125
derecho derecho NCMS000 0.884615
C c NP00000 1
rdenas rdenas NCFP000 1
2013 2013 Z 1
En en NP00000 1
la el DA0FS0 0.972146
parte parte NCFS000 0.497967
educativa educativo AQ0FS0 1
destaco destacar VMIP1S0 1
que que CS 0.4375
Hemos hemos NP00000 1
beneficiado beneficiar VMP00SM 0.25
con con SPS00 1
nuestro nuestro DP1MSP 0.933333
exitoso exitoso AQ0MS0 1
programa programa NCMS000 0.866667
de de SPS00 0.999919
entrega entrega NCFS000 0.266667
de de SPS00 0.999919
tiles tiles NCMP000 0.444503
uniformes uniforme AQ0CP0 0.685714
y y CC 0.999812
zapatos zapato NCMP000 1
de de SPS00 0.999919
forma forma NCFS000 0.960317
gratuita gratuito AQ0FS0 1
a_cerca_de a_cerca_de SPS00 1
un uno DI0MS0 0.986987
mill mill AQ0CS0 0.587402
n n NCFS000 1
300_mil 300000 Z 1
estudiantes estudiante NCCP000 0.875
a a SPS00 0.99585
nivel nivel NCMS000 1
nacional nacional AQ0CS0 1
manifest manifest NCMS000 1
A_el_tiempo_que a_el_tiempo_que NP00000 1
agreg agreg NCMS000 0.714133
que que PR0CN000 0.5625
son ser VSIP3P0 0.986772
un uno DI0MS0 0.986987
aproximado aproximar VMP00SM 1
de de SPS00 0.999919
5_mil 5000 Z 1
peque peque NCCS000 0.618697
os os PP2CP000 0.722222
y y CC 0.999812
medianos mediano AQ0MP0 0.965
empresarios empresario NCMP000 1
los el DA0MP0 0.97623
que que PR0CN000 0.5625
han haber VAIP3P0 1
surgido surgir VMP00SM 1
a a SPS00 0.99585
ra ra AQ0FS0 0.109878
z z NCFS000 1
de de SPS00 1
el el DA0MS0 1
programa programa NCMS000 0.866667
exitoso exitoso AQ0MS0 1
que que PR0CN000 0.5625
lleva llevar VMIP3S0 0.975
ya ya RG 0.996988
cuatro 4 Z 1
a a SPS00 0.99585
os os PP2CP000 0.722222
a_el_igual_que al_igual_que CS 1
con con SPS00 1
el el DA0MS0 1
programa programa NCMS000 0.866667
de de SPS00 0.999919
Alimentaci alimentaci NP00000 1
n n NCFS000 1
Escolar escolar NP00000 1
y y CC 0.999812
Vaso_de_Leche vaso_de_leche NP00000 1
con con SPS00 1
el el DA0MS0 1
que que PR0CN000 0.5625
se se P00CN000 0.465602
est est NCMS000 1
beneficiando beneficiar VMG0000 1
a a SPS00 0.99585
un uno DI0MS0 0.986987
poco poco DI0MS0 0.126016
m m NCFS000 0.5
s segundo NCMN000 0.622321
de de SPS00 0.999919
2_mil_400 2400 Z 1
ganaderos ganadero NCMP000 0.34285
de de SPS00 0.999919
todo todo DI0MS0 0.559816
el el DA0MS0 1
pa pa NCFS000 0.740689
s segundo NCMN000 0.622321
En en NP00000 1
la el DA0FS0 0.972146
salud salud NCFS000 1
seg segundo NCMN000 1
n n NCFS000 1
el el DA0MS0 1
presidente presidente NCMS000 1
Funes funes NP00000 1
es ser VSIP3S0 1
de de SPS00 0.999919
recordar recordar VMN0000 1
lo el DA0NS0 0.457393
siguiente siguiente AQ0CS0 1
que que CS 0.4375
el el DA0MS0 1
aparato aparato NCMS000 1
sanitario sanitario AQ0MS0 0.6072
de de SPS00 1
el el DA0MS0 1
pa pa NCFS000 0.740689
s segundo NCMN000 0.622321
estaba estar VAII1S0 0.5
en en SPS00 1
franco franco AQ0MS0 0.5
estado estado NCMS000 0.662162
de de SPS00 0.999919
deterioro deterioro NCMS000 0.875
fruto fruto NCMS000 1
de de SPS00 0.999919
que que CS 0.4375
durante durante SPS00 1
mucho mucho DI0MS0 0.275362
tiempo tiempo NCMS000 1
fue ser VSIS3S0 0.932292
abandonado abandonar VMP00SM 1
y y CC 0.999812
hasta hasta RG 0.0448276
se se P00CN000 0.465602
intent intent NCMS000 0.607342
avanzar avanzar VMN0000 1
en en SPS00 1
la el DA0FS0 0.972146
privatizaci privatizaci AQ0CS0 0.0199855
n n NCFS000 1
de de SPS00 0.999919
la el DA0FS0 0.972146
salud salud NCFS000 1
lo el DA0NS0 0.457393
que que PR0CN000 0.5625
fue ser VSIS3S0 0.932292
impedido impedir VMP00SM 0.75
por por SPS00 1
la el DA0FS0 0.972146
oposici oposici AQ0CS0 0.0199855
n n NCFS000 1
de de SPS00 0.999919
diversas diverso AQ0FP0 1
organizaciones organización NCFP000 1
populares popular AQ0CP0 1
En en NP00000 1
la lo PP3FSA00 0.0277626
transformaci transformaci VMIS1S0 0.0691907
n n NCFS000 1
de de SPS00 1
el el DA0MS0 1
sistema sistema NCMS000 1
de de SPS00 0.999919
salud salud NCFS000 1
el el DA0MS0 1
primer 1 AO0MS0 1
paso paso NCMS000 0.89
que que PR0CN000 0.5625
se se P00CN000 0.465602
dio dar VMIS3S0 1
fue ser VSIS3S0 0.932292
eliminar eliminar VMN0000 1
las el DA0FP0 0.97051
llamadas llamar VMP00PF 0.75
cuotas cuota NCFP000 1
voluntarias voluntario AQ0FP0 0.65724
que que PR0CN000 0.5625
eran ser VSII3P0 0.963415
seg segundo NCMN000 1
n n NCFS000 1
Funes funes NP00000 1
una uno DI0FS0 0.951241
suerte suerte NCFS000 1
de de SPS00 0.999919
impuesto impuesto NCMS000 0.5
que que PR0CN000 0.5625
se se P00CN000 0.465602
cobraba cobrar VMII3S0 0.649995
a a SPS00 0.99585
los el DA0MP0 0.97623
pobres pobre NCCP000 0.625
para para SPS00 0.998507
su su DP3CS0 1
acceso acceso NCMS000 1
a a SPS00 0.99585
los el DA0MP0 0.97623
servicios servicio NCMP000 1
de de SPS00 0.999919
la el DA0FS0 0.972146
salud salud NCFS000 1
p p NCFS000 0.5
blica blica AQ0FS0 1
En en NP00000 1
el el DA0MS0 1
2010 2010 Z 1
se se P00CN000 0.465602
inicia iniciar VMIP3S0 0.994868
la el DA0FS0 0.972146
Reforma_de_Salud reforma_de_salud NP00000 1
m m NCFS000 0.5
s segundo NCMN000 0.622321
trascendente trascendente AQ0CS0 1
de de SPS00 0.999919
nuestra nuestro DP1FSP 0.892857
historia historia NCFS000 1
reciente reciente AQ0CS0 0.925
con con SPS00 1
el el DA0MS0 1
fin fin NCMS000 1
de de SPS00 0.999919
garantizar garantizar VMN0000 1
a a SPS00 0.99585
las el DA0FP0 0.97051
grandes grande NCCP000 0.05
mayor mayor AQ0CS0 0.989796
as as NCMS000 1
el el DA0MS0 1
derecho derecho NCMS000 0.884615
a a SPS00 0.99585
la el DA0FS0 0.972146
salud salud NCFS000 1
y y CC 0.999812
el el DA0MS0 1
acceso acceso NCMS000 1
universal universal AQ0CS0 0.9375
a a SPS00 0.99585
la el DA0FS0 0.972146
misma mismo AQ0FS0 0.916667
A a NP00000 1
cuatro 4 Z 1
a a SPS00 0.99585
os o NCFP000 0.222222
de de SPS00 0.999919
gesti gesti NCMS000 1
n n NCFS000 1
y y CC 0.999812
a a SPS00 0.99585
tres 3 Z 1
de de SPS00 0.999919
haber haber VAN0000 0.744444
iniciado iniciar VMP00SM 0.75
la el DA0FS0 0.972146
reforma reforma NCFS000 0.866667
de de SPS00 0.999919
salud salud NCFS000 1
hoy hoy RG 0.877358
se se P00CN000 0.465602
cuenta contar VMIP3S0 0.219697
con con SPS00 1
517 517 Z 1
Equipos_Comunitarios_de_Salud equipos_comunitarios_de_salud NP00000 1
los el DA0MP0 0.97623
llamados llamar VMP00PM 0.9375
ECOS ecos NP00000 1
de de SPS00 0.999919
los el DA0MP0 0.97623
que que PR0CN000 0.5625
36 36 Z 1
cuentan contar VMIP3P0 1
con con SPS00 1
personal personal NCMS000 0.289474
especializado especializar VMP00SM 1
M m NP00000 1
dicos do NCMP00D 1
enfermeras enfermero NCFP000 1
promotores promotor AQ0MP0 0.35727
llegan llegar VMIP3P0 1
ahora ahora RG 1
a a SPS00 0.99585
los el DA0MP0 0.97623
caser caser NCMS000 0.85315
os o NCFP000 0.222222
y y CC 0.999812
cantones cantón NCMP000 0.995706
m m NCFS000 0.5
s segundo NCMN000 0.622321
alejados alejar VMP00PM 1
para para SPS00 0.998507
dar dar VMN0000 1
atenci atenci RG 0.751648
n n NCFS000 1
m m NCFS000 0.5
dica dica VMIP3S0 0.768885
vacunar vacunar VMN0000 1
y y CC 0.999812
realizar realizar VMN0000 1
tareas tarea NCFP000 1
de de SPS00 0.999919
prevenci prevenci RG 0.751648
n n NCFS000 1
de de SPS00 0.999919
la el DA0FS0 0.972146
salud salud NCFS000 1
En_menos_de en_menos_de NP00000 1
dos 2 Z 0.988722
a a SPS00 0.99585
os os PP2CP000 0.722222
1 1 Z 1
8_millones 8000000 Zd 1
de de SPS00 0.999919
salvadore salvadore VMSP3S0 1
os o NCFP000 0.222222
y y CC 0.999812
salvadore salvadore VMSP3S0 1
as as NCMS000 1
fueron ser VSIS3P0 0.796296
inscritos inscribir VMP00PM 1
en en SPS00 1
la el DA0FS0 0.972146
red red NCFS000 1
p p NCFS000 0.5
blica blica AQ0FS0 1
de de SPS00 0.999919
salud salud NCFS000 1
y y CC 0.999812
cuentan contar VMIP3P0 1
con con SPS00 1
su su DP3CS0 1
ficha ficha NCFS000 0.666667
m m NCFS000 0.5
dica dica VMIP3S0 0.768885
De de NP00000 1
acuerdo acuerdo NCMS000 0.958333
a a SPS00 1
el el DA0MS0 1
discurso discurso NCMS000 0.75
de de SPS00 0.999919
Funes funes NP00000 1
hoy hoy RG 0.877358
164 164 Z 1
municipios municipio NCMP000 1
incluidos incluir VMP00PM 1
los el DA0MP0 0.97623
cien_m LN_m:100 Zu 1
s segundo NCMN000 0.622321
pobres pobre AQ0CP0 0.375
de de SPS00 1
el el DA0MS0 1
pa pa NCFS000 0.740689
s segundo NCMN000 0.622321
tienen tener VMIP3P0 1
el el DA0MS0 1
100 100 Z 1
de de SPS00 0.999919
cobertura cobertura NCFS000 1
en en SPS00 1
salud salud NCFS000 1
y y CC 0.999812
el el DA0MS0 1
95 95 Z 1
de de SPS00 0.999919
la el DA0FS0 0.972146
poblaci poblaci AQ0CS0 0.0199855
n n NCFS000 1
tiene tener VMIP3S0 1
acceso acceso NCMS000 1
a a SPS00 0.99585
vacunas vacuna NCFP000 0.777778
pero pero CC 0.998821
adem adem NCMS000 1
s segundo NCMN000 0.622321
hay haber VMIP3S0 1
que que CS 0.4375
agregar agregar VMN0000 1
que que CS 0.4375
los el DA0MP0 0.97623
hospitales hospital NCMP000 1
p p NCFS000 0.5
blicos blicos AQ0MP0 1
de de SPS00 1
el el DA0MS0 1
pa pa NCFS000 0.740689
s segundo NCMN000 0.622321
tienen tener VMIP3P0 1
una uno DI0FS0 0.951241
cobertura cobertura NCFS000 1
en en SPS00 1
medicamentos medicamento NCMP000 1
de de SPS00 0.999919
un uno DI0MS0 0.986987
80 80 Z 1
promedio promedio NCMS000 0.973497
cuando cuando CS 0.983796
hace hacer VMIP3S0 1
4 4 Z 1
a a SPS00 0.99585
os os PP2CP000 0.722222
era ser VSII1S0 0.490859
apenas apenas RG 0.979167
de de SPS00 1
el el DA0MS0 1
40 40 Z 1
Y y NP00000 1
ahora ahora RG 1
el el DA0MS0 1
acceso acceso NCMS000 1
a a SPS00 0.99585
las el DA0FP0 0.97051
medicinas medicina NCFP000 0.75
con con SPS00 1
precios precio NCMP000 1
m m NCFS000 0.5
s segundo NCMN000 0.622321
bajos bajo AQ0MP0 0.833333
se se P00CN000 0.465602
ha haber VAIP3S0 0.998141
extendido extender VMP00SM 1
a a SPS00 0.99585
n n NCFS000 1
m m NCFS000 0.5
s segundo NCMN000 0.622321
con con SPS00 1
la el DA0FS0 0.972146
vigencia vigencia NCFS000 1
de de SPS00 0.999919
la el DA0FS0 0.972146
Ley_Nacional_de_Medicamentos ley_nacional_de_medicamentos NP00000 1
aprobada aprobar VMP00SF 1
por por SPS00 1
la el DA0FS0 0.972146
Honorable_Asamblea_Como honorable_asamblea_como NP00000 1
puede poder VMIP3S0 0.995614
ver ver VMN0000 1
se se PP3CN000 1
los el DA0MP0 0.97623
avances avance NCMP000 0.75
de de SPS00 0.999919
este este DD0MS0 0.956743
gobierno gobierno NCMS000 0.9
de de SPS00 1
el el DA0MS0 1
cambio cambio NCMS000 0.97619
que que PR0CN000 0.5625
preside presidir VMIP3S0 0.994868
Mauricio_Funes mauricio_funes NP00000 1
pero pero CC 0.998821
que que CS 0.4375
sin sin SPS00 1
el el DA0MS0 1
FMLN fmln NP00000 1
esto este PD0NS000 1
no no RN 0.99778
hubiese haber VMSI3S0 0.0952381
sido ser VSP00SM 1
posible posible AQ0CS0 1
y y CC 0.999812
la el DA0FS0 0.972146
voluntad voluntad NCFS000 1
de de SPS00 1
el el DA0MS0 1
pueblo pueblo NCMS000 0.978261
que que PR0CN000 0.5625
es ser VSIP3S0 1
determinante determinante AQ0CS0 0.25
hay haber VMIP3S0 1
un uno DI0MS0 0.986987
proceso proceso NCMS000 0.973684
de de SPS00 0.999919
transformaci transformaci RG 0.751648
n n NCFS000 1
social social AQ0CS0 0.977273
que que PR0CN000 0.5625
profundiza profundizar VMIP3S0 0.994868
en en SPS00 1
aspectos aspecto NCMP000 1
importantes importante AQ0CP0 1
antes antes RG 1
citados citar VMP00PM 1
pero pero CC 0.998821
que que PR0CN000 0.5625
todav todav VMIP3S0 0.0552772
a a SPS00 0.99585
es ser VSIP3S0 1
necesario necesario AQ0MS0 1
profundizar profundizar VMN0000 1
para para SPS00 0.998507
que que CS 0.4375
las el DA0FP0 0.97051
reformas reforma NCFP000 0.956832
implementadas implementar VMP00PF 1
contribuyan contribuir VMSP3P0 0.901254
a a SPS00 0.99585
superar superar VMN0000 1
la el DA0FS0 0.972146
historia historia NCFS000 1
de de SPS00 0.999919
exclusiones exclusión NCFP000 1
y y CC 0.999812
marginaci marginaci RG 0.751648
n n NCFS000 1
de de SPS00 0.999919
las el DA0FP0 0.97051
gestiones gestión NCFP000 0.995706
de de SPS00 0.999919
gobiernos gobierno NCMP000 1
anteriores anterior AQ0CP0 1
Los los NP00000 1
grandes grande AQ0CP0 0.95
desaf desaf I 1
os o NCFP000 0.222222
para para SPS00 0.998507
la el DA0FS0 0.972146
transformaci transformaci AQ0CS0 0.0199855
n n NCFS000 1
social social AQ0CS0 0.977273
de de SPS00 0.999919
el el DA0MS0 1
Salvador salvador NP00000 1
est est NCMS000 1
n n NCFS000 1
centrados centrar VMP00PM 0.691767
en en SPS00 1
bajar bajar VMN0000 1
los el DA0MP0 0.97623
niveles nivel NCMP000 0.75
de de SPS00 0.999919
pobreza pobreza NCFS000 1
de de SPS00 0.999919
desempleo desempleo NCMS000 1
y y CC 0.999812
de de SPS00 0.999919
delincuencia delincuencia NCFS000 1
que que PR0CN000 0.5625
vive vivir VMIP3S0 0.96875
la el DA0FS0 0.972146
sociedad sociedad NCFS000 1
salvadore salvadore VMSP3S0 1
a a SPS00 0.99585
esto este PD0NS000 1
no no RN 0.99778
es ser VSIP3S0 1
tarea tarea NCFS000 1
de de SPS00 0.999919
un uno DI0MS0 0.986987
solo solo AQ0MS0 0.930556
gobierno gobierno NCMS000 0.9
ni ni CC 0.995935
de de SPS00 0.999919
un uno DI0MS0 0.986987
solo solo AQ0MS0 0.930556
partido partido NCMS000 0.886364
pol pol NCMS000 0.861706
tico tico AQ0MS0 0.806828
no no RN 0.99778
de de SPS00 0.999919
la el DA0FS0 0.972146
empresa empresa NCFS000 1
privada privar VMP00SF 0.833333
en en SPS00 1
particular particular NCCS000 0.25
es ser VSIP3S0 1
un uno DI0MS0 0.986987
esfuerzo esfuerzo NCMS000 0.958333
de de SPS00 0.999919
la el DA0FS0 0.972146
sociedad sociedad NCFS000 1
en en SPS00 1
general general AQ0CS0 0.90625
pero pero CC 0.998821
de de SPS00 0.999919
manera manera NCFS000 1
coordinada coordinar VMP00SF 1
con con SPS00 1
el el DA0MS0 1
estado estado NCMS000 0.662162
y y CC 0.999812
el el DA0MS0 1
gobierno gobierno NCMS000 0.9
e y CC 0.973684
incluso incluso RG 0.988095
con con SPS00 1
apoyo apoyo NCMS000 0.928571
internacional internacional AQ0CS0 0.833333
Por por NP00000 1
su su DP3CS0 1
parte parte NCFS000 0.497967
scar scar VMN0000 1
Ortiz ortiz NP00000 1
alcalde alcalde NCMS000 1
de de SPS00 0.999919
Santa_Tecla santa_tecla NP00000 1
y y CC 0.999812
candidato candidato NCMS000 1
a a SPS00 0.99585
la el DA0FS0 0.972146
vicepresidencia vicepresidencia NCFS000 1
de de SPS00 1
el el DA0MS0 1
FMLN fmln NP00000 1
para para SPS00 0.998507
las el DA0FP0 0.97051
elecciones elección NCFP000 1
de de SPS00 1
el el DA0MS0 1
2014 2014 Z 1
dijo decir VMIS3S0 1
que que CS 0.4375
el el DA0MS0 1
actual actual AQ0CS0 1
Gobierno gobierno NP00000 1
ha haber VAIP3S0 0.998141
mejorado mejorar VMP00SM 1
las el DA0FP0 0.97051
condiciones condición NCFP000 0.958333
de de SPS00 0.999919
vida vida NCFS000 1
de de SPS00 0.999919
los el DA0MP0 0.97623
sectores sector NCMP000 1
que que CS 0.4375
por por SPS00 1
20 20 Z 1
a a SPS00 0.99585
os os PP2CP000 0.722222
fueron ser VSIS3P0 0.796296
olvidados olvidar VMP00PM 1
por por SPS00 1
el el DA0MS0 1
partido partido NCMS000 0.886364
ARENA_A arena_a NP00000 1
el el DA0MS0 1
llegar llegar VMN0000 1
a a SPS00 0.99585
la el DA0FS0 0.972146
presidencia presidencia NCFS000 1
nosotros nosotros PP1MP000 1
atacaremos atacar VMIF1P0 1
de de SPS00 0.999919
frente_a frente_a SPS00 1
la el DA0FS0 0.972146
pobreza pobreza NCFS000 1
la el DA0FS0 0.972146
desigualdad desigualdad NCFS000 1
y y CC 0.999812
la el DA0FS0 0.972146
exclusi exclusi RG 1
n n NCFS000 1
El el NP00000 1
nico nico AQ0MS0 0.470565
partido partido NCMS000 0.886364
que que PR0CN000 0.5625
garantiza garantizar VMIP3S0 0.875
la el DA0FS0 0.972146
continuidad continuidad NCFS000 1
de de SPS00 0.999919
los el DA0MP0 0.97623
cambios cambio NCMP000 1
es ser VSIP3S0 1
el el DA0MS0 1
FMLN_Segura fmln_segura NP00000 1
2013 2013 Z 1
Finalmente finalmente NP00000 1
hay haber VMIP3S0 1
que que CS 0.4375
decir decir VMN0000 0.987805
una uno DI0FS0 0.951241
vez vez NCFS000 1
m m NCFS000 0.5
s segundo NCMN000 0.622321
que que PR0CN000 0.5625
este este DD0MS0 0.956743
gobierno gobierno NCMS000 0.9
ha haber VAIP3S0 0.998141
avanzado avanzar VMP00SM 1
mucho mucho RG 0.699275
pero pero CC 0.998821
que que PR0CN000 0.5625
falta faltar VMIP3S0 0.284091
mucho mucho RG 0.699275
por por SPS00 1
hacer hacer VMN0000 1
no no RN 0.99778
hay haber VMIP3S0 1
duda duda NCFS000 0.666667
que que CS 0.4375
en en SPS00 1
cuatro 4 Z 1
a a SPS00 0.99585
os os PP2CP000 0.722222
se se P00CN000 0.465602
superan superar VMIP3P0 1
los el DA0MP0 0.97623
20 20 Z 1
a a SPS00 0.99585
os os PP2CP000 0.722222
de de SPS00 0.999919
ARENA arena NP00000 1
que que PR0CN000 0.5625
profundizaron profundizar VMIS3P0 1
la el DA0FS0 0.972146
pobreza pobreza NCFS000 1
el el DA0MS0 1
desempleo desempleo NCMS000 1
la el DA0FS0 0.972146
delincuencia delincuencia NCFS000 1
la el DA0FS0 0.972146
deuda deuda NCFS000 1
externa externo AQ0FS0 0.833333
la el DA0FS0 0.972146
corrupci corrupci RG 0.751648
n n NCFS000 1
la el DA0FS0 0.972146
exclusi exclusi RG 1
n n NCFS000 1
y y CC 0.999812
marginaci marginaci RG 0.751648
n n NCFS000 1
de de SPS00 0.999919
los el DA0MP0 0.97623
pobres pobre NCCP000 0.625
de de SPS00 0.999919
los el DA0MP0 0.97623
m m NCFS000 0.5
s segundo NCMN000 0.622321
pobres pobre AQ0CP0 0.375
que que PR0CN000 0.5625
privatizaron privatizar VMIS3P0 1
las el DA0FP0 0.97051
principales principal AQ0CP0 0.875
instituciones institución NCFP000 1
de de SPS00 1
el el DA0MS0 1
estado estado NCMS000 0.662162
dolarizaron dolarizaron VMIS3P0 1
la el DA0FS0 0.972146
econom econom NCMS000 0.500053
a a SPS00 0.99585
y y CC 0.999812
convirtieron convertir VMIS3P0 1
el el DA0MS0 1
salvador salvador NCMS000 0.514225
en en SPS00 1
una uno DI0FS0 0.951241
sociedad sociedad NCFS000 1
de de SPS00 0.999919
consumo consumo NCMS000 0.833333
Bibliograf bibliograf NP00000 1
a a SPS00 0.99585
Arriola_J_Q arriola_j_q NP00000 1
Jueves_23_de_Mayo_de_2013 [J:23/5/2013:??.??:??] W 1
insumisos insumiso AQ0MP0 1
com cometro NCMN000 0.65
Recuperado recuperado NP00000 1
el el DA0MS0 1
Jueves_23_de_Mayo_de_2013 [J:23/5/2013:??.??:??] W 1
de de SPS00 0.999919
insumisos insumiso AQ0MP0 1
com cometro NCMN000 0.65
http http NCMS000 1
// // Fz 1
www www NCFS000 0.159442
insumisos insumiso AQ0MP0 1
com cometro NCMN000 0.65
C c NP00000 1
rdenas rdenas NCFP000 1
L l NP00000 1
y y CC 0.999812
Viernes_1_de_Junio_de_2013 [V:1/6/2013:??.??:??] W 1
El_Salvador el_salvador NP00000 1
vive vivir VMIP3S0 0.96875
una uno DI0FS0 0.951241
profunda profundo AQ0FS0 0.666667
transformaci transformaci NCMS000 0.0996348
n n NCFS000 1
de de SPS00 0.999919
un uno DI0MS0 0.986987
modelo modelo NCCS000 0.973684
olig olig RG 0.14318
rquico rquico AQ0MS0 0.811875
a a SPS00 0.99585
un uno DI0MS0 0.986987
Gobierno gobierno NP00000 1
democr democr NCMS000 1
tico tico AQ0MS0 0.806828
Diario_Colatino_IUDOP diario_colatino_iudop NP00000 1
2013 2013 Z 1
Los los NP00000 1
salvadore salvadore VMSP3S0 1
os o NCFP000 0.222222
y y CC 0.999812
salvadore salvadore VMSP3S0 1
as as NCMS000 1
eval eval AQ0CS0 1
an an NCFS000 1
el el DA0MS0 1
cuarto cuarto NCMS000 0.641026
a a SPS00 0.99585
o o CC 0.998845
de de SPS00 0.999919
gobierno gobierno NCMS000 0.9
de de SPS00 0.999919
Mauricio_Funes_Bolet mauricio_funes_bolet NP00000 1
n n NCFS000 1
de de SPS00 0.999919
prensa prensa NCFS000 0.925926
A a NP00000 1
o o CC 0.998845
XXVII_No xxvii_no NP00000 1
1 1 Z 1
1 1 Z 1
16 16 Z 1
P p NP00000 1
gina gina NCFS000 0.666783
L l NP00000 1
Jueves_16_de_Mayo_de_2013 [J:16/5/2013:??.??:??] W 1
76 76 Z 1
de de SPS00 0.999919
los el DA0MP0 0.97623
salvadore salvadore VMSP3S0 1
os os PP2CP000 0.722222
aprueba aprobar VMIP3S0 0.994868
la el DA0FS0 0.972146
imagen imagen NCFS000 1
de de SPS00 0.999919
Funes_La funes_la NP00000 1
p p NCFS000 0.5
gina gina VMIP3S0 0.333217
Rodr rodr NP00000 1
gez gez NCFS000 0.749889
C c NP00000 1
Sabado_1_de_Junio_de_2013 [S:1/6/2013:??.??:??] W 1
Presidente presidente NP00000 1
fortalecer fortalecer VMN0000 1
rea reo NCFS000 0.592721
social social AQ0CS0 0.977273
en en SPS00 1
lo el DA0NS0 0.457393
que que PR0CN000 0.5625
resta restar VMIP3S0 0.166667
de de SPS00 0.999919
su su DP3CS0 1
mandato mandato NCMS000 1
La_P la_p NP00000 1
gina gina NCFS000 0.666783
Samayoa_S samayoa_s NP00000 1
Lunes_27_de_Mayo_de_2013 [L:27/5/2013:??.??:??] W 1
Cuarto cuarto NP00000 1
a a SPS00 0.99585
o o CC 0.998845
de de SPS00 0.999919
gobierno gobierno NCMS000 0.9
Lo lo NP00000 1
bueno bueno AQ0MS0 0.453125
obras obra NCFP000 0.9375
concluidas concluir VMP00PF 1
y y CC 0.999812
proyectos proyecto NCMP000 1
novedosos novedoso AQ0MP0 1
Diario_de_Hoy_Segura_B_S diario_de_hoy_segura_b_s NP00000 1
bado bado VMP00SM 0.818183
1_de_Mayo_de_2013 [??:1/5/2013:??.??:??] W 1
FMLN fmln NP00000 1
promete prometer VMIP3S0 0.75
la el DA0FS0 0.972146
continuidad continuidad NCFS000 1
de de SPS00 0.999919
los el DA0MP0 0.97623
cambios cambio NCMP000 1
sociales social AQ0CP0 0.9375
para para SPS00 0.998507
mejorar mejorar VMN0000 1
la el DA0FS0 0.972146
calidad calidad NCFS000 1
de de SPS00 0.999919
vida vida NCFS000 1
de de SPS00 0.999919
los el DA0MP0 0.97623
salvadore salvadore VMSP3S0 1
os os PP2CP000 0.722222
Diario_Colatino_Nelson_de_Jes diario_colatino_nelson_de_jes NP00000 1
s segundo NCMN000 0.622321
Quintanilla_G quintanilla_g NP00000 1
mez mez NCFS000 0.749889
es ser VSIP3S0 1
Soci soci NP00000 1
logo logo NCMS000 1
y y CC 0.999812
Diputado_Propietario_de_la_Asamblea_Legislativa_de_El_Salvador_por_el_Departamento_de_San_Miguel diputado_propietario_de_la_asamblea_legislativa_de_el_salvador_por_el_departamento_de_san_miguel NP00000 1
en en SPS00 1
representaci representaci RG 0.751648
n n NCFS000 1
de de SPS00 1
el el DA0MS0 1
FMLN fmln NP00000 1
periodo periodo NCMS000 1
2012 2012 Z 1
2015 2015 Z 1
Haga haga NP00000 1
click click NCMS000 0.50012
aqu aqu NCMS000 0.774439
para para SPS00 0.998507
recibir recibir VMN0000 1
gratis gratis RG 0.75
Argenpress argenpress NP00000 1
en en SPS00 1
su su DP3CS0 1
correo correo NCMS000 0.735623
electr electr AQ0CS0 0.0829965
nico no NCMS00D 0.522084

