El el DA0MS0 1
sector sector NCMS000 1
privado privar VMP00SM 0.875
alem alem NCMS000 1
n n NCFS000 1
crece crecer VMIP3S0 0.75
en_medio_de en_medio_de SPS00 1
recortes recorte NCMP000 0.995706
laborales laboral AQ0CP0 0.833333
La la NP00000 1
actividad actividad NCFS000 1
de de SPS00 1
el el DA0MS0 1
sector sector NCMS000 1
privado privar VMP00SM 0.875
alem alem NCMS000 1
n n NCFS000 1
creci creci RG 0.751648
en en SPS00 1
mayo [??:??/5/??:??.??:??] W 1
por por SPS00 1
encima_de encima_de SPS00 1
lo el DA0NS0 0.457393
esperado esperar VMP00SM 1
aunque aunque CC 1
en_medio_de en_medio_de SPS00 1
nuevos nuevo AQ0MP0 1
recortes recorte NCMP000 0.995706
laborales laboral AQ0CP0 0.833333
por por SPS00 1
parte parte NCFS000 0.497967
de de SPS00 0.999919
las el DA0FP0 0.97051
empresas empresa NCFP000 1
ante ante SPS00 0.990566
una uno DI0FS0 0.951241
reducci reducci AQ0CS0 0.0199855
n n NCFS000 1
en en SPS00 1
los el DA0MP0 0.97623
beneficios beneficio NCMP000 1
report report NCMS000 1
hoy hoy RG 0.877358
una uno DI0FS0 0.951241
fuente fuente NCFS000 1
especializada especializar VMP00SF 1
Acorde acorde NP00000 1
con con SPS00 1
la el DA0FS0 0.972146
consultora consultor NCFS000 0.483937
Markit markit NP00000 1
el el DA0MS0 1
ndice ndice NCMS000 1
compuesto componer VMP00SM 0.5
de de SPS00 0.999919
gerentes gerente NCCP000 1
de de SPS00 0.999919
compra compra NCFS000 0.541667
que que PR0CN000 0.5625
elabora elaborar VMIP3S0 0.994844
el el DA0MS0 1
cual cual PR0CS000 0.9
incluye incluir VMIP3S0 0.75
a a SPS00 1
el el DA0MS0 1
sector sector NCMS000 1
manufacturero manufacturero AQ0MS0 1
y y CC 0.999812
de de SPS00 0.999919
servicios servicio NCMP000 1
escal escal AQ0CS0 0.666747
hasta hasta SPS00 0.955172
los el DA0MP0 0.97623
50 50 Z 1
2 2 Z 1
puntos punto NCMP000 1
en en SPS00 1
el el DA0MS0 1
mes mes NCMS000 1
referido referir VMP00SM 1
frente_a frente_a SPS00 1
el el DA0MS0 1
49 49 Z 1
2 2 Z 1
marcado marcar VMP00SM 1
en en SPS00 1
abril [??:??/4/??:??.??:??] W 1
La la NP00000 1
cifra cifra NCFS000 0.799844
es ser VSIP3S0 1
superior superior AQ0CS0 0.964286
a a SPS00 0.99585
la el DA0FS0 0.972146
marca marca NCFS000 0.916667
de de SPS00 0.999919
los el DA0MP0 0.97623
50 50 Z 1
puntos punto NCMP000 1
que que PR0CN000 0.5625
separa separar VMIP3S0 0.75
el el DA0MS0 1
crecimiento crecimiento NCMS000 1
de de SPS00 0.999919
la el DA0FS0 0.972146
contracci contracci AQ0CS0 0.0199855
n n NCFS000 1
En en NP00000 1
tanto tanto DI0MS0 0.121053
analistas analista NCCP000 1
advierten advertir VMIP3P0 1
que que CS 0.4375
el el DA0MS0 1
desempleo desempleo NCMS000 1
de de SPS00 0.999919
larga largo AQ0FS0 0.75
duraci duraci NCMS000 0.0996348
n n NCFS000 1
se se P00CN000 0.465602
ha haber VAIP3S0 0.998141
convertido convertir VMP00SM 1
en en SPS00 1
un uno DI0MS0 0.986987
problema problema NCMS000 1
alarmante alarmante AQ0CS0 1
en en SPS00 1
Europa europa NP00000 1
marcada marcar VMP00SF 1
por por SPS00 1
una uno DI0FS0 0.951241
crisis crisis NCFN000 1
financiera financiero AQ0FS0 0.666667
y y CC 0.999812
econ econ NCMS000 1
mica mica NCFS000 1
que que PR0CN000 0.5625
cumple cumplir VMIP3S0 0.944444
ya ya RG 0.996988
cinco 5 Z 0.98
a a SPS00 0.99585
os os PP2CP000 0.722222
y y CC 0.999812
de de SPS00 0.999919
la el DA0FS0 0.972146
cual cual PR0CS000 0.9
no no RN 0.99778
est est NCMS000 1
exenta exento AQ0FS0 0.583356
Alemania_Haga alemania_haga NP00000 1
click click NCMS000 0.50012
aqu aqu NCMS000 0.774439
para para SPS00 0.998507
recibir recibir VMN0000 1
gratis gratis RG 0.75
Argenpress argenpress NP00000 1
en en SPS00 1
su su DP3CS0 1
correo correo NCMS000 0.735623
electr electr AQ0CS0 0.0829965
nico no NCMS00D 0.522084

