En en SPS00 1
huelga huelga NCFS000 0.916667
de de SPS00 0.999919
hambre hambre NCFS000 1
84 84 Z 1
reos reo NCMP000 0.75
en en SPS00 1
c c NCFS000 1
rcel rcel NCFS000 1
de de SPS00 0.999919
Estados_Unidos estados_unidos NP00000 1
en en SPS00 1
Guant guant NP00000 1
namo namo VMIP1S0 0.555481
M m NP00000 1
s segundo NCMN000 0.622321
de de SPS00 0.999919
la el DA0FS0 0.972146
mitad mitad NCFS000 1
de de SPS00 0.999919
los el DA0MP0 0.97623
detenidos detenido NCMP000 0.308233
en en SPS00 1
la el DA0FS0 0.972146
c c NCFS000 1
rcel rcel NCFS000 1
de de SPS00 0.999919
Estados_Unidos estados_unidos NP00000 1
en en SPS00 1
la el DA0FS0 0.972146
base base NCCS000 0.955882
naval naval AQ0CS0 1
de de SPS00 0.999919
Guant guant NP00000 1
namo namo VMIP1S0 0.555481
permanecen permanecer VMIP3P0 1
en en SPS00 1
huelga huelga NCFS000 0.916667
de de SPS00 0.999919
hambre hambre NCFS000 1
confirmaron confirmar VMIS3P0 1
hoy hoy RG 0.877358
autoridades autoridad NCFP000 1
militares militar AQ0CP0 0.541667
Desde desde NP00000 1
2002 2002 Z 1
la el DA0FS0 0.972146
Casa_Blanca casa_blanca NP00000 1
mantiene mantener VMIP3S0 1
un uno DI0MS0 0.986987
centro centro NCMS000 0.966667
de de SPS00 0.999919
internamiento internamiento NCMS000 1
en en SPS00 1
esa ese DD0FS0 0.978261
instalaci instalaci AQ0CS0 0.0199855
n n NCFS000 1
ubicada ubicar VMP00SF 1
en en SPS00 1
territorio territorio NCMS000 1
cubano cubano AQ0MS0 0.357352
contra contra SPS00 0.976316
la el DA0FS0 0.972146
voluntad voluntad NCFS000 1
de de SPS00 1
el el DA0MS0 1
pueblo pueblo NCMS000 0.978261
y y CC 0.999812
gobierno gobierno NCMS000 0.9
de de SPS00 0.999919
la el DA0FS0 0.972146
isla isla NCFS000 1
caribe caribe VMIP3S0 1
a a SPS00 0.99585
Un uno DI0MS0 0.986987
total total AQ0CS0 0.944444
de de SPS00 0.999919
84 84 Z 1
de de SPS00 0.999919
los el DA0MP0 0.97623
166 166 Z 1
prisioneros prisionero NCMP000 0.49273
siguen seguir VMIP3P0 1
sin sin SPS00 1
ingerir ingerir VMN0000 1
alimentos alimento NCMP000 1
en en SPS00 1
protesta protesta NCFS000 0.916667
por por SPS00 1
las el DA0FP0 0.97051
irregularidades irregularidad NCFP000 1
y y CC 0.999812
abusos abuso NCMP000 1
cometidos cometer VMP00PM 0.691767
en en SPS00 1
su su DP3CS0 1
contra contra NCFS000 0.00263158
y y CC 0.999812
las el DA0FP0 0.97051
condiciones condición NCFP000 0.958333
de de SPS00 0.999919
su su DP3CS0 1
detenci detenci AQ0CS0 0.0199855
n n NCFS000 1
durante durante SPS00 1
m m NCFS000 0.5
s segundo NCMN000 0.622321
de de SPS00 0.999919
una_d TM_d:1 Zu 1
cada cada DI0CS0 1
sin sin SPS00 1
que que PR0CN000 0.5625
se se P00CN000 0.465602
les le PP3CPD00 1
impute imputar VMSP3S0 0.610926
acusaci acusaci RG 0.751648
n n NCFS000 1
oficial oficial AQ0CS0 0.916667
alguna alguno DI0FS0 0.893939
a a SPS00 0.99585
la el DA0FS0 0.972146
mayor mayor AQ0CS0 0.989796
a a SPS00 0.99585
de de SPS00 0.999919
ellos ellos PP3MP000 1
Seg seg NP00000 1
n n NCFS000 1
las el DA0FP0 0.97051
autoridades autoridad NCFP000 1
castrenses castrense AQ0CP0 1
a a SPS00 0.99585
16 16 Z 1
de de SPS00 0.999919
los el DA0MP0 0.97623
reos reo NCMP000 0.75
se se P00CN000 0.465602
les le PP3CPD00 1
alimenta alimentar VMIP3S0 0.994868
de de SPS00 0.999919
manera manera NCFS000 1
forzosa forzoso AQ0FS0 1
y y CC 0.999812
otros otro DI0MP0 0.56875
cinco 5 Z 0.98
son ser VSIP3P0 0.986772
tratados tratar VMP00PM 0.75
en en SPS00 1
un uno DI0MS0 0.986987
centro centro NCMS000 0.966667
hospitalario hospitalario AQ0MS0 1
inform inform NCMS000 0.700265
la el DA0FS0 0.972146
cadena cadena NCFS000 1
televisiva televisivo AQ0FS0 1
CNN cnn NP00000 1
Uno uno PI0MS000 0.964744
de de SPS00 0.999919
los el DA0MP0 0.97623
abogados abogado NCMP000 0.833333
defensores defensor AQ0MP0 0.25
de de SPS00 0.999919
los el DA0MP0 0.97623
presos preso NCMP000 0.75
dijo decir VMIS3S0 1
este este DD0MS0 0.956743
lunes [L:??/??/??:??.??:??] W 1
que que PR0CN000 0.5625
resulta resultar VMIP3S0 0.964912
dif dif NCFS000 1
cil cil AQ0CS0 1
que que CS 0.4375
los el DA0MP0 0.97623
detenidos detenido NCMP000 0.308233
se se P00CN000 0.465602
mantengan mantener VMSP3P0 0.901254
tranquilos tranquilo AQ0MP0 1
ante ante SPS00 0.990566
la el DA0FS0 0.972146
falta falta NCFS000 0.693182
absoluta absoluto AQ0FS0 1
de de SPS00 0.999919
esperanza esperanza NCFS000 0.925926
de de SPS00 0.999919
que que CS 0.4375
cambien cambiar VMSP3P0 0.901254
las el DA0FP0 0.97051
condiciones condición NCFP000 0.958333
inhumanas inhumano AQ0FP0 1
que que PR0CN000 0.5625
sufren sufrir VMIP3P0 1
en en SPS00 1
ese ese DD0MS0 0.98125
centro centro NCMS000 0.966667
de de SPS00 0.999919
internamiento internamiento NCMS000 1
El el NP00000 1
ayuno ayuno NCMS000 0.687584
comenz comenz AQ0CS0 0.220278
el el DA0MS0 1
pasado_6_de_febrero [??:6/2/??:??.??:??] W 1
con con SPS00 1
seis 6 Z 1
prisioneros prisionero NCMP000 0.49273
pero pero CC 0.998821
se se P00CN000 0.465602
unieron unir VMIS3P0 1
m m NCFS000 0.5
s segundo NCMN000 0.622321
huelguistas huelguista NCCP000 1
que que PR0CN000 0.5625
rechazan rechazar VMIP3P0 1
medidas medida NCFP000 0.944444
como como CS 0.998579
el el DA0MS0 1
confinamiento confinamiento NCMS000 1
por por SPS00 1
tiempo tiempo NCMS000 1
indefinido indefinido AQ0MS0 0.357319
los el DA0MP0 0.97623
registros registro NCMP000 1
a a SPS00 0.99585
sus su DP3CP0 0.998462
pertenencias pertenencia NCFP000 1
y y CC 0.999812
confiscaci confiscaci RG 0.751648
n n NCFS000 1
de de SPS00 0.999919
copias copia NCFP000 0.973497
de de SPS00 1
el el DA0MS0 1
Cor cor NP00000 1
n n NCFS000 1
el el DA0MS0 1
libro libro NCMS000 0.986111
sagrado sagrado AQ0MS0 0.75
de de SPS00 0.999919
los el DA0MP0 0.97623
musulmanes musulmán NCMP000 0.64273
Tras tras NP00000 1
asumir asumir VMN0000 1
su su DP3CS0 1
primer 1 AO0MS0 1
mandato mandato NCMS000 1
en en SPS00 1
2009 2009 Z 1
el el DA0MS0 1
presidente presidente NCMS000 1
Barack_Obama barack_obama NP00000 1
firm firm NCMS000 0.700265
una uno DI0FS0 0.951241
orden orden NCMS000 0.6
ejecutiva ejecutivo AQ0FS0 0.657179
para para SPS00 0.998507
cerrar cerrar VMN0000 1
la el DA0FS0 0.972146
prisi prisi RG 1
n n NCFS000 1
de de SPS00 0.999919
Guant guant NP00000 1
namo namo VMIP1S0 0.555481
en_menos_de en_menos_de SPS00 1
un uno DI0MS0 0.986987
a a NCFS000 0.00415028
o o CC 0.998845
pero pero CC 0.998821
la el DA0FS0 0.972146
c c NCFS000 1
rcel rcel NCFS000 1
permanece permanecer VMIP3S0 0.875
en en SPS00 1
funciones función NCFP000 0.916667
Existen existen NP00000 1
numerosas numeroso AQ0FP0 1
denuncias denuncia NCFP000 0.75
sobre sobre SPS00 0.994203
el el DA0MS0 1
empleo empleo NCMS000 0.785714
de de SPS00 0.999919
t t NCFS000 1
cnicas cnicas NCFP000 1
crueles cruel AQ0CP0 1
en en SPS00 1
esa ese DD0FS0 0.978261
instalaci instalaci AQ0CS0 0.0199855
n n NCFS000 1
como como CS 0.998579
la el DA0FS0 0.972146
privaci privaci AQ0CS0 0.0199855
n n NCFS000 1
de de SPS00 1
el el DA0MS0 1
sue sue NCMS000 0.439656
o o CC 0.998845
encierros encierro NCMP000 1
de de SPS00 0.999919
los el DA0MP0 0.97623
prisioneros prisionero NCMP000 0.49273
desnudos desnudo AQ0MP0 1
en en SPS00 1
habitaciones habitación NCFP000 1
con con SPS00 1
bajas bajo AQ0FP0 0.777778
temperaturas temperatura NCFP000 1
e y CC 0.973684
interrogatorios interrogatorio NCMP000 1
extenuantes extenuantes AQ0CP0 0.355977
Haga haga NP00000 1
click click NCMS000 0.50012
aqu aqu NCMS000 0.774439
para para SPS00 0.998507
recibir recibir VMN0000 1
gratis gratis RG 0.75
Argenpress argenpress NP00000 1
en en SPS00 1
su su DP3CS0 1
correo correo NCMS000 0.735623
electr electr AQ0CS0 0.0829965
nico no NCMS00D 0.522084

