Irak irak NP00000 1
advierte advertir VMIP3S0 0.9
a a SPS00 0.99585
Europa europa NP00000 1
peligros peligro NCMP000 1
de de SPS00 0.999919
armar armar VMN0000 1
a a SPS00 0.99585
irregulares irregular AQ0CP0 1
en en SPS00 1
Siria_Armar siria_armar NP00000 1
a a SPS00 0.99585
los el DA0MP0 0.97623
grupos grupo NCMP000 1
irregulares irregular AQ0CP0 1
en en SPS00 1
Siria siria NP00000 1
significa significar VMIP3S0 0.958333
destruir destruir VMN0000 1
el el DA0MS0 1
pa pa NCFS000 0.740689
s segundo NCMN000 0.622321
y y CC 0.999812
desestabilizar desestabilizar VMN0000 1
a a SPS00 1
el el DA0MS0 1
Levante levante NP00000 1
advirti advirti NCMS000 1
hoy hoy RG 0.877358
el el DA0MS0 1
primer 1 AO0MS0 1
ministro ministro NCMS000 1
iraqu iraqu NCMS000 0.774439
Nuri nuri NP00000 1
a a SPS00 1
el el DA0MS0 1
Maliki maliki NP00000 1
a a SPS00 0.99585
la el DA0FS0 0.972146
jefa jefe NCFS000 1
de de SPS00 0.999919
Exteriores_de_la_Uni exteriores_de_la_uni NP00000 1
n n NCFS000 1
Europea_Uni europea_uni NP00000 1
n n NCFS000 1
Europea_Catherine_Ashton_Ashton europea_catherine_ashton_ashton NP00000 1
lleg lleg NCMS000 0.714133
de de SPS00 0.999919
manera manera NCFS000 1
sorpresiva sorpresivo AQ0FS0 1
a a SPS00 0.99585
Bagdad bagdad NP00000 1
para para SPS00 0.998507
discutir discutir VMN0000 1
la el DA0FS0 0.972146
cooperaci cooperaci AQ0CS0 0.0199855
n n NCFS000 1
y y CC 0.999812
la el DA0FS0 0.972146
coordinaci coordinaci AQ0CS0 0.0199855
n n NCFS000 1
de de SPS00 0.999919
Irak irak NP00000 1
y y CC 0.999812
la el DA0FS0 0.972146
Uni uni NP00000 1
n n NCFS000 1
Europea europea NP00000 1
y y CC 0.999812
de de SPS00 0.999919
inmediato inmediato AQ0MS0 1
se se P00CN000 0.465602
reuni reuni VMIS1S0 0.0691907
con con SPS00 1
a a SPS00 1
el el DA0MS0 1
Maliki maliki NP00000 1
en en SPS00 1
sus su DP3CP0 0.998462
oficinas oficina NCFP000 1
de de SPS00 0.999919
la el DA0FS0 0.972146
llamada llamada NCFS000 0.125
Zona_Verde zona_verde NP00000 1
acorde acorde NCMS000 0.642701
con con SPS00 1
un uno DI0MS0 0.986987
comunicado comunicado NCMS000 0.345763
oficial oficial AQ0CS0 0.916667
Conceptos conceptos NP00000 1
similares similar AQ0CP0 1
fueron ser VSIS3P0 0.796296
vertidos verter VMP00PM 0.25
este este DD0MS0 0.956743
lunes [L:??/??/??:??.??:??] W 1
por por SPS00 1
el el DA0MS0 1
presidente presidente NCMS000 1
sirio sirio AQ0MS0 0.357349
Bashar_A_el_Assad bashar_a_el_assad NP00000 1
en en SPS00 1
declaraciones declaración NCFP000 1
a a SPS00 0.99585
la el DA0FS0 0.972146
prensa prensa NCFS000 0.925926
A_el_Maliki a_el_maliki NP00000 1
asediado asediar VMP00SM 1
por por SPS00 1
una uno DI0FS0 0.951241
ola ola NCFS000 1
de de SPS00 0.999919
atentados atentado NCMP000 0.75
y y CC 0.999812
ataques ataque NCMP000 0.928571
contra contra SPS00 0.976316
el el DA0MS0 1
Ej ej NP00000 1
rcito rcito NCMS000 1
y y CC 0.999812
la el DA0FS0 0.972146
Polic polic NP00000 1
a a SPS00 0.99585
reivindicados reivindicar VMP00PM 1
por por SPS00 1
entidades entidad NCFP000 1
identificadas identificar VMP00PF 1
con con SPS00 1
los el DA0MP0 0.97623
grupos grupo NCMP000 1
armados armar VMP00PM 1
en en SPS00 1
Siria siria NP00000 1
insisti insisti NCMS000 1
en en SPS00 1
que que CS 0.4375
su su DP3CS0 1
pa pa NCFS000 0.740689
s segundo NCMN000 0.622321
apoya apoyar VMIP3S0 0.833333
una uno DI0FS0 0.951241
soluci soluci AQ0CS0 0.0199855
n n NCFS000 1
pol pol NCMS000 0.861706
tica tica AQ0FS0 0.595788
a a SPS00 0.99585
la el DA0FS0 0.972146
crisis crisis NCFN000 1
en en SPS00 1
su su DP3CS0 1
vecino vecino NCMS000 0.75
occidental occidental AQ0CS0 0.75
basada basar VMP00SF 0.833333
en en SPS00 1
el el DA0MS0 1
di dar VMIS1S0 0.833333
logo logo NCMS000 1
y y CC 0.999812
la el DA0FS0 0.972146
no no RN 0.99778
intervenci intervenci VMIS1S0 0.0691907
n n NCFS000 1
en en SPS00 1
los el DA0MP0 0.97623
asuntos asunto NCMP000 1
internos interno AQ0MP0 0.65719
El el NP00000 1
enunciado enunciado NCMS000 0.833333
oficial oficial AQ0CS0 0.916667
iraqu iraqu NCMS000 0.774439
choca chocar VMIP3S0 0.994868
con con SPS00 1
la el DA0FS0 0.972146
postura postura NCFS000 1
de de SPS00 0.999919
la el DA0FS0 0.972146
Uni uni NP00000 1
n n NCFS000 1
Europea europea NP00000 1
que que CS 0.4375
d d NCFS000 1
as as NCMS000 1
atr atr AQ0CS0 0.0829965
s segundo NCMN000 0.622321
levant levant NCMS000 0.607342
lo el DA0NS0 0.457393
que que PR0CN000 0.5625
denomina denominar VMIP3S0 0.75
embargo embargo NCMS000 0.973496
de de SPS00 0.999919
armas arma NCFP000 0.982759
a a SPS00 0.99585
Siria siria NP00000 1
y y CC 0.999812
anunci anunci RG 0.751648
que que CS 0.4375
proporcionar proporcionar VMN0000 1
apoyo apoyo NCMS000 0.928571
b b NCFS000 1
lico lico AQ0MS0 0.392198
a a SPS00 0.99585
los el DA0MP0 0.97623
grupos grupo NCMP000 1
antigubernamentales antigubernamental AQ0CP0 1
Semanas semanas NP00000 1
atr atr VMN0000 0.633986
s segundo NCMN000 0.622321
el el DA0MS0 1
Gobierno gobierno NP00000 1
iraqu iraqu NCMS000 0.774439
lanz lanz AQ0CS0 0.220278
una uno DI0FS0 0.951241
operaci operaci AQ0CS0 0.0199855
n n NCFS000 1
militar militar AQ0CS0 0.666667
en en SPS00 1
sus su DP3CP0 0.998462
fronteras frontera NCFP000 0.875
occidentales occidental AQ0CP0 0.75
para para SPS00 0.998507
impedir impedir VMN0000 1
el el DA0MS0 1
paso paso NCMS000 0.89
de de SPS00 0.999919
armas arma NCFP000 0.982759
y y CC 0.999812
hombres hombre NCMP000 1
para para SPS00 0.998507
los el DA0MP0 0.97623
irregulares irregular AQ0CP0 1
sirios sirio NCMP000 0.642674
La la NP00000 1
baronesa baronesa NCFS000 1
Ashton ashton NP00000 1
tiene tener VMIP3S0 1
programado programar VMP00SM 1
viajar viajar VMN0000 1
hoy hoy RG 0.877358
a a SPS00 0.99585
Egipto egipto NP00000 1
para para SPS00 0.998507
examinar examinar VMN0000 1
la el DA0FS0 0.972146
situaci situaci NCMS000 0.0996348
n n NCFS000 1
creada crear VMP00SF 1
por por SPS00 1
la el DA0FS0 0.972146
construcci construcci AQ0CS0 0.0199855
n n NCFS000 1
de de SPS00 0.999919
una uno DI0FS0 0.951241
represa represa NCFS000 0.818334
en en SPS00 1
Etiop etiop NP00000 1
a a SPS00 0.99585
que que PR0CN000 0.5625
ha haber VAIP3S0 0.998141
creado crear VMP00SM 1
un uno DI0MS0 0.986987
agudo agudo AQ0MS0 1
diferendo diferendo NCMS000 1
entre entre SPS00 0.995223
El_Cairo el_cairo NP00000 1
y y CC 0.999812
Adis_Abeba adis_abeba NP00000 1
y y CC 0.999812
la el DA0FS0 0.972146
postura postura NCFS000 1
egipcia egipcio AQ0FS0 0.75
respecto_a respecto_a SPS00 1
el el DA0MS0 1
conflicto conflicto NCMS000 1
interno interno AQ0MS0 0.777778
en en SPS00 1
Siria_El siria_el NP00000 1
s segundo NCMN000 0.622321
bado bado VMP00SM 0.818183
pasado pasar VMP00SM 0.647727
el el DA0MS0 1
presidente presidente NCMS000 1
egipcio egipcio AQ0MS0 0.376206
Mohamed_Morsi mohamed_morsi NP00000 1
anunci anunci VMIS1S0 0.0691907
la el DA0FS0 0.972146
ruptura ruptura NCFS000 1
de de SPS00 0.999919
relaciones relación NCFP000 0.944444
diplom diplom NCMS000 0.500053
ticas ticas AQ0FP0 0.760898
con con SPS00 1
Siria siria NP00000 1
durante durante SPS00 1
un uno DI0MS0 0.986987
acto acto NCMS000 1
de de SPS00 0.999919
apoyo apoyo NCMS000 0.928571
a a SPS00 0.99585
las el DA0FP0 0.97051
fuerzas fuerza NCFP000 0.954545
contrarias contrario AQ0FP0 0.657264
a a SPS00 1
el el DA0MS0 1
Gobierno gobierno NP00000 1
en en SPS00 1
Damasco damasco NP00000 1
durante durante SPS00 1
un uno DI0MS0 0.986987
acto acto NCMS000 1
en en SPS00 1
un uno DI0MS0 0.986987
estadio estadio NCMS000 1
en en SPS00 1
El_Cairo_Haga el_cairo_haga NP00000 1
click click NCMS000 0.50012
aqu aqu NCMS000 0.774439
para para SPS00 0.998507
recibir recibir VMN0000 1
gratis gratis RG 0.75
Argenpress argenpress NP00000 1
en en SPS00 1
su su DP3CS0 1
correo correo NCMS000 0.735623
electr electr AQ0CS0 0.0829965
nico no NCMS00D 0.522084

