Israel israel NP00000 1
expandir expandir VMN0000 1
asentamientos asentamiento NCMP000 1
Israel israel NP00000 1
proyecta proyectar VMIP3S0 0.75
construir construir VMN0000 1
cientos ciento NCMP000 1
de de SPS00 0.999919
nuevas nuevo AQ0FP0 0.961538
viviendas vivienda NCFP000 1
en en SPS00 1
una uno DI0FS0 0.951241
colonia colonia NCFS000 1
en en SPS00 1
el el DA0MS0 1
norte norte NCMS000 1
de de SPS00 0.999919
Cisjordania cisjordania NP00000 1
adem adem NCMS000 1
s segundo NCMN000 0.622321
de de SPS00 0.999919
la el DA0FS0 0.972146
construcci construcci AQ0CS0 0.0199855
n n NCFS000 1
de de SPS00 0.999919
unas uno DI0FP0 0.925926
538_m LN_m:538 Zu 1
s segundo NCMN000 0.622321
en en SPS00 1
el el DA0MS0 1
asentamiento asentamiento NCMS000 1
de de SPS00 0.999919
Itamar itamar NP00000 1
las el DA0FP0 0.97051
autoridades autoridad NCFP000 1
locales local AQ0CP0 0.25
recibieron recibir VMIS3P0 1
el el DA0MS0 1
pedido pedido NCMS000 0.25
para para SPS00 0.998507
legalizar legalizar VMN0000 1
otras otro DI0FP0 0.731481
137 137 Z 1
ya ya RG 0.996988
construidas construir VMP00PF 1
Lo lo NP00000 1
escribi escribi AQ0CN0 1
el el DA0MS0 1
Jerusalem_Post_Tambi jerusalem_post_tambi NP00000 1
n n NCFS000 1
el el DA0MS0 1
Hareetz hareetz NP00000 1
refiri refiri RG 0.83337
la el DA0FS0 0.972146
noticia noticia NCFS000 0.962963
a a SPS00 1
el el DA0MS0 1
afirmar afirmar VMN0000 1
que que PR0CN000 0.5625
son ser VSIP3P0 0.986772
537 537 Z 1
las el DA0FP0 0.97051
nuevas nuevo AQ0FP0 0.961538
unidades unidad NCFP000 1
inmobiliarias inmobiliario AQ0FP0 0.657264
con con SPS00 1
la el DA0FS0 0.972146
legalizaci legalizaci AQ0CS0 0.0199855
n n NCFS000 1
de de SPS00 0.999919
otras otro DI0FP0 0.731481
130 130 Z 1
Adem adem NP00000 1
s segundo NCMN000 0.622321
el el DA0MS0 1
Jerusalem_Post jerusalem_post NP00000 1
agreg agreg RG 0.14318
que que CS 0.4375
ser ser VSN0000 0.93883
examinada examinar VMP00SF 1
la el DA0FS0 0.972146
propuesta propuesta NCFS000 0.75
de de SPS00 0.999919
otras otro DI0FP0 0.731481
550 550 Z 1
viviendas vivienda NCFP000 1
nuevas nuevo AQ0FP0 0.961538
en en SPS00 1
Brunchin_El brunchin_el NP00000 1
tema tema NCMS000 0.953125
de de SPS00 0.999919
las el DA0FP0 0.97051
colonias colonia NCFP000 1
es ser VSIP3S0 1
uno uno PI0MS000 0.964744
de de SPS00 0.999919
los el DA0MP0 0.97623
principales principal AQ0CP0 0.875
temas tema NCMP000 0.625
de de SPS00 0.999919
choque choque NCMS000 0.8125
entre entre SPS00 0.995223
israel israel NCMS000 0.567351
es ser VSIP3S0 1
y y CC 0.999812
palestinos palestino NCMP000 0.64273
El el NP00000 1
secretario secretario NCMS000 1
de de SPS00 0.999919
Estado_de_Estados_Unidos_John_Kerry estado_de_estados_unidos_john_kerry NP00000 1
promueve promover VMIP3S0 0.994868
un uno DI0MS0 0.986987
relanzamiento relanzamiento NCMS000 1
de de SPS00 0.999919
las el DA0FP0 0.97051
negociaciones negociación NCFP000 1
de de SPS00 0.999919
paz paz NCFS000 1
entre entre SPS00 0.995223
las el DA0FP0 0.97051
partes parte NCFP000 0.495495
La la NP00000 1
misi misi RG 1
n n NCFS000 1
en en SPS00 1
la el DA0FS0 0.972146
regi regi AQ0CS0 0.0199855
n n NCFS000 1
fue ser VSIS3S0 0.932292
aplazada aplazar VMP00SF 1
por por SPS00 1
reuniones reunión NCFP000 1
en en SPS00 1
Washington washington NP00000 1
a a SPS00 0.99585
ra ra AQ0FS0 0.109878
z z NCFS000 1
de de SPS00 0.999919
la el DA0FS0 0.972146
crisis crisis NCFN000 1
en en SPS00 1
Siria_En siria_en NP00000 1
una uno DI0FS0 0.951241
llamada llamada NCFS000 0.125
de de SPS00 1
el el DA0MS0 1
31_de_mayo [??:31/5/??:??.??:??] W 1
pasado pasar VMP00SM 0.647727
a a SPS00 1
el el DA0MS0 1
premier premier NCCS000 1
israel israel NCMS000 0.567351
Benyamin_Netanyahu benyamin_netanyahu NP00000 1
y y CC 0.999812
a a SPS00 1
el el DA0MS0 1
presidente presidente NCMS000 1
de de SPS00 0.999919
la el DA0FS0 0.972146
Autoridad_Nacional_Palestina_Abu_Mazen_Kerry autoridad_nacional_palestina_abu_mazen_kerry NP00000 1
subray subray I 1
el el DA0MS0 1
desacuerdo desacuerdo NCMS000 0.973444
de de SPS00 0.999919
su su DP3CS0 1
pa pa NCFS000 0.740689
s segundo NCMN000 0.622321
en en SPS00 1
la el DA0FS0 0.972146
pol pol NCMS000 0.861706
tica tica AQ0FS0 0.595788
de de SPS00 0.999919
expansi expansi RG 1
n n NCFS000 1
de de SPS00 0.999919
Israel israel NP00000 1
Una uno DI0FS0 0.951241
pol pol NCMS000 0.861706
tica tica AQ0FS0 0.595788
que que PR0CN000 0.5625
dijo decir VMIS3S0 1
arriesga arriesgar VMIP3S0 0.988986
con con SPS00 1
volver volver VMN0000 1
vanos vano AQ0MP0 0.75
todos todo DI0MP0 0.622419
los el DA0MP0 0.97623
esfuerzos esfuerzo NCMP000 1
por por SPS00 1
la el DA0FS0 0.972146
paz paz NCFS000 1
Haga haga NP00000 1
click click NCMS000 0.50012
aqu aqu NCMS000 0.774439
para para SPS00 0.998507
recibir recibir VMN0000 1
gratis gratis RG 0.75
Argenpress argenpress NP00000 1
en en SPS00 1
su su DP3CS0 1
correo correo NCMS000 0.735623
electr electr AQ0CS0 0.0829965
nico no NCMS00D 0.522084

