La el DA0FS0 0.972146
impunidad impunidad NCFS000 1
de de SPS00 0.999919
los el DA0MP0 0.97623
delincuentes delincuente NCCP000 0.833333
econ econ NCMS000 1
micos mico NCMP000 1
de de SPS00 0.999919
las el DA0FP0 0.97051
clases clase NCFP000 1
dominantes dominante AQ0CP0 0.75
Qu qu NP00000 1
es ser VSIP3S0 1
mayor mayor AQ0CS0 0.989796
delito delito NCMS000 1
Asaltar_un_Banco asaltar_un_banco NP00000 1
o o CC 0.998845
fundar fundar VMN0000 1
un uno DI0MS0 0.986987
Banco_Bertold_Brecht_La banco_bertold_brecht_la NP00000 1
pera pera NCFS000 1
de de SPS00 0.999919
dos 2 Z 0.988722
centavos centavo NCMP000 0.64267
I_Mientras_que i_mientras_que NP00000 1
a a SPS00 1
el el DA0MS0 1
delincuente delincuente NCCS000 0.34273
contra contra SPS00 0.976316
la el DA0FS0 0.972146
propiedad propiedad NCFS000 1
suele soler VMIP3S0 0.925
consider consider VMN0000 0.630215
rselo rselo NCMS000 0.807346
un uno DI0MS0 0.986987
marginado marginar VMP00SM 1
y y CC 0.999812
como como CS 0.998579
un uno DI0MS0 0.986987
problema problema NCMS000 1
individual individual AQ0CS0 1
frente_a frente_a SPS00 1
el el DA0MS0 1
orden orden NCMS000 0.6
social social AQ0CS0 0.977273
el el DA0MS0 1
delincuente delincuente AQ0CS0 0.65727
econ econ NCMS000 1
mico mico NCMS000 1
por_el_contrario por_el_contrario RG 1
ni ni CC 0.995935
es ser VSIP3S0 1
marginado marginar VMP00SM 1
ni ni CC 0.995935
se se P00CN000 0.465602
enfrenta enfrentar VMIP3S0 0.75
individualmente individualmente RG 1
con con SPS00 1
el el DA0MS0 1
sistema sistema NCMS000 1
a a SPS00 1
el el DA0MS0 1
que que PR0CN000 0.5625
por por SPS00 1
otra otro DI0FS0 0.801136
parte parte NCFS000 0.497967
pertenece pertenecer VMIP3S0 0.875
pues pues CS 0.990385
en en SPS00 1
efecto efecto NCMS000 1
los el DA0MP0 0.97623
delincuentes delincuente NCCP000 0.833333
pertenecientes perteneciente AQ0CP0 1
a a SPS00 0.99585
grupos grupo NCMP000 1
socioecon socioecon NCMS000 1
micos mico NCMP000 1
superiores superior AQ0CP0 0.8125
no no RN 0.99778
son ser VSIP3P0 0.986772
ni_mucho_menos ni_mucho_menos RG 1
marginados marginar VMP00PM 1
sino sino CC 0.981707
aceptados aceptar VMP00PM 1
o o CC 0.998845
tolerados tolerar VMP00PM 1
L l NP00000 1
pez pez NCMS000 0.649732
Rey rey NP00000 1
y y CC 0.999812
Arrojo_Criminalidad arrojo_criminalidad NP00000 1
y y CC 0.999812
abuso abuso NCMS000 0.875
de de SPS00 0.999919
poder poder NCMS000 0.711538
Edit_Tecnos_Madrid_Sin edit_tecnos_madrid_sin NP00000 1
fecha fecha NCFS000 0.892857
Como como NP00000 1
se se P00CN000 0.465602
ha haber VAIP3S0 0.998141
visto ver VMP00SM 0.982759
esto este PD0NS000 1
no no RN 0.99778
quiere querer VMIP3S0 0.982759
de_ninguna_manera de_ninguna_manera RG 1
decir decir VMN0000 0.987805
que que CS 0.4375
las el DA0FP0 0.97051
conductas conducta NCFP000 1
transgresoras transgresor AQ0FP0 0.35727
se se P00CN000 0.465602
concentran concentrar VMIP3P0 1
efectivamente efectivamente RG 1
en en SPS00 1
la el DA0FS0 0.972146
clase clase NCFS000 1
proletaria proletario AQ0FS0 0.35745
y y CC 0.999812
en en SPS00 1
los el DA0MP0 0.97623
delitos delito NCMP000 1
contra contra SPS00 0.976316
la el DA0FS0 0.972146
propiedad propiedad NCFS000 1
Incluso incluso NP00000 1
la el DA0FS0 0.972146
criminolog criminolog NCMS000 0.714133
a a SPS00 0.99585
liberal liberal NCMS000 0.383636
demuestra demostrar VMIP3S0 0.9
por_el_contrario por_el_contrario RG 1
con con SPS00 1
las el DA0FP0 0.97051
investigaciones investigación NCFP000 1
acerca_de acerca_de SPS00 1
la el DA0FS0 0.972146
cifra cifra NCFS000 0.799844
negra negro AQ0FS0 0.657895
sobre sobre SPS00 0.994203
la el DA0FS0 0.972146
criminalidad criminalidad NCFS000 1
de de SPS00 0.999919
cuello cuello NCMS000 1
blanco blanco AQ0MS0 0.59375
y y CC 0.999812
sobre sobre SPS00 0.994203
la el DA0FS0 0.972146
criminalidad criminalidad NCFS000 1
pol pol NCMS000 0.861706
tica tica AQ0FS0 0.595788
que que CS 0.4375
el el DA0MS0 1
comportamiento comportamiento NCMS000 1
criminal criminal AQ0CS0 0.625
existe existir VMIP3S0 0.966667
en en SPS00 1
todas todo DI0FP0 0.945312
las el DA0FP0 0.97051
clases clase NCFP000 1
sociales social AQ0CP0 0.9375
que que CS 0.4375
la el DA0FS0 0.972146
nocividad nocividad NCFS000 1
social social AQ0CS0 0.977273
de de SPS00 0.999919
las el DA0FP0 0.97051
formas forma NCFP000 0.921053
de de SPS00 0.999919
criminalidad criminalidad NCFS000 1
propias propio AQ0FP0 1
de de SPS00 0.999919
la el DA0FS0 0.972146
clase clase NCFS000 1
dominante dominante AQ0CS0 0.833333
y y CC 0.999812
ampliamente ampliamente RG 1
inmune inmune AQ0CS0 1
es ser VSIP3S0 1
mucho mucho DI0MS0 0.275362
m m NCFS000 0.5
s segundo NCMN000 0.622321
grave grave AQ0CS0 0.90625
que que CS 0.4375
la el DA0FS0 0.972146
de de SPS00 0.999919
toda todo DI0FS0 0.975806
la el DA0FS0 0.972146
criminalidad criminalidad NCFS000 1
efectivamente efectivamente RG 1
perseguida perseguir VMP00SF 1
Por por NP00000 1
otra otro DI0FS0 0.801136
parte parte NCFS000 0.497967
el el DA0MS0 1
sistema sistema NCMS000 1
de de SPS00 0.999919
inmunidades inmunidad NCFP000 1
y y CC 0.999812
de de SPS00 0.999919
criminalizaci criminalizaci RG 0.751648
n n NCFS000 1
selectiva selectivo AQ0FS0 1
corresponde corresponder VMIP3S0 0.95
a a SPS00 1
el el DA0MS0 1
estado estado NCMS000 0.662162
de de SPS00 0.999919
las el DA0FP0 0.97051
relaciones relación NCFP000 0.944444
de de SPS00 0.999919
poder poder NCMS000 0.711538
entre entre SPS00 0.995223
las el DA0FP0 0.97051
clases clase NCFP000 1
de de SPS00 0.999919
manera manera NCFS000 1
de de SPS00 0.999919
ofrecer ofrecer VMN0000 1
por por SPS00 1
un uno DI0MS0 0.986987
lado lado NCMS000 1
un uno DI0MS0 0.986987
salvoconducto salvoconducto NCMS000 1
m m NCFS000 0.5
s segundo NCMN000 0.622321
o o CC 0.998845
menos menos RG 1
amplio amplio AQ0MS0 1
a a SPS00 0.99585
las el DA0FP0 0.97051
pr pr NCMS000 0.224371
cticas cticas AQ0FP0 0.411782
ilegales ilegal AQ0CP0 1
de de SPS00 0.999919
los el DA0MP0 0.97623
grupos grupo NCMP000 1
dominantes dominante AQ0CP0 0.75
cuando cuando CS 0.983796
atacan atacar VMIP3P0 1
los el DA0MP0 0.97623
intereses interés NCMP000 0.916667
y y CC 0.999812
los el DA0MP0 0.97623
derechos derecho NCMP000 0.9
de de SPS00 0.999919
las el DA0FP0 0.97051
clases clase NCFP000 1
subalternas subalterno AQ0FP0 0.557178
o o CC 0.998845
de de SPS00 0.999919
las el DA0FP0 0.97051
naciones nación NCFP000 1
m m NCFS000 0.5
s segundo NCMN000 0.622321
d d NCFS000 1
biles biles AQ0CP0 1
y y CC 0.999812
por por SPS00 1
el el DA0MS0 1
otro otro PI0MS000 0.38785
con con SPS00 1
un uno DI0MS0 0.986987
estrechamiento estrechamiento NCMS000 1
m m NCFS000 0.5
s segundo NCMN000 0.622321
o o CC 0.998845
menos menos RG 1
riguroso riguroso AQ0MS0 1
de de SPS00 0.999919
la el DA0FS0 0.972146
esfera esfera NCFS000 1
de de SPS00 0.999919
acci acci RG 0.751648
n n NCFS000 1
pol pol NCMS000 0.861706
tica tica AQ0FS0 0.595788
de de SPS00 0.999919
los el DA0MP0 0.97623
movimientos movimiento NCMP000 1
de de SPS00 0.999919
emancipaci emancipaci RG 0.751648
n n NCFS000 1
social social AQ0CS0 0.977273
Alessandro_Baratta_Criminolog alessandro_baratta_criminolog NP00000 1
a a SPS00 0.99585
cr cr NCMS000 1
tica tica AQ0FS0 0.595788
y y CC 0.999812
cr cr NCMS000 1
tica tica AQ0FS0 0.595788
de de SPS00 1
el el DA0MS0 1
derecho derecho NCMS000 0.884615
penal penal AQ0CS0 0.75
Edit edit NP00000 1
Siglo_XXI [s:xxi] W 1
M m NP00000 1
xico xico AQ0MS0 0.500497
1986 1986 Z 1
Hay hay NP00000 1
que que CS 0.4375
comenzar comenzar VMN0000 1
entonces entonces RG 0.97619
por por SPS00 1
despertar despertar VMN0000 0.833333
la el DA0FS0 0.972146
alarma alarma NCFS000 0.777778
social social AQ0CS0 0.977273
frente_a frente_a SPS00 1
la el DA0FS0 0.972146
criminalidad criminalidad NCFS000 1
consistente consistente AQ0CS0 1
en en SPS00 1
la el DA0FS0 0.972146
violaci violaci AQ0CS0 0.0199855
n n NCFS000 1
de de SPS00 0.999919
los el DA0MP0 0.97623
derechos derecho NCMP000 0.9
econ econ NCMS000 1
micos mico NCMP000 1
sociales social AQ0CP0 0.9375
y y CC 0.999812
culturales cultural AQ0CP0 1
dado_que dado_que CS 1
buena bueno AQ0FS0 1
parte parte NCFS000 0.497967
de de SPS00 0.999919
la el DA0FS0 0.972146
opini opini AQ0CS0 0.0199855
n n NCFS000 1
p p NCFS000 0.5
blica blica AQ0FS0 1
est est NCMS000 1
condicionada condicionar VMP00SF 1
de de SPS00 0.999919
manera manera NCFS000 1
tal tal DD0CS0 0.741379
que que PR0CN000 0.5625
reacciona reaccionar VMIP3S0 0.994868
contra contra SPS00 0.976316
el el DA0MS0 1
que que PR0CN000 0.5625
roba robar VMIP3S0 0.994864
comete cometer VMIP3S0 0.989811
una uno DI0FS0 0.951241
agresi agresi RG 1
n n NCFS000 1
o o CC 0.998845
un uno DI0MS0 0.986987
homicidio homicidio NCMS000 1
pero pero CC 0.998821
considera considerar VMIP3S0 0.9
que que CS 0.4375
est est NCMS000 1
en en SPS00 1
el el DA0MS0 1
orden orden NCMS000 0.6
normal normal AQ0CS0 0.9375
de de SPS00 0.999919
las el DA0FP0 0.97051
cosas cosa NCFP000 0.986842
o o CC 0.998845
que que PR0CN000 0.5625
corresponde corresponder VMIP3S0 0.95
a a SPS00 0.99585
las el DA0FP0 0.97051
leyes ley NCFP000 1
de de SPS00 1
el el DA0MS0 1
mercado mercado NCMS000 0.9
actividades actividad NCFP000 1
delictuosas delictuoso AQ0FP0 1
que que PR0CN000 0.5625
condenan condenar VMIP3P0 1
a a SPS00 0.99585
millones millón NCMP000 1
de de SPS00 0.999919
seres ser NCMP000 1
humanos humano AQ0MP0 0.681818
a a SPS00 1
el el DA0MS0 1
hambre hambre NCFS000 1
a a SPS00 0.99585
la el DA0FS0 0.972146
enfermedad enfermedad NCFS000 1
y y CC 0.999812
a a SPS00 0.99585
la el DA0FS0 0.972146
muerte muerte NCFS000 1
Entre entre NP00000 1
esas ese DD0FP0 0.961538
actividades actividad NCFP000 1
delictuosas delictuoso AQ0FP0 1
adem adem NCMS000 1
s segundo NCMN000 0.622321
de de SPS00 0.999919
las el DA0FP0 0.97051
que que PR0CN000 0.5625
son ser VSIP3P0 0.986772
formalmente formalmente RG 1
legales legal AQ0CP0 0.965
o o CC 0.998845
est est NCMS000 1
n n NCFS000 1
en en SPS00 1
el el DA0MS0 1
l l NCFS000 0.639398
mite mite VMIP3S0 0.839834
entre entre SPS00 0.995223
la el DA0FS0 0.972146
legalidad legalidad NCFS000 1
y y CC 0.999812
el el DA0MS0 1
delito delito NCMS000 1
se se P00CN000 0.465602
pueden poder VMIP3P0 1
mencionar mencionar VMN0000 1
los el DA0MP0 0.97623
delitos delito NCMP000 1
econ econ NCMS000 1
micos mico NCMP000 1
que que PR0CN000 0.5625
comportan comportar VMIP3P0 1
directa directo AQ0FS0 1
o o CC 0.998845
indirectamente indirectamente RG 1
la el DA0FS0 0.972146
violaci violaci AQ0CS0 0.0199855
n n NCFS000 1
de de SPS00 0.999919
los el DA0MP0 0.97623
derechos derecho NCMP000 0.9
econ econ NCMS000 1
micos mico NCMP000 1
sociales social AQ0CP0 0.9375
y y CC 0.999812
culturales cultural AQ0CP0 1
de de SPS00 0.999919
la el DA0FS0 0.972146
poblaci poblaci RG 0.751648
n n NCFS000 1
como como CS 0.998579
son ser VSIP3P0 0.986772
la el DA0FS0 0.972146
malversaci malversaci AQ0CS0 0.0199855
n n NCFS000 1
de de SPS00 0.999919
caudales caudal AQ0CP0 0.357386
p p NCFS000 0.5
blicos blicos AQ0MP0 1
las el DA0FP0 0.97051
negociaciones negociación NCFP000 1
incompatibles incompatible AQ0CP0 1
con con SPS00 1
el el DA0MS0 1
ejercicio ejercicio NCMS000 1
de de SPS00 0.999919
funciones función NCFP000 0.916667
p p NCFS000 0.5
blicas blicas AQ0FP0 1
la el DA0FS0 0.972146
corrupci corrupci RG 0.751648
n n NCFS000 1
el el DA0MS0 1
enriquecimiento enriquecimiento NCMS000 1
il il AQ0CS0 0.768581
cito citar VMIP1S0 1
de de SPS00 0.999919
los el DA0MP0 0.97623
funcionarios funcionario NCMP000 1
las el DA0FP0 0.97051
infracciones infracción NCFP000 1
a a SPS00 1
el el DA0MS0 1
r r NCFS000 0.638487
gimen gemir VMIP3P0 1
cambiario cambiario AQ0MS0 1
etc etcétera Fs 1
Adem adem NP00000 1
s segundo NCMN000 0.622321
hay haber VMIP3S0 1
actividades actividad NCFP000 1
que que PR0CN000 0.5625
realizan realizar VMIP3P0 1
grandes grande AQ0CP0 0.95
sociedades sociedad NCFP000 1
transnacionales transnacional AQ0CP0 1
en en SPS00 1
el el DA0MS0 1
dominio dominio NCMS000 1
privado privar VMP00SM 0.875
que que PR0CN000 0.5625
son ser VSIP3P0 0.986772
formalmente formalmente RG 1
legales legal AQ0CP0 0.965
pero pero CC 0.998821
que que PR0CN000 0.5625
se se P00CN000 0.465602
pueden poder VMIP3P0 1
desarrollar desarrollar VMN0000 1
en en SPS00 1
una uno DI0FS0 0.951241
zona zona NCFS000 1
gris gris AQ0CS0 0.75
donde donde PR000000 0.963542
es ser VSIP3S0 1
dif dif NCFS000 1
cil cil AQ0CS0 1
distinguir distinguir VMN0000 1
si si CS 0.997706
se se P00CN000 0.465602
trata tratar VMIP3S0 0.946237
de de SPS00 0.999919
la el DA0FS0 0.972146
utilizaci utilizaci AQ0CS0 0.0199855
n n NCFS000 1
leg leg NCMS000 0.714133
tima timar VMIP3S0 0.994868
de de SPS00 0.999919
una uno DI0FS0 0.951241
estrategia estrategia NCFS000 1
en en SPS00 1
el el DA0MS0 1
mercado mercado NCMS000 0.9
o o CC 0.998845
de de SPS00 1
el el DA0MS0 1
abuso abuso NCMS000 0.875
de de SPS00 1
el el DA0MS0 1
poder poder NCMS000 0.711538
econ econ NCMS000 1
mico mico NCMS000 1
para para SPS00 0.998507
controlar controlar VMN0000 1
los el DA0MP0 0.97623
precios precio NCMP000 1
monopolizar monopolizar VMN0000 1
el el DA0MS0 1
acceso acceso NCMS000 1
a a SPS00 0.99585
las el DA0FP0 0.97051
materias materia NCFP000 1
primas primo AQ0FP0 0.45
establecer establecer VMN0000 1
precios precio NCMP000 1
abusivos abusivo AQ0MP0 1
de de SPS00 0.999919
monopolio monopolio NCMS000 1
u o CC 0.944444
oligopolio oligopolio NCMS000 1
de de SPS00 0.999919
ciertos cierto AQ0MP0 1
productos producto NCMP000 0.833333
como como CS 0.998579
hacen hacer VMIP3P0 1
las el DA0FP0 0.97051
transnacionales transnacional AQ0CP0 1
farmac farmac NCMS000 1
uticas uticas AQ0FP0 0.760898
con con SPS00 1
los el DA0MP0 0.97623
medicamentos medicamento NCMP000 1
etc etcétera Fs 1
Por por SPS00 1
otra otro DI0FS0 0.801136
parte parte NCFS000 0.497967
las el DA0FP0 0.97051
que que PR0CN000 0.5625
aparecen aparecer VMIP3P0 1
como como CS 0.998579
opciones opción NCFP000 1
de de SPS00 0.999919
pol pol NCMS000 0.861706
tica tica AQ0FS0 0.595788
econ econ NCMS000 1
mica mica NCFS000 1
adoptadas adoptar VMP00PF 0.561373
libremente libremente RG 1
por por SPS00 1
ciertos cierto AQ0MP0 1
gobiernos gobierno NCMP000 1
adem adem NCMS000 1
s segundo NCMN000 0.622321
de de SPS00 0.999919
corresponder corresponder VMN0000 1
a a SPS00 1
el el DA0MS0 1
inter inter AQ0CN0 1
s segundo NCMN000 0.622321
exclusivo exclusivo AQ0MS0 1
de de SPS00 0.999919
las el DA0FP0 0.97051
lites litar VMSP2S0 1
econ econ NCMS000 1
micas mica NCFP000 1
son ser VSIP3P0 0.986772
el el DA0MS0 1
fruto fruto NCMS000 1
de de SPS00 0.999919
la el DA0FS0 0.972146
presi presi NCMS000 1
n n NCFS000 1
y y CC 0.999812
de de SPS00 0.999919
la el DA0FS0 0.972146
corrupci corrupci NCMS000 0.0996348
n n NCFS000 1
utilizadas utilizar VMP00PF 1
por por SPS00 1
entidades entidad NCFP000 1
econ econ NCMS000 1
micas mica NCFP000 1
y y CC 0.999812
financieras financiera NCFP000 0.355299
internacionales internacional AQ0CP0 0.928571
En en NP00000 1
efecto efecto NCMS000 1
se se P00CN000 0.465602
podr podr VMN0000 0.633986
an an NCFS000 1
dar dar VMN0000 1
m m NCFS000 0.5
ltiples ltiples AQ0CP0 1
ejemplos ejemplo NCMP000 1
de de SPS00 0.999919
casos caso NCMP000 1
en en SPS00 1
que que CS 0.4375
las el DA0FP0 0.97051
pol pol NCMS000 0.861706
ticas ticas AQ0FP0 0.760898
econ econ NCMS000 1
micas mica NCFP000 1
ultraliberales ultraliberal AQ0CP0 0.481905
no no RN 0.99778
son ser VSIP3P0 0.986772
otra otro DI0FS0 0.801136
cosa cosa NCFS000 0.978571
que que PR0CN000 0.5625
el el DA0MS0 1
medio medio NCMS000 0.261538
de de SPS00 0.999919
obtener obtener VMN0000 1
enormes enorme AQ0CP0 1
ganancias ganancia NCFP000 1
de de SPS00 0.999919
manera manera NCFS000 1
il il AQ0CS0 0.768581
cita citar VMIP3S0 0.166667
recibiendo recibir VMG0000 1
sobornos soborno NCMP000 1
y y CC 0.999812
/ / Fh 1
o o CC 0.998845
participaciones participación NCFP000 1
en en SPS00 1
negocios negocio NCMP000 1
y y CC 0.999812
de de SPS00 0.999919
hacer hacer VMN0000 1
beneficiar beneficiar VMN0000 1
de de SPS00 0.999919
dichas decir VMP00PF 0.75
pol pol NCMS000 0.861706
ticas ticas AQ0FP0 0.760898
a a SPS00 0.99585
los el DA0MP0 0.97623
grupos grupo NCMP000 1
econ econ NCMS000 1
micos mico NCMP000 1
que que PR0CN000 0.5625
rodean rodear VMIP3P0 1
a a SPS00 1
el el DA0MS0 1
poder poder NCMS000 0.711538
pol pol NCMS000 0.861706
tico tico AQ0MS0 0.806828
todo todo DI0MS0 0.559816
ello ello PD0NS000 1
en en SPS00 1
perjuicio perjuicio NCMS000 1
de de SPS00 1
el el DA0MS0 1
pa pa NCFS000 0.740689
s segundo NCMN000 0.622321
y y CC 0.999812
contra contra SPS00 0.976316
los el DA0MP0 0.97623
derechos derecho NCMP000 0.9
fundamentales fundamental AQ0CP0 0.875
de de SPS00 0.999919
la el DA0FS0 0.972146
poblaci poblaci AQ0CS0 0.0199855
n n NCFS000 1
Las las NP00000 1
privatizaciones privatización NCFP000 1
y y CC 0.999812
desregulaciones desregulación NCFP000 1
muchas mucho DI0FP0 0.819444
veces vez NCFP000 1
se se P00CN000 0.465602
llevan_a_cabo llevar_a_cabo VMIP3P0 1
en en SPS00 1
tales tal DD0CP0 0.880952
condiciones condición NCFP000 0.958333
Lo lo NP00000 1
mismo mismo AQ0MS0 0.961905
ocurre ocurrir VMIP3S0 0.966667
con con SPS00 1
las el DA0FP0 0.97051
operaciones operación NCFP000 1
que que PR0CN000 0.5625
dieron dar VMIS3P0 1
origen origen NCMS000 1
a a SPS00 0.99585
la el DA0FS0 0.972146
actual actual AQ0CS0 1
desmesurada desmesurado NCFS000 0.308233
deuda deuda NCFS000 1
externa externo AQ0FS0 0.833333
de de SPS00 0.999919
los el DA0MP0 0.97623
pa pa NCFS000 0.740689
ses ses AQ0CP0 0.068278
de de SPS00 1
el el DA0MS0 1
Sur_Muchas sur_muchas NP00000 1
de de SPS00 0.999919
dichas decir VMP00PF 0.75
operaciones operación NCFP000 1
contienen contener VMIP3P0 1
cl centilitro NCMN000 1
usulas usulas NCFP000 0.972966
il il AQ0CS0 0.768581
citas cita NCFP000 0.943508
vicios vicio NCMP000 1
de de SPS00 1
el el DA0MS0 1
consentimiento consentimiento NCMS000 1
intereses interés NCMP000 0.916667
usurarios usurario AQ0MP0 1
comisiones comisión NCFP000 0.875
y y CC 0.999812
otros otro DI0MP0 0.56875
costos costo NCMP000 1
desproporcionados desproporcionar VMP00PM 1
Algunas algunas NP00000 1
operaciones operación NCFP000 1
fueron ser VSIS3P0 0.796296
simplemente simplemente RG 1
simuladas simular VMP00PF 1
En en NP00000 1
ellas ellos PP3FP000 1
aparec aparec NC00000 0.538029
an an NCFS000 1
como como CS 0.998579
deudores deudor AQ0MP0 0.382015
empresas empresa NCFP000 1
privadas privar VMP00PF 0.80908
o o CC 0.998845
individuos individuo NCMP000 0.875
de de SPS00 0.999919
ciertos cierto AQ0MP0 1
pa pa NCFS000 0.740689
ses ses AQ0CP0 0.068278
perif perif NCFS000 1
ricos rico AQ0MP0 0.4375
y y CC 0.999812
como como CS 0.998579
acreedores acreedor NCMP000 0.64271
grandes grande AQ0CP0 0.95
Bancos bancos NP00000 1
de de SPS00 0.999919
los el DA0MP0 0.97623
pa pa NCFS000 0.740689
ses ses NCMP000 0.727093
desarrollados desarrollar VMP00PM 0.75
es ser VSIP3S0 1
decir decir VMN0000 0.987805
que que CS 0.4375
se se P00CN000 0.465602
asociaron asociar VMIS3P0 1
para para SPS00 0.998507
delinquir delinquir VMN0000 1
personas persona NCFP000 0.983871
privadas privar VMP00PF 0.80908
de de SPS00 0.999919
los el DA0MP0 0.97623
pa pa NCFS000 0.740689
ses ses AQ0CP0 0.068278
perif perif NCFS000 1
ricos rico AQ0MP0 0.4375
y y CC 0.999812
grandes grande AQ0CP0 0.95
Bancos bancos NP00000 1
transnacionales transnacional AQ0CP0 1
M m NP00000 1
s segundo NCMN000 0.622321
tarde tarde RG 0.704348
esas ese DD0FP0 0.961538
deudas deuda NCFP000 1
fueron ser VSIS3P0 0.796296
estatizadas estatizado AQ0FP0 1
en en SPS00 1
los el DA0MP0 0.97623
pa pa NCFS000 0.740689
ses ses AQ0CP0 0.068278
perif perif NCFS000 1
ricos rico AQ0MP0 0.4375
se se P00CN000 0.465602
privatizan privatizar VMIP3P0 1
las el DA0FP0 0.97051
empresas empresa NCFP000 1
y y CC 0.999812
recursos recurso NCMP000 1
nacionales nacional AQ0CP0 1
y y CC 0.999812
se se P00CN000 0.465602
estatizan estatizan VMIP3P0 1
las el DA0FP0 0.97051
deudas deuda NCFP000 1
de de SPS00 0.999919
los el DA0MP0 0.97623
particulares particular AQ0CP0 0.75
Y y NP00000 1
ahora ahora RG 1
los el DA0MP0 0.97623
pueblos pueblo NCMP000 1
est est NCMS000 1
n n NCFS000 1
pagando pagar VMG0000 1
deudas deuda NCFP000 1
contra contra SPS00 0.976316
das dar VMIP2S0 1
por por SPS00 1
particulares particular NCCP000 0.25
incluso incluso RG 0.988095
entre entre SPS00 0.995223
ellas ellos PP3FP000 1
deudas deuda NCFP000 1
simuladas simular VMP00PF 1
II_LOS_PARA_SOS_FINANCIEROS ii_los_para_sos_financieros NP00000 1
Uno uno PI0MS000 0.964744
de de SPS00 0.999919
los el DA0MP0 0.97623
delitos delito NCMP000 1
econ econ NCMS000 1
micos mico NCMP000 1
de de SPS00 0.999919
m m NCFS000 0.5
s segundo NCMN000 0.622321
envergadura envergadura NCFS000 1
por por SPS00 1
su su DP3CS0 1
monto monto NCMS000 0.75
es ser VSIP3S0 1
la el DA0FS0 0.972146
utilizaci utilizaci AQ0CS0 0.0199855
n n NCFS000 1
de de SPS00 0.999919
los el DA0MP0 0.97623
para para SPS00 0.998507
sos sos AQ0MP0 0.393266
financieros financiero NCMP000 0.75
por por SPS00 1
las el DA0FP0 0.97051
grandes grande AQ0CP0 0.95
empresas empresa NCFP000 1
y y CC 0.999812
los el DA0MP0 0.97623
multimillonarios multimillonario AQ0MP0 0.657126
Este este NP00000 1
tema tema NCMS000 0.953125
retom retom NCMS000 0.500053
ahora ahora RG 1
actualidad actualidad NCFS000 1
a a SPS00 0.99585
ra ra AQ0FS0 0.109878
z z NCFS000 1
de de SPS00 0.999919
la el DA0FS0 0.972146
revelaci revelaci AQ0CS0 0.0199855
n n NCFS000 1
de de SPS00 0.999919
que que CS 0.4375
Jer jer NP00000 1
me me PP1CS000 0.889706
Cahuzac cahuzac NP00000 1
ministro ministro NCMS000 1
delegado delegar VMP00SM 0.679268
de de SPS00 0.999919
presupuesto presupuesto NCMS000 0.666667
de de SPS00 1
el el DA0MS0 1
presidente presidente NCMS000 1
franc franc NC00000 0.538029
s segundo NCMN000 0.622321
Hollande hollande NP00000 1
tiene tener VMIP3S0 1
dep dep NCMS000 1
sitos sito AQ0MP0 1
de de SPS00 0.999919
un uno DI0MS0 0.986987
monto monto NCMS000 0.75
por por SPS00 1
ahora ahora RG 1
indeterminado indeterminar VMP00SM 1
en en SPS00 1
para para SPS00 0.998507
sos sos NCMP000 0.606734
fiscales fiscal AQ0CP0 0.75
Hollande hollande NP00000 1
que que PR0CN000 0.5625
sostiene sostener VMIP3S0 1
lo el DA0NS0 0.457393
mismo mismo AQ0MS0 0.961905
que que PR0CN000 0.5625
sus su DP3CP0 0.998462
ministros ministro NCMP000 1
que que PR0CN000 0.5625
ignoraba ignorar VMII3S0 0.65
todo todo PI0MS000 0.430982
a a SPS00 1
el el DA0MS0 1
respecto respecto NCMS000 0.75
hasta hasta SPS00 0.955172
la el DA0FS0 0.972146
reciente reciente AQ0CS0 0.925
confesi confesi RG 1
n n NCFS000 1
de de SPS00 1
el el DA0MS0 1
mismo mismo AQ0MS0 0.961905
Cahuzac cahuzac NP00000 1
anunci anunci VMIS1S0 0.0691907
medidas medida NCFP000 0.944444
para para SPS00 0.998507
moralizar moralizar VMN0000 1
la el DA0FS0 0.972146
vida vida NCFS000 1
pol pol NCMS000 0.861706
tica tica AQ0FS0 0.595788
medidas medida NCFP000 0.944444
que que PR0CN000 0.5625
Eva_Joly eva_joly NP00000 1
calific calific NCMN000 0.5
de de SPS00 0.999919
pis pis NCMS000 0.649993
de de SPS00 0.999919
gato gato NCMS000 1
Mientras mientras NP00000 1
se se P00CN000 0.465602
hace hacer VMIP3S0 1
un uno DI0MS0 0.986987
gran gran AQ0CS0 1
show show NCMS000 1
medi medi VMIS1S0 1
tico tico AQ0MS0 0.806828
con con SPS00 1
la el DA0FS0 0.972146
declaraci declaraci AQ0CS0 0.0199855
n n NCFS000 1
patrimonial patrimonial AQ0CS0 1
de de SPS00 0.999919
ministros ministro NCMP000 1
y y CC 0.999812
parlamentarios parlamentario AQ0MP0 0.75
se se P00CN000 0.465602
mantiene mantener VMIP3S0 1
la el DA0FS0 0.972146
incertidumbre incertidumbre NCFS000 1
sobre sobre SPS00 0.994203
una uno DI0FS0 0.951241
cuesti cuesti NCMS000 1
n n NCFS000 1
clave clavar VMSP1S0 0.0333333
un uno DI0MS0 0.986987
control control NCMS000 1
realmente realmente RG 1
independiente independiente AQ0CS0 1
sobre sobre SPS00 0.994203
los el DA0MP0 0.97623
conflictos conflicto NCMP000 1
de de SPS00 0.999919
intereses interés NCMP000 0.916667
entre entre SPS00 0.995223
la el DA0FS0 0.972146
funci funci AQ0CS0 0.0199855
n n NCFS000 1
p p NCFS000 0.5
blica blica AQ0FS0 1
y y CC 0.999812
los el DA0MP0 0.97623
negocios negocio NCMP000 1
privados privado AQ0MP0 0.166667
Eva_Joly eva_joly NP00000 1
que que PR0CN000 0.5625
fue ir VMIS3S0 0.0677083
hasta hasta SPS00 0.955172
2002 2002 Z 1
jueza juez NCFS000 1
de de SPS00 0.999919
instrucci instrucci RG 0.751648
n n NCFS000 1
en en SPS00 1
Francia francia NP00000 1
a_cargo_de a_cargo_de SPS00 1
la el DA0FS0 0.972146
investigaci investigaci AQ0CS0 0.0199855
n n NCFS000 1
de de SPS00 0.999919
grandes grande AQ0CP0 0.95
affaires affaire NCMP000 1
y y CC 0.999812
renunci renunci RG 0.751648
a_causa_de a_causa_de SPS00 1
las el DA0FP0 0.97051
presiones presión NCFP000 0.995706
pol pol NCMS000 0.861706
ticas ticas AQ0FP0 0.760898
que que CS 0.4375
recibi recibi AQ0CN0 1
destinadas destinar VMP00PF 1
a a SPS00 0.99585
trabar trabar VMN0000 1
su su DP3CS0 1
acci acci AQ0CS0 0.0199855
n n NCFS000 1
escribi escribi AQ0CN0 1
yo yo PP1CSN00 1
pensaba pensar VMII3S0 0.65
que que CS 0.4375
est est NCMS000 1
bamos bamos VMII1P0 0.954217
ante ante SPS00 0.990566
una uno DI0FS0 0.951241
criminalidad criminalidad NCFS000 1
superficial superficial AQ0CS0 1
marginal marginal AQ0CS0 1
accidental accidental AQ0CS0 1
una uno DI0FS0 0.951241
especie especie NCFS000 1
de de SPS00 0.999919
falta falta NCFS000 0.693182
de de SPS00 0.999919
moral moral NCFS000 0.375
individual individual AQ0CS0 1
Hoy hoy NP00000 1
tengo tener VMIP1S0 1
la el DA0FS0 0.972146
certidumbre certidumbre NCFS000 1
de de SPS00 0.999919
que que CS 0.4375
la el DA0FS0 0.972146
criminalidad criminalidad NCFS000 1
financiera financiero AQ0FS0 0.666667
est est NCMS000 1
incrustada incrustar VMP00SF 1
en en SPS00 1
la el DA0FS0 0.972146
econom econom NCMS000 0.500053
a a SPS00 0.99585
y y CC 0.999812
que que PR0CN000 0.5625
ensombrece ensombrecer VMIP3S0 0.994868
nuestro nuestro DP1MSP 0.933333
porvenir porvenir NCMS000 1
Esta esta NP00000 1
constataci constataci VMIS1S0 0.0691907
n n NCFS000 1
de de SPS00 0.999919
Eva_Joly eva_joly NP00000 1
es ser VSIP3S0 1
valedera valedero AQ0FS0 1
para para SPS00 0.998507
todos todo DI0MP0 0.622419
los el DA0MP0 0.97623
pa pa NCFS000 0.740689
ses ses AQ0CP0 0.068278
de de SPS00 1
el el DA0MS0 1
mundo mundo NCMS000 1
El el NP00000 1
control control NCMS000 1
de de SPS00 0.999919
los el DA0MP0 0.97623
para para SPS00 0.998507
sos sos AQ0MP0 0.393266
financieros financiero NCMP000 0.75
la el DA0FS0 0.972146
famosa famoso AQ0FS0 0.875
lista lista NCFS000 0.125
negra negro AQ0FS0 0.657895
ahora ahora RG 1
de de SPS00 0.999919
diferentes diferente AQ0CP0 1
tonalidades tonalidad NCFP000 1
de de SPS00 0.999919
para para SPS00 0.998507
sos sos NCMP000 0.606734
fiscales fiscal AQ0CP0 0.75
fue ser VSIS3S0 0.932292
elaborada elaborar VMP00SF 1
por por SPS00 1
la el DA0FS0 0.972146
OCDE ocde NP00000 1
hace hacer VMIP3S0 1
m m NCFS000 0.5
s segundo NCMN000 0.622321
de de SPS00 0.999919
diez 10 Z 1
a a SPS00 0.99585
os os PP2CP000 0.722222
y y CC 0.999812
no no RN 0.99778
sirvi sirvi VMIS1S0 1
para para SPS00 0.998507
nada nada PI0CS000 0.846667
La la NP00000 1
raz raz AQ0CS0 0.500309
n n NCFS000 1
es ser VSIP3S0 1
muy muy RG 1
simple simple AQ0CS0 0.973684
buena bueno AQ0FS0 1
parte parte NCFS000 0.497967
de de SPS00 0.999919
los el DA0MP0 0.97623
para para SPS00 0.998507
sos sos NCMP000 0.606734
fiscales fiscal AQ0CP0 0.75
que que PR0CN000 0.5625
no no RN 0.99778
figuran figurar VMIP3P0 1
en en SPS00 1
las el DA0FP0 0.97051
listas listo AQ0FP0 0.305396
est est NCMS000 1
n n NCFS000 1
en en SPS00 1
territorio territorio NCMS000 1
de de SPS00 0.999919
las el DA0FP0 0.97051
grandes grande AQ0CP0 0.95
potencias potencia NCFP000 0.833333
o o CC 0.998845
controlados controlar VMP00PM 1
por por SPS00 1
stas stas NCCP000 0.560919
la el DA0FS0 0.972146
City_de_Londres city_de_londres NP00000 1
la el DA0FS0 0.972146
isla isla NCFS000 1
de de SPS00 0.999919
Jersey jersey NP00000 1
la el DA0FS0 0.972146
isla isla NCFS000 1
de de SPS00 0.999919
Man_el_Estado_de_Delaware man_el_estado_de_delaware NP00000 1
en en SPS00 1
Estados_Unidos_M estados_unidos_m NP00000 1
naco naco NCMS000 1
Macao_Hong_Kong macao_hong_kong NP00000 1
las el DA0FP0 0.97051
islas isla NCFP000 1
Caim caim NP00000 1
n n NCFS000 1
etc etcétera Fs 1
etc etcétera Fs 1
Y y CC 0.999812
quienes quien PR0CP000 1
se se P00CN000 0.465602
sirven servir VMIP3P0 1
de de SPS00 0.999919
los el DA0MP0 0.97623
para para SPS00 0.998507
sos sos NCMP000 0.606734
fiscales fiscal AQ0CP0 0.75
son ser VSIP3P0 0.986772
las el DA0FP0 0.97051
grandes grande AQ0CP0 0.95
empresas empresa NCFP000 1
transnacionales transnacional AQ0CP0 1
los el DA0MP0 0.97623
grandes grande AQ0CP0 0.95
bancos banco NCMP000 1
y y CC 0.999812
sus su DP3CP0 0.998462
clientes cliente NCCP000 1
y y CC 0.999812
los el DA0MP0 0.97623
grupos grupo NCMP000 1
financieros financiero AQ0MP0 0.25
que que PR0CN000 0.5625
son ser VSIP3P0 0.986772
intocados intocar VMP00PM 1
e y CC 0.973684
intocables intocable AQ0CP0 0.75
Adem adem NP00000 1
s segundo NCMN000 0.622321
la el DA0FS0 0.972146
lista lista NCFS000 0.125
negra negro AQ0FS0 0.657895
o o CC 0.998845
gris gris AQ0CS0 0.75
es ser VSIP3S0 1
como como CS 0.998579
una uno DI0FS0 0.951241
puerta puerta NCFS000 1
giratoria giratorio AQ0FS0 1
As as NP00000 1
como como CS 0.998579
se se P00CN000 0.465602
entra entrar VMIP3S0 0.916667
se se P00CN000 0.465602
sale salir VMIP3S0 0.788462
Seg seg NP00000 1
n n NCFS000 1
un uno DI0MS0 0.986987
autor autor NCMS000 1
el el DA0MS0 1
profesor profesor NCMS000 1
Michael_Kr michael_kr NP00000 1
tke tke RG 0.196715
se se P00CN000 0.465602
estima estimar VMIP3S0 0.150743
que que CS 0.4375
los el DA0MP0 0.97623
m m NCFS000 0.5
s segundo NCMN000 0.622321
ricos rico AQ0MP0 0.4375
tienen tener VMIP3P0 1
alrededor_de alrededor_de SPS00 1
un uno DI0MS0 0.986987
30 30 Z 1
de de SPS00 0.999919
su su DP3CS0 1
patrimonio patrimonio NCMS000 1
colocado colocar VMP00SM 1
en en SPS00 1
plazas plaza NCFP000 1
financieras financiero AQ0FP0 0.289402
offshore offshore AQ0CN0 1
M m NP00000 1
s segundo NCMN000 0.622321
de de SPS00 0.999919
un_quinto 1/5 Zp 1
23 23 Z 1
de de SPS00 0.999919
todos todo DI0MP0 0.622419
los el DA0MP0 0.97623
dep dep NCMS000 1
sitos sito AQ0MP0 1
bancarios bancario AQ0MP0 1
de de SPS00 1
el el DA0MS0 1
mundo mundo NCMS000 1
se se P00CN000 0.465602
halla hallar VMIP3S0 0.875
en en SPS00 1
los el DA0MP0 0.97623
para para SPS00 0.998507
sos sos NCMP000 0.606734
fiscales fiscal AQ0CP0 0.75
a a SPS00 1
el el DA0MS0 1
menos menos RG 1
3_billones_de_d TM_d:3000000000000 Zu 1
lares lar NCMP000 1
seg segundo NCMN000 1
n n NCFS000 1
c c NCFS000 1
lculos lculos NCMP000 1
conservadores conservador AQ0MP0 0.75
Casi casi NP00000 1
el el DA0MS0 1
50 50 Z 1
de de SPS00 0.999919
las el DA0FP0 0.97051
transacciones transacción NCFP000 0.995706
financieras financiero AQ0FP0 0.289402
transfronterizas transfronterizo AQ0FP0 1
mundiales mundial NCMP000 0.442743
pasan pasar VMIP3P0 1
por por SPS00 1
ellos ellos PP3MP000 1
Dice_Kr dice_kr NP00000 1
tke tke VMIP3S0 0.28676
que que CS 0.4375
de_acuerdo_con de_acuerdo_con SPS00 1
los el DA0MP0 0.97623
cautelosos cauteloso AQ0MP0 1
an an NCFS000 1
lisis lisis NCFN000 1
de de SPS00 1
el el DA0MS0 1
Tax_Justice_Network tax_justice_network NP00000 1
los el DA0MP0 0.97623
capitales capital NCMP000 0.53005
disimulados disimular VMP00PM 0.691767
en en SPS00 1
los el DA0MP0 0.97623
para para SPS00 0.998507
sos sos NCMP000 0.606734
fiscales fiscal AQ0CP0 0.75
evaden evadir VMIP3P0 1
impuestos impuesto NCMP000 0.833333
por por SPS00 1
un uno DI0MS0 0.986987
monto monto NCMS000 0.75
de de SPS00 0.999919
entre entre SPS00 0.995223
250 250 Z 1
y y CC 0.999812
300_mil_millones_de_d TM_d:300000000000 Zu 1
lares lar NCMP000 1
cada cada DI0CS0 1
a a SPS00 0.99585
o o CC 0.998845
Es es NP00000 1
una uno DI0FS0 0.951241
buena bueno AQ0FS0 1
parte parte NCFS000 0.497967
de de SPS00 1
el el DA0MS0 1
dinero dinero NCMS000 1
que que PR0CN000 0.5625
falta faltar VMIP3S0 0.284091
para para SPS00 0.998507
reactivar reactivar VMN0000 1
la el DA0FS0 0.972146
econom econom NCMS000 0.500053
a a SPS00 0.99585
aumentar aumentar VMN0000 1
el el DA0MS0 1
poder poder NCMS000 0.711538
de de SPS00 0.999919
compra compra NCFS000 0.541667
de de SPS00 0.999919
los el DA0MP0 0.97623
m m NCFS000 0.5
s segundo NCMN000 0.622321
pobres pobre AQ0CP0 0.375
y y CC 0.999812
en en SPS00 1
general general AQ0CS0 0.90625
para para SPS00 0.998507
mejorar mejorar VMN0000 1
la el DA0FS0 0.972146
situaci situaci AQ0CS0 0.0199855
n n NCFS000 1
de de SPS00 0.999919
las el DA0FP0 0.97051
3000_millones 3000000000 Zd 1
de de SPS00 0.999919
personas persona NCFP000 0.983871
que que PR0CN000 0.5625
viven vivir VMIP3P0 1
en en SPS00 1
el el DA0MS0 1
mundo mundo NCMS000 1
con con SPS00 1
menos menos RG 1
de de SPS00 0.999919
2 2 Z 1
5_d TM_d:5 Zu 1
lares lar NCMP000 1
por por SPS00 1
d d NCFS000 1
a a SPS00 0.99585
Como como NP00000 1
se se P00CN000 0.465602
a a SPS00 1
el el DA0MS0 1
Eva_Joly eva_joly NP00000 1
m m NCFS000 0.5
s segundo NCMN000 0.622321
que que CS 0.4375
controlar controlar VMN0000 1
a a SPS00 0.99585
los el DA0MP0 0.97623
para para SPS00 0.998507
sos sos NCMP000 0.606734
fiscales fiscal AQ0CP0 0.75
habr habr NCMS000 0.224371
a a SPS00 0.99585
que que CS 0.4375
controlar controlar VMN0000 1
directamente directamente RG 1
las el DA0FP0 0.97051
finanzas finanzas NCFP000 1
de de SPS00 0.999919
las el DA0FP0 0.97051
grandes grande AQ0CP0 0.95
empresas empresa NCFP000 1
los el DA0MP0 0.97623
grupos grupo NCMP000 1
financieros financiero AQ0MP0 0.25
y y CC 0.999812
los el DA0MP0 0.97623
bancos banco NCMP000 1
que que PR0CN000 0.5625
los lo PP3MPA00 0.023584
utilizan utilizar VMIP3P0 1
III_SIMBIOSIS_ENTRE_EL_PODER_POLITICO_Y_EL_PODER_ECON_MICO_La iii_simbiosis_entre_el_poder_politico_y_el_poder_econ_mico_la NP00000 1
derecha derecha NCFS000 0.735294
francesa francés AQ0FS0 0.875
ante ante SPS00 0.990566
el el DA0MS0 1
affaire affaire NCMS000 1
Cahuzac cahuzac NP00000 1
la el DA0FS0 0.972146
oposici oposici AQ0CS0 0.0199855
n n NCFS000 1
en en SPS00 1
todas todo DI0FP0 0.945312
partes parte NCFP000 0.495495
es ser VSIP3S0 1
moralizadora moralizador AQ0FS0 0.65727
hasta hasta SPS00 0.955172
que que PR0CN000 0.5625
llega llegar VMIP3S0 0.980769
a a SPS00 1
el el DA0MS0 1
gobierno gobierno NCMS000 0.9
propone proponer VMIP3S0 1
como como CS 0.998579
modelo modelo NCCS000 0.973684
a a SPS00 0.99585
Estados_Unidos estados_unidos NP00000 1
donde donde PR000000 0.963542
de de SPS00 0.999919
conformidad conformidad NCFS000 1
con con SPS00 1
la el DA0FS0 0.972146
Constituci constituci NP00000 1
n n NCFS000 1
los el DA0MP0 0.97623
candidatos candidato NCMP000 1
a a SPS00 0.99585
ministros ministro NCMP000 1
de de SPS00 1
el el DA0MS0 1
Presidente presidente NP00000 1
pasan pasar VMIP3P0 1
por por SPS00 1
un uno DI0MS0 0.986987
examen examen NCMS000 1
de de SPS00 0.999919
antecedentes antecedente NCMP000 0.25
en en SPS00 1
el el DA0MS0 1
Senado senado NP00000 1
antes_de antes_de SPS00 1
ser ser VSN0000 0.93883
nombrados nombrar VMP00PM 1
Pero pero NP00000 1
olvidan olvidar VMIP3P0 1
que que CS 0.4375
tal tal DD0CS0 0.741379
examen examen NCMS000 1
no no RN 0.99778
obsta obstar VMIP3S0 0.994868
a a SPS00 0.99585
que que CS 0.4375
exista existir VMSP1S0 0.47619
una uno DI0FS0 0.951241
verdadera verdadero AQ0FS0 1
simbiosis simbiosis NCFN000 1
entre entre SPS00 0.995223
el el DA0MS0 1
poder poder NCMS000 0.711538
pol pol NCMS000 0.861706
tico tico AQ0MS0 0.806828
y y CC 0.999812
el el DA0MS0 1
poder poder NCMS000 0.711538
econ econ NCMS000 1
mico mico NCMS000 1
p p NCFS000 0.5
dicamente dicamente RG 1
llamada llamar VMP00SF 0.875
conflicto conflicto NCMS000 1
de de SPS00 0.999919
intereses interés NCMP000 0.916667
En en NP00000 1
efecto efecto NCMS000 1
si si CS 0.997706
bien bien RG 0.898039
en en SPS00 1
todos todo DI0MP0 0.622419
los el DA0MP0 0.97623
pa pa NCFS000 0.740689
ses ses AQ0CP0 0.068278
existen existir VMIP3P0 1
estrechas estrecho AQ0FP0 0.96029
relaciones relación NCFP000 0.944444
entre entre SPS00 0.995223
el el DA0MS0 1
poder poder NCMS000 0.711538
pol pol NCMS000 0.861706
tico tico AQ0MS0 0.806828
y y CC 0.999812
el el DA0MS0 1
poder poder NCMS000 0.711538
econ econ NCMS000 1
mico mico NCMS000 1
el el DA0MS0 1
caso caso NCMS000 0.990741
paradigm paradigm NCMS000 0.700265
tico tico AQ0MS0 0.806828
de de SPS00 0.999919
esta este DD0FS0 0.982143
relaci relaci AQ0CS0 0.0199855
n n NCFS000 1
es ser VSIP3S0 1
el el DA0MS0 1
de de SPS00 0.999919
los el DA0MP0 0.97623
Estados_Unidos estados_unidos NP00000 1
donde donde PR000000 0.963542
m m NCFS000 0.5
s segundo NCMN000 0.622321
que que PR0CN000 0.5625
de de SPS00 0.999919
relaci relaci RG 0.751648
n n NCFS000 1
puede poder VMIP3S0 0.995614
hablar hablar VMN0000 1
se se PP3CN000 1
sobre sobre SPS00 0.994203
todo todo PI0MS000 0.430982
durante durante SPS00 1
la el DA0FS0 0.972146
gesti gesti NCMS000 1
n n NCFS000 1
de de SPS00 0.999919
Bush bush NP00000 1
de de SPS00 0.999919
fusi fusi RG 1
n n NCFS000 1
o o CC 0.998845
confusi confusi RG 1
n n NCFS000 1
entre entre SPS00 0.995223
el el DA0MS0 1
poder poder NCMS000 0.711538
pol pol NCMS000 0.861706
tico tico AQ0MS0 0.806828
y y CC 0.999812
el el DA0MS0 1
poder poder NCMS000 0.711538
econ econ NCMS000 1
mico mico NCMS000 1
Para para NP00000 1
verificar verificar VMN0000 1
esto este PD0NS000 1
basta bastar VMIP3S0 0.916667
analizar analizar VMN0000 1
los el DA0MP0 0.97623
curricula curricula NCFS000 0.914228
de de SPS00 1
el el DA0MS0 1
ex ex NCCN000 0.75
Presidente_Bush presidente_bush NP00000 1
de de SPS00 1
el el DA0MS0 1
ex ex NCCN000 0.75
Vicepresidente_Cheney vicepresidente_cheney NP00000 1
y y CC 0.999812
de de SPS00 0.999919
los el DA0MP0 0.97623
ministros ministro NCMP000 1
secretarios secretario NCMP000 1
o o CC 0.998845
consejeros consejero NCMP000 0.75
y y CC 0.999812
podr podr VMN0000 0.633986
comprobar comprobar VMN0000 1
se se PP3CN000 1
la el DA0FS0 0.972146
confluencia confluencia NCFS000 1
entre entre SPS00 0.995223
los el DA0MP0 0.97623
intereses interés NCMP000 0.916667
privados privar VMP00PM 0.833333
que que PR0CN000 0.5625
stos stos NCMP000 0.71747
representan representar VMIP3P0 1
y y CC 0.999812
la el DA0FS0 0.972146
pol pol NCMS000 0.861706
tica tica AQ0FS0 0.595788
tanto tanto RG 0.857895
interior interior AQ0CS0 0.5
como como CS 0.998579
exterior exterior AQ0CS0 0.6875
de de SPS00 1
el el DA0MS0 1
Gobierno_El_Center gobierno_el_center NP00000 1
for for NCMS000 1
Responsive_Politics responsive_politics NP00000 1
tiene tener VMIP3S0 1
en en SPS00 1
su su DP3CS0 1
sitio sitio NCMS000 0.916667
web web AQ0CN0 0.35779
un uno DI0MS0 0.986987
documento documento NCMS000 0.973494
The_Bush_Administration_Corporate_Connections the_bush_administration_corporate_connections NP00000 1
www www VMIP3S0 0.0552772
opensecrets opensecrets NCMP000 0.80004
org org NCMS000 0.714133
/ / Fh 1
bush bush NCMS000 0.500016
/ / Fh 1
cabinet cabinet NCMS000 0.818202
asp asp NCMS000 1
en en SPS00 1
el el DA0MS0 1
que que PR0CN000 0.5625
proporciona proporcionar VMIP3S0 0.875
el el DA0MS0 1
detalle detalle NCMS000 0.892857
de de SPS00 0.999919
los el DA0MP0 0.97623
v v NCFS000 1
nculos nculos AQ0MP0 0.0952152
de de SPS00 0.999919
Bush_de_Cheney bush_de_cheney NP00000 1
y y CC 0.999812
de de SPS00 0.999919
los el DA0MP0 0.97623
miembros miembro NCMP000 0.916667
de de SPS00 1
el el DA0MS0 1
gabinete gabinete NCMS000 1
de de SPS00 1
el el DA0MS0 1
ex ex NCCN000 0.75
Presidente presidente NP00000 1
con con SPS00 1
grandes grande AQ0CP0 0.95
corporaciones corporación NCFP000 1
transnacionales transnacional AQ0CP0 1
y y CC 0.999812
llega llegar VMIP3S0 0.980769
a a SPS00 0.99585
la el DA0FS0 0.972146
conclusi conclusi RG 1
n n NCFS000 1
de de SPS00 0.999919
que que CS 0.4375
los el DA0MP0 0.97623
funcionarios funcionario NCMP000 1
que que PR0CN000 0.5625
no no RN 0.99778
ten tener VMM02S0 1
an an NCFS000 1
una uno DI0FS0 0.951241
estrecha estrecho AQ0FS0 0.777778
relaci relaci NCMS000 0.0996348
n n NCFS000 1
con con SPS00 1
sociedades sociedad NCFP000 1
transnacionales transnacional AQ0CP0 1
constitu constitu NCMS000 1
an an NCFS000 1
una uno DI0FS0 0.951241
excepci excepci RG 0.751648
n n NCFS000 1
Cheney cheney NP00000 1
siendo ser VSG0000 1
Vicepresidente vicepresidente NP00000 1
gan gan VMIP3P0 0.787947
fortunas fortuna NCFP000 1
durante durante SPS00 1
la el DA0FS0 0.972146
guerra guerra NCFS000 1
de de SPS00 0.999919
Irak irak NP00000 1
a a SPS00 0.99585
trav trav AQ0CS0 0.0433699
s segundo NCMN000 0.622321
de de SPS00 0.999919
la el DA0FS0 0.972146
empresa empresa NCFS000 1
Halliburton halliburton NP00000 1
que que PR0CN000 0.5625
obtuvo obtener VMIS3S0 1
sin sin SPS00 1
licitaci licitaci RG 0.751648
n n NCFS000 1
contratos contrato NCMP000 1
de de SPS00 1
el el DA0MS0 1
Gobierno gobierno NP00000 1
por por SPS00 1
miles mil NCMP000 1
de de SPS00 0.999919
millones millón NCMP000 1
de de SPS00 0.999919
d d NCFS000 1
lares lar NCMP000 1
Hasta hasta NP00000 1
prove prover VMIP3S0 0.374342
a a SPS00 0.99585
las el DA0FP0 0.97051
raciones ración NCFP000 0.75
para para SPS00 0.998507
los el DA0MP0 0.97623
soldados soldado NCMP000 0.928571
que que PR0CN000 0.5625
combat combat NCMS000 1
an an NCFS000 1
por por SPS00 1
la el DA0FS0 0.972146
democracia democracia NCFS000 1
y y CC 0.999812
la el DA0FS0 0.972146
libertad libertad NCFS000 0.978261
Seg seg NP00000 1
n n NCFS000 1
un uno DI0MS0 0.986987
informe informe NCMS000 0.185057
de de SPS00 0.999919
la el DA0FS0 0.972146
comisi comisi RG 1
n n NCFS000 1
pol pol NCMS000 0.861706
tica tica AQ0FS0 0.595788
dem dem NCMS000 1
crata crata VMIP3S0 0.707183
de de SPS00 1
el el DA0MS0 1
Senado senado NP00000 1
estadounidense estadounidense AQ0CS0 0.833333
Kellog_Brown_Root_KBR kellog_brown_root_kbr NP00000 1
subsidiaria subsidiaria NCFS000 0.34285
de de SPS00 0.999919
Halliburton halliburton NP00000 1
facturaba facturar VMII3S0 0.643878
20 20 Z 1
000 0 Z 1
comidas comida NCFP000 0.175082
por por SPS00 1
d d NCFS000 1
a a SPS00 0.99585
y y CC 0.999812
serv serv NCFS000 0.159442
a a SPS00 0.99585
10 10 Z 1
000 0 Z 1
incluyendo incluir VMG0000 1
alimentos alimento NCMP000 1
congelados congelar VMP00PM 1
vencidos vencer VMP00PM 1
despu despu NCMS000 0.774439
s segundo NCMN000 0.622321
de de SPS00 0.999919
un uno DI0MS0 0.986987
a a NCFS000 0.00415028
o o CC 0.998845
El_Gobierno_de_Obama el_gobierno_de_obama NP00000 1
si si CS 0.997706
bien bien RG 0.898039
no no RN 0.99778
tiene tener VMIP3S0 1
en en SPS00 1
ese ese DD0MS0 0.98125
sentido sentido NCMS000 0.948276
las el DA0FP0 0.97051
caracter caracter NCMS000 1
sticas sticas AQ0FP0 0.416942
grotescas grotesco AQ0FP0 1
de de SPS00 0.999919
la el DA0FS0 0.972146
administraci administraci AQ0CS0 0.0199855
n n NCFS000 1
Bush bush NP00000 1
no no RN 0.99778
escapa escapar VMIP3S0 0.75
a a SPS00 0.99585
la el DA0FS0 0.972146
regla regla NCFS000 0.866667
general general AQ0CS0 0.90625
su su DP3CS0 1
equipo equipo NCMS000 0.984848
econ econ NCMS000 1
mico mico NCMS000 1
viene venir VMIP3S0 1
de de SPS00 1
el el DA0MS0 1
ri ri NCCS000 0.16663
n n NCFS000 1
de de SPS00 0.999919
Wall_Street_Y wall_street_y NP00000 1
no no RN 0.99778
parece parecer VMIP3S0 0.9875
decidido decidir VMP00SM 1
a a SPS00 0.99585
disminuir disminuir VMN0000 1
los el DA0MP0 0.97623
ingentes ingente AQ0CP0 1
beneficios beneficio NCMP000 1
de de SPS00 0.999919
la el DA0FS0 0.972146
industria industria NCFS000 0.833333
de de SPS00 0.999919
armamentos armamento NCMP000 1
recortando recortar VMG0000 1
el el DA0MS0 1
presupuesto presupuesto NCMS000 0.666667
militar militar AQ0CS0 0.666667
Lo lo NP00000 1
que que PR0CN000 0.5625
es ser VSIP3S0 1
coherente coherente AQ0CS0 1
con con SPS00 1
el el DA0MS0 1
hecho hecho NCMS000 0.381579
de de SPS00 0.999919
que que PR0CN000 0.5625
hered hered NCFS000 1
de de SPS00 0.999919
Bush bush NP00000 1
a a SPS00 1
el el DA0MS0 1
Ministro_de_Defensa_Robert_Gates ministro_de_defensa_robert_gates NP00000 1
patr patr AQ0CS0 0.0829965
n n NCFS000 1
de de SPS00 1
el el DA0MS0 1
Pent pent NP00000 1
gono gono VMIP1S0 0.0499929
la el DA0FS0 0.972146
cara cara NCFS000 0.973684
gubernamental gubernamental AQ0CS0 1
de de SPS00 1
el el DA0MS0 1
complejo complejo NCMS000 0.791667
militar militar AQ0CS0 0.666667
industrial industrial AQ0CS0 0.833333
Jeff_Connaughton jeff_connaughton NP00000 1
un uno DI0MS0 0.986987
ex ex NCCN000 0.75
colaborador colaborador AQ0MS0 0.166667
de de SPS00 1
el el DA0MS0 1
vicepresidente vicepresidente NCMS000 1
Joe_Biden joe_biden NP00000 1
que que CS 0.4375
trabaj trabaj NCMS000 0.692259
durante durante SPS00 1
muchos mucho PI0MP000 0.458333
a a SPS00 0.99585
os os PP2CP000 0.722222
en en SPS00 1
las lo PP3FPA00 0.0291584
entra entrar VMIP3S0 0.916667
as as NCMS000 1
de de SPS00 1
el el DA0MS0 1
monstruo monstruo NCMS000 1
public public RG 0.5
un uno DI0MS0 0.986987
libro libro NCMS000 0.986111
en en SPS00 1
setiembre setiembre NCMS000 1
de de SPS00 0.999919
2012 2012 Z 1
The_Payoff_Why_Wall_Street_Always_Wins_La the_payoff_why_wall_street_always_wins_la NP00000 1
recompensa recompensa NCFS000 0.666667
por por SPS00 1
qu qu NCMS000 0.774439
Wall_Street wall_street NP00000 1
siempre siempre RG 1
gana ganar VMIP3S0 0.583333
que que CS 0.4375
puede poder VMIP3S0 0.995614
resumir resumir VMN0000 1
se se PP3CN000 1
en en SPS00 1
una uno DI0FS0 0.951241
frase frase NCFS000 1
de de SPS00 1
el el DA0MS0 1
mismo mismo AQ0MS0 0.961905
autor autor NCMS000 1
Obama obama NP00000 1
fingi fingi VMIS1S0 0.0691907
reformar reformar VMN0000 1
Wall_Street_En wall_street_en NP00000 1
realidad realidad NCFS000 1
los el DA0MP0 0.97623
dirigentes dirigente AQ0CP0 0.25
pol pol NCMS000 0.861706
ticos ticos AQ0MP0 0.671839
y y CC 0.999812
los el DA0MP0 0.97623
dirigentes dirigente AQ0CP0 0.25
econ econ NCMS000 1
micos mico NCMP000 1
son ser VSIP3P0 0.986772
intercambiables intercambiable AQ0CP0 1
y y CC 0.999812
a a SPS00 0.99585
veces vez NCFP000 1
son ser VSIP3P0 0.986772
los el DA0MP0 0.97623
mismos mismo AQ0MP0 0.884615
pasan pasar VMIP3P0 1
de de SPS00 1
el el DA0MS0 1
directorio directorio NCMS000 0.559398
de de SPS00 0.999919
las el DA0FP0 0.97051
grandes grande AQ0CP0 0.95
corporaciones corporación NCFP000 1
a a SPS00 0.99585
funciones función NCFP000 0.916667
de de SPS00 0.999919
gobierno gobierno NCMS000 0.9
y y CC 0.999812
viceversa viceversa RG 1
Es es NP00000 1
lo el DA0NS0 0.457393
que que PR0CN000 0.5625
se se P00CN000 0.465602
ha haber VAIP3S0 0.998141
dado dar VMP00SM 0.972222
en en SPS00 1
llamar llamar VMN0000 1
la el DA0FS0 0.972146
puerta puerta NCFS000 1
giratoria giratorio AQ0FS0 1
Esta esta NP00000 1
rotaci rotaci VMIS1S0 0.0691907
n n NCFS000 1
de de SPS00 0.999919
los el DA0MP0 0.97623
mismos mismo AQ0MP0 0.884615
personajes personaje NCMP000 1
entre entre SPS00 0.995223
las el DA0FP0 0.97051
altas alto AQ0FP0 0.958333
finanzas finanzas NCFP000 1
y y CC 0.999812
las el DA0FP0 0.97051
funciones función NCFP000 0.916667
pol pol NCMS000 0.861706
ticas ticas AQ0FP0 0.760898
dirigentes dirigente NCCP000 0.75
exhibe exhibir VMIP3S0 0.994868
ahora ahora RG 1
en en SPS00 1
Europa europa NP00000 1
numerosos numeroso AQ0MP0 1
ejemplos ejemplo NCMP000 1
Mario_Draghi_Presidente_de_el_Banco_Central_Europeo mario_draghi_presidente_de_el_banco_central_europeo NP00000 1
fue ser VSIS3S0 0.932292
vicepresidente vicepresidente NCMS000 1
para para SPS00 0.998507
Europa_de_Goldman_Sachs_Internacional europa_de_goldman_sachs_internacional NP00000 1
y y CC 0.999812
como como CS 0.998579
tal tal DD0CS0 0.741379
trabaj trabaj NCMS000 0.692259
para para SPS00 0.998507
disimular disimular VMN0000 1
una uno DI0FS0 0.951241
parte parte NCFS000 0.497967
de de SPS00 0.999919
la el DA0FS0 0.972146
deuda deuda NCFS000 1
soberana soberano AQ0FS0 0.75
de de SPS00 0.999919
Grecia_Lucas_Papademos grecia_lucas_papademos NP00000 1
primer 1 AO0MS0 1
ministro ministro NCMS000 1
de de SPS00 0.999919
Grecia grecia NP00000 1
hasta hasta SPS00 0.955172
mayo_de_2012 [??:??/5/2012:??.??:??] W 1
como como CS 0.998579
presidente presidente NCMS000 1
de de SPS00 1
el el DA0MS0 1
Banco_Central_Hel banco_central_hel NP00000 1
nico nico AQ0MS0 0.470565
particip particip NCMS000 1
en en SPS00 1
la el DA0FS0 0.972146
disimulaci disimulaci AQ0CS0 0.0199855
n n NCFS000 1
de de SPS00 0.999919
la el DA0FS0 0.972146
deuda deuda NCFS000 1
griega griego AQ0FS0 0.75
con con SPS00 1
el el DA0MS0 1
asesoramiento asesoramiento NCMS000 1
de de SPS00 0.999919
Mario_Draghi_Mario_Monti mario_draghi_mario_monti NP00000 1
hasta hasta SPS00 0.955172
hace hacer VMIP3S0 1
poco poco RG 0.54065
Primer_Ministro_de_Italia primer_ministro_de_italia NP00000 1
fue ser VSIS3S0 0.932292
consejero consejero NCMS000 0.342905
internacional internacional AQ0CS0 0.833333
de de SPS00 0.999919
Goldman_Sachs goldman_sachs NP00000 1
y y CC 0.999812
Luis_de_Guindos_Ministro_de_Econom luis_de_guindos_ministro_de_econom NP00000 1
a a SPS00 0.99585
de de SPS00 0.999919
Espa espa NP00000 1
a a SPS00 0.99585
es ser VSIP3S0 1
un uno DI0MS0 0.986987
ex ex NCCN000 0.75
de de SPS00 0.999919
Lehman_Brothers_IV_LA_CORRUPCI_N lehman_brothers_iv_la_corrupci_n NP00000 1
es ser VSIP3S0 1
un uno DI0MS0 0.986987
fen fen NCMS000 1
meno meno NCMS000 1
mundial mundial AQ0CS0 0.928571
en en SPS00 1
el el DA0MS0 1
que que PR0CN000 0.5625
las el DA0FP0 0.97051
grandes grande AQ0CP0 0.95
sociedades sociedad NCFP000 1
transnacionales transnacional AQ0CP0 1
ocupan ocupar VMIP3P0 1
un uno DI0MS0 0.986987
lugar lugar NCMS000 1
importante importante AQ0CS0 1
como como CS 0.998579
corruptores corruptor NCMP000 0.642687
activos activo AQ0MP0 0.833333
La la NP00000 1
corrupci corrupci VMIS1S0 0.0691907
n n NCFS000 1
es ser VSIP3S0 1
un uno DI0MS0 0.986987
delito delito NCMS000 1
que que PR0CN000 0.5625
requiere requerir VMIP3S0 0.875
dos 2 Z 0.988722
autores autor NCMP000 1
el el DA0MS0 1
que que PR0CN000 0.5625
corrompe corromper VMIP3S0 0.994868
corrupci corrupci RG 0.751648
n n NCFS000 1
activa activo AQ0FS0 0.866667
y y CC 0.999812
el el DA0MS0 1
que que PR0CN000 0.5625
se se P00CN000 0.465602
deja dejar VMIP3S0 0.952381
corromper corromper VMN0000 1
corrupci corrupci RG 0.751648
n n NCFS000 1
pasiva pasivo AQ0FS0 0.833333
Tiene tiene NP00000 1
graves grave AQ0CP0 0.833333
consecuencias consecuencia NCFP000 1
econ econ NCMS000 1
micas mica NCFP000 1
y y CC 0.999812
sociales social AQ0CP0 0.9375
y y CC 0.999812
es ser VSIP3S0 1
un uno DI0MS0 0.986987
justo justo AQ0MS0 0.711538
motivo motivo NCMS000 0.888889
de de SPS00 0.999919
preocupaci preocupaci RG 0.751648
n n NCFS000 1
para para SPS00 0.998507
quienes quien PR0CP000 1
se se P00CN000 0.465602
interesan interesar VMIP3P0 1
por por SPS00 1
una uno DI0FS0 0.951241
gesti gesti NCMS000 1
n n NCFS000 1
honesta honesto AQ0FS0 0.581235
de de SPS00 0.999919
la el DA0FS0 0.972146
administraci administraci AQ0CS0 0.0199855
n n NCFS000 1
de de SPS00 0.999919
los el DA0MP0 0.97623
Estados estados NP00000 1
y y CC 0.999812
por por SPS00 1
que que CS 0.4375
haya haber VMSP3S0 0.235714
un uno DI0MS0 0.986987
control control NCMS000 1
democr democr NCMS000 1
tico tico AQ0MS0 0.806828
de de SPS00 0.999919
dicha dicha NCFS000 0.642857
gesti gesti NCMS000 1
n n NCFS000 1
Hace hace NP00000 1
unos uno DI0MP0 0.879032
a a SPS00 0.99585
os os PP2CP000 0.722222
cuando cuando CS 0.983796
se se P00CN000 0.465602
debati debati NCMS000 1
en en SPS00 1
la el DA0FS0 0.972146
Comisi comisi NP00000 1
n n NCFS000 1
de de SPS00 0.999919
Derechos_Humanos_de_las_Naciones_Unidas derechos_humanos_de_las_naciones_unidas NP00000 1
el el DA0MS0 1
tema tema NCMS000 0.953125
de de SPS00 0.999919
la el DA0FS0 0.972146
corrupci corrupci AQ0CS0 0.0199855
n n NCFS000 1
los el DA0MP0 0.97623
representantes representante NCCP000 0.875
de de SPS00 0.999919
los el DA0MP0 0.97623
pa pa NCFS000 0.740689
ses ses NCMP000 0.727093
ricos rico AQ0MP0 0.4375
intentaron intentar VMIS3P0 1
atribuir atribuir VMN0000 1
el el DA0MS0 1
fen fen NCMS000 1
meno meno NCMS000 1
exclusivamente exclusivamente RG 1
a a SPS00 0.99585
los el DA0MP0 0.97623
pa pa NCFS000 0.740689
ses ses AQ0CP0 0.068278
de de SPS00 1
el el DA0MS0 1
Sur sur NP00000 1
pero pero CC 0.998821
stos stos NCMP000 0.71747
se se P00CN000 0.465602
opusieron oponer VMIS3P0 1
a a SPS00 0.99585
tal tal DD0CS0 0.741379
enfoque enfoque NCMS000 0.625
y y CC 0.999812
la el DA0FS0 0.972146
Comisi comisi NP00000 1
n n NCFS000 1
adopt adopt NCMS000 0.607342
finalmente finalmente RG 1
una uno DI0FS0 0.951241
resoluci resoluci RG 0.751648
n n NCFS000 1
indicando indicar VMG0000 1
que que CS 0.4375
la el DA0FS0 0.972146
corrupci corrupci AQ0CS0 0.0199855
n n NCFS000 1
constitu constitu NCMS000 1
a a SPS00 0.99585
un uno DI0MS0 0.986987
fen fen NCMS000 1
meno meno NCMS000 1
mundial mundial AQ0CS0 0.928571
Hay hay NP00000 1
formas forma NCFP000 0.921053
de de SPS00 0.999919
corrupci corrupci RG 0.751648
n n NCFS000 1
que que CS 0.4375
no no RN 0.99778
se se P00CN000 0.465602
contemplan contemplar VMIP3P0 1
en en SPS00 1
las el DA0FP0 0.97051
definiciones definición NCFP000 1
habituales habitual AQ0CP0 1
ni ni CC 0.995935
se se P00CN000 0.465602
tratan tratar VMIP3P0 1
en en SPS00 1
las el DA0FP0 0.97051
conferencias conferencia NCFP000 0.75
internacionales internacional AQ0CP0 0.928571
que que PR0CN000 0.5625
tambi tambi AQ0CN0 1
n n NCFS000 1
distorsionan distorsionar VMIP3P0 1
gravemente gravemente RG 1
el el DA0MS0 1
funcionamiento funcionamiento NCMS000 1
de de SPS00 0.999919
las el DA0FP0 0.97051
instituciones institución NCFP000 1
democr democr NCMS000 1
ticas ticas AQ0FP0 0.760898
en en SPS00 1
la el DA0FS0 0.972146
adopci adopci AQ0CS0 0.0199855
n n NCFS000 1
de de SPS00 0.999919
decisiones decisión NCFP000 1
de de SPS00 0.999919
pol pol NCMS000 0.861706
tica tica AQ0FS0 0.595788
econ econ NCMS000 1
mica mica NCFS000 1
y y CC 0.999812
social social AQ0CS0 0.977273
como como CS 0.998579
son ser VSIP3P0 0.986772
tanto tanto RG 0.857895
en en SPS00 1
los el DA0MP0 0.97623
pa pa NCFS000 0.740689
ses ses NCMP000 0.727093
pobres pobre AQ0CP0 0.375
como como CS 0.998579
en en SPS00 1
los el DA0MP0 0.97623
pa pa NCFS000 0.740689
ses ses NCMP000 0.727093
ricos rico AQ0MP0 0.4375
el el DA0MS0 1
financiamiento financiamiento NCMS000 1
abierto abrir VMP00SM 1
o o CC 0.998845
encubierto encubrir VMP00SM 1
de de SPS00 0.999919
los el DA0MP0 0.97623
partidos partido NCMP000 0.928571
pol pol NCMS000 0.861706
ticos ticos AQ0MP0 0.671839
de de SPS00 0.999919
ONGs ongs NP00000 1
de de SPS00 0.999919
medios medio NCMP000 0.95
de de SPS00 0.999919
comunicaci comunicaci RG 0.751648
n n NCFS000 1
de de SPS00 0.999919
masas masa NCFP000 1
etc etcétera Fs 1
La el DA0FS0 0.972146
promoci promoci AQ0CS0 0.0199855
n n NCFS000 1
de de SPS00 0.999919
la el DA0FS0 0.972146
lucha lucha NCFS000 0.880952
contra contra SPS00 0.976316
la el DA0FS0 0.972146
corrupci corrupci AQ0CS0 0.0199855
n n NCFS000 1
no no RN 0.99778
es ser VSIP3S0 1
siempre siempre RG 1
inocente inocente AQ0CS0 0.875
y y CC 0.999812
a a SPS00 0.99585
veces vez NCFP000 1
obedece obedecer VMIP3S0 0.994868
tambi tambi AQ0CN0 1
n n NCFS000 1
a a SPS00 0.99585
intereses interés NCMP000 0.916667
particulares particular AQ0CP0 0.75
bien bien RG 0.898039
definidos definir VMP00PM 0.75
En en NP00000 1
la el DA0FS0 0.972146
lucha lucha NCFS000 0.880952
sin sin SPS00 1
cuartel cuartel NCMS000 1
por por SPS00 1
los el DA0MP0 0.97623
mercados mercado NCMP000 0.75
nacionales nacional AQ0CP0 1
e y CC 0.973684
internacionales internacional AQ0CP0 0.928571
de de SPS00 0.999919
servicios servicio NCMP000 1
de de SPS00 0.999919
armamentos armamento NCMP000 1
de de SPS00 0.999919
bienes bien NCMP000 1
de de SPS00 0.999919
consumo consumo NCMS000 0.833333
industrial industrial AQ0CS0 0.833333
y y CC 0.999812
civil civil AQ0CS0 0.95
etc etcétera Fs 1
hay haber VMIP3S0 1
empresas empresa NCFP000 1
que que CS 0.4375
est est NCMS000 1
n n NCFS000 1
en en SPS00 1
posici posici RG 0.751648
n n NCFS000 1
ventajosa ventajoso AQ0FS0 1
por por SPS00 1
su su DP3CS0 1
poder poder NCMS000 0.711538
o o CC 0.998845
econ econ NCMS000 1
mico mico NCMS000 1
porque porque CS 1
su su DP3CS0 1
oferta oferta NCFS000 0.777778
es ser VSIP3S0 1
mejor mejor AQ0CS0 0.868421
en en SPS00 1
precio precio NCMS000 0.9
y y CC 0.999812
/ / Fh 1
o o CC 0.998845
calidad calidad NCFS000 1
porque porque CS 1
el el DA0MS0 1
espionaje espionaje NCMS000 1
industrial industrial AQ0CS0 0.833333
y y CC 0.999812
comercial comercial AQ0CS0 1
les le PP3CPD00 1
permite permitir VMIP3S0 0.966667
tener tener VMN0000 1
mejor mejor RG 0.131579
informaci informaci RG 0.751648
n n NCFS000 1
para para SPS00 0.998507
negociar negociar VMN0000 1
los el DA0MP0 0.97623
contratos contrato NCMP000 1
la el DA0FS0 0.972146
red red NCFS000 1
anglosajona anglosajón AQ0FS0 0.65727
de de SPS00 0.999919
espionaje espionaje NCMS000 1
Echelon echelon NP00000 1
o o CC 0.998845
porque porque CS 1
simplemente simplemente RG 1
cuentan contar VMIP3P0 1
con con SPS00 1
el el DA0MS0 1
respaldo respaldo NCMS000 0.75
econ econ NCMS000 1
mico mico NCMS000 1
pol pol NCMS000 0.861706
tico tico AQ0MS0 0.806828
y y CC 0.999812
militar militar AQ0CS0 0.666667
de de SPS00 0.999919
algunas alguno DI0FP0 0.758065
grandes grande AQ0CP0 0.95
potencias potencia NCFP000 0.833333
Las las NP00000 1
empresas empresa NCFP000 1
que que PR0CN000 0.5625
no no RN 0.99778
cuentan contar VMIP3P0 1
con con SPS00 1
estas este DD0FP0 0.960526
ventajas ventaja NCFP000 1
para para SPS00 0.998507
poder poder VMN0000 0.288462
competir competir VMN0000 1
con con SPS00 1
ciertas cierto AQ0FP0 1
posibilidades posibilidad NCFP000 1
de de SPS00 0.999919
xito xito NCMS000 1
tienen tener VMIP3P0 1
que que CS 0.4375
recurrir recurrir VMN0000 1
con con SPS00 1
m m NCFS000 0.5
s segundo NCMN000 0.622321
frecuencia frecuencia NCFS000 1
a a SPS00 0.99585
la el DA0FS0 0.972146
corrupci corrupci AQ0CS0 0.0199855
n n NCFS000 1
de de SPS00 0.999919
los el DA0MP0 0.97623
funcionarios funcionario NCMP000 1
p p NCFS000 0.5
blicos blicos AQ0MP0 1
y y CC 0.999812
de de SPS00 0.999919
los el DA0MP0 0.97623
dirigentes dirigente NCCP000 0.75
de de SPS00 0.999919
empresas empresa NCFP000 1
privadas privar VMP00PF 0.80908
que que PR0CN000 0.5625
representan representar VMIP3P0 1
a a SPS00 0.99585
la el DA0FS0 0.972146
contraparte contraparte NCFS000 1
en en SPS00 1
sus su DP3CP0 0.998462
negociaciones negociación NCFP000 1
comerciales comercial AQ0CP0 0.75
La la NP00000 1
corrupci corrupci RG 0.751648
n n NCFS000 1
puede poder VMIP3S0 0.995614
neutralizar neutralizar VMN0000 1
as as NCMS000 1
esas ese DD0FP0 0.961538
ventajas ventaja NCFP000 1
comparativas comparativo AQ0FP0 0.35731
que que PR0CN000 0.5625
hemos haber VAIP1P0 0.969697
mencionado mencionar VMP00SM 1
de de SPS00 0.999919
que que PR0CN000 0.5625
gozan gozar VMIP3P0 1
grandes grande AQ0CP0 0.95
empresas empresa NCFP000 1
transnacionales transnacional AQ0CP0 1
De de NP00000 1
ah ah I 1
que que CS 0.4375
sobre sobre SPS00 0.994203
todo todo DI0MS0 0.559816
las el DA0FP0 0.97051
grandes grande AQ0CP0 0.95
empresas empresa NCFP000 1
transnacionales transnacional AQ0CP0 1
de de SPS00 0.999919
origen origen NCMS000 1
estadounidense estadounidense AQ0CS0 0.833333
con con SPS00 1
el el DA0MS0 1
apoyo apoyo NCMS000 0.928571
de de SPS00 1
el el DA0MS0 1
Gobierno_de_los_Estados_Unidos gobierno_de_los_estados_unidos NP00000 1
est est NCMS000 1
n n NCFS000 1
interesadas interesar VMP00PF 0.691737
en en SPS00 1
imponer imponer VMN0000 1
internacionalmente internacionalmente RG 1
medidas medida NCFP000 0.944444
anticorrupci anticorrupci RG 0.751648
n n NCFS000 1
aunque aunque CC 1
no no RN 0.99778
es ser VSIP3S0 1
para para SPS00 0.998507
nada nada PI0CS000 0.846667
seguro seguro RG 0.179487
que que CS 0.4375
se se P00CN000 0.465602
propongan proponer VMSP3P0 0.901254
respetar respetar VMN0000 1
las lo PP3FPA00 1
ellas ellos PP3FP000 1
mismas mismo AQ0FP0 0.928571
para para SPS00 0.998507
seguir seguir VMN0000 1
benefici benefici RG 0.751648
ndose ndose NCFS000 0.31746
de de SPS00 0.999919
las el DA0FP0 0.97051
aludidas aludir VMP00PF 1
ventajas ventaja NCFP000 1
comparativas comparativo AQ0FP0 0.35731
v v NCFS000 1
ase asir VMIP3S0 0.578847
Bernard_Cassen_Arri bernard_cassen_arri NP00000 1
re re AQ0CN0 0.35872
pens pens NCMP000 0.325087
es ser VSIP3S0 1
dans dans RG 0.109065
la el DA0FS0 0.972146
lutte lutte NCFS000 0.500057
anticorruption anticorruption VMIS3P0 0.923476
en en SPS00 1
Le_Monde_Diplomatique le_monde_diplomatique NP00000 1
mayo [??:??/5/??:??.??:??] W 1
2001 2001 Z 1
p p NCFS000 0.5
g gramo NCMN000 0.645114
8 8 Z 1
Es es NP00000 1
sintom sintom NCMS000 0.500053
tico tico AQ0MS0 0.806828
que que PR0CN000 0.5625
se se P00CN000 0.465602
interesen interesar VMSP3P0 0.901254
particularmente particularmente RG 1
en en SPS00 1
la el DA0FS0 0.972146
lucha lucha NCFS000 0.880952
contra contra SPS00 0.976316
la el DA0FS0 0.972146
corrupci corrupci AQ0CS0 0.0199855
n n NCFS000 1
el el DA0MS0 1
Banco_Mundial banco_mundial NP00000 1
y y CC 0.999812
una uno DI0FS0 0.951241
ONG ong NP00000 1
dedicada dedicar VMP00SF 1
espec espec RG 0.0770614
ficamente ficamente RG 1
a a SPS00 1
el el DA0MS0 1
tema tema NCMS000 0.953125
Transparency_International_El transparency_international_el NP00000 1
papel papel NCMS000 1
de de SPS00 1
el el DA0MS0 1
Banco_Mundial banco_mundial NP00000 1
en en SPS00 1
la el DA0FS0 0.972146
econom econom NCMS000 0.500053
a a SPS00 0.99585
planetaria planetario AQ0FS0 1
y y CC 0.999812
qu qu NCMS000 0.774439
intereses interés NCMP000 0.916667
sirve servir VMIP3S0 0.916667
son ser VSIP3P0 0.986772
temas tema NCMP000 0.625
suficientemente suficientemente RG 1
conocidos conocer VMP00PM 0.7
y y CC 0.999812
no no RN 0.99778
vale valer VMIP3S0 0.904762
la el DA0FS0 0.972146
pena pena NCFS000 0.925926
extender extender VMN0000 1
se se PP3CN000 1
En_cuanto_a_Transparency_International en_cuanto_a_transparency_international NP00000 1
citamos citar VMIP1P0 0.649991
a a SPS00 0.99585
continuaci continuaci RG 0.751648
n n NCFS000 1
fragmentos fragmento NCMP000 1
de de SPS00 0.999919
una uno DI0FS0 0.951241
nota nota NCFS000 0.3125
aparecida aparecer VMP00SF 1
en en SPS00 1
la el DA0FS0 0.972146
p p NCFS000 0.5
gina gina VMIP3S0 0.333217
23 23 Z 1
de de SPS00 0.999919
Le_Monde_Diplomatique le_monde_diplomatique NP00000 1
de de SPS00 0.999919
noviembre_del_2000 [??:??/11/2000:??.??:??] W 1
nuestra nuestro DP1FSP 0.892857
la el DA0FS0 0.972146
traducci traducci AQ0CS0 0.0199855
n n NCFS000 1
Transparency_International transparency_international NP00000 1
fue ser VSIS3S0 0.932292
fundada fundar VMP00SF 1
en en SPS00 1
1993 1993 Z 1
por por SPS00 1
el el DA0MS0 1
Sr_Peter_Eigen sr_peter_eigen NP00000 1
un uno DI0MS0 0.986987
ex ex AQ0CN0 0.25
funcionario funcionario NCMS000 1
de de SPS00 1
el el DA0MS0 1
Banco_Mundial_Clasifica banco_mundial_clasifica NP00000 1
a a SPS00 0.99585
los el DA0MP0 0.97623
pa pa NCFS000 0.740689
ses ses AQ0CP0 0.068278
en en SPS00 1
funci funci RG 0.751648
n n NCFS000 1
de de SPS00 0.999919
la el DA0FS0 0.972146
corrupci corrupci AQ0CS0 0.0199855
n n NCFS000 1
existente existente AQ0CS0 1
en en SPS00 1
las el DA0FP0 0.97051
administraciones administración NCFP000 1
y y CC 0.999812
en en SPS00 1
los el DA0MP0 0.97623
hombres hombre NCMP000 1
pol pol NCMS000 0.861706
ticos ticos AQ0MP0 0.671839
La la NP00000 1
organizaci organizaci RG 0.751648
n n NCFS000 1
se se P00CN000 0.465602
ha haber VAIP3S0 0.998141
fijado fijar VMP00SM 1
como como CS 0.998579
regla regla NCFS000 0.866667
no no RN 0.99778
denunciar denunciar VMN0000 1
por por SPS00 1
su su DP3CS0 1
nombre nombre NCMS000 0.97973
a a SPS00 0.99585
las el DA0FP0 0.97051
empresas empresa NCFP000 1
corruptoras corruptor AQ0FP0 0.657251
Sus sus NP00000 1
ataques ataque NCMP000 0.928571
se se P00CN000 0.465602
dirigen dirigir VMIP3P0 1
exclusivamente exclusivamente RG 1
contra contra SPS00 0.976316
los el DA0MP0 0.97623
Estados_Es estados_es NP00000 1
la el DA0FS0 0.972146
principal principal AQ0CS0 0.9375
debilidad debilidad NCFS000 1
de de SPS00 0.999919
su su DP3CS0 1
acci acci RG 0.751648
n n NCFS000 1
porque porque CS 1
ciertas cierto AQ0FP0 1
sociedades sociedad NCFP000 1
transnacionales transnacional AQ0CP0 1
no no RN 0.99778
tienen tener VMIP3P0 1
ra ra RG 0.127951
ces c NCFP000 1
nacionales nacional AQ0CP0 1
y y CC 0.999812
T_I t_i NP00000 1
las lo PP3FPA00 0.0291584
elimina eliminar VMIP3S0 0.994868
de de SPS00 0.999919
entrada entrada NCFS000 0.833333
de de SPS00 0.999919
sus su DP3CP0 0.998462
estudios estudio NCMP000 1
El el NP00000 1
presupuesto presupuestar VMIP1S0 0.166667
de de SPS00 0.999919
la el DA0FS0 0.972146
organizaci organizaci AQ0CS0 0.0199855
n n NCFS000 1
en en SPS00 1
1999 1999 Z 1
fue ser VSIS3S0 0.932292
de de SPS00 0.999919
2_millones_y_medio_de_d TM_d:2500000 Zu 1
lares lar NCMP000 1
Un_tercio 1/3 Zp 1
proviene provenir VMIP3S0 1
de de SPS00 0.999919
donaciones donación NCFP000 1
de de SPS00 0.999919
grandes grande AQ0CP0 0.95
fundaciones fundación NCFP000 1
internacionales internacional AQ0CP0 0.928571
otro otro DI0MS0 0.61215
tercio tercio NCMS000 0.666667
proviene provenir VMIP3S0 1
de de SPS00 0.999919
organismos organismo NCMP000 1
para para SPS00 0.998507
el el DA0MS0 1
desarrollo desarrollo NCMS000 0.964286
y y CC 0.999812
de de SPS00 0.999919
organizaciones organización NCFP000 1
internacionales internacional AQ0CP0 0.928571
como como CS 0.998579
el el DA0MS0 1
Banco_Mundial banco_mundial NP00000 1
y y CC 0.999812
el el DA0MS0 1
ltimo ltimo RG 1
tercio tercio AQ0MS0 0.166667
es ser VSIP3S0 1
cubierto cubrir VMP00SM 0.9
por por SPS00 1
grandes grande AQ0CP0 0.95
empresas empresa NCFP000 1
como como CS 0.998579
IBM ibm NP00000 1
y y CC 0.999812
General_Electric_General_Electric general_electric_general_electric NP00000 1
uno uno PI0MS000 0.964744
de de SPS00 0.999919
los el DA0MP0 0.97623
sponsors sponsor NCCP000 1
de de SPS00 0.999919
T_I t_i NP00000 1
fue ser VSIS3S0 0.932292
condenada condenar VMP00SF 0.833333
en en SPS00 1
1997 1997 Z 1
a a SPS00 0.99585
una uno DI0FS0 0.951241
multa multa NCFS000 0.54702
de de SPS00 0.999919
25_millones_de_d TM_d:25000000 Zu 1
lares lar NCMP000 1
por por SPS00 1
actos acto NCMP000 1
de de SPS00 0.999919
corrupci corrupci RG 0.751648
n n NCFS000 1
en en SPS00 1
Egipto egipto NP00000 1
de de SPS00 0.999919
la el DA0FS0 0.972146
misma mismo AQ0FS0 0.916667
fuente fuente NCFS000 1
En en NP00000 1
un uno DI0MS0 0.986987
cable cable NCMS000 1
de de SPS00 0.999919
Interpress_Service interpress_service NP00000 1
de de SPS00 1
el el DA0MS0 1
18_de_octubre_de_2005 [??:18/10/2005:??.??:??] W 1
se se P00CN000 0.465602
dec dec NC00000 0.538029
a a SPS00 0.99585
El el NP00000 1
ndice ndice NCMS000 1
de de SPS00 0.999919
Percepci percepci NP00000 1
n n NCFS000 1
de de SPS00 0.999919
la el DA0FS0 0.972146
Corrupci corrupci NP00000 1
n n NCFS000 1
de de SPS00 0.999919
la el DA0FS0 0.972146
organizaci organizaci AQ0CS0 0.0199855
n n NCFS000 1
Transparencia_Internacional transparencia_internacional NP00000 1
vuelve volver VMIP3S0 0.944444
a a SPS00 0.99585
mostrar mostrar VMN0000 1
este este DD0MS0 0.956743
a a NCFS000 0.00415028
o o CC 0.998845
la el DA0FS0 0.972146
comprometida comprometer VMP00SF 1
situaci situaci RG 0.751648
n n NCFS000 1
de de SPS00 1
el el DA0MS0 1
Sur sur NP00000 1
que que PR0CN000 0.5625
cuenta contar VMIP3S0 0.219697
con con SPS00 1
una uno DI0FS0 0.951241
peque peque NCCS000 0.618697
a a SPS00 0.99585
ayudita ayuda NCFS00D 1
de de SPS00 0.999919
los el DA0MP0 0.97623
bancos banco NCMP000 1
de de SPS00 1
el el DA0MS0 1
Norte norte NP00000 1
industrial industrial AQ0CS0 0.833333
La la NP00000 1
fuga fuga NCFS000 0.888889
total total AQ0CS0 0.944444
de de SPS00 0.999919
capitales capital NCMP000 0.53005
anual anual AQ0CS0 1
de de SPS00 0.999919
frica fricar VMIP3S0 0.994868
es ser VSIP3S0 1
de de SPS00 0.999919
unos uno DI0MP0 0.879032
150 150 Z 1
000_millones_de_d TM_d:0 Zu 1
lares lar NCMP000 1
mientras_que mientras_que CS 1
el el DA0MS0 1
total total AQ0CS0 0.944444
de de SPS00 1
el el DA0MS0 1
flujo flujo NCMS000 1
de de SPS00 0.999919
asistencia asistencia NCFS000 1
que que PR0CN000 0.5625
recibe recibir VMIP3S0 0.833333
el el DA0MS0 1
continente continente NCMS000 0.875
asciende ascender VMIP3S0 0.994868
a a SPS00 0.99585
25 25 Z 1
000_millones 0 Zd 1
dijo decir VMIS3S0 1
a a SPS00 0.99585
IPS_Chandrashekhar_Krishnan ips_chandrashekhar_krishnan NP00000 1
director director NCMS000 0.970588
ejecutivo ejecutivo AQ0MS0 0.25
de de SPS00 0.999919
la el DA0FS0 0.972146
filial filial NCCS000 0.833333
de de SPS00 0.999919
Transparencia transparencia NP00000 1
en en SPS00 1
Gran_Breta gran_breta NP00000 1
a a SPS00 0.99585
Esa esa NP00000 1
fuga fuga NCFS000 0.888889
de de SPS00 0.999919
capitales capital NCMP000 0.53005
representa representar VMIP3S0 0.928571
b b NCFS000 1
sicamente sicamente RG 1
la el DA0FS0 0.972146
ruta ruta NCFS000 1
de de SPS00 0.999919
los el DA0MP0 0.97623
bienes bien NCMP000 1
estatales estatal AQ0CP0 1
en_manos_de en_manos_de SPS00 1
pol pol NCMS000 0.861706
ticos ticos AQ0MP0 0.671839
corruptos corrupto AQ0MP0 1
agreg agreg NCMS000 0.714133
Krishnan_Ese krishnan_ese NP00000 1
dinero dinero NCMS000 1
es ser VSIP3S0 1
depositado depositar VMP00SM 1
en en SPS00 1
instituciones institución NCFP000 1
financieras financiero AQ0FP0 0.289402
de de SPS00 0.999919
Londres_de_Zurich_de_Nueva_York_Sugiero londres_de_zurich_de_nueva_york_sugiero NP00000 1
que que CS 0.4375
los el DA0MP0 0.97623
gobiernos gobierno NCMP000 1
occidentales occidental AQ0CP0 0.75
hagan hacer VMSP3P0 0.875
mucho mucho RG 0.699275
m m NCFS000 0.5
s segundo NCMN000 0.622321
para para SPS00 0.998507
asegurar asegurar VMN0000 1
se se PP3CN000 1
de de SPS00 0.999919
que que CS 0.4375
sus su DP3CP0 0.998462
sistemas sistema NCMP000 1
financieros financiero NCMP000 0.75
no no RN 0.99778
sean ser VSSP3P0 0.958333
utilizados utilizar VMP00PM 1
para para SPS00 0.998507
lavar lavar VMN0000 1
dinero dinero NCMS000 1
recomend recomend NCMS000 0.500008
Pero pero NP00000 1
el el DA0MS0 1
hecho hecho NCMS000 0.381579
de de SPS00 0.999919
que que CS 0.4375
los el DA0MP0 0.97623
bancos banco NCMP000 1
de de SPS00 0.999919
Gran_Breta gran_breta NP00000 1
a a SPS00 0.99585
Suiza suiza NP00000 1
y y CC 0.999812
Estados_Unidos estados_unidos NP00000 1
reciban recibir VMSP3P0 0.901253
dinero dinero NCMS000 1
sucio sucio AQ0MS0 1
no no RN 0.99778
queda quedar VMIP3S0 0.885417
marcado marcar VMP00SM 1
en en SPS00 1
el el DA0MS0 1
ndice ndice NCMS000 1
de de SPS00 0.999919
Percepci percepci NP00000 1
n n NCFS000 1
de de SPS00 0.999919
la el DA0FS0 0.972146
Corrupci corrupci NP00000 1
n n NCFS000 1
de de SPS00 0.999919
Transparency_International_IPS transparency_international_ips NP00000 1
18/10/2005 [??:18/10/2005:??.??:??] W 1
Pero pero NP00000 1
con con SPS00 1
independencia independencia NCFS000 1
de de SPS00 0.999919
las el DA0FP0 0.97051
intenciones intención NCFP000 1
de de SPS00 0.999919
algunos alguno DI0MP0 0.476562
promotores promotor NCMP000 0.64273
de de SPS00 0.999919
las el DA0FP0 0.97051
campa campar VMIP3S0 0.994867
as as NCMS000 1
contra contra SPS00 0.976316
la el DA0FS0 0.972146
corrupci corrupci AQ0CS0 0.0199855
n n NCFS000 1
sta sta AQ0CS0 0.210375
es ser VSIP3S0 1
una uno DI0FS0 0.951241
lacra lacra NCFS000 0.666667
real real AQ0CS0 0.970588
que que PR0CN000 0.5625
es ser VSIP3S0 1
preciso preciso AQ0MS0 0.9
denunciar denunciar VMN0000 1
y y CC 0.999812
combatir combatir VMN0000 1
y y CC 0.999812
cuyas cuyo PR0FP000 1
causas causa NCFP000 0.833333
profundas profundo AQ0FP0 0.97439
y y CC 0.999812
mecanismos mecanismo NCMP000 1
es ser VSIP3S0 1
necesario necesario AQ0MS0 1
desentra desentrar VMIP3S0 0.994868
ar ar I 1
La la NP00000 1
corrupci corrupci AQ0CS0 0.0199855
n n NCFS000 1
de de SPS00 0.999919
los el DA0MP0 0.97623
funcionarios funcionario NCMP000 1
p p NCFS000 0.5
blicos blicos AQ0MP0 1
es ser VSIP3S0 1
un uno DI0MS0 0.986987
delito delito NCMS000 1
en en SPS00 1
muchos mucho DI0MP0 0.541667
pa pa NCFS000 0.740689
ses ses NCMP000 0.727093
por_lo_menos por_lo_menos RG 1
formalmente formalmente RG 1
Pero pero NP00000 1
en en SPS00 1
los el DA0MP0 0.97623
pa pa NCFS000 0.740689
ses ses AQ0CP0 0.068278
m m NCFS000 0.5
s segundo NCMN000 0.622321
ricos rico AQ0MP0 0.4375
aunque aunque CC 1
existe existir VMIP3S0 0.966667
cierto cierto AQ0MS0 1
rigor rigor NCMS000 1
para para SPS00 0.998507
sancionar sancionar VMN0000 1
a a SPS00 0.99585
los el DA0MP0 0.97623
propios propio AQ0MP0 0.884615
funcionarios funcionario NCMP000 1
p p NCFS000 0.5
blicos blicos AQ0MP0 1
incursos incurso AQ0MP0 1
en en SPS00 1
corrupci corrupci RG 0.751648
n n NCFS000 1
pasiva pasivo AQ0FS0 0.833333
no no RN 0.99778
se se P00CN000 0.465602
castiga castigar VMIP3S0 0.833333
a a SPS00 0.99585
los el DA0MP0 0.97623
propios propio NCMP000 0.115385
nacionales nacional AQ0CP0 1
que que PR0CN000 0.5625
corrompen corromper VMIP3P0 1
a a SPS00 0.99585
funcionarios funcionario NCMP000 1
extranjeros extranjero AQ0MP0 0.833333
es ser VSIP3S0 1
decir decir VMN0000 0.987805
que que CS 0.4375
incurren incurrir VMIP3P0 1
en en SPS00 1
corrupci corrupci RG 0.751648
n n NCFS000 1
activa activo AQ0FS0 0.866667
Una uno DI0FS0 0.951241
excepci excepci AQ0CS0 0.0199855
n n NCFS000 1
a a SPS00 0.99585
esto este PD0NS000 1
ltimo ltimo RG 1
son ser VSIP3P0 0.986772
los el DA0MP0 0.97623
Estados_Unidos estados_unidos NP00000 1
donde donde PR000000 0.963542
se se P00CN000 0.465602
sancion sancion VMIS3P0 0.923476
en en SPS00 1
1977 1977 Z 1
una uno DI0FS0 0.951241
ley ley NCFS000 1
sobre sobre SPS00 0.994203
las el DA0FP0 0.97051
pr pr NCMS000 0.224371
cticas cticas AQ0FP0 0.411782
de de SPS00 0.999919
corrupci corrupci RG 0.751648
n n NCFS000 1
en en SPS00 1
el el DA0MS0 1
exterior exterior NCMS000 0.3125
bajo bajo SPS00 0.866071
el el DA0MS0 1
impacto impacto NCMS000 0.973497
de de SPS00 0.999919
los el DA0MP0 0.97623
casos caso NCMP000 1
de de SPS00 0.999919
sobornos soborno NCMP000 1
pagados pagar VMP00PM 1
por por SPS00 1
las el DA0FP0 0.97051
empresas empresa NCFP000 1
Lockheed_Northrop lockheed_northrop NP00000 1
y y CC 0.999812
Gulf_Oil_Pero gulf_oil_pero NP00000 1
las el DA0FP0 0.97051
legislaciones legislación NCFP000 1
europeas europeo AQ0FP0 0.833333
son ser VSIP3P0 0.986772
mucho mucho DI0MS0 0.275362
m m NCFS000 0.5
s segundo NCMN000 0.622321
liberales liberal AQ0CP0 0.481905
y y CC 0.999812
no no RN 0.99778
castigan castigar VMIP3P0 1
el el DA0MS0 1
soborno soborno NCMS000 0.973497
a a SPS00 0.99585
funcionarios funcionario NCMP000 1
extranjeros extranjero AQ0MP0 0.833333
M m NP00000 1
s segundo NCMN000 0.622321
a a SPS00 0.99585
n n NCFS000 1
en en SPS00 1
Alemania alemania NP00000 1
en en SPS00 1
Suiza suiza NP00000 1
y y CC 0.999812
en en SPS00 1
B b NP00000 1
lgica lgica AQ0FS0 1
entre entre SPS00 0.995223
otros otro DI0MP0 0.56875
pa pa NCFS000 0.740689
ses ses NCMP000 0.727093
europeos europeo AQ0MP0 0.5
el el DA0MS0 1
fisco fisco NCMS000 1
autoriza autorizar VMIP3S0 0.75
a a SPS00 0.99585
deducir deducir VMN0000 1
de de SPS00 0.999919
los el DA0MP0 0.97623
impuestos impuesto NCMP000 0.833333
tal tal DD0CS0 0.741379
clase clase NCFS000 1
de de SPS00 0.999919
gastos gasto NCMP000 1
es ser VSIP3S0 1
decir decir VMN0000 0.987805
que que CS 0.4375
la el DA0FS0 0.972146
corrupci corrupci AQ0CS0 0.0199855
n n NCFS000 1
de de SPS00 0.999919
funcionarios funcionario NCMP000 1
extranjeros extranjero AQ0MP0 0.833333
est est NCMS000 1
de de SPS00 0.999919
hecho hecho NCMS000 0.381579
legalizada legalizar VMP00SF 1
En en NP00000 1
los lo PP3MPA00 0.023584
ltimos ltimos VMIP1P0 0.856975
a a SPS00 0.99585
os os PP2CP000 0.722222
se se P00CN000 0.465602
han haber VAIP3P0 1
aprobado aprobar VMP00SM 0.691767
convenios convenio NCMP000 0.991463
internacionales internacional AQ0CP0 0.928571
contra contra SPS00 0.976316
la el DA0FS0 0.972146
corrupci corrupci AQ0CS0 0.0199855
n n NCFS000 1
La_Convenci la_convenci NP00000 1
n n NCFS000 1
Interamericana interamericana NP00000 1
de de SPS00 0.999919
1996 1996 Z 1
la el DA0FS0 0.972146
Convenci convenci NP00000 1
n n NCFS000 1
de de SPS00 0.999919
la el DA0FS0 0.972146
OCDE ocde NP00000 1
de de SPS00 0.999919
1997 1997 Z 1
vigente vigente AQ0CS0 1
desde desde SPS00 1
1999 1999 Z 1
la el DA0FS0 0.972146
Convenci convenci NP00000 1
n n NCFS000 1
Penal_Europea penal_europea NP00000 1
sobre sobre SPS00 0.994203
la el DA0FS0 0.972146
corrupci corrupci NCMS000 0.0996348
n n NCFS000 1
aprobada aprobar VMP00SF 1
por por SPS00 1
el el DA0MS0 1
Consejo_de_Europa consejo_de_europa NP00000 1
el el DA0MS0 1
27_de_enero_de_1999 [??:27/1/1999:??.??:??] W 1
en en SPS00 1
vigor vigor NCMS000 1
desde desde SPS00 1
el el DA0MS0 1
1_de_julio_de_2002 [??:1/7/2002:??.??:??] W 1
que que PR0CN000 0.5625
es ser VSIP3S0 1
la el DA0FS0 0.972146
m m NCFS000 0.5
s segundo NCMN000 0.622321
completa completo AQ0FS0 0.888889
y y CC 0.999812
la el DA0FS0 0.972146
Convenci convenci NP00000 1
n n NCFS000 1
civil civil AQ0CS0 0.95
europea europeo AQ0FS0 0.9
contra contra SPS00 0.976316
la el DA0FS0 0.972146
corrupci corrupci AQ0CS0 0.0199855
n n NCFS000 1
en en SPS00 1
vigor vigor NCMS000 1
desde desde SPS00 1
el el DA0MS0 1
1_de_noviembre_de_2003 [??:1/11/2003:??.??:??] W 1
Pero pero NP00000 1
a_pesar_de a_pesar_de SPS00 1
dichos decir VMP00PM 0.75
convenios convenio NCMP000 0.991463
y y CC 0.999812
aunque aunque CC 1
se se P00CN000 0.465602
advierten advertir VMIP3P0 1
ligeros ligero AQ0MP0 1
progresos progreso NCMP000 1
la el DA0FS0 0.972146
corrupci corrupci AQ0CS0 0.0199855
n n NCFS000 1
siguen seguir VMIP3P0 1
gozando gozar VMG0000 1
de de SPS00 0.999919
buena bueno AQ0FS0 1
salud salud NCFS000 1
Por_ejemplo_la_Comisi por_ejemplo_la_comisi NP00000 1
n n NCFS000 1
Europea europea NP00000 1
especie especie NCFS000 1
de de SPS00 0.999919
rgano rgano NCMS000 1
ejecutivo ejecutivo AQ0MS0 0.25
de de SPS00 0.999919
la el DA0FS0 0.972146
Uni uni NP00000 1
n n NCFS000 1
Europea europea NP00000 1
trabaja trabajar VMIP3S0 0.875
en en SPS00 1
estrecha estrecho AQ0FS0 0.777778
colaboraci colaboraci NCMS000 0.0996348
n n NCFS000 1
con con SPS00 1
las el DA0FP0 0.97051
grandes grande AQ0CP0 0.95
sociedades sociedad NCFP000 1
transnacionales transnacional AQ0CP0 1
europeas europeo AQ0FP0 0.833333
la el DA0FS0 0.972146
Mesa_Redonda_de_los_Industriales_Europeos_ERT_La_Convenci mesa_redonda_de_los_industriales_europeos_ert_la_convenci NP00000 1
n n NCFS000 1
de de SPS00 0.999919
la el DA0FS0 0.972146
OCDE ocde NP00000 1
no no RN 0.99778
es ser VSIP3S0 1
directamente directamente RG 1
aplicable aplicable AQ0CS0 1
en en SPS00 1
los el DA0MP0 0.97623
Estados estados NP00000 1
signatarios signatario AQ0MP0 0.490588
y y CC 0.999812
requiere requerir VMIP3S0 0.875
una uno DI0FS0 0.951241
legislaci legislaci AQ0CS0 0.0199855
n n NCFS000 1
interna interno AQ0FS0 0.75
de de SPS00 0.999919
aplicaci aplicaci RG 0.751648
n n NCFS000 1
No no NP00000 1
incluye incluir VMIP3S0 0.75
a a SPS00 0.99585
las el DA0FP0 0.97051
filiales filial NCCP000 0.34273
instaladas instalar VMP00PF 1
en en SPS00 1
pa pa NCFS000 0.740689
ses ses NCMP000 0.727093
no no RN 0.99778
miembros miembro NCMP000 0.916667
de de SPS00 0.999919
la el DA0FS0 0.972146
OCDE ocde NP00000 1
de de SPS00 0.999919
empresas empresa NCFP000 1
que que PR0CN000 0.5625
tienen tener VMIP3P0 1
su su DP3CS0 1
sede sede NCFS000 0.8125
principal principal AQ0CS0 0.9375
en en SPS00 1
los el DA0MP0 0.97623
Estados estados NP00000 1
miembros miembro NCMP000 0.916667
es ser VSIP3S0 1
decir decir VMN0000 0.987805
se se P00CN000 0.465602
acepta aceptar VMIP3S0 0.777778
la el DA0FS0 0.972146
ficci ficci NCMS000 0.0996348
n n NCFS000 1
jur jur NCMS000 0.75005
dica dica VMIP3S0 0.768885
de de SPS00 0.999919
la el DA0FS0 0.972146
autonom autonom NCMS000 0.500053
a a SPS00 0.99585
de de SPS00 0.999919
la el DA0FS0 0.972146
filial filial NCCS000 0.833333
sin sin SPS00 1
levantar levantar VMN0000 1
el el DA0MS0 1
velo velo NCMS000 0.841777
de de SPS00 0.999919
la el DA0FS0 0.972146
realidad realidad NCFS000 1
econ econ NCMS000 1
mica mica NCFS000 1
de de SPS00 0.999919
que que PR0CN000 0.5625
dichas dicha NCFP000 0.25
filiales filial AQ0CP0 0.65727
forman formar VMIP3P0 1
un uno DI0MS0 0.986987
todo todo PI0MS000 0.430982
con con SPS00 1
la el DA0FS0 0.972146
sociedad sociedad NCFS000 1
matriz matriz AQ0FS0 0.25
Eso eso NP00000 1
permite permitir VMIP3S0 0.966667
continuar continuar VMN0000 1
empleando emplear VMG0000 1
pr pr VMN0000 0.633986
cticas cuenta NCFP00D 0.588218
de de SPS00 0.999919
corrupci corrupci RG 0.751648
n n NCFS000 1
a a SPS00 0.99585
trav trav AQ0CS0 0.0433699
s segundo NCMN000 0.622321
de de SPS00 0.999919
las el DA0FP0 0.97051
filiales filial NCCP000 0.34273
instaladas instalar VMP00PF 1
en en SPS00 1
pa pa NCFS000 0.740689
ses ses NCMP000 0.727093
no no RN 0.99778
miembros miembro NCMP000 0.916667
de de SPS00 0.999919
la el DA0FS0 0.972146
OCDE_Este ocde_este NP00000 1
sistema sistema NCMS000 1
lo lo PP3CNA00 0.271163
usan usar VMIP3P0 1
habitualmente habitualmente RG 1
las el DA0FP0 0.97051
sociedades sociedad NCFP000 1
transnacionales transnacional AQ0CP0 1
estadounidenses estadounidense AQ0CP0 0.875
para para SPS00 0.998507
eludir eludir VMN0000 1
la el DA0FS0 0.972146
legislaci legislaci AQ0CS0 0.0199855
n n NCFS000 1
de de SPS00 0.999919
Estados_Unidos estados_unidos NP00000 1
contra contra SPS00 0.976316
la el DA0FS0 0.972146
corrupci corrupci AQ0CS0 0.0199855
n n NCFS000 1
y y CC 0.999812
por por SPS00 1
cierto cierto AQ0MS0 1
lo lo PP3CNA00 0.271163
utilizan utilizar VMIP3P0 1
tambi tambi AQ0CN0 1
n n NCFS000 1
las el DA0FP0 0.97051
sociedades sociedad NCFP000 1
transnacionales transnacional AQ0CP0 1
basadas basar VMP00PF 0.616789
en en SPS00 1
otros otro DI0MP0 0.56875
pa pa NCFS000 0.740689
ses ses AQ0CP0 0.068278
V_LA_IMPUNIDAD_DE_LOS_GRANDES_BENEFICIARIOS_DE_LOS_DELITOS_ECONOMICOS_ES_UNA_CONSTANTE_A_ESCALA_MUNDIAL_COMO_CONSECUENCIA_DE_LA_MANERA_EN_QUE_FUNCIONAN_EN_LA_PR_CTICA_LOS_PODERES_POLITICOS_Y_LAS_INSTITUCIONES_POLITICAS_JUDICIALES_Y_ADMINISTRATIVAS_Si v_la_impunidad_de_los_grandes_beneficiarios_de_los_delitos_economicos_es_una_constante_a_escala_mundial_como_consecuencia_de_la_manera_en_que_funcionan_en_la_pr_ctica_los_poderes_politicos_y_las_instituciones_politicas_judiciales_y_administrativas_si NP00000 1
bien bien RG 0.898039
la el DA0FS0 0.972146
influencia influencia NCFS000 0.866667
de de SPS00 1
el el DA0MS0 1
poder poder NCMS000 0.711538
econ econ NCMS000 1
mico mico NCMS000 1
sobre sobre SPS00 0.994203
el el DA0MS0 1
poder poder NCMS000 0.711538
pol pol NCMS000 0.861706
tico tico AQ0MS0 0.806828
es ser VSIP3S0 1
una uno DI0FS0 0.951241
realidad realidad NCFS000 1
desde desde SPS00 1
que que CS 0.4375
el el DA0MS0 1
poder poder NCMS000 0.711538
econ econ NCMS000 1
mico mico NCMS000 1
existe existir VMIP3S0 0.966667
en en SPS00 1
los el DA0MP0 0.97623
ltimos ltimos AQ0MP0 0.143025
decenios decenio NCMP000 1
se se P00CN000 0.465602
advierte advertir VMIP3S0 0.9
un uno DI0MS0 0.986987
neto neto AQ0MS0 1
avance avance NCMS000 0.8125
de de SPS00 1
el el DA0MS0 1
poder poder NCMS000 0.711538
econ econ NCMS000 1
mico mico NCMS000 1
a_expensas_de a_expensas_de SPS00 1
el el DA0MS0 1
poder poder NCMS000 0.711538
pol pol NCMS000 0.861706
tico tico AQ0MS0 0.806828
que que PR0CN000 0.5625
ya ya RG 0.996988
est est NCMS000 1
cuestionando cuestionar VMG0000 1
hasta hasta SPS00 0.955172
los el DA0MP0 0.97623
aspectos aspecto NCMP000 1
formales formal AQ0CP0 0.833333
de de SPS00 0.999919
la el DA0FS0 0.972146
llamada llamar VMP00SF 0.875
democracia democracia NCFS000 1
representativa representativo AQ0FS0 1
y y CC 0.999812
el el DA0MS0 1
papel papel NCMS000 1
de de SPS00 0.999919
las el DA0FP0 0.97051
instituciones institución NCFP000 1
pol pol NCMS000 0.861706
ticas ticas AQ0FP0 0.760898
tanto tanto RG 0.857895
nacionales nacional AQ0CP0 1
como como CS 0.998579
internacionales internacional AQ0CP0 0.928571
como como CS 0.998579
mediadores mediador AQ0MP0 0.357297
o o CC 0.998845
presuntos presunto AQ0MP0 1
mediadores mediador NCMP000 0.642703
entre entre SPS00 0.995223
intereses interés NCMP000 0.916667
diferentes diferente AQ0CP0 1
o o CC 0.998845
contradictorios contradictorio AQ0MP0 1
La la NP00000 1
democracia democracia NCFS000 1
representativa representativo AQ0FS0 1
tal_como tal_y_como CS 1
existe existir VMIP3S0 0.966667
actualmente actualmente RG 1
es ser VSIP3S0 1
una uno DI0FS0 0.951241
democracia democracia NCFS000 1
elitista elitista AQ0CS0 1
porque porque CS 1
en en SPS00 1
ella él PP3FS000 1
todos todo DI0MP0 0.622419
son ser VSIP3P0 0.986772
formalmente formalmente RG 1
iguales igual AQ0CP0 0.777778
ante ante SPS00 0.990566
la el DA0FS0 0.972146
ley ley NCFS000 1
pero pero CC 0.998821
desiguales desigual AQ0CP0 0.974074
de de SPS00 0.999919
hecho_frente hacer_frente VMP00SM 1
a a SPS00 1
el el DA0MS0 1
derecho derecho NCMS000 0.884615
de de SPS00 0.999919
propiedad propiedad NCFS000 1
de de SPS00 0.999919
los el DA0MP0 0.97623
instrumentos instrumento NCMP000 1
y y CC 0.999812
medios medio NCMP000 0.95
de de SPS00 0.999919
producci producci RG 0.751648
n n NCFS000 1
Una uno DI0FS0 0.951241
nfima nfima NCFS000 0.369253
minor minor AQ0CS0 0.488811
a a SPS00 0.99585
es ser VSIP3S0 1
propietaria propietario AQ0FS0 0.35745
de de SPS00 0.999919
estos este DD0MP0 0.990566
ltimos ltimos AQ0MP0 0.143025
lo el DA0NS0 0.457393
que que PR0CN000 0.5625
genera generar VMIP3S0 0.994868
las el DA0FP0 0.97051
cada cada DI0CS0 1
vez vez NCFS000 1
m m NCFS000 0.5
s segundo NCMN000 0.622321
profundas profundo AQ0FP0 0.97439
desigualdades desigualdad NCFP000 1
econ econ NCMS000 1
micas mica NCFP000 1
sociales social AQ0CP0 0.9375
culturales cultural AQ0CP0 1
e y CC 0.973684
incluso incluso RG 0.988095
pol pol NCMS000 0.861706
ticas ticas AQ0FP0 0.760898
entre entre SPS00 0.995223
la el DA0FS0 0.972146
minor minor NCMS000 0.511189
a a SPS00 0.99585
propietaria propietario NCFS000 0.64255
y y CC 0.999812
las el DA0FP0 0.97051
mayor mayor AQ0CS0 0.989796
as as NCMS000 1
explotadas explotar VMP00PF 1
Dicho dicho NP00000 1
de de SPS00 0.999919
otra otro DI0FS0 0.801136
manera manera NCFS000 1
la el DA0FS0 0.972146
corrupci corrupci AQ0CS0 0.0199855
n n NCFS000 1
y y CC 0.999812
otros otro DI0MP0 0.56875
delitos delito NCMP000 1
econ econ NCMS000 1
micos mico NCMP000 1
son ser VSIP3P0 0.986772
inherentes inherente AQ0CP0 1
a a SPS00 1
el el DA0MS0 1
sistema sistema NCMS000 1
capitalista capitalista AQ0CS0 0.833333
VI_EL_CASO_ARGENTINO_El_Gobierno vi_el_caso_argentino_el_gobierno NP00000 1
argentino argentino AQ0MS0 0.25
ocupa ocupar VMIP3S0 0.875
un uno DI0MS0 0.986987
lugar lugar NCMS000 1
destacado destacar VMP00SM 1
en en SPS00 1
el el DA0MS0 1
ranking ranking NCMS000 1
mundial mundial AQ0CS0 0.928571
en_materia_de en_materia_de SPS00 1
comisi comisi RG 1
n n NCFS000 1
de de SPS00 0.999919
delitos delito NCMP000 1
econ econ NCMS000 1
micos mico NCMP000 1
malversaci malversaci RG 0.751648
n n NCFS000 1
de de SPS00 0.999919
caudales caudal AQ0CP0 0.357386
p p NCFS000 0.5
blicos blicos AQ0MP0 1
negociaciones negociación NCFP000 1
incompatibles incompatible AQ0CP0 1
con con SPS00 1
el el DA0MS0 1
ejercicio ejercicio NCMS000 1
de de SPS00 0.999919
funciones función NCFP000 0.916667
p p NCFS000 0.5
blicas blicas AQ0FP0 1
corrupci corrupci RG 0.751648
n n NCFS000 1
enriquecimiento enriquecimiento NCMS000 1
il il AQ0CS0 0.768581
cito citar VMIP1S0 1
transferencias transferencia NCFP000 1
multimillonarias multimillonario AQ0FP0 0.65727
a a SPS00 0.99585
para para SPS00 0.998507
sos sos NCMP000 0.606734
fiscales fiscal AQ0CP0 0.75
etc etcétera Fs 1
en en SPS00 1
su su DP3CS0 1
propio propio AQ0MS0 0.98
beneficio beneficio NCMS000 0.833333
y y CC 0.999812
de de SPS00 0.999919
los el DA0MP0 0.97623
empresarios empresario NCMP000 1
amigos amigo NCMP000 0.96875
o o CC 0.998845
testaferros testaferro NCMP000 1
y y CC 0.999812
en en SPS00 1
perjuicio perjuicio NCMS000 1
de de SPS00 1
el el DA0MS0 1
patrimonio patrimonio NCMS000 1
nacional nacional AQ0CS0 1
y y CC 0.999812
de de SPS00 0.999919
la el DA0FS0 0.972146
poblaci poblaci AQ0CS0 0.0199855
n n NCFS000 1
laboriosa laborioso AQ0FS0 1
No_obstante no_obstante NP00000 1
las el DA0FP0 0.97051
garant garant NCMS000 0.607342
as as NCMS000 1
que que PR0CN000 0.5625
le le PP3CSD00 1
ofrece ofrecer VMIP3S0 0.9
el el DA0MS0 1
sistema sistema NCMS000 1
vigente vigente AQ0CS0 1
de de SPS00 0.999919
democracia democracia NCFS000 1
representativa representativo AQ0FS0 1
en en SPS00 1
los el DA0MP0 0.97623
hechos hecho NCMP000 0.375
representativa representativo AQ0FS0 1
de de SPS00 0.999919
las el DA0FP0 0.97051
elites elite NCFP000 1
econ econ NCMS000 1
micas mica NCFP000 1
y y CC 0.999812
no no RN 0.99778
de de SPS00 0.999919
la el DA0FS0 0.972146
poblaci poblaci AQ0CS0 0.0199855
n n NCFS000 1
en en SPS00 1
general general AQ0CS0 0.90625
el el DA0MS0 1
actual actual AQ0CS0 1
Gobierno gobierno NP00000 1
argentino argentino AQ0MS0 0.25
quiere querer VMIP3S0 0.982759
reasegurar reasegurar VMN0000 1
a a SPS00 0.99585
n n NCFS000 1
m m NCFS000 0.5
s segundo NCMN000 0.622321
su su DP3CS0 1
impunidad impunidad NCFS000 1
con con SPS00 1
su su DP3CS0 1
proyecto proyecto NCMS000 0.9375
para para SPS00 0.998507
democratizar democratizar VMN0000 1
la el DA0FS0 0.972146
justicia justicia NCFS000 1
que que PR0CN000 0.5625
consiste consistir VMIP3S0 0.954545
en en SPS00 1
convertir convertir VMN0000 1
a a SPS00 0.99585
sta sta NCFS000 0.332037
en en SPS00 1
un uno DI0MS0 0.986987
ap ap NCFS000 0.5
ndice ndice NCMS000 1
de de SPS00 1
el el DA0MS0 1
actual actual AQ0CS0 1
Poder_Ejecutivo poder_ejecutivo NP00000 1
y y CC 0.999812
de de SPS00 0.999919
los el DA0MP0 0.97623
sucesivos sucesivo AQ0MP0 1
Gobiernos gobiernos NP00000 1
que que PR0CN000 0.5625
surjan surgir VMSP3P0 0.75
de de SPS00 0.999919
futuras futuro AQ0FP0 1
elecciones elección NCFP000 1
el el DA0MS0 1
mismo mismo AQ0MS0 0.961905
voto voto NCMS000 0.973468
ciudadano ciudadano NCMS000 0.875
mayoritario mayoritario AQ0MS0 1
que que PR0CN000 0.5625
consagre consagrar VMSP3S0 0.580581
a a SPS00 0.99585
un uno DI0MS0 0.986987
Presidente presidente NP00000 1
decidir decidir VMN0000 1
la el DA0FS0 0.972146
mayor mayor AQ0CS0 0.989796
a a SPS00 0.99585
en en SPS00 1
el el DA0MS0 1
Consejo_de_la_Magistratura consejo_de_la_magistratura NP00000 1
art artículo NCMS000 1
culo culo NCMS000 1
3 3 Z 1
bis bis NCMN000 1
de de SPS00 1
el el DA0MS0 1
Proyecto proyecto NP00000 1
de de SPS00 0.999919
ley ley NCFS000 1
sobre sobre SPS00 0.994203
el el DA0MS0 1
Consejo_de_la_Magistratura_No consejo_de_la_magistratura_no NP00000 1
habr habr AQ0CS0 0.0829965
ni ni CC 0.995935
siquiera siquiera RG 0.95
la el DA0FS0 0.972146
apariencia apariencia NCFS000 1
de de SPS00 0.999919
un uno DI0MS0 0.986987
contrapeso contrapeso NCMS000 0.75
de de SPS00 1
el el DA0MS0 1
Poder_Judicial poder_judicial NP00000 1
frente_a frente_a SPS00 1
los el DA0MP0 0.97623
otros otro DI0MP0 0.56875
poderes poder NCMP000 1
Ya ya NP00000 1
se se P00CN000 0.465602
ha haber VAIP3S0 0.998141
dicho decir VMP00SM 0.958333
el el DA0MS0 1
poder poder NCMS000 0.711538
tiende tender VMIP3S0 0.833333
a a SPS00 0.99585
corromper corromper VMN0000 1
y y CC 0.999812
el el DA0MS0 1
poder poder NCMS000 0.711538
absoluto absoluto AQ0MS0 0.875
corrompe corromper VMIP3S0 0.994868
absolutamente absolutamente RG 1
Pero pero NP00000 1
en en SPS00 1
Argentina argentina NP00000 1
el el DA0MS0 1
kichnerismo kichnerismo NCMS000 1
no no RN 0.99778
invent invent NCMS000 0.607342
la el DA0FS0 0.972146
corrupci corrupci RG 0.751648
n n NCFS000 1
pues pues CS 0.990385
sta sta NCFS000 0.332037
tiene tener VMIP3S0 1
una uno DI0FS0 0.951241
tradici tradici AQ0CS0 0.0199855
n n NCFS000 1
bastante bastante RG 0.763889
larga largo AQ0FS0 0.75
como como CS 0.998579
sostiene sostener VMIP3S0 1
Carlos_Gabetta carlos_gabetta NP00000 1
en en SPS00 1
su su DP3CS0 1
reciente reciente AQ0CS0 0.925
libro libro NCMS000 0.986111
La la NP00000 1
encrucijada encrucijada NCFS000 1
argentina argentino AQ0FS0 0.5
Rep rep NP00000 1
blica blica AQ0FS0 1
o o CC 0.998845
pa pa AQ0FS0 0.0185838
s segundo NCMN000 0.622321
mafioso mafioso AQ0MS0 0.611116
Escribe_Gabetta_La_Rep escribe_gabetta_la_rep NP00000 1
blica blica AQ0FS0 1
Argentina argentina NP00000 1
no no RN 0.99778
es ser VSIP3S0 1
tal tal DD0CS0 0.741379
Vivimos vivimos NP00000 1
en en SPS00 1
un uno DI0MS0 0.986987
sistema sistema NCMS000 1
tan tan RG 1
degradado degradar VMP00SM 0.75
social social AQ0CS0 0.977273
e y CC 0.973684
institucionalmente institucionalmente RG 1
que que PR0CN000 0.5625
corremos correr VMIP1P0 1
el el DA0MS0 1
riesgo riesgo NCMS000 1
de de SPS00 0.999919
instalar instalar VMN0000 1
nos nos PP1CP000 1
por por SPS00 1
largo largo AQ0MS0 0.458333
tiempo tiempo NCMS000 1
en en SPS00 1
una uno DI0FS0 0.951241
vida vida NCFS000 1
de de SPS00 0.999919
corrupci corrupci RG 0.751648
n n NCFS000 1
econ econ NCMS000 1
mica mica NCFS000 1
pol pol AQ0MS0 0.138294
tica tica NCFS000 0.372209
institucional institucional AQ0CS0 1
y y CC 0.999812
social social AQ0CS0 0.977273
sin sin SPS00 1
l l NCFS000 0.639398
mites mites NCMP000 1
de de SPS00 0.999919
violencia violencia NCFS000 1
creciente creciente AQ0CS0 0.75
e y CC 0.973684
impunidad impunidad NCFS000 1
total total AQ0CS0 0.944444
Desde desde NP00000 1
que que PR0CN000 0.5625
se se P00CN000 0.465602
recuper recuper VMN0000 0.600243
la el DA0FS0 0.972146
democracia democracia NCFS000 1
hemos haber VAIP1P0 0.969697
atravesado atravesar VMP00SM 1
varias varios DI0FP0 0.939394
crisis crisis NCFN000 1
econ econ NCMS000 1
micas mica NCFP000 1
y y CC 0.999812
sociales social AQ0CP0 0.9375
la el DA0FS0 0.972146
m m NCFS000 0.5
s segundo NCMN000 0.622321
grave grave AQ0CS0 0.90625
grav grav AQ0CS0 0.0433699
sima sima NCFS000 1
en en SPS00 1
2001 2001 Z 1
De de NP00000 1
cada cada DI0CS0 1
crisis crisis NCFN000 1
el el DA0MS0 1
pa pa NCFS000 0.740689
s segundo NCMN000 0.622321
ha haber VAIP3S0 0.998141
salido salir VMP00SM 1
si si CS 0.997706
as as NCMS000 1
puede poder VMIP3S0 0.995614
decir decir VMN0000 1
se se PP3CN000 1
m m NCFS000 0.5
s segundo NCMN000 0.622321
deteriorado deteriorar VMP00SM 1
pol pol NCMS000 0.861706
tica tica AQ0FS0 0.595788
institucional institucional AQ0CS0 1
y y CC 0.999812
socialmente socialmente RG 1
en en SPS00 1
una uno DI0FS0 0.951241
deriva deriva NCFS000 0.111111
imparable imparable AQ0CS0 1
hacia hacia SPS00 1
la el DA0FS0 0.972146
aceptaci aceptaci AQ0CS0 0.0199855
n n NCFS000 1
y y CC 0.999812
pr pr VMN0000 0.633986
ctica cuenta NCFS00D 0.60002
general general AQ0CS0 0.90625
de de SPS00 1
el el DA0MS0 1
comportamiento comportamiento NCMS000 1
mafioso mafioso AQ0MS0 0.611116
Hacia hacia NP00000 1
un uno DI0MS0 0.986987
destino destino NCMS000 0.944444
de de SPS00 0.999919
Gran_Pa gran_pa NP00000 1
s segundo NCMN000 0.622321
Bananero_Desde bananero_desde NP00000 1
que que PR0CN000 0.5625
se se P00CN000 0.465602
recuper recuper VMN0000 0.600243
la el DA0FS0 0.972146
democracia democracia NCFS000 1
escribe escribir VMIP3S0 0.9375
Gabetta_Ahora_Menem gabetta_ahora_menem NP00000 1
es ser VSIP3S0 1
para para SPS00 0.998507
todos todo PI0MP000 0.374631
o o CC 0.998845
casi casi RG 1
todos todo DI0MP0 0.622419
una uno DI0FS0 0.951241
mala malo AQ0FS0 0.95
palabra palabra NCFS000 1
Sin sin NP00000 1
embargo embargo NCMS000 0.973496
fue ser VSIS3S0 0.932292
elegido elegir VMP00SM 0.75
no no RN 0.99778
una uno DI0FS0 0.951241
sino sino CC 0.981707
dos 2 Z 0.988722
veces vez NCFP000 1
Presidente_de_la_Rep presidente_de_la_rep NP00000 1
blica blica AQ0FS0 1
en en SPS00 1
1989 1989 Z 1
con con SPS00 1
el el DA0MS0 1
47 47 Z 1
49 49 Z 1
de de SPS00 0.999919
los el DA0MP0 0.97623
votos voto NCMP000 1
y y CC 0.999812
despu despu NCMS000 0.774439
s segundo NCMN000 0.622321
de de SPS00 0.999919
una uno DI0FS0 0.951241
gesti gesti NCMS000 1
n n NCFS000 1
absolutamente absolutamente RG 1
contraria contrario AQ0FS0 0.7
a a SPS00 0.99585
los el DA0MP0 0.97623
intereses interés NCMP000 0.916667
nacionales nacional AQ0CP0 1
fue ser VSIS3S0 0.932292
reelegido reelegir VMP00SM 1
en en SPS00 1
1995 1995 Z 1
con con SPS00 1
el el DA0MS0 1
49 49 Z 1
94 94 Z 1
de de SPS00 0.999919
los el DA0MP0 0.97623
votos voto NCMP000 1
De_modo_que de_modo_que NP00000 1
parece parecer VMIP3S0 0.9875
existir existir VMN0000 1
en en SPS00 1
Argentina argentina NP00000 1
una uno DI0FS0 0.951241
crisis crisis NCFN000 1
social social AQ0CS0 0.977273
y y CC 0.999812
pol pol AQ0MS0 0.138294
tica tica NCFS000 0.372209
profunda profundo AQ0FS0 0.666667
que que PR0CN000 0.5625
blinda blindar VMIP3S0 0.300679
a a SPS00 0.99585
los el DA0MP0 0.97623
gobiernos gobierno NCMP000 1
corruptos corrupto AQ0MP0 1
antinacionales antinacional AQ0CP0 1
y y CC 0.999812
antipopulares antipopular AQ0CP0 1
contra contra SPS00 0.976316
la el DA0FS0 0.972146
sanci sanci AQ0CS0 0.0199855
n n NCFS000 1
de de SPS00 0.999919
un uno DI0MS0 0.986987
voto voto NCMS000 0.973468
popular popular AQ0CS0 1
Crisis crisis NP00000 1
insuperable insuperable AQ0CS0 1
mientras mientras CS 0.881579
subsista subsistir VMSP3S0 0.52344
la el DA0FS0 0.972146
hegemon hegemon NCMS000 0.0665581
a a SPS00 0.99585
econ econ NCMS000 1
mica mica NCFS000 1
pol pol NCMS000 0.861706
tica tica AQ0FS0 0.595788
ideol ideol NCMS000 0.861706
gica gica AQ0FS0 0.925822
y y CC 0.999812
cultural cultural AQ0CS0 1
de de SPS00 0.999919
las el DA0FP0 0.97051
clases clase NCFP000 1
dominantes dominante AQ0CP0 0.75
Haga haga NP00000 1
click click NCMS000 0.50012
aqu aqu NCMS000 0.774439
para para SPS00 0.998507
recibir recibir VMN0000 1
gratis gratis RG 0.75
Argenpress argenpress NP00000 1
en en SPS00 1
su su DP3CS0 1
correo correo NCMS000 0.735623
electr electr AQ0CS0 0.0829965
nico no NCMS00D 0.522084

