La el DA0FS0 0.972146
ONU onu NP00000 1
denuncia denunciar VMIP3S0 0.583333
la el DA0FS0 0.972146
situaci situaci AQ0CS0 0.0199855
n n NCFS000 1
de de SPS00 0.999919
palestinos palestino AQ0MP0 0.35727
presos preso NCMP000 0.75
por por SPS00 1
Israel_Cerca israel_cerca NP00000 1
de de SPS00 0.999919
cinco_mil 5000 Z 1
palestinos palestino NCMP000 0.64273
entre entre SPS00 0.995223
ellos ellos PP3MP000 1
235 235 Z 1
ni ni CC 0.995935
os o NCFP000 0.222222
y y CC 0.999812
10 10 Z 1
mujeres mujer NCFP000 1
est est NCMS000 1
n n NCFS000 1
presos preso AQ0MP0 0.25
en en SPS00 1
c c NCFS000 1
rceles rceles NCFP000 1
de de SPS00 0.999919
Israel israel NP00000 1
adem adem NCMS000 1
s segundo NCMN000 0.622321
de de SPS00 0.999919
169 169 Z 1
encerrados encerrar VMP00PM 1
bajo bajo SPS00 0.866071
el el DA0MS0 1
r r NCFS000 0.638487
gimen gemir VMIP3P0 1
de de SPS00 0.999919
detenci detenci RG 0.751648
n n NCFS000 1
administrativa administrativo AQ0FS0 0.53725
sin sin SPS00 1
cargos cargo NCMP000 1
ni ni CC 0.995935
juicios juicio NCMP000 1
denunci denunci RG 0.751648
hoy hoy RG 0.877358
Naciones_Unidas_Los naciones_unidas_los NP00000 1
datos dato NCMP000 1
corresponden corresponder VMIP3P0 1
a a SPS00 1
el el DA0MS0 1
ltimo ltimo RG 1
d d NCFS000 1
a a SPS00 0.99585
de de SPS00 1
el el DA0MS0 1
pasado_mes_de_febrero [??:??/2/??:??.??:??] W 1
y y CC 0.999812
fueron ser VSIS3P0 0.796296
difundidos difundir VMP00PM 1
por por SPS00 1
el el DA0MS0 1
comit comit NCMN000 1
sobre sobre SPS00 0.994203
el el DA0MS0 1
ejercicio ejercicio NCMS000 1
de de SPS00 0.999919
los el DA0MP0 0.97623
derechos derecho NCMP000 0.9
inalienables inalienable AQ0CP0 1
de de SPS00 1
el el DA0MS0 1
pueblo pueblo NCMS000 0.978261
palestino palestino AQ0MS0 0.35727
en en SPS00 1
ocasi ocasi RG 1
n n NCFS000 1
de de SPS00 1
el el DA0MS0 1
D d NP00000 1
a a SPS00 0.99585
de de SPS00 0.999919
los el DA0MP0 0.97623
presos preso NCMP000 0.75
palestinos palestino AQ0MP0 0.35727
17_de_abril [??:17/4/??:??.??:??] W 1
Las las NP00000 1
estad estar VAM02P0 1
sticas sticas NCFP000 0.583058
indican indicar VMIP3P0 1
que que CS 0.4375
desde desde SPS00 1
el el DA0MS0 1
inicio inicio NCMS000 0.75
de de SPS00 0.999919
la el DA0FS0 0.972146
ocupaci ocupaci AQ0CS0 0.0199855
n n NCFS000 1
israel israel AQ0CS0 0.0876402
de de SPS00 0.999919
los el DA0MP0 0.97623
territorios territorio NCMP000 1
palestinos palestino AQ0MP0 0.35727
en en SPS00 1
1967_m LN_m:1967 Zu 1
s segundo NCMN000 0.622321
de de SPS00 0.999919
750_mil 750000 Z 1
oriundos oriundo NCMP000 0.622712
de de SPS00 0.999919
esas ese DD0FP0 0.961538
tierras tierra NCFP000 1
han haber VAIP3P0 1
pasado pasar VMP00SM 0.647727
por por SPS00 1
las el DA0FP0 0.97051
c c NCFS000 1
rceles rceles NCFP000 1
de de SPS00 0.999919
Tel_Aviv_Seg tel_aviv_seg NP00000 1
n n NCFS000 1
el el DA0MS0 1
Fondo_de_la_ONU fondo_de_la_onu NP00000 1
para para SPS00 0.998507
la el DA0FS0 0.972146
infancia infancia NCFS000 1
cada cada DI0CS0 1
a a NCFS000 0.00415028
o o CC 0.998845
unos uno DI0MP0 0.879032
700 700 Z 1
ni ni CC 0.995935
os os PP2CP000 0.722222
palestinos palestino AQ0MP0 0.35727
de de SPS00 0.999919
entre entre SPS00 0.995223
12 12 Z 1
y y CC 0.999812
17 17 Z 1
a a SPS00 0.99585
os os PP2CP000 0.722222
son ser VSIP3P0 0.986772
arrestados arrestar VMP00PM 1
interrogados interrogar VMP00PM 1
y y CC 0.999812
detenidos detener VMP00PM 0.691767
por por SPS00 1
el el DA0MS0 1
ej ej NCMS000 0.692259
rcito rcito NCMS000 1
la el DA0FS0 0.972146
polic polic NCFS000 1
a a SPS00 0.99585
y y CC 0.999812
los el DA0MP0 0.97623
agentes agente NCCP000 0.928571
de de SPS00 0.999919
seguridad seguridad NCFS000 1
de de SPS00 0.999919
Israel israel NP00000 1
cifra cifrar VMIP3S0 0.195666
que que CS 0.4375
sum sum NCMS000 0.833338
siete_mil 7000 Z 1
casos caso NCMP000 1
en en SPS00 1
la el DA0FS0 0.972146
pasada pasar VMP00SF 0.928571
d d NCFS000 1
cada cada DI0CS0 1
Esa esa NP00000 1
agencia agenciar VMIP3S0 0.166667
especializada especializar VMP00SF 1
indic indic RG 0.5
en en SPS00 1
un uno DI0MS0 0.986987
reporte reporte NCMS000 0.918697
que que PR0CN000 0.5625
esos ese DD0MP0 0.961538
menores menor NCCP000 0.0833333
fueron ser VSIS3P0 0.796296
sometidos someter VMP00PM 1
a a SPS00 0.99585
tratos trato NCMP000 1
crueles cruel AQ0CP0 1
inhumanos inhumano AQ0MP0 0.965
y y CC 0.999812
degradantes degradante AQ0CP0 1
pr pr NCMS000 0.224371
cticas cticas AQ0FP0 0.411782
que que PR0CN000 0.5625
son ser VSIP3P0 0.986772
sistem sistem NCMS000 1
ticas ticas AQ0FP0 0.760898
y y CC 0.999812
est est NCMS000 1
n n NCFS000 1
institucionalizadas institucionalizar VMP00PF 1
dentro_de dentro_de SPS00 1
el el DA0MS0 1
sistema sistema NCMS000 1
carcelario carcelario AQ0MS0 1
israel israel NCMS000 0.567351
El el NP00000 1
comit comit NCMN000 1
de de SPS00 0.999919
la el DA0FS0 0.972146
ONU onu NP00000 1
tambi tambi AQ0CN0 1
n n NCFS000 1
denunci denunci RG 0.751648
los el DA0MP0 0.97623
arrestos arresto NCMP000 1
arbitrarios arbitrario AQ0MP0 1
hostigamientos hostigamiento NCMP000 1
e y CC 0.973684
intimidaciones intimidación NCFP000 1
que que PR0CN000 0.5625
realizan realizar VMIP3P0 1
las el DA0FP0 0.97051
fuerzas fuerza NCFP000 0.954545
de de SPS00 0.999919
Israel israel NP00000 1
y y CC 0.999812
record record AQ0CN0 0.5
que que CS 0.4375
la el DA0FS0 0.972146
ley ley NCFS000 1
militar militar AQ0CS0 0.666667
de de SPS00 0.999919
ese ese DD0MS0 0.98125
pa pa NCFS000 0.740689
s segundo NCMN000 0.622321
criminaliza criminalizar VMIP3S0 0.994868
la el DA0FS0 0.972146
protesta protesta NCFS000 0.916667
leg leg RG 0.14318
tima timar VMIP3S0 0.994868
contra contra SPS00 0.976316
la el DA0FS0 0.972146
ocupaci ocupaci AQ0CS0 0.0199855
n n NCFS000 1
de de SPS00 0.999919
los el DA0MP0 0.97623
territorios territorio NCMP000 1
palestinos palestino AQ0MP0 0.35727
A a NP00000 1
el el DA0MS0 1
mismo mismo AQ0MS0 0.961905
tiempo tiempo NCMS000 1
alert alert NCMS000 1
que que CS 0.4375
la el DA0FS0 0.972146
situaci situaci AQ0CS0 0.0199855
n n NCFS000 1
de de SPS00 0.999919
los el DA0MP0 0.97623
presos preso NCMP000 0.75
y y CC 0.999812
detenidos detener VMP00PM 0.691767
incrementa incrementar VMIP3S0 0.75
las el DA0FP0 0.97051
tensiones tensión NCFP000 1
y y CC 0.999812
destac destac NCMN000 1
el el DA0MS0 1
caso caso NCMS000 0.990741
de de SPS00 0.999919
los el DA0MP0 0.97623
reclusos recluso NCMP000 0.567703
en en SPS00 1
huelga huelga NCFS000 0.916667
de de SPS00 0.999919
hambre hambre NCFS000 1
para para SPS00 0.998507
protestar protestar VMN0000 1
contra contra SPS00 0.976316
los el DA0MP0 0.97623
abusos abuso NCMP000 1
y y CC 0.999812
violaciones violación NCFP000 1
de de SPS00 0.999919
sus su DP3CP0 0.998462
derechos derecho NCMP000 0.9
humanos humano AQ0MP0 0.681818
fundamentales fundamental AQ0CP0 0.875
La la NP00000 1
actual actual AQ0CS0 1
crisis crisis NCFN000 1
demanda demandar VMIP3S0 0.0833333
la el DA0FS0 0.972146
atenci atenci AQ0CS0 0.0199855
n n NCFS000 1
urgente urgente AQ0CS0 1
y y CC 0.999812
la el DA0FS0 0.972146
intervenci intervenci AQ0CS0 0.0199855
n n NCFS000 1
de de SPS00 0.999919
la el DA0FS0 0.972146
comunidad comunidad NCFS000 1
internacional internacional AQ0CS0 0.833333
puntualiz puntualiz AQ0CS0 1
el el DA0MS0 1
comit comit NCMN000 1
Agreg agreg NP00000 1
que que CS 0.4375
los el DA0MP0 0.97623
prisioneros prisionero NCMP000 0.49273
viven vivir VMIP3P0 1
en en SPS00 1
instalaciones instalación NCFP000 1
sobrepobladas sobrepoblar VMP00PF 1
e y CC 0.973684
insalubres insalubre AQ0CP0 1
sin sin SPS00 1
acceso acceso NCMS000 1
a a SPS00 0.99585
servicios servicio NCMP000 1
de de SPS00 0.999919
salud salud NCFS000 1
abusados abusar VMP00PM 1
golpeados golpear VMP00PM 1
y y CC 0.999812
humillados humillar VMP00PM 1
por por SPS00 1
los el DA0MP0 0.97623
custodios custodio NCMP000 0.64273
amenazados amenazar VMP00PM 1
por por SPS00 1
el el DA0MS0 1
confinamiento confinamiento NCMS000 1
solitario solitario AQ0MS0 0.9
y y CC 0.999812
con con SPS00 1
fuertes fuerte AQ0CP0 0.916667
restricciones restricción NCFP000 1
de de SPS00 0.999919
las el DA0FP0 0.97051
visitas visita NCFP000 0.973485
familiares familiar AQ0CP0 0.166667
Tambi tambi NP00000 1
n n NCFS000 1
exigi exigi RG 0.751648
que que CS 0.4375
autoridades autoridad NCFP000 1
independientes independiente AQ0CP0 1
investiguen investigar VMSP3P0 0.901254
la el DA0FS0 0.972146
muerte muerte NCFS000 1
de de SPS00 0.999919
prisioneros prisionero AQ0MP0 0.50727
palestinos palestino NCMP000 0.64273
bajo bajo SPS00 0.866071
dudosas dudoso AQ0FP0 1
circunstancias circunstancia NCFP000 1
y y CC 0.999812
reclam reclam NCMS000 0.700265
a a SPS00 0.99585
Tel_Aviv tel_aviv NP00000 1
que que PR0CN000 0.5625
cumpla cumplir VMSP3S0 0.57856
la el DA0FS0 0.972146
ley ley NCFS000 1
internacional internacional AQ0CS0 0.833333
humanitaria humanitario AQ0FS0 1
y y CC 0.999812
las el DA0FP0 0.97051
normas norma NCFP000 1
sobre sobre SPS00 0.994203
el el DA0MS0 1
tratamiento tratamiento NCMS000 1
a a SPS00 0.99585
los el DA0MP0 0.97623
presos preso NCMP000 0.75
y y CC 0.999812
detenidos detenido NCMP000 0.308233
palestinos palestino AQ0MP0 0.35727
Haga haga NP00000 1
click click NCMS000 0.50012
aqu aqu NCMS000 0.774439
para para SPS00 0.998507
recibir recibir VMN0000 1
gratis gratis RG 0.75
Argenpress argenpress NP00000 1
en en SPS00 1
su su DP3CS0 1
correo correo NCMS000 0.735623
electr electr AQ0CS0 0.0829965
nico no NCMS00D 0.522084

