La el DA0FS0 0.972146
poblaci poblaci AQ0CS0 0.0199855
n n NCFS000 1
mundial mundial AQ0CS0 0.928571
superar superar VMN0000 1
los el DA0MP0 0.97623
ocho_mil_millones 8000000000 Zd 1
en en SPS00 1
2025 2025 Z 1
La la NP00000 1
poblaci poblaci RG 0.751648
n n NCFS000 1
mundial mundial AQ0CS0 0.928571
crecer crecer VMN0000 1
en en SPS00 1
casi casi RG 1
mil_millones 1000000000 Zd 1
de de SPS00 0.999919
habitantes habitante NCCP000 1
en en SPS00 1
los el DA0MP0 0.97623
pr pr NCMS000 0.224371
ximos ximos AQ0MP0 1
12 12 Z 1
a a SPS00 0.99585
os os PP2CP000 0.722222
y y CC 0.999812
llegar llegar VMN0000 1
a a SPS00 0.99585
los el DA0MP0 0.97623
ocho_mil_100_millones 8100000000 Zd 1
en en SPS00 1
2025 2025 Z 1
seg segundo NCMN000 1
n n NCFS000 1
c c NCFS000 1
lculos lculos NCMP000 1
difundidos difundir VMP00PM 1
hoy hoy RG 0.877358
por por SPS00 1
Naciones_Unidas_Ese naciones_unidas_ese NP00000 1
incremento incrementar VMIP1S0 0.25
alcanzar alcanzar VMN0000 1
los el DA0MP0 0.97623
nueve_mil_600_millones 9600000000 Zd 1
en en SPS00 1
2050 2050 Z 1
y y CC 0.999812
ser ser VSN0000 0.93883
m m NCFS000 0.5
s segundo NCMN000 0.622321
pronunciado pronunciar VMP00SM 1
en en SPS00 1
los el DA0MP0 0.97623
pa pa NCFS000 0.740689
ses ses NCMP000 0.727093
en en SPS00 1
desarrollo desarrollo NCMS000 0.964286
donde donde PR000000 0.963542
se se P00CN000 0.465602
pronostica pronosticar VMIP3S0 0.994868
un uno DI0MS0 0.986987
aumento aumento NCMS000 0.916667
de de SPS00 0.999919
los el DA0MP0 0.97623
actuales actual AQ0CP0 1
cinco_mil_900_millones 5900000000 Zd 1
de de SPS00 0.999919
personas persona NCFP000 0.983871
a a SPS00 0.99585
ocho_mil_200_millones 8200000000 Zd 1
a_mediados_de a_mediados_de SPS00 1
el el DA0MS0 1
presente presente AQ0CS0 0.197917
siglo siglo NCMS000 1
Los los NP00000 1
datos dato NCMP000 1
fueron ser VSIS3P0 0.796296
divulgados divulgar VMP00PM 1
este este DD0MS0 0.956743
martes [M:??/??/??:??.??:??] W 1
en en SPS00 1
un uno DI0MS0 0.986987
informe informe NCMS000 0.185057
de de SPS00 0.999919
la el DA0FS0 0.972146
ONU onu NP00000 1
que que PR0CN000 0.5625
actualiza actualizar VMIP3S0 0.994868
la el DA0FS0 0.972146
masa masa NCFS000 1
demogr demogramo NCMN000 1
fica fica AQ0FS0 0.468885
de de SPS00 1
el el DA0MS0 1
mundo mundo NCMS000 1
que que PR0CN000 0.5625
en en SPS00 1
estos este DD0MP0 0.990566
momentos momento NCMP000 1
asciende ascender VMIP3S0 0.994868
a a SPS00 0.99585
siete_mil_200_millones 7200000000 Zd 1
El el NP00000 1
estudio estudio NCMS000 0.954545
avizora avizorar VMIP3S0 0.994844
que que CS 0.4375
el el DA0MS0 1
n n NCFS000 1
mero mero AQ0MS0 0.777778
de de SPS00 0.999919
habitantes habitante NCCP000 1
en en SPS00 1
los el DA0MP0 0.97623
49 49 Z 1
estados estado NCMP000 0.9
menos menos RG 1
desarrollados desarrollar VMP00PM 0.75
se se PP3CN000 0.0687957
duplicar duplicar VMN0000 1
entre entre SPS00 0.995223
2013 2013 Z 1
y y CC 0.999812
2050 2050 Z 1
de de SPS00 0.999919
900_millones 900000000 Zd 1
a a SPS00 0.99585
mil_800_millones 1800000000 Zd 1
A a NP00000 1
nivel nivel NCMS000 1
de de SPS00 0.999919
pa pa NCFS000 0.740689
ses ses AQ0CP0 0.068278
la el DA0FS0 0.972146
mayor mayor AQ0CS0 0.989796
alza alza NCFS000 0.846901
de_cara_a de_cara_a SPS00 1
la el DA0FS0 0.972146
mitad mitad NCFS000 1
de de SPS00 1
el el DA0MS0 1
Siglo_XXI [s:xxi] W 1
se se P00CN000 0.465602
producir producir VMN0000 1
en en SPS00 1
frica fricar VMIP3S0 0.994868
y y CC 0.999812
en en SPS00 1
naciones nación NCFP000 1
con con SPS00 1
grandes grande AQ0CP0 0.95
poblaciones población NCFP000 1
como como CS 0.998579
India_Indonesia_Pakist india_indonesia_pakist NP00000 1
n n NCFS000 1
Filipinas filipinas NP00000 1
y y CC 0.999812
Estados_Unidos_Entre estados_unidos_entre NP00000 1
las el DA0FP0 0.97051
causas causa NCFP000 0.833333
de de SPS00 1
el el DA0MS0 1
fen fen NCMS000 1
meno meno NCMS000 1
el el DA0MS0 1
documento documento NCMS000 0.973494
de de SPS00 0.999919
la el DA0FS0 0.972146
ONU onu NP00000 1
menciona mencionar VMIP3S0 0.994868
las el DA0FP0 0.97051
altas alto AQ0FP0 0.958333
tasas tasa NCFP000 0.973497
de de SPS00 0.999919
fertilidad fertilidad NCFS000 1
y y CC 0.999812
el el DA0MS0 1
r r NCFS000 0.638487
pido pedir VMIP1S0 1
aumento aumento NCMS000 0.916667
de de SPS00 0.999919
la el DA0FS0 0.972146
esperanza esperanza NCFS000 0.925926
de de SPS00 0.999919
vida vida NCFS000 1
a a SPS00 1
el el DA0MS0 1
nacer nacer VMN0000 1
Por_otro_lado por_otro_lado NP00000 1
asegura asegurar VMIP3S0 0.875
que que CS 0.4375
en en SPS00 1
2028 2028 Z 1
India india NP00000 1
sobrepasar sobrepasar VMN0000 1
a a SPS00 0.99585
China china NP00000 1
en en SPS00 1
cantidad cantidad NCFS000 1
de de SPS00 0.999919
habitantes habitante NCCP000 1
y y CC 0.999812
cada cada DI0CS0 1
uno uno PI0MS000 0.964744
contar contar VMN0000 1
con con SPS00 1
alrededor_de alrededor_de SPS00 1
mil_450_millones 1450000000 Zd 1
de de SPS00 0.999919
pobladores poblador NCMP000 0.75
A a NP00000 1
el el DA0MS0 1
mismo mismo AQ0MS0 0.961905
tiempo tiempo NCMS000 1
Nigeria nigeria NP00000 1
constituye constituir VMIP3S0 0.875
otro otro DI0MS0 0.61215
foco foco NCMS000 1
de de SPS00 0.999919
atenci atenci RG 0.751648
n n NCFS000 1
con con SPS00 1
un uno DI0MS0 0.986987
crecimiento crecimiento NCMS000 1
demogr demogramo NCMN000 1
fico fico AQ0MS0 0.466938
que que PR0CN000 0.5625
a a SPS00 0.99585
finales final NCFP000 0.416667
de de SPS00 0.999919
la el DA0FS0 0.972146
centuria centuria NCFS000 1
lo lo PP3CNA00 0.271163
llevar llevar VMN0000 1
a a SPS00 0.99585
competir competir VMN0000 1
con con SPS00 1
China china NP00000 1
como como CS 0.998579
segundo 2 AO0MS0 0.742424
pa pa NCFS000 0.740689
s segundo NCMN000 0.622321
m m NCFS000 0.5
s segundo NCMN000 0.622321
habitado habitar VMP00SM 1
de de SPS00 1
el el DA0MS0 1
planeta planeta NCMS000 1
Los los NP00000 1
vaticinios vaticinio NCMP000 1
de de SPS00 0.999919
la el DA0FS0 0.972146
ONU onu NP00000 1
tambi tambi AQ0CN0 1
n n NCFS000 1
se se P00CN000 0.465602
alan alan NCMN000 1
a a SPS00 0.99585
Indonesia_Tanzania_Pakist indonesia_tanzania_pakist NP00000 1
n n NCFS000 1
Rep rep NP00000 1
blica blica AQ0FS0 1
Democr democr NP00000 1
tica tica AQ0FS0 0.595788
de de SPS00 1
el el DA0MS0 1
Congo_Etiop congo_etiop NP00000 1
a a SPS00 0.99585
Uganda uganda NP00000 1
y y CC 0.999812
N n NP00000 1
ger ger VMN0000 1
como como CS 0.998579
estados estado NCMP000 0.9
que que CS 0.4375
superar superar VMN0000 1
n n NCFS000 1
los el DA0MP0 0.97623
200_millones 200000000 Zd 1
de de SPS00 0.999919
habitantes habitante NCCP000 1
en en SPS00 1
el el DA0MS0 1
a a NCFS000 0.00415028
o o CC 0.998845
2100 2100 Z 1
Haga haga NP00000 1
click click NCMS000 0.50012
aqu aqu NCMS000 0.774439
para para SPS00 0.998507
recibir recibir VMN0000 1
gratis gratis RG 0.75
Argenpress argenpress NP00000 1
en en SPS00 1
su su DP3CS0 1
correo correo NCMS000 0.735623
electr electr AQ0CS0 0.0829965
nico no NCMS00D 0.522084

