La el DA0FS0 0.972146
pol pol NCMS000 0.861706
tica tica AQ0FS0 0.595788
guerrerista guerrerista NCCS000 0.400063
de de SPS00 0.999919
Santos santos NP00000 1
pone poner VMIP3S0 1
el el DA0MS0 1
peligro peligro NCMS000 0.928571
la el DA0FS0 0.972146
estabilidad estabilidad NCFS000 1
continental continental AQ0CS0 0.65727
Venezuela venezuela NP00000 1
apuesta apostar VMIP3S0 0.220185
a a SPS00 0.99585
la el DA0FS0 0.972146
paz paz NCFS000 1
y y CC 0.999812
la el DA0FS0 0.972146
unidad unidad NCFS000 1
latinoamericana latinoamericano AQ0FS0 0.65727
Nuevos nuevos NP00000 1
vientos viento NCMP000 1
de de SPS00 0.999919
inestabilidad inestabilidad NCFS000 1
surgen surgir VMIP3P0 1
en en SPS00 1
Am am NP00000 1
rica rico AQ0FS0 0.75
de de SPS00 1
el el DA0MS0 1
Sur sur NP00000 1
la el DA0FS0 0.972146
decisi decisi RG 1
n n NCFS000 1
de de SPS00 1
el el DA0MS0 1
presidente presidente NCMS000 1
de de SPS00 0.999919
Colombia_Juan_Manuel_Santos colombia_juan_manuel_santos NP00000 1
de de SPS00 0.999919
recibir recibir VMN0000 1
a a SPS00 1
el el DA0MS0 1
vocero vocero NCMS000 1
de de SPS00 0.999919
la el DA0FS0 0.972146
derecha derecha NCFS000 0.735294
venezolana venezolano AQ0FS0 0.469804
Henrique_Capriles henrique_capriles NP00000 1
de de SPS00 0.999919
manera manera NCFS000 1
oficial oficial AQ0CS0 0.916667
avala avalar VMIP3S0 0.994868
la el DA0FS0 0.972146
ilegalidad ilegalidad NCFS000 1
de de SPS00 0.999919
quien quien PR0CS000 1
ha haber VAIP3S0 0.998141
desconocido desconocer VMP00SM 0.833333
a a SPS00 0.99585
las el DA0FP0 0.97051
instituciones institución NCFP000 1
venezolanas venezolano AQ0FP0 0.582172
En en NP00000 1
las el DA0FP0 0.97051
elecciones elección NCFP000 1
de de SPS00 1
el el DA0MS0 1
14_de_abril [??:14/4/??:??.??:??] W 1
de de SPS00 0.999919
manera manera NCFS000 1
constitucional constitucional AQ0CS0 1
y y CC 0.999812
por por SPS00 1
sufragio sufragio NCMS000 1
electoral electoral AQ0CS0 1
los el DA0MP0 0.97623
venezolanos venezolano NCMP000 0.642663
eligieron elegir VMIS3P0 1
como como CS 0.998579
presidente presidente NCMS000 1
a a SPS00 0.99585
Nicol nicol NP00000 1
s segundo NCMN000 0.622321
Maduro maduro NP00000 1
en en SPS00 1
un uno DI0MS0 0.986987
acto acto NCMS000 1
de de SPS00 0.999919
violencia violencia NCFS000 1
Capriles capriles NP00000 1
llam llam NCMS000 0.700265
a a SPS00 0.99585
la el DA0FS0 0.972146
rebeld rebeld NCFS000 0.961423
a a SPS00 0.99585
con con SPS00 1
un uno DI0MS0 0.986987
plan plan NCMS000 1
que que CS 0.4375
gener gener VMN0000 1
actos acto NCMP000 1
de de SPS00 0.999919
violencia violencia NCFS000 1
y y CC 0.999812
muerte muerte NCFS000 1
el el DA0MS0 1
15_de_abril_del_2013 [??:15/4/2013:??.??:??] W 1
mostrando mostrar VMG0000 1
falsas falso AQ0FP0 1
pruebas prueba NCFP000 0.9
y y CC 0.999812
con con SPS00 1
el el DA0MS0 1
nico nico AQ0MS0 0.470565
objetivo objetivo NCMS000 0.761905
de de SPS00 0.999919
crear crear VMN0000 1
un uno DI0MS0 0.986987
golpe golpe NCMS000 1
de de SPS00 0.999919
estado estado NCMS000 0.662162
o o CC 0.998845
una uno DI0FS0 0.951241
intervenci intervenci RG 0.751648
n n NCFS000 1
internacional internacional AQ0CS0 0.833333
Pero pero NP00000 1
de de SPS00 0.999919
manera manera NCFS000 1
no no RN 0.99778
casual casual AQ0CS0 1
estos este DD0MP0 0.990566
hechos hecho NCMP000 0.375
ocurren ocurrir VMIP3P0 1
luego_de luego_de SPS00 1
la el DA0FS0 0.972146
visita visita NCFS000 0.866667
a a SPS00 0.99585
Colombia colombia NP00000 1
de de SPS00 1
el el DA0MS0 1
vicepresidente vicepresidente NCMS000 1
de de SPS00 0.999919
Estados_Unidos_Joseph_Biden estados_unidos_joseph_biden NP00000 1
porque porque CS 1
ya ya RG 0.996988
exist exist NCMS000 1
a a SPS00 0.99585
un uno DI0MS0 0.986987
plan plan NCMS000 1
de de SPS00 0.999919
trabajo trabajo NCMS000 0.940476
de de SPS00 0.999919
Capriles capriles NP00000 1
con con SPS00 1
el el DA0MS0 1
ex ex AQ0CN0 0.25
presidente presidente NCMS000 1
lvaro lvaro AQ0MS0 0.387686
Uribe uribe NP00000 1
y y CC 0.999812
el el DA0MS0 1
asesor asesor NCMS000 0.642709
de de SPS00 0.999919
la el DA0FS0 0.972146
derecha derecha NCFS000 0.735294
internacional internacional AQ0CS0 0.833333
J_J_Rend j_j_rend NP00000 1
n n NCFS000 1
para para SPS00 0.998507
fraguar fraguar VMN0000 1
un uno DI0MS0 0.986987
plan plan NCMS000 1
de de SPS00 0.999919
violencia violencia NCFS000 1
e y CC 0.973684
inestabilidad inestabilidad NCFS000 1
en en SPS00 1
Venezuela venezuela NP00000 1
con con SPS00 1
el el DA0MS0 1
objetivo objetivo NCMS000 0.761905
de de SPS00 0.999919
derrocar derrocar VMN0000 1
a a SPS00 1
el el DA0MS0 1
gobierno gobierno NCMS000 0.9
democr democr NCMS000 1
tico tico AQ0MS0 0.806828
bolivariano bolivariano AQ0MS0 1
de de SPS00 0.999919
Venezuela_Pero venezuela_pero NP00000 1
por por SPS00 1
qu qu NCMS000 0.774439
Santos santos NP00000 1
recibe recibir VMIP3S0 0.833333
a a SPS00 0.99585
Capriles capriles NP00000 1
si si CS 0.997706
el el DA0MS0 1
mismo mismo AQ0MS0 0.961905
hab hab NCMS000 0.63631
a a SPS00 0.99585
reconocido reconocer VMP00SM 1
el el DA0MS0 1
triunfo triunfo NCMS000 0.928571
electoral electoral AQ0CS0 1
de de SPS00 0.999919
Maduro maduro NP00000 1
rompiendo romper VMG0000 1
as as NCMS000 1
su su DP3CS0 1
palabra palabra NCFS000 1
y y CC 0.999812
su su DP3CS0 1
compromiso compromiso NCMS000 1
en en SPS00 1
los el DA0MP0 0.97623
acuerdos acuerdo NCMP000 1
de de SPS00 0.999919
Santa_Marta santa_marta NP00000 1
con con SPS00 1
el el DA0MS0 1
presidente presidente NCMS000 1
Hugo_Ch hugo_ch NP00000 1
vez vez NCFS000 1
luego_de luego_de SPS00 1
la el DA0FS0 0.972146
ruptura ruptura NCFS000 1
de de SPS00 0.999919
relaciones relación NCFP000 0.944444
entre entre SPS00 0.995223
ambas ambos DI0FP0 0.785714
naciones nación NCFP000 1
producto producto AQ0MS0 0.0833333
de de SPS00 0.999919
las el DA0FP0 0.97051
pol pol NCMS000 0.861706
tica tica AQ0FS0 0.595788
guerrerista guerrerista AQ0CS0 0.599937
de de SPS00 1
el el DA0MS0 1
gobierno gobierno NCMS000 0.9
de de SPS00 0.999919
Uribe uribe NP00000 1
en en SPS00 1
sus su DP3CP0 0.998462
declaraciones declaración NCFP000 1
a a SPS00 0.99585
CNN cnn NP00000 1
que que CS 0.4375
manifest manifest NCMS000 1
que que PR0CN000 0.5625
no no RN 0.99778
le le PP3CSD00 1
alcanzo alcanzar VMIP1S0 1
el el DA0MS0 1
tiempo tiempo NCMS000 1
para para SPS00 0.998507
invadir invadir VMN0000 1
a a SPS00 0.99585
Venezuela_La venezuela_la NP00000 1
oligarqu oligarqu NCMS000 0.774439
a a SPS00 0.99585
colombiana colombiano NCFS000 0.422768
muestra mostrar VMIP3S0 0.703704
su su DP3CS0 1
faceta faceta NCFS000 1
anti anti AQ0CN0 1
latinoamericanista latinoamericanista AQ0CS0 0.375066
Estos estos NP00000 1
hechos hacer VMP00PM 0.625
ponen poner VMIP3P0 1
a a SPS00 1
el el DA0MS0 1
descubierto descubrir VMP00SM 0.875
el el DA0MS0 1
verdadero verdadero AQ0MS0 1
rostro rostro NCMS000 1
de de SPS00 0.999919
la el DA0FS0 0.972146
Oligarqu oligarqu NP00000 1
a a SPS00 0.99585
Colombiana colombiana NP00000 1
que que PR0CN000 0.5625
es ser VSIP3S0 1
la el DA0FS0 0.972146
misma mismo AQ0FS0 0.916667
que que PR0CN000 0.5625
atac atac NCMN000 1
la el DA0FS0 0.972146
unidad unidad NCFS000 1
de de SPS00 0.999919
la el DA0FS0 0.972146
Gran_Colombia gran_colombia NP00000 1
que que CS 0.4375
conspir conspir VMN0000 1
contra contra SPS00 0.976316
el el DA0MS0 1
Libertador_Sim libertador_sim NP00000 1
n n NCFS000 1
Bol bol NP00000 1
var var VMN0000 1
que que CS 0.4375
siempre siempre RG 1
gener gener VMN0000 1
conflictos conflicto NCMP000 1
regionales regional AQ0CP0 1
como como CS 0.998579
en en SPS00 1
la el DA0FS0 0.972146
d d NCFS000 1
cada cada DI0CS0 1
de de SPS00 1
el el DA0MS0 1
80 80 Z 1
con con SPS00 1
el el DA0MS0 1
Golfo_de_Venezuela golfo_de_venezuela NP00000 1
que que PR0CN000 0.5625
produjo producir VMIS3S0 1
destempladas destemplar VMP00PF 1
declaraciones declaración NCFP000 1
de de SPS00 0.999919
los el DA0MP0 0.97623
militares militar NCCP000 0.416667
y y CC 0.999812
funcionarios funcionario NCMP000 1
colombianos colombiano AQ0MP0 0.75
la el DA0FS0 0.972146
misma mismo AQ0FS0 0.916667
actitud actitud NCFS000 1
desp desp NCFS000 0.5
tica tica AQ0FS0 0.595788
con con SPS00 1
Nicaragua nicaragua NP00000 1
sobre sobre SPS00 0.994203
las el DA0FP0 0.97051
decisiones decisión NCFP000 1
de de SPS00 0.999919
la el DA0FS0 0.972146
corte corte NCFS000 0.457143
de de SPS00 0.999919
La_Haya la_haya NP00000 1
sobre sobre SPS00 0.994203
l l NCFS000 0.639398
mites mites NCMP000 1
mar mar NCCS000 1
timos timo NCMP000 1
entre entre SPS00 0.995223
ambos ambos DI0MP0 0.361111
pa pa NCFS000 0.740689
ses ses NCMP000 0.727093
Pero pero NP00000 1
el el DA0MS0 1
curriculum curriculum NCMS000 1
de de SPS00 0.999919
Santos santos NP00000 1
m m NCFS000 0.5
s segundo NCMN000 0.622321
que que PR0CN000 0.5625
de de SPS00 0.999919
un uno DI0MS0 0.986987
estadista estadista NCCS000 1
est est NCMS000 1
vinculado vincular VMP00SM 1
a a SPS00 0.99585
su su DP3CS0 1
cargo cargo NCMS000 0.916667
de de SPS00 0.999919
Ministro_de_Defensa ministro_de_defensa NP00000 1
en en SPS00 1
el el DA0MS0 1
gobierno gobierno NCMS000 0.9
de de SPS00 0.999919
Uribe uribe NP00000 1
donde donde PR000000 0.963542
aplic aplic RG 0.5
un uno DI0MS0 0.986987
plan plan NCMS000 1
de de SPS00 0.999919
tierra tierra NCFS000 1
arrasada arrasar VMP00SF 1
generando generar VMG0000 1
desplazamientos desplazamiento NCMP000 1
y y CC 0.999812
muerte muerte NCFS000 1
de de SPS00 0.999919
campesinos campesino NCMP000 0.5
y y CC 0.999812
el el DA0MS0 1
ataque ataque NCMS000 0.9625
a a SPS00 0.99585
Ecuador ecuador NP00000 1
para para SPS00 0.998507
asesinar asesinar VMN0000 1
a a SPS00 1
el el DA0MS0 1
l l NCFS000 0.639398
der der VMN0000 0.630215
de de SPS00 0.999919
la el DA0FS0 0.972146
FARC_Reyes farc_reyes NP00000 1
en en SPS00 1
un uno DI0MS0 0.986987
acto acto NCMS000 1
de de SPS00 0.999919
agresi agresi RG 1
n n NCFS000 1
internacional internacional AQ0CS0 0.833333
Este este NP00000 1
tipo tipo NCMS000 1
de de SPS00 0.999919
acciones acción NCFP000 0.916667
no no RN 0.99778
son ser VSIP3P0 0.986772
casualidad casualidad NCFS000 1
son ser VSIP3P0 0.986772
parte parte NCFS000 0.497967
de de SPS00 0.999919
una uno DI0FS0 0.951241
derecha derecha NCFS000 0.735294
Pro pro NP00000 1
imperialista imperialista AQ0CS0 1
El el NP00000 1
ejemplo ejemplo NCMS000 1
m m NCFS000 0.5
s segundo NCMN000 0.622321
claro claro AQ0MS0 0.453704
ha haber VAIP3S0 0.998141
sido ser VSP00SM 1
la el DA0FS0 0.972146
solicitud solicitud NCFS000 1
de de SPS00 0.999919
Santos santos NP00000 1
de de SPS00 0.999919
ingresar ingresar VMN0000 1
a a SPS00 0.99585
la el DA0FS0 0.972146
OTAN otan NP00000 1
a a SPS00 0.99585
pocos poco DI0MP0 0.583333
d d NCFS000 1
as as NCMS000 1
de de SPS00 0.999919
su su DP3CS0 1
cambio cambio NCMS000 0.97619
de de SPS00 0.999919
actitud actitud NCFS000 1
sobre sobre SPS00 0.994203
las el DA0FP0 0.97051
relaciones relación NCFP000 0.944444
diplom diplom NCMS000 0.500053
ticas ticas AQ0FP0 0.760898
con con SPS00 1
Venezuela venezuela NP00000 1
cuando cuando CS 0.983796
su su DP3CS0 1
Ministra_de_Relaciones_Exteriores ministra_de_relaciones_exteriores NP00000 1
de de SPS00 0.999919
manera manera NCFS000 1
prepotente prepotente AQ0CS0 1
manifest manifest NCMS000 1
que que CS 0.4375
Santos santos NP00000 1
no no RN 0.99778
responder responder VMN0000 1
a a SPS00 0.99585
declaraciones declaración NCFP000 1
v v NCFS000 1
a a SPS00 0.99585
micr micr NCMS000 1
fonos fonosegundo NCMN000 0.649975
pero pero CC 0.998821
tampoco tampoco RG 1
ha haber VAIP3S0 0.998141
intentado intentar VMP00SM 1
aclarar aclarar VMN0000 1
sus su DP3CP0 0.998462
postura postura NCFS000 1
ante ante SPS00 0.990566
el el DA0MS0 1
gobierno gobierno NCMS000 0.9
venezolano venezolano AQ0MS0 0.357352
Adem adem NP00000 1
s segundo NCMN000 0.622321
se se P00CN000 0.465602
va ir VMIP3S0 1
de de SPS00 0.999919
visita visita NCFS000 0.866667
oficial oficial AQ0CS0 0.916667
a a SPS00 0.99585
Israel israel NP00000 1
principal principal AQ0CS0 0.9375
socio socio NCMS000 1
geopol geopol NCMS000 0.861706
tico tico AQ0MS0 0.806828
de de SPS00 0.999919
EEUU eeuu NP00000 1
para para SPS00 0.998507
reafirmar reafirmar VMN0000 1
m m NCFS000 0.5
s segundo NCMN000 0.622321
su su DP3CS0 1
alianza alianza NCFS000 1
con con SPS00 1
los el DA0MP0 0.97623
enemigos enemigo NCMP000 0.85
de de SPS00 0.999919
los el DA0MP0 0.97623
pueblos pueblo NCMP000 1
latinoamericanos latinoamericano AQ0MP0 0.490617
y y CC 0.999812
de de SPS00 1
el el DA0MS0 1
mundo mundo NCMS000 1
La la NP00000 1
otra otro DI0FS0 0.801136
inquietud inquietud NCFS000 1
surgida surgir VMP00SF 1
en en SPS00 1
Colombia colombia NP00000 1
a a SPS00 0.99585
nivel nivel NCMS000 1
interno interno AQ0MS0 0.777778
es ser VSIP3S0 1
que que CS 0.4375
pasar pasar VMN0000 1
con con SPS00 1
las el DA0FP0 0.97051
conversaciones conversación NCFP000 1
de de SPS00 0.999919
paz paz NCFS000 1
porque porque CS 1
uno uno PI0MS000 0.964744
de de SPS00 0.999919
los el DA0MP0 0.97623
mediadores mediador NCMP000 0.642703
es ser VSIP3S0 1
Venezuela_Pero_para_Santos_Uribe venezuela_pero_para_santos_uribe NP00000 1
y y CC 0.999812
la el DA0FS0 0.972146
derecha derecho AQ0FS0 0.264706
olig olig NCMS000 0.714133
rquica rquica AQ0FS0 0.646048
ya ya RG 0.996988
hubo haber VMIS3S0 0.95
una uno DI0FS0 0.951241
muestra muestra NCFS000 0.259259
cuando cuando CS 0.983796
Uribe uribe NP00000 1
traicion traicion VMIS3P0 0.923476
y y CC 0.999812
cre cre AQ0CS0 1
una uno DI0FS0 0.951241
matriz matriz NCFS000 0.75
contra contra SPS00 0.976316
el el DA0MS0 1
presidente presidente NCMS000 1
Ch ch NP00000 1
vez vez NCFS000 1
en en SPS00 1
la el DA0FS0 0.972146
entrega entrega NCFS000 0.266667
de de SPS00 0.999919
los el DA0MP0 0.97623
secuestrados secuestrar VMP00PM 1
por por SPS00 1
la el DA0FS0 0.972146
FARC farc NP00000 1
aduciendo aducir VMG0000 1
v v NCFS000 1
nculos nculos AQ0MP0 0.0952152
con con SPS00 1
la el DA0FS0 0.972146
guerrilla guerrilla NCFS000 1
De de NP00000 1
esa ese DD0FS0 0.978261
misma mismo AQ0FS0 0.916667
manera manera NCFS000 1
ahora ahora RG 1
ataca atacar VMIP3S0 0.75
a a SPS00 1
el el DA0MS0 1
presidente presidente NCMS000 1
Maduro maduro NP00000 1
apoya apoyar VMIP3S0 0.833333
a a SPS00 0.99585
la el DA0FS0 0.972146
derecha derecha NCFS000 0.735294
venezolana venezolano AQ0FS0 0.469804
para para SPS00 0.998507
crear crear VMN0000 1
una uno DI0FS0 0.951241
guerra guerra NCFS000 1
de de SPS00 0.999919
cuarta cuarta NCFS000 0.370141
generaci generaci RG 0.751648
n n NCFS000 1
a a SPS00 0.99585
trav trav AQ0CS0 0.0433699
s segundo NCMN000 0.622321
de de SPS00 0.999919
los el DA0MP0 0.97623
medios medio NCMP000 0.95
privados privar VMP00PM 0.833333
como como CS 0.998579
un uno DI0MS0 0.986987
plan plan NCMS000 1
de de SPS00 0.999919
desestabilizaci desestabilizaci RG 0.751648
n n NCFS000 1
a a SPS00 0.99585
lo el DA0NS0 0.457393
interno interno NCMS000 0.111111
con con SPS00 1
intentos intento NCMP000 1
de de SPS00 0.999919
magnicidio magnicidio NCMS000 1
y y CC 0.999812
sabotajes sabotaje NCMP000 1
Esto esto NP00000 1
no no RN 0.99778
es ser VSIP3S0 1
nuevo nuevo AQ0MS0 1
ya ya RG 0.996988
lo lo PP3CNA00 0.271163
hicieron hacer VMIS3P0 1
con con SPS00 1
paramilitares paramilitar AQ0CP0 1
vestidos vestido NCMP000 0.583333
con con SPS00 1
uniformes uniforme AQ0CP0 0.685714
venezolanos venezolano NCMP000 0.642663
detenidos detener VMP00PM 0.691767
por por SPS00 1
las el DA0FP0 0.97051
fuerzas fuerza NCFP000 0.954545
armadas armar VMP00PF 0.75
venezolanas venezolano AQ0FP0 0.582172
y y CC 0.999812
deportados deportar VMP00PM 1
a a SPS00 0.99585
Colombia_Venezuela colombia_venezuela NP00000 1
apuesta apostar VMIP3S0 0.220185
a a SPS00 0.99585
la el DA0FS0 0.972146
paz paz NCFS000 1
y y CC 0.999812
la el DA0FS0 0.972146
unidad unidad NCFS000 1
latinoamericana latinoamericano AQ0FS0 0.65727
El el NP00000 1
canciller canciller NCMS000 1
El el NP00000 1
as as NCMS000 1
Jaua jaua NP00000 1
alert alert NCMS000 1
acerca_de acerca_de SPS00 1
nuevas nuevo AQ0FP0 0.961538
agresiones agresión NCFP000 1
contra contra SPS00 0.976316
Venezuela venezuela NP00000 1
que que PR0CN000 0.5625
se se P00CN000 0.465602
est est NCMS000 1
n n NCFS000 1
gestando gestar VMG0000 1
desde desde SPS00 1
Colombia colombia NP00000 1
a a SPS00 1
el el DA0MS0 1
afirmar afirmar VMN0000 1
que que CS 0.4375
Nosotros nosotros NP00000 1
no no RN 0.99778
tenemos tener VMIP1P0 1
m m NCFS000 0.5
s segundo NCMN000 0.622321
que que CS 0.4375
lamentar lamentar VMN0000 1
profundamente profundamente RG 0.75
que que CS 0.4375
el el DA0MS0 1
presidente presidente NCMS000 1
Santos santos NP00000 1
haya haber VASP1S0 0.378571
dado dar VMP00SM 0.972222
un uno DI0MS0 0.986987
paso paso NCMS000 0.89
que que PR0CN000 0.5625
de de SPS00 0.999919
manera manera NCFS000 1
dolorosa doloroso AQ0FS0 0.5
nos nos PP1CP000 0.933333
va ir VMIP3S0 1
a a SPS00 0.99585
descarrilar descarrilar VMN0000 1
de de SPS00 0.999919
las el DA0FP0 0.97051
buenas bueno AQ0FP0 1
relaciones relación NCFP000 0.944444
que que PR0CN000 0.5625
ten tener VMM02S0 1
amos amo NCMP000 1
pero pero CC 0.998821
lo el DA0NS0 0.457393
m m NCFS000 0.5
s segundo NCMN000 0.622321
lamentable lamentable AQ0CS0 1
es ser VSIP3S0 1
que que CS 0.4375
nuevamente nuevamente RG 1
se se P00CN000 0.465602
confirma confirmar VMIP3S0 0.994868
que que CS 0.4375
desde desde SPS00 1
Bogot bogot NP00000 1
hay haber VMIP3S0 1
una uno DI0FS0 0.951241
conspiraci conspiraci AQ0CS0 0.0199855
n n NCFS000 1
abierta abrir VMP00SF 1
contra contra SPS00 0.976316
la el DA0FS0 0.972146
paz paz NCFS000 1
en en SPS00 1
Venezuela venezuela NP00000 1
a a SPS00 0.99585
lo el DA0NS0 0.457393
que que PR0CN000 0.5625
agrego agregar VMIP1S0 1
que que CS 0.4375
esto este PD0NS000 1
podr podr VMN0000 0.633986
a a SPS00 0.99585
minar minar VMN0000 1
las el DA0FP0 0.97051
buenas bueno AQ0FP0 1
relaciones relación NCFP000 0.944444
entre entre SPS00 0.995223
Colombia colombia NP00000 1
y y CC 0.999812
Venezuela venezuela NP00000 1
que que CS 0.4375
en en SPS00 1
los el DA0MP0 0.97623
aspectos aspecto NCMP000 1
pol pol NCMS000 0.861706
ticos ticos AQ0MP0 0.671839
y y CC 0.999812
econ econ NCMS000 1
micos mico NCMP000 1
se se P00CN000 0.465602
hab hab NCMS000 0.63631
an an NCFS000 1
restablecido restablecer VMP00SM 1
con con SPS00 1
firmeza firmeza NCFS000 1
en en SPS00 1
los el DA0MP0 0.97623
ltimos ltimos VMIP1P0 0.856975
tres 3 Z 1
a a SPS00 0.99585
os o NCFP000 0.222222
En_aras_de en_aras_de NP00000 1
superar superar VMN0000 1
el el DA0MS0 1
impasse impasse NCMS000 1
con con SPS00 1
el el DA0MS0 1
gobierno gobierno NCMS000 0.9
colombiano colombiano AQ0MS0 0.5
el el DA0MS0 1
presidente presidente NCMS000 1
Nicol nicol NP00000 1
s segundo NCMN000 0.622321
Maduro maduro NP00000 1
afirm afirm NCMS000 0.700265
que que CS 0.4375
la el DA0FS0 0.972146
intenci intenci AQ0CS0 0.0199855
n n NCFS000 1
de de SPS00 1
el el DA0MS0 1
Gobierno gobierno NP00000 1
venezolano venezolano AQ0MS0 0.357352
de de SPS00 0.999919
reconstruir reconstruir VMN0000 1
las el DA0FP0 0.97051
relaciones relación NCFP000 0.944444
con con SPS00 1
el el DA0MS0 1
Gobierno_de_Colombia gobierno_de_colombia NP00000 1
con con SPS00 1
base base NCCS000 0.955882
en en SPS00 1
la el DA0FS0 0.972146
verdad verdad NCFS000 1
y y CC 0.999812
el el DA0MS0 1
respeto respeto NCMS000 0.863636
Instruy instruy NP00000 1
a a SPS00 1
el el DA0MS0 1
canciller canciller NCMS000 1
de de SPS00 0.999919
la el DA0FS0 0.972146
Rep rep NP00000 1
blica blica AQ0FS0 1
El el NP00000 1
as as NCMS000 1
Jaua jaua NP00000 1
para para SPS00 0.998507
dar dar VMN0000 1
pasos paso NCMP000 0.944444
en en SPS00 1
funci funci RG 0.751648
n n NCFS000 1
de de SPS00 0.999919
una uno DI0FS0 0.951241
reconstrucci reconstrucci AQ0CS0 0.0199855
n n NCFS000 1
en en SPS00 1
base base NCCS000 0.955882
a a SPS00 0.99585
la el DA0FS0 0.972146
verdad verdad NCFS000 1
y y CC 0.999812
respeto respeto NCMS000 0.863636
en en SPS00 1
las el DA0FP0 0.97051
relaciones relación NCFP000 0.944444
entre entre SPS00 0.995223
ambos ambos DI0MP0 0.361111
gobiernos gobierno NCMP000 1
y y CC 0.999812
ambos ambos DI0MP0 0.361111
pueblos pueblo NCMP000 1
UNASUR unasur NP00000 1
llama llamar VMIP3S0 0.948718
a a SPS00 0.99585
mantener mantener VMN0000 1
se se PP3CN000 1
alerta alerta RG 0.538462
El el NP00000 1
secretario secretario NCMS000 1
general general AQ0CS0 0.90625
de de SPS00 0.999919
la el DA0FS0 0.972146
Uni uni NP00000 1
n n NCFS000 1
de de SPS00 0.999919
Naciones_Suramericanas_UNASUR_A_el_Rodr naciones_suramericanas_unasur_a_el_rodr NP00000 1
guez guez NCCS000 1
dijo decir VMIS3S0 1
que que CS 0.4375
Venezuela venezuela NP00000 1
debe deber VMIP3S0 0.974359
mantener mantener VMN0000 1
se se PP3CN000 1
alerta alerta RG 0.538462
ante ante SPS00 0.990566
las el DA0FP0 0.97051
recientes reciente AQ0CP0 0.75
decisiones decisión NCFP000 1
y y CC 0.999812
acciones acción NCFP000 0.916667
emprendidas emprender VMP00PF 1
por por SPS00 1
el el DA0MS0 1
Gobierno_de_Colombia_Entrevistado_por_Telesur gobierno_de_colombia_entrevistado_por_telesur NP00000 1
el el DA0MS0 1
secretario secretario NCMS000 1
Rodr rodr NP00000 1
guez guez NCCS000 1
hizo_referencia hacer_referencia VMIS3S0 1
espec espec RG 0.0770614
ficamente ficamente RG 1
a a SPS00 0.99585
la el DA0FS0 0.972146
reuni reuni AQ0CS0 0.0199855
n n NCFS000 1
de de SPS00 1
el el DA0MS0 1
presidente presidente NCMS000 1
de de SPS00 0.999919
ese ese DD0MS0 0.98125
pa pa NCFS000 0.740689
s segundo NCMN000 0.622321
Juan_Manuel_Santos juan_manuel_santos NP00000 1
con con SPS00 1
el el DA0MS0 1
l l NCFS000 0.639398
der der VMN0000 0.630215
opositor opositor NCMS000 0.642712
Henrique_Capriles henrique_capriles NP00000 1
y y CC 0.999812
el el DA0MS0 1
reciente reciente AQ0CS0 0.925
anuncio anuncio NCMS000 0.75
de de SPS00 0.999919
cooperar cooperar VMN0000 1
con con SPS00 1
la el DA0FS0 0.972146
OTAN_Organizaci otan_organizaci NP00000 1
n n NCFS000 1
de de SPS00 1
el el DA0MS0 1
Tratado_de_el_Atl tratado_de_el_atl NP00000 1
ntico ntico AQ0MS0 1
Norte_Los norte_los NP00000 1
gobiernos gobierno NCMP000 1
de de SPS00 0.999919
Venezuela_Bolivia_Ecuador venezuela_bolivia_ecuador NP00000 1
y y CC 0.999812
Nicaragua nicaragua NP00000 1
rechazaron rechazar VMIS3P0 1
de de SPS00 0.999919
forma forma NCFS000 0.960317
en en SPS00 1
rgica rgica AQ0FS0 1
el el DA0MS0 1
anuncio anuncio NCMS000 0.75
hecho hacer VMP00SM 0.618421
por por SPS00 1
Colombia colombia NP00000 1
de de SPS00 0.999919
unir unir VMN0000 1
se se PP3CN000 1
a a SPS00 0.99585
la el DA0FS0 0.972146
OTAN_Venezuela otan_venezuela NP00000 1
tiene tener VMIP3S0 1
que que CS 0.4375
estar estar VAN0000 1
muy muy RG 1
alerta alerta RG 0.538462
con con SPS00 1
estas este DD0FP0 0.960526
cosas cosa NCFP000 0.986842
que que PR0CN000 0.5625
parecen parecer VMIP3P0 1
inocentes inocente AQ0CP0 0.833333
pero pero CC 0.998821
cualquiera cualquiera PI0CS000 0.863636
medianamente medianamente RG 1
advertido advertir VMP00SM 1
debe deber VMIP3S0 0.974359
servir servir VMN0000 1
le le PP3CSD00 1
como como CS 0.998579
alarma alarma NCFS000 0.777778
dijo decir VMIS3S0 1
Se se NP00000 1
a a SPS00 1
el el DA0MS0 1
Araque araque NP00000 1
adem adem NCMS000 1
s segundo NCMN000 0.622321
que que CS 0.4375
la el DA0FS0 0.972146
OTAN otan NP00000 1
y y CC 0.999812
la el DA0FS0 0.972146
regi regi AQ0CS0 0.0199855
n n NCFS000 1
siguen seguir VMIP3P0 1
caminos camino NCMP000 1
distintos distinto AQ0MP0 1
El el NP00000 1
primero primero RG 0.373333
hacia hacia SPS00 1
la el DA0FS0 0.972146
violencia violencia NCFS000 1
y y CC 0.999812
el el DA0MS0 1
segundo segundo NCMS000 0.242424
hacia hacia SPS00 1
la el DA0FS0 0.972146
paz paz NCFS000 1
Cualquiera cualquiera NP00000 1
que que PR0CN000 0.5625
ame amar VMSP1S0 0.623423
la el DA0FS0 0.972146
paz paz NCFS000 1
que que PR0CN000 0.5625
desee desear VMSP3S0 0.623437
el el DA0MS0 1
progreso progreso NCMS000 0.9375
de de SPS00 0.999919
nuestros nuestro DP1MPP 0.854167
pueblos pueblo NCMP000 1
que que CS 0.4375
est est NCMS000 1
en_favor_de en_favor_de SPS00 1
la el DA0FS0 0.972146
independencia independencia NCFS000 1
no no RN 0.99778
podr podr VMN0000 0.633986
menos menos RG 1
que que CS 0.4375
desear desear VMN0000 1
que que CS 0.4375
se se P00CN000 0.465602
superen superar VMSP3P0 0.901254
estos este DD0MP0 0.990566
problemas problema NCMP000 1
Que_la_OTAN que_la_otan NP00000 1
siga seguir VMSP1S0 0.388889
su su DP3CS0 1
camino camino NCMS000 0.978261
de de SPS00 0.999919
la el DA0FS0 0.972146
violencia violencia NCFS000 1
y y CC 0.999812
nosotros nosotros PP1MP000 1
el el DA0MS0 1
de de SPS00 0.999919
paz paz NCFS000 1
afirm afirm NCMS000 0.700265
y y CC 0.999812
puntualiz puntualiz AQ0CS0 1
que que CS 0.4375
la el DA0FS0 0.972146
historia historia NCFS000 1
de de SPS00 0.999919
ese ese DD0MS0 0.98125
organismo organismo NCMS000 1
est est NCMS000 1
vinculada vincular VMP00SF 1
con con SPS00 1
la el DA0FS0 0.972146
guerra guerra NCFS000 1
Es es NP00000 1
grave gravar VMSP1S0 0.03125
el el DA0MS0 1
anuncio anuncio NCMS000 0.75
de de SPS00 0.999919
Colombia colombia NP00000 1
de de SPS00 0.999919
querer querer VMN0000 0.9
cooperar cooperar VMN0000 1
con con SPS00 1
la el DA0FS0 0.972146
Alianza_Atl alianza_atl NP00000 1
ntica ntica AQ0FS0 1
pues pues CS 0.990385
cualquiera cualquiera PI0CS000 0.863636
que que PR0CN000 0.5625
conozca conocer VMSP1S0 0.466667
la el DA0FS0 0.972146
historia historia NCFS000 1
de de SPS00 0.999919
la el DA0FS0 0.972146
OTAN otan NP00000 1
sabe saber VMIP3S0 0.983333
que que CS 0.4375
sta sta NCFS000 0.332037
es ser VSIP3S0 1
una uno DI0FS0 0.951241
organizaci organizaci AQ0CS0 0.0199855
n n NCFS000 1
para para SPS00 0.998507
la el DA0FS0 0.972146
guerra guerra NCFS000 1
y y CC 0.999812
as as NCMS000 1
ha haber VAIP3S0 0.998141
sido ser VSP00SM 1
demostrado demostrar VMP00SM 1
a a SPS00 0.99585
lo el DA0NS0 0.457393
largo largo AQ0MS0 0.458333
de de SPS00 0.999919
sus su DP3CP0 0.998462
existencia existencia NCFS000 1
No no NP00000 1
es ser VSIP3S0 1
casualidad casualidad NCFS000 1
que que CS 0.4375
la el DA0FS0 0.972146
OTAN otan NP00000 1
est est NCMS000 1
interesada interesar VMP00SF 0.691767
en en SPS00 1
invadir invadir VMN0000 1
zonas zona NCFP000 1
ricas rico AQ0FP0 0.75
en en SPS00 1
recursos recurso NCMP000 1
naturales natural AQ0CP0 0.9
como como CS 0.998579
Libia_Siria libia_siria NP00000 1
o o CC 0.998845
Irak irak NP00000 1
por_ejemplo por_ejemplo RG 1
La_OTAN la_otan NP00000 1
es ser VSIP3S0 1
un uno DI0MS0 0.986987
instrumento instrumento NCMS000 0.973494
de de SPS00 0.999919
recolonizaci recolonizaci RG 0.751648
n n NCFS000 1
Qu qu NP00000 1
es ser VSIP3S0 1
lo el DA0NS0 0.457393
que que PR0CN000 0.5625
ha haber VAIP3S0 0.998141
venido venir VMP00SM 1
ocurriendo ocurrir VMG0000 1
d d NCFS000 1
nde nde AQ0CS0 0.0579707
ha haber VAIP3S0 0.998141
venido venir VMP00SM 1
ocurriendo ocurrir VMG0000 1
En en NP00000 1
el el DA0MS0 1
caso caso NCMS000 0.990741
de de SPS00 0.999919
Libia libia NP00000 1
sabemos saber VMIP1P0 1
que que CS 0.4375
es ser VSIP3S0 1
una uno DI0FS0 0.951241
reserva reserva NCFS000 0.833333
petrolera petrolero AQ0FS0 0.35727
importante importante AQ0CS0 1
y y CC 0.999812
no no RN 0.99778
solamente solamente RG 1
por por SPS00 1
el el DA0MS0 1
petr petr NCMS000 0.224371
leo leer VMIP1S0 0.75
sino sino CC 0.981707
por por SPS00 1
su su DP3CS0 1
ubicaci ubicaci AQ0CS0 0.0199855
n n NCFS000 1
lo el DA0NS0 0.457393
mismo mismo AQ0MS0 0.961905
que que CS 0.4375
en en SPS00 1
el el DA0MS0 1
caso caso NCMS000 0.990741
de de SPS00 0.999919
Irak irak NP00000 1
y y CC 0.999812
Siria siria NP00000 1
apunt apunt NCMS000 0.607342
Todas todas NP00000 1
estas este DD0FP0 0.960526
maniobras maniobra NCFP000 0.75
no no RN 0.99778
tendr tendr VMN0000 0.633986
a a SPS00 0.99585
nada nada PI0CS000 0.846667
de de SPS00 0.999919
raro raro AQ0MS0 1
que que CS 0.4375
estuvieran estar VASI3P0 1
vinculadas vincular VMP00PF 1
con con SPS00 1
el el DA0MS0 1
problema problema NCMS000 1
a a SPS00 1
el el DA0MS0 1
acceso acceso NCMS000 1
de de SPS00 0.999919
los el DA0MP0 0.97623
recursos recurso NCMP000 1
naturales natural AQ0CP0 0.9
se se P00CN000 0.465602
alando alando VMG0000 1
para para SPS00 0.998507
terminar terminar VMN0000 1
Rodr rodr NP00000 1
guez guez NCCS000 1
que que CS 0.4375
habr habr VMN0000 0.633986
que que CS 0.4375
esperar esperar VMN0000 1
los el DA0MP0 0.97623
' ' Fe 1
grados grado NCMP000 1
de de SPS00 0.999919
cooperaci cooperaci RG 0.751648
n n NCFS000 1
' ' Fe 1
que que CS 0.4375
le le PP3CSD00 1
plantear plantear VMN0000 1
Colombia colombia NP00000 1
a a SPS00 0.99585
la el DA0FS0 0.972146
OTAN otan NP00000 1
para para SPS00 0.998507
que que PR0CN000 0.5625
Venezuela venezuela NP00000 1
y y CC 0.999812
la el DA0FS0 0.972146
regi regi NCMS000 0.0996348
n n NCFS000 1
decidan decidir VMSP3P0 0.75
qu qu NCMS000 0.774439
actitud actitud NCFS000 1
asumir asumir VMN0000 1
Haga haga NP00000 1
click click NCMS000 0.50012
aqu aqu NCMS000 0.774439
para para SPS00 0.998507
recibir recibir VMN0000 1
gratis gratis RG 0.75
Argenpress argenpress NP00000 1
en en SPS00 1
su su DP3CS0 1
correo correo NCMS000 0.735623
electr electr AQ0CS0 0.0829965
nico no NCMS00D 0.522084

