La el DA0FS0 0.972146
presidenta presidente NCFS000 1
Rouseff rouseff NP00000 1
reitera reiterar VMIP3S0 0.75
la el DA0FS0 0.972146
necesidad necesidad NCFS000 1
de de SPS00 0.999919
una uno DI0FS0 0.951241
reforma reforma NCFS000 0.866667
pol pol AQ0MS0 0.138294
tica tica NCFS000 0.372209
en en SPS00 1
Brasil_La brasil_la NP00000 1
presidenta presidente NCFS000 1
brasile brasile NCMS000 1
a a SPS00 0.99585
Dilma_Rousseff dilma_rousseff NP00000 1
reiter reiter NCMS000 1
hoy hoy RG 0.877358
la el DA0FS0 0.972146
necesidad necesidad NCFS000 1
de de SPS00 0.999919
avanzar avanzar VMN0000 1
hacia hacia SPS00 1
una uno DI0FS0 0.951241
amplia amplio AQ0FS0 1
y y CC 0.999812
profunda profundo AQ0FS0 0.666667
reforma reforma NCFS000 0.866667
pol pol NCMS000 0.861706
tica tica AQ0FS0 0.595788
en en SPS00 1
el el DA0MS0 1
pa pa NCFS000 0.740689
s segundo NCMN000 0.622321
con con SPS00 1
la el DA0FS0 0.972146
participaci participaci AQ0CS0 0.0199855
n n NCFS000 1
de de SPS00 0.999919
la el DA0FS0 0.972146
ciudadan ciudadan VMIP3P0 0.790742
a a SPS00 0.99585
En en NP00000 1
su su DP3CS0 1
acostumbrado acostumbrar VMP00SM 1
programa programa NCMS000 0.866667
radial radial AQ0CS0 1
de de SPS00 0.999919
cada cada DI0CS0 1
lunes [L:??/??/??:??.??:??] W 1
Caf caf NP00000 1
con con SPS00 1
el el DA0MS0 1
Presidente_Rousseff presidente_rousseff NP00000 1
ratific ratific RG 0.5
que que CS 0.4375
su su DP3CS0 1
Gobierno gobierno NP00000 1
adoptar adoptar VMN0000 1
medidas medida NCFP000 0.944444
para para SPS00 0.998507
responder responder VMN0000 1
a a SPS00 0.99585
los el DA0MP0 0.97623
reclamos reclamo NCMP000 1
de de SPS00 0.999919
millones millón NCMP000 1
de de SPS00 0.999919
manifestantes manifestante NCCP000 1
que que CS 0.4375
durante durante SPS00 1
dos 2 Z 0.988722
semanas semana NCFP000 1
salieron salir VMIS3P0 1
a a SPS00 0.99585
las el DA0FP0 0.97051
calles calle NCFP000 0.954545
para para SPS00 0.998507
pedir pedir VMN0000 1
educaci educaci RG 0.751648
n n NCFS000 1
salud salud NCFS000 1
y y CC 0.999812
transporte transporte NCMS000 0.8125
p p NCFS000 0.5
blico blico AQ0MS0 0.400224
de de SPS00 0.999919
buena bueno AQ0FS0 1
calidad calidad NCFS000 1
menos menos RG 1
corrupci corrupci RG 0.751648
n n NCFS000 1
y y CC 0.999812
m m NCFS000 0.5
s segundo NCMN000 0.622321
seguridad seguridad NCFS000 1
Se se NP00000 1
pronunci pronunci VMIS1S0 0.0691907
por por SPS00 1
aprovechar aprovechar VMN0000 1
la el DA0FS0 0.972146
energ energ NCMS000 0.714133
a a SPS00 0.99585
de de SPS00 0.999919
los el DA0MP0 0.97623
j j NCFS000 1
venes venes AQ0CP0 0.35715
en en SPS00 1
las el DA0FP0 0.97051
calles calle NCFP000 0.954545
para para SPS00 0.998507
cambiar cambiar VMN0000 1
de de SPS00 0.999919
manera manera NCFS000 1
mejor mejor AQ0CS0 0.868421
y y CC 0.999812
m m NCFS000 0.5
s segundo NCMN000 0.622321
r r NCFS000 0.638487
pida pedir VMSP1S0 0.444444
muchas mucho DI0FP0 0.819444
cosas cosa NCFP000 0.986842
que que CS 0.4375
Brasil brasil NP00000 1
no no RN 0.99778
consigue conseguir VMIP3S0 0.916667
a a SPS00 0.99585
n n NCFS000 1
realizar realizar VMN0000 1
debido_a debido_a SPS00 1
limitaciones limitación NCFP000 1
pol pol NCMS000 0.861706
ticas ticas AQ0FP0 0.760898
y y CC 0.999812
econ econ NCMS000 1
micas mica NCFP000 1
Como_Presidenta como_presidenta NP00000 1
tengo tener VMIP1S0 1
la el DA0FS0 0.972146
obligaci obligaci AQ0CS0 0.0199855
n n NCFS000 1
de de SPS00 0.999919
escuchar escuchar VMN0000 1
la el DA0FS0 0.972146
voz voz NCFS000 1
de de SPS00 0.999919
las el DA0FP0 0.97051
calles calle NCFP000 0.954545
de de SPS00 0.999919
dialogar dialogar VMN0000 1
con con SPS00 1
todos todo DI0MP0 0.622419
los el DA0MP0 0.97623
sectores sector NCMP000 1
pero pero CC 0.998821
todo todo PI0MS000 0.430982
dentro_de dentro_de SPS00 1
la el DA0FS0 0.972146
ley ley NCFS000 1
y y CC 0.999812
el el DA0MS0 1
orden orden NCMS000 0.6
Brasil brasil NP00000 1
luch luch AQ0CN0 1
duro duro AQ0MS0 0.925926
para para SPS00 0.998507
convertir convertir VMN0000 1
se se PP3CN000 1
en en SPS00 1
un uno DI0MS0 0.986987
pa pa NCFS000 0.740689
s segundo NCMN000 0.622321
democr democr NCMS000 1
tico tico AQ0MS0 0.806828
y y CC 0.999812
tambi tambi AQ0CN0 1
n n NCFS000 1
est est NCMS000 1
luchando luchar VMG0000 1
duro duro AQ0MS0 0.925926
para para SPS00 0.998507
convertir convertir VMN0000 1
se se PP3CN000 1
en en SPS00 1
un uno DI0MS0 0.986987
pa pa NCFS000 0.740689
s segundo NCMN000 0.622321
m m NCFS000 0.5
s segundo NCMN000 0.622321
justo justo AQ0MS0 0.711538
asever asever VMN0000 1
La la NP00000 1
jefa jefe NCFS000 1
de de SPS00 0.999919
Estado estado NP00000 1
record record AQ0CN0 0.5
que que PR0CN000 0.5625
no no RN 0.99778
fue ser VSIS3S0 0.932292
f f NCFS000 1
cil cil AQ0CS0 1
llegar llegar VMN0000 1
a_donde a_donde RG 1
est est NCMS000 1
ahora ahora RG 1
pero pero CC 0.998821
tambi tambi AQ0CN0 1
n n NCFS000 1
no no RN 0.99778
es ser VSIP3S0 1
f f NCFS000 1
cil cil AQ0CS0 1
avanzar avanzar VMN0000 1
a_donde a_donde RG 1
quieren querer VMIP3P0 1
muchos mucho PI0MP000 0.458333
de de SPS00 0.999919
los el DA0MP0 0.97623
que que PR0CN000 0.5625
salieron salir VMIS3P0 1
a a SPS00 0.99585
las el DA0FP0 0.97051
calles calle NCFP000 0.954545
y y CC 0.999812
s segundo NCMN000 0.622321
lo lo PP3CNA00 0.271163
se se P00CN000 0.465602
puede poder VMIP3S0 0.995614
hacer hacer VMN0000 1
esto este PD0NS000 1
con con SPS00 1
m m NCFS000 0.5
s segundo NCMN000 0.622321
democracia democracia NCFS000 1
es ser VSIP3S0 1
decir decir VMN0000 0.987805
dijo decir VMIS3S0 1
con con SPS00 1
el el DA0MS0 1
poder poder NCMS000 0.711538
de de SPS00 0.999919
los el DA0MP0 0.97623
ciudadanos ciudadano NCMP000 0.875
y y CC 0.999812
los el DA0MP0 0.97623
poderes poder NCMP000 1
de de SPS00 0.999919
la el DA0FS0 0.972146
Rep rep NP00000 1
blica blica AQ0FS0 1
Abog abog NP00000 1
por por SPS00 1
lograr lograr VMN0000 1
un uno DI0MS0 0.986987
pacto pacto NCMS000 0.875
nacional nacional AQ0CS0 1
con con SPS00 1
los el DA0MP0 0.97623
representantes representante NCCP000 0.875
de de SPS00 0.999919
los el DA0MP0 0.97623
poderes poder NCMP000 1
de de SPS00 0.999919
Estado estado NP00000 1
y y CC 0.999812
encontrar encontrar VMN0000 1
mecanismos mecanismo NCMP000 1
que que PR0CN000 0.5625
hagan hacer VMSP3P0 0.875
las el DA0FP0 0.97051
instituciones institución NCFP000 1
m m NCFS000 0.5
s segundo NCMN000 0.622321
transparentes transparente AQ0CP0 0.75
m m NCFS000 0.5
s segundo NCMN000 0.622321
resistentes resistente AQ0CP0 0.65727
a a SPS00 0.99585
las el DA0FP0 0.97051
malas malo AQ0FP0 0.833333
acciones acción NCFP000 0.916667
y y CC 0.999812
sobre sobre SPS00 0.994203
todo todo DI0MS0 0.559816
m m NCFS000 0.5
s segundo NCMN000 0.622321
permeable permeable AQ0CS0 1
a a SPS00 0.99585
la el DA0FS0 0.972146
influencia influencia NCFS000 0.866667
de de SPS00 0.999919
la el DA0FS0 0.972146
sociedad sociedad NCFS000 1
Rousseff rousseff NP00000 1
reconoci reconoci RG 0.751648
que que CS 0.4375
necesitan necesitar VMIP3P0 1
much much AQ0CN0 1
simas sima NCFP000 1
formas forma NCFP000 0.921053
m m NCFS000 0.5
s segundo NCMN000 0.622321
eficaces eficaz AQ0CP0 1
para para SPS00 0.998507
combatir combatir VMN0000 1
la el DA0FS0 0.972146
corrupci corrupci AQ0CS0 0.0199855
n n NCFS000 1
e y CC 0.973684
inst inst NCMS000 1
a a SPS00 0.99585
extender extender VMN0000 1
a a SPS00 0.99585
todas todo DI0FP0 0.945312
las el DA0FP0 0.97051
ramas rama NCFP000 1
de de SPS00 1
el el DA0MS0 1
Gobierno gobierno NP00000 1
y y CC 0.999812
organismos organismo NCMP000 1
federales federal AQ0CP0 0.965
la el DA0FS0 0.972146
Ley_de_Acceso ley_de_acceso NP00000 1
a a SPS00 0.99585
la el DA0FS0 0.972146
Informaci informaci NP00000 1
n n NCFS000 1
aprobada aprobar VMP00SF 1
en en SPS00 1
su su DP3CS0 1
administraci administraci AQ0CS0 0.0199855
n n NCFS000 1
que que PR0CN000 0.5625
sirve servir VMIP3S0 0.916667
como como CS 0.998579
instrumento instrumento NCMS000 0.973494
para para SPS00 0.998507
supervisar supervisar VMN0000 1
el el DA0MS0 1
uso uso NCMS000 0.95
correcto correcto AQ0MS0 1
de de SPS00 1
el el DA0MS0 1
dinero dinero NCMS000 1
p p NCFS000 0.5
blico blico AQ0MS0 0.400224
Finalmente finalmente NP00000 1
ratific ratific RG 0.5
su su DP3CS0 1
oposici oposici AQ0CS0 0.0199855
n n NCFS000 1
a a SPS00 0.99585
la el DA0FS0 0.972146
violencia violencia NCFS000 1
de de SPS00 0.999919
una uno DI0FS0 0.951241
minor minor NCMS000 0.511189
a a SPS00 0.99585
interesada interesado NCFS000 0.308233
en en SPS00 1
destruir destruir VMN0000 1
la el DA0FS0 0.972146
propiedad propiedad NCFS000 1
p p NCFS000 0.5
blica blica AQ0FS0 1
durante durante SPS00 1
las el DA0FP0 0.97051
protestas protesta NCFP000 0.75
por por SPS00 1
lo el DA0NS0 0.457393
cual cual PR0CS000 0.9
asegur asegur NCFS000 1
que que CS 0.4375
los el DA0MP0 0.97623
rganos rganos NCMP000 1
de de SPS00 0.999919
seguridad seguridad NCFS000 1
tienen tener VMIP3P0 1
el el DA0MS0 1
deber deber NCMS000 0.9
de de SPS00 0.999919
frenar frenar VMN0000 1
dentro_de dentro_de SPS00 1
los el DA0MP0 0.97623
l l NCFS000 0.639398
mites mites NCMP000 1
de de SPS00 0.999919
la el DA0FS0 0.972146
ley ley NCFS000 1
todos todo DI0MP0 0.622419
los el DA0MP0 0.97623
tipos tipo NCMP000 1
de de SPS00 0.999919
actos acto NCMP000 1
de de SPS00 0.999919
vandalismo vandalismo NCMS000 1
y y CC 0.999812
desmanes desmán NCMP000 1
Haga haga NP00000 1
click click NCMS000 0.50012
aqu aqu NCMS000 0.774439
para para SPS00 0.998507
recibir recibir VMN0000 1
gratis gratis RG 0.75
Argenpress argenpress NP00000 1
en en SPS00 1
su su DP3CS0 1
correo correo NCMS000 0.735623
electr electr AQ0CS0 0.0829965
nico no NCMS00D 0.522084

