La el DA0FS0 0.972146
sociedad sociedad NCFS000 1
francesa francés AQ0FS0 0.875
preocupada preocupar VMP00SF 1
por por SPS00 1
el el DA0MS0 1
aumento aumento NCMS000 0.916667
de de SPS00 1
el el DA0MS0 1
neofascismo neofascismo NCMS000 1
El el NP00000 1
reciente reciente AQ0CS0 0.925
asesinato asesinato NCMS000 1
de de SPS00 0.999919
un uno DI0MS0 0.986987
joven joven AQ0CS0 0.537037
franc franc NC00000 0.538029
s segundo NCMN000 0.622321
a a SPS00 0.99585
manos mano NCFP000 1
de de SPS00 0.999919
integrantes integrante NCCP000 0.64267
de de SPS00 0.999919
organizaciones organización NCFP000 1
neofascistas neofascista AQ0CP0 0.418141
encendi encendi VMIS1S0 1
las el DA0FP0 0.97051
alarmas alarma NCFP000 0.973492
y y CC 0.999812
puso poner VMIS3S0 1
en en SPS00 1
duda duda NCFS000 0.666667
la el DA0FS0 0.972146
capacidad capacidad NCFS000 1
de de SPS00 1
el el DA0MS0 1
gobierno gobierno NCMS000 0.9
para para SPS00 0.998507
contener contener VMN0000 1
la el DA0FS0 0.972146
creciente creciente AQ0CS0 0.75
presencia presencia NCFS000 0.962963
de de SPS00 0.999919
ideolog ideolog NCMS000 0.714133
as as NCMS000 1
basadas basar VMP00PF 0.616789
en en SPS00 1
el el DA0MS0 1
odio odio NCMS000 0.625
y y CC 0.999812
la el DA0FS0 0.972146
intolerancia intolerancia NCFS000 1
La la NP00000 1
muerte muerte NCFS000 1
en en SPS00 1
pleno pleno AQ0MS0 0.833333
centro centro NCMS000 0.966667
de de SPS00 0.999919
Par par NP00000 1
s segundo NCMN000 0.622321
de de SPS00 0.999919
Cl cl NP00000 1
ment ment NCMS000 0.607342
M m NP00000 1
ric ric RG 0.5
atacado atacar VMP00SM 1
a a SPS00 0.99585
golpes golpe NCMP000 1
en en SPS00 1
la el DA0FS0 0.972146
cabeza cabeza NCFS000 1
y y CC 0.999812
el el DA0MS0 1
rostro rostro NCMS000 1
con con SPS00 1
manoplas manopla NCFP000 1
de de SPS00 0.999919
acero acero NCMS000 0.75
all all NCFN000 1
llamadas llamar VMP00PF 0.75
pu pu NCMS000 0.774439
o o CC 0.998845
americano americano AQ0MS0 0.9375
levant levant NCMS000 0.607342
una uno DI0FS0 0.951241
oleada oleada NCFS000 0.875
de de SPS00 0.999919
indignaci indignaci RG 0.751648
n n NCFS000 1
pero pero CC 0.998821
tambi tambi AQ0CN0 1
n n NCFS000 1
apunt apunt NCMS000 0.607342
hacia hacia SPS00 1
un uno DI0MS0 0.986987
maligno maligno AQ0MS0 0.75
fen fen NCMS000 1
meno meno NCMS000 1
que que PR0CN000 0.5625
lleva llevar VMIP3S0 0.975
a a SPS00 0.99585
os os PP2CP000 0.722222
de de SPS00 0.999919
gestaci gestaci AQ0CS0 0.0199855
n n NCFS000 1
en en SPS00 1
esta este DD0FS0 0.982143
sociedad sociedad NCFS000 1
Diversos diversos NP00000 1
grup grup NCMS000 1
sculos sculos NCMP000 0.800084
neonazis neonazi AQ0CP0 0.35727
comenzaron comenzar VMIS3P0 1
a a SPS00 0.99585
tener tener VMN0000 1
presencia presencia NCFS000 0.962963
m m NCFS000 0.5
s segundo NCMN000 0.622321
o o CC 0.998845
menos menos RG 1
solapada solapar VMP00SF 1
desde desde SPS00 1
principios principio NCMP000 1
de de SPS00 0.999919
la el DA0FS0 0.972146
d d NCFS000 1
cada cada DI0CS0 1
de de SPS00 0.999919
los el DA0MP0 0.97623
80 80 Z 1
de de SPS00 1
el el DA0MS0 1
siglo siglo NCMS000 1
pasado pasar VMP00SM 0.647727
hasta hasta SPS00 0.955172
que que CS 0.4375
en en SPS00 1
el el DA0MS0 1
oto oto NCFS000 0.333112
o o CC 0.998845
de de SPS00 0.999919
1987 1987 Z 1
uno uno PI0MS000 0.964744
de de SPS00 0.999919
sus su DP3CP0 0.998462
l l NCFS000 0.639398
deres deres NCMP000 0.800047
Serge_Ayoub serge_ayoub NP00000 1
consigui consigui VMIS1S0 0.499989
el el DA0MS0 1
registro registro NCMS000 0.973497
legal legal AQ0CS0 1
de de SPS00 0.999919
la el DA0FS0 0.972146
autodenominada autodenominar VMP00SF 1
Juventud_Nacionalista_Revolucionaria_JNR_Ayoub juventud_nacionalista_revolucionaria_jnr_ayoub NP00000 1
se se P00CN000 0.465602
aficion aficion VMIS3P0 0.923476
a a SPS00 1
el el DA0MS0 1
neofascismo neofascismo NCMS000 1
durante durante SPS00 1
un uno DI0MS0 0.986987
viaje viaje NCMS000 0.946429
a a SPS00 0.99585
Reino_Unido reino_unido NP00000 1
a a SPS00 0.99585
su su DP3CS0 1
retorno retorno NCMS000 0.9
a a SPS00 0.99585
Par par NP00000 1
s segundo NCMN000 0.622321
fund fund NCMS000 0.500008
una uno DI0FS0 0.951241
pandilla pandilla NCFS000 1
denominada denominar VMP00SF 1
El_Klan el_klan NP00000 1
y y CC 0.999812
adopt adopt NCMS000 0.607342
para para SPS00 0.998507
s segundo NCMN000 0.622321
mismo mismo AQ0MS0 0.961905
el el DA0MS0 1
seud seud NCFS000 1
nimo nimo AQ0MS0 0.200112
de de SPS00 0.999919
Batskin batskin NP00000 1
por por SPS00 1
su su DP3CS0 1
preferencia preferencia NCFS000 1
de de SPS00 1
el el DA0MS0 1
bate bate NCMS000 0.771975
de de SPS00 0.999919
b b NCFS000 1
isbol isbol NCMS000 1
como como CS 0.998579
arma arma NCFS000 0.944444
durante durante SPS00 1
sus su DP3CP0 0.998462
agresiones agresión NCFP000 1
Este este NP00000 1
individuo individuo NCMS000 0.9375
como como CS 0.998579
otros otro PI0MP000 0.43125
de de SPS00 0.999919
su su DP3CS0 1
especie especie NCFS000 1
es ser VSIP3S0 1
sin sin SPS00 1
embargo embargo NCMS000 0.973496
m m NCFS000 0.5
s segundo NCMN000 0.622321
peligroso peligroso AQ0MS0 1
que que CS 0.4375
un uno DI0MS0 0.986987
simple simple AQ0CS0 0.973684
golpeador golpeador NCMS000 0.64268
callejero callejero AQ0MS0 0.833333
se se P00CN000 0.465602
autodefine autodefinir VMIP3S0 0.75
como como CS 0.998579
un uno DI0MS0 0.986987
patriota patriota NCCS000 1
y y CC 0.999812
explica explicar VMIP3S0 0.95
sin sin SPS00 1
ning ning NCMS000 0.833333
n n NCFS000 1
rubor rubor NCMS000 1
su su DP3CS0 1
concepci concepci RG 0.751648
n n NCFS000 1
de de SPS00 1
el el DA0MS0 1
pensamiento pensamiento NCMS000 1
ultraderechista ultraderechista AQ0CS0 0.65727
Me me NP00000 1
adher adher NC00000 1
a a SPS00 0.99585
los el DA0MP0 0.97623
skinhead skinhead NCFS000 0.973952
cabezas cabeza NCFP000 1
rapadas rapar VMP00PF 1
porque porque CS 1
comprend comprend NCMS000 0.500008
r r NCFS000 0.638487
pido pedir VMIP1S0 1
su su DP3CS0 1
potencial potencial NCMS000 0.75
sobre sobre SPS00 0.994203
la el DA0FS0 0.972146
juventud juventud NCFS000 1
Es es NP00000 1
un uno DI0MS0 0.986987
movimiento movimiento NCMS000 1
popular popular AQ0CS0 1
y y CC 0.999812
nacionalista nacionalista NCCS000 0.833333
engloba englobar VMIP3S0 0.994864
ideas idea NCFP000 0.939394
pol pol NCMS000 0.861706
ticas ticas AQ0FP0 0.760898
modo modo NCMS000 1
de de SPS00 0.999919
vestir vestir VMN0000 1
estilo estilo NCMS000 0.916667
musical musical AQ0CS0 0.875
nuevo nuevo AQ0MS0 1
y y CC 0.999812
toda todo DI0FS0 0.975806
una uno DI0FS0 0.951241
subcultura subcultura NCFS000 1
urbana urbano AQ0FS0 1
Ataca ataca NP00000 1
la el DA0FS0 0.972146
pol pol NCMS000 0.861706
tica tica AQ0FS0 0.595788
desde desde SPS00 1
un uno DI0MS0 0.986987
ngulo ngulo NCMS000 0.948035
nuevo nuevo AQ0MS0 1
me me PP1CS000 0.889706
parece parecer VMIP3S0 0.9875
moderno moderno NCMS000 0.125
inteligente inteligente AQ0CS0 0.928571
y y CC 0.999812
eficaz eficaz AQ0CS0 1
declar declar VMN0000 1
en en SPS00 1
una uno DI0FS0 0.951241
entrevista entrevista NCFS000 0.75
Seg seg NP00000 1
n n NCFS000 1
Ayoub ayoub NP00000 1
la el DA0FS0 0.972146
extrema extremo AQ0FS0 0.777778
derecha derecha NCFS000 0.735294
francesa francés AQ0FS0 0.875
tiene tener VMIP3S0 1
como como CS 0.998579
objetivo objetivo NCMS000 0.761905
permanente permanente AQ0CS0 0.928571
la el DA0FS0 0.972146
defensa defensa NCCS000 1
de de SPS00 0.999919
la el DA0FS0 0.972146
historia historia NCFS000 1
de de SPS00 1
el el DA0MS0 1
patrimonio patrimonio NCMS000 1
y y CC 0.999812
la el DA0FS0 0.972146
cultura cultura NCFS000 1
y y CC 0.999812
desde desde SPS00 1
su su DP3CS0 1
punto punto NCMS000 1
de de SPS00 0.999919
vista vista NCFS000 0.91
el el DA0MS0 1
Frente_Nacional frente_nacional NP00000 1
de de SPS00 0.999919
la el DA0FS0 0.972146
ultra ultra AQ0CS0 1
conservadora conservador NCFS000 0.414738
Marine marine NP00000 1
le le PP3CSD00 1
Pen pen NP00000 1
es ser VSIP3S0 1
el el DA0MS0 1
primer 1 AO0MS0 1
partido partido NCMS000 0.886364
obrero obrero AQ0MS0 0.75
de de SPS00 0.999919
Francia_Para francia_para NP00000 1
financiar financiar VMN0000 1
sus su DP3CP0 0.998462
proyectos proyecto NCMP000 1
la el DA0FS0 0.972146
JNR jnr NP00000 1
abri abri RG 0.83337
bares bar NCMP000 1
en en SPS00 1
Par par NP00000 1
s segundo NCMN000 0.622321
Lille lille NP00000 1
y y CC 0.999812
Lyon lyon NP00000 1
tiene tener VMIP3S0 1
una uno DI0FS0 0.951241
propia propio AQ0FS0 1
casa casa NCFS000 0.971264
editorial editorial AQ0CS0 0.111111
donde donde PR000000 0.963542
publica publicar VMIP3S0 0.994868
sus su DP3CP0 0.998462
manifiestos manifiesto NCMP000 0.63201
y y CC 0.999812
est est NCMS000 1
preparando preparar VMG0000 1
un uno DI0MS0 0.986987
diccionario diccionario NCMS000 1
ideol ideol NCMS000 0.861706
gico gico AQ0MS0 1
as as NCMS000 1
como como CS 0.998579
una uno DI0FS0 0.951241
productora productor NCFS000 0.34273
de de SPS00 0.999919
video video NCMS000 1
y y CC 0.999812
un uno DI0MS0 0.986987
sello sello NCMS000 0.973485
disquero disquero NCMS000 1
Los los NP00000 1
sujetos sujeto AQ0MP0 0.5
que que PR0CN000 0.5625
atacaron atacar VMIS3P0 1
a a SPS00 0.99585
M m NP00000 1
ric ric RG 0.5
son ser VSIP3P0 0.986772
miembros miembro AQ0MP0 0.0833333
o o CC 0.998845
simpatizantes simpatizante AQ0CP0 0.65727
de de SPS00 0.999919
este este DD0MS0 0.956743
grup grup NCMS000 1
sculo sculo NCMS000 1
y y CC 0.999812
de de SPS00 0.999919
una uno DI0FS0 0.951241
de de SPS00 0.999919
sus su DP3CP0 0.998462
derivaciones derivación NCFP000 1
la el DA0FS0 0.972146
Asociaci asociaci NP00000 1
n n NCFS000 1
Tercera_V tercera_v NP00000 1
a a SPS00 0.99585
lo el DA0NS0 0.457393
cual cual PR0CS000 0.9
llev llev VMIP3S0 0.0552772
a a SPS00 1
el el DA0MS0 1
Ministerio_de_el_Interior ministerio_de_el_interior NP00000 1
a a SPS00 0.99585
ordenar ordenar VMN0000 1
su su DP3CS0 1
clausura clausura NCFS000 0.846939
basado basar VMP00SM 1
en en SPS00 1
la el DA0FS0 0.972146
nica nica AQ0FS0 0.730709
herramienta herramienta NCFS000 1
que que PR0CN000 0.5625
tiene tener VMIP3S0 1
el el DA0MS0 1
Estado estado NP00000 1
para para SPS00 0.998507
combatir combatir VMN0000 1
este este DD0MS0 0.956743
fen fen NCMS000 1
meno meno NCMS000 1
una uno DI0FS0 0.951241
ley ley NCFS000 1
promulgada promulgar VMP00SF 1
en en SPS00 1
1936 1936 Z 1
La_JNR la_jnr NP00000 1
es ser VSIP3S0 1
s segundo NCMN000 0.622321
lo lo PP3CNA00 0.271163
una uno DI0FS0 0.951241
entre entre SPS00 0.995223
varias varios DI0FP0 0.939394
agrupaciones agrupación NCFP000 1
dedicadas dedicar VMP00PF 1
a a SPS00 0.99585
predicar predicar VMN0000 1
la el DA0FS0 0.972146
intolerancia intolerancia NCFS000 1
el el DA0MS0 1
racismo racismo NCMS000 1
y y CC 0.999812
la el DA0FS0 0.972146
xenofobia xenofobia NCFS000 1
como como CS 0.998579
la el DA0FS0 0.972146
llamada llamada NCFS000 0.125
Generaci generaci NP00000 1
n n NCFS000 1
Identitaria identitaria NP00000 1
que que PR0CN000 0.5625
recientemente recientemente RG 1
emiti emiti NCMS000 1
una uno DI0FS0 0.951241
declaraci declaraci RG 0.751648
n n NCFS000 1
de de SPS00 0.999919
guerra guerra NCFS000 1
contra contra SPS00 0.976316
las el DA0FP0 0.97051
migraciones migración NCFP000 1
de de SPS00 0.999919
manera manera NCFS000 1
particular particular AQ0CS0 0.75
las el DA0FP0 0.97051
originadas originar VMP00PF 1
desde desde SPS00 1
frica fricar VMIP3S0 0.994868
y y CC 0.999812
el el DA0MS0 1
Medio_Oriente medio_oriente NP00000 1
Uno uno PI0MS000 0.964744
de de SPS00 0.999919
los el DA0MP0 0.97623
factores factor NCMP000 1
para para SPS00 0.998507
explicar explicar VMN0000 1
el el DA0MS0 1
auge auge NCMS000 1
de de SPS00 0.999919
estas este DD0FP0 0.960526
ideolog ideolog NCMS000 0.714133
as as NCMS000 1
es ser VSIP3S0 1
la el DA0FS0 0.972146
crisis crisis NCFN000 1
econ econ NCMS000 1
mica mica NCFS000 1
y y CC 0.999812
financiera financiero AQ0FS0 0.666667
que que PR0CN000 0.5625
afecta afectar VMIP3S0 0.777778
a a SPS00 0.99585
la el DA0FS0 0.972146
mayor mayor AQ0CS0 0.989796
parte parte NCFS000 0.497967
de de SPS00 0.999919
los el DA0MP0 0.97623
pa pa NCFS000 0.740689
ses ses AQ0CP0 0.068278
de de SPS00 0.999919
la el DA0FS0 0.972146
Uni uni NP00000 1
n n NCFS000 1
Europea europea NP00000 1
y y CC 0.999812
la el DA0FS0 0.972146
falta falta NCFS000 0.693182
de de SPS00 0.999919
respuestas respuesta NCFP000 1
adecuadas adecuar VMP00PF 1
de de SPS00 0.999919
los el DA0MP0 0.97623
gobiernos gobierno NCMP000 1
explic explic RG 0.5
el el DA0MS0 1
acad acad NCFS000 0.973952
mico mico NCMS000 1
franc franc NC00000 0.538029
s segundo NCMN000 0.622321
Salim_Lamrani_La salim_lamrani_la NP00000 1
extrema extremo AQ0FS0 0.777778
derecha derecha NCFS000 0.735294
aprovecha aprovechar VMIP3S0 0.75
la el DA0FS0 0.972146
situaci situaci AQ0CS0 0.0199855
n n NCFS000 1
para para SPS00 0.998507
culpar culpar VMN0000 1
a a SPS00 0.99585
los el DA0MP0 0.97623
migrantes migrante AQ0CP0 1
por por SPS00 1
la el DA0FS0 0.972146
falta falta NCFS000 0.693182
de de SPS00 0.999919
trabajo trabajo NCMS000 0.940476
y y CC 0.999812
el el DA0MS0 1
deterioro deterioro NCMS000 0.875
de de SPS00 0.999919
la el DA0FS0 0.972146
econom econom NCMS000 0.500053
a a SPS00 0.99585
y y CC 0.999812
muchas mucho DI0FP0 0.819444
personas persona NCFP000 0.983871
no no RN 0.99778
pocas poco DI0FP0 0.95
de de SPS00 0.999919
ellas ellos PP3FP000 1
entre entre SPS00 0.995223
los el DA0MP0 0.97623
sectores sector NCMP000 1
menos menos RG 1
favorecidos favorecer VMP00PM 1
son ser VSIP3P0 0.986772
proclives proclive AQ0CP0 1
a a SPS00 0.99585
caer caer VMN0000 1
en en SPS00 1
los el DA0MP0 0.97623
cantos canto NCMP000 1
de de SPS00 0.999919
sirena sirena NCFS000 1
de de SPS00 0.999919
que que CS 0.4375
una uno DI0FS0 0.951241
vez vez NCFS000 1
resuelto resolver VMP00SM 1
el el DA0MS0 1
problema problema NCMS000 1
migratorio migratorio AQ0MS0 1
se se P00CN000 0.465602
arreglar arreglar VMN0000 1
todo todo DI0MS0 0.559816
lo el DA0NS0 0.457393
dem dem NCMS000 1
s segundo NCMN000 0.622321
Un uno DI0MS0 0.986987
acontecimiento acontecimiento NCMS000 1
que que PR0CN000 0.5625
vino venir VMIS3S0 0.4375
a a SPS00 0.99585
dar dar VMN0000 1
m m NCFS000 0.5
s segundo NCMN000 0.622321
ox ox I 1
geno geno NCMS000 1
a a SPS00 0.99585
la el DA0FS0 0.972146
ultraderecha ultraderecha NCFS000 1
y y CC 0.999812
sirvi sirvi VMIS1S0 1
como como CS 0.998579
catalizador catalizador NCMS000 0.75
para para SPS00 0.998507
acercar acercar VMN0000 1
la lo PP3FSA00 1
a a SPS00 0.99585
otros otro DI0MP0 0.56875
sectores sector NCMP000 1
intolerantes intolerante AQ0CP0 0.43232
fue ser VSIS3S0 0.932292
el el DA0MS0 1
proceso proceso NCMS000 0.973684
de de SPS00 0.999919
promulgaci promulgaci RG 0.751648
n n NCFS000 1
de de SPS00 0.999919
la el DA0FS0 0.972146
ley ley NCFS000 1
de de SPS00 1
el el DA0MS0 1
matrimonio matrimonio NCMS000 0.928571
entre entre SPS00 0.995223
personas persona NCFP000 0.983871
de de SPS00 1
el el DA0MS0 1
mismo mismo AQ0MS0 0.961905
sexo sexo NCMS000 1
En en NP00000 1
realidad realidad NCFS000 1
las el DA0FP0 0.97051
discusiones discusión NCFP000 1
en_torno_a en_torno_a SPS00 1
este este DD0MS0 0.956743
proyecto proyecto NCMS000 0.9375
vienen venir VMIP3P0 1
de de SPS00 0.999919
hace hacer VMIP3S0 1
a a SPS00 0.99585
os os PP2CP000 0.722222
y y CC 0.999812
las el DA0FP0 0.97051
primeras 1 AO0FP0 0.9
escaramuzas escaramuza NCFP000 0.75
datan datar VMIP3P0 1
de de SPS00 0.999919
2011 2011 Z 1
cuando cuando CS 0.983796
Francia francia NP00000 1
estaba estar VAII1S0 0.5
gobernada gobernar VMP00SF 1
por por SPS00 1
Nicol nicol NP00000 1
s segundo NCMN000 0.622321
Sarkozy_de_la_Uni sarkozy_de_la_uni NP00000 1
n n NCFS000 1
por por SPS00 1
un uno DI0MS0 0.986987
Movimiento_Popular_A movimiento_popular_a NP00000 1
el el DA0MS0 1
pasar pasar VMN0000 1
el el DA0MS0 1
proyecto proyecto NCMS000 0.9375
a a SPS00 0.99585
manos mano NCFP000 1
de de SPS00 1
el el DA0MS0 1
presidente presidente NCMS000 1
Fran fran NP00000 1
ois ois NCFN000 0.511327
Hollande_de_el_Partido_Socialista hollande_de_el_partido_socialista NP00000 1
la el DA0FS0 0.972146
iglesia iglesia NCFS000 1
cat cat NCMS000 1
lica lica AQ0FS0 0.500121
se se P00CN000 0.465602
lanz lanz NCFS000 0.620205
a a SPS00 0.99585
fondo fondo NCMS000 1
en en SPS00 1
su su DP3CS0 1
contra contra NCFS000 0.00263158
por_medio_de por_medio_de SPS00 1
la el DA0FS0 0.972146
organizaci organizaci AQ0CS0 0.0199855
n n NCFS000 1
Civitas civitas NP00000 1
la el DA0FS0 0.972146
extrema extremo AQ0FS0 0.777778
derecha derecha NCFS000 0.735294
de de SPS00 0.999919
la el DA0FS0 0.972146
conservadora conservador AQ0FS0 0.585262
curia curia NCFS000 1
gala galo AQ0FS0 0.222222
Como como NP00000 1
pantalla pantalla NCFS000 1
utilizaron utilizar VMIS3P0 1
un uno DI0MS0 0.986987
movimiento movimiento NCMS000 1
denominado denominar VMP00SM 1
Manif manif NP00000 1
pour pour NCMS000 1
tous tous NCMN000 0.916428
Manifestaci manifestaci NP00000 1
n n NCFS000 1
para para SPS00 0.998507
todos todo PI0MP000 0.374631
y y CC 0.999812
pusieron poner VMIS3P0 1
a a SPS00 0.99585
la el DA0FS0 0.972146
cabeza cabeza NCFS000 1
a a SPS00 0.99585
la el DA0FS0 0.972146
experiodista experiodista NCCS000 1
y y CC 0.999812
c c NCFS000 1
mica mica NCFS000 1
Virginie_Tellenne virginie_tellenne NP00000 1
m m NCFS000 0.5
s segundo NCMN000 0.622321
conocida conocer VMP00SF 0.875
por por SPS00 1
su su DP3CS0 1
estramb estramb NCMS000 0.63631
tico tico AQ0MS0 0.806828
sobrenombre sobrenombre NCMS000 1
de de SPS00 0.999919
Frigide_Barjot_El frigide_barjot_el NP00000 1
grupo grupo NCMS000 1
cont cont NCMS000 0.607342
con con SPS00 1
cuantiosos cuantioso AQ0MP0 1
recursos recurso NCMP000 1
econ econ NCMS000 1
micos mico NCMP000 1
y y CC 0.999812
una uno DI0FS0 0.951241
cuidadosa cuidadoso AQ0FS0 1
asesor asesor NCMS000 0.642709
a a SPS00 0.99585
medi medi VMIS1S0 1
tica tica NCFS000 0.372209
en en SPS00 1
la el DA0FS0 0.972146
cual cual PR0CS000 0.9
particip particip NCMS000 1
la el DA0FS0 0.972146
estadounidense estadounidense AQ0CS0 0.833333
National_Organization national_organization NP00000 1
for for NCMS000 1
Marriage_NOM marriage_nom NP00000 1
muy muy RG 1
ligada ligar VMP00SF 1
a a SPS00 1
el el DA0MS0 1
Opus_Dei opus_dei NP00000 1
y y CC 0.999812
la el DA0FS0 0.972146
agencia agencia NCFS000 0.666667
de de SPS00 0.999919
comunicaci comunicaci RG 0.751648
n n NCFS000 1
Opus_Fidelis opus_fidelis NP00000 1
especialista especialista NCCS000 0.75
en en SPS00 1
manejo manejo NCMS000 0.973494
de de SPS00 0.999919
redes red NCFP000 0.875
sociales social AQ0CP0 0.9375
denunci denunci RG 0.751648
el el DA0MS0 1
portal portal NCMS000 0.833333
de de SPS00 0.999919
internet internet NCFS000 1
Mediapart_Brian_Brown mediapart_brian_brown NP00000 1
l l NCFS000 0.639398
der der VMN0000 0.630215
en en SPS00 1
California_de_la_NOM california_de_la_nom NP00000 1
pronunci pronunci VMIS1S0 0.0691907
un uno DI0MS0 0.986987
discurso discurso NCMS000 0.75
y y CC 0.999812
particip particip NCMS000 1
en en SPS00 1
la el DA0FS0 0.972146
primera 1 AO0FS0 0.987179
marcha marcha NCFS000 0.948718
de de SPS00 0.999919
la el DA0FS0 0.972146
Manif manif NP00000 1
pour pour NCMS000 1
tous tous NCMN000 0.916428
en en SPS00 1
Par par NP00000 1
s segundo NCMN000 0.622321
Como como NP00000 1
columna columna NCFS000 1
vertebral vertebral AQ0CS0 1
de de SPS00 0.999919
la el DA0FS0 0.972146
seguridad seguridad NCFS000 1
interna interno AQ0FS0 0.75
de de SPS00 0.999919
este este DD0MS0 0.956743
movimiento movimiento NCMS000 1
seleccionaron seleccionar VMIS3P0 1
ni ni CC 0.995935
m m NCFS000 0.5
s segundo NCMN000 0.622321
ni ni CC 0.995935
menos menos RG 1
que que CS 0.4375
a a SPS00 0.99585
miembros miembro NCMP000 0.916667
de de SPS00 0.999919
la el DA0FS0 0.972146
JNR jnr NP00000 1
y y CC 0.999812
los el DA0MP0 0.97623
Identitarios identitarios NP00000 1
y y CC 0.999812
existen existir VMIP3P0 1
numerosos numeroso AQ0MP0 1
testimonios testimonio NCMP000 1
sobre sobre SPS00 0.994203
su su DP3CS0 1
presencia presencia NCFS000 0.962963
en en SPS00 1
las el DA0FP0 0.97051
marchas marcha NCFP000 0.833333
armados armar VMP00PM 1
con con SPS00 1
manoplas manopla NCFP000 1
tubos tubo NCMP000 1
de de SPS00 0.999919
metal metal NCMS000 1
e y CC 0.973684
incluso incluso RG 0.988095
bombas bomba NCFP000 0.928571
de de SPS00 0.999919
gas gas NCMS000 1
lacrim lacrim NCMS000 0.700265
geno geno NCMS000 1
Pronto pronto NP00000 1
las el DA0FP0 0.97051
manifestaciones manifestación NCFP000 1
degeneraron degenerar VMIS3P0 1
en en SPS00 1
batallas batalla NCFP000 0.833333
campales campal AQ0CP0 0.965
entre entre SPS00 0.995223
estos este DD0MP0 0.990566
grupos grupo NCMP000 1
y y CC 0.999812
la el DA0FS0 0.972146
polic polic NCFS000 1
a a SPS00 0.99585
mientras mientras CS 0.881579
dirigentes dirigente AQ0CP0 0.25
pol pol NCMS000 0.861706
ticos ticos AQ0MP0 0.671839
de de SPS00 0.999919
derecha derecha NCFS000 0.735294
lanzaban lanzar VMII3P0 1
irresponsables irresponsable NCCP000 0.492678
llamados llamar VMP00PM 0.9375
a a SPS00 0.99585
la el DA0FS0 0.972146
violencia violencia NCFS000 1
contra contra SPS00 0.976316
el el DA0MS0 1
gobierno gobierno NCMS000 0.9
de de SPS00 0.999919
Hollande_Frigide_Barjot hollande_frigide_barjot NP00000 1
lleg lleg NCMS000 0.714133
a a SPS00 0.99585
decir decir VMN0000 0.987805
en en SPS00 1
una uno DI0FS0 0.951241
declaraci declaraci AQ0CS0 0.0199855
n n NCFS000 1
p p NCFS000 0.5
blica blica AQ0FS0 1
que que PR0CN000 0.5625
si si CS 0.997706
sangre sangre NCFS000 0.931818
quieren querer VMIP3P0 1
los el DA0MP0 0.97623
favorables favorable AQ0CP0 1
a a SPS00 1
el el DA0MS0 1
matrimonio matrimonio NCMS000 0.928571
para para SPS00 0.998507
todos todo DI0MP0 0.622419
sangre sangre NCFS000 0.931818
tendr tendr AQ0CS0 0.0829965
n n NCFS000 1
Lamentablemente lamentablemente NP00000 1
el el DA0MS0 1
gobierno gobierno NCMS000 0.9
reaccion reaccion VMIS3P0 0.923476
cuando cuando CS 0.983796
en en SPS00 1
efecto efecto NCMS000 1
corri corri RG 0.83337
la el DA0FS0 0.972146
sangre sangre NCFS000 0.931818
de de SPS00 0.999919
Cl cl NP00000 1
ment ment NCMS000 0.607342
M m NP00000 1
ric ric RG 0.5
y y CC 0.999812
se se P00CN000 0.465602
decidi decidi VMIS1S0 1
entonces entonces RG 0.97619
la el DA0FS0 0.972146
disoluci disoluci AQ0CS0 0.0199855
n n NCFS000 1
de de SPS00 0.999919
las el DA0FP0 0.97051
JNR jnr NP00000 1
y y CC 0.999812
Tercera_V tercera_v NP00000 1
a a SPS00 0.99585
medida medida NCFS000 0.863636
considerada considerar VMP00SF 1
correcta correcto AQ0FS0 1
pero pero CC 0.998821
insuficiente insuficiente AQ0CS0 1
para para SPS00 0.998507
resolver resolver VMN0000 1
el el DA0MS0 1
problema problema NCMS000 1
de de SPS00 0.999919
fondo fondo NCMS000 1
A a NP00000 1
el el DA0MS0 1
amparo amparo NCMS000 0.973497
de de SPS00 0.999919
las el DA0FP0 0.97051
leyes ley NCFP000 1
estos este DD0MP0 0.990566
grup grup NCMS000 1
sculos sculos AQ0MP0 0.199916
podr podr VMN0000 0.633986
n n NCFS000 1
inscribir inscribir VMN0000 1
se se PP3CN000 1
de de SPS00 0.999919
nuevo nuevo AQ0MS0 1
en en SPS00 1
poco poco DI0MS0 0.126016
tiempo tiempo NCMS000 1
bajo bajo SPS00 0.866071
otro otro DI0MS0 0.61215
nombre nombre NCMS000 0.97973
y y CC 0.999812
todo todo PI0MS000 0.430982
seguir seguir VMN0000 1
igual igual AQ0CS0 0.716667
Lo lo NP00000 1
que que PR0CN000 0.5625
se se P00CN000 0.465602
necesita necesitar VMIP3S0 0.95
se se P00CN000 0.465602
alan alan NCMN000 1
los el DA0MP0 0.97623
expertos experto NCMP000 0.9
es ser VSIP3S0 1
iniciar iniciar VMN0000 1
una uno DI0FS0 0.951241
campa campar VMIP3S0 0.994867
a a SPS00 0.99585
pol pol NCMS000 0.861706
tica tica AQ0FS0 0.595788
e y CC 0.973684
ideol ideol NCMS000 0.861706
gica gica AQ0FS0 0.925822
para para SPS00 0.998507
explicar explicar VMN0000 1
que que CS 0.4375
la el DA0FS0 0.972146
soluci soluci AQ0CS0 0.0199855
n n NCFS000 1
de de SPS00 0.999919
los el DA0MP0 0.97623
problemas problema NCMP000 1
no no RN 0.99778
est est NCMS000 1
en en SPS00 1
las el DA0FP0 0.97051
propuestas propuesta NCFP000 0.75
de de SPS00 0.999919
la el DA0FS0 0.972146
ultraderecha ultraderecha NCFS000 1
sino sino CC 0.981707
en en SPS00 1
acciones acción NCFP000 0.916667
concretas concreto AQ0FP0 0.75
de de SPS00 0.999919
justicia justicia NCFS000 1
social social AQ0CS0 0.977273
y y CC 0.999812
econ econ NCMS000 1
mica mica NCFS000 1
Haga haga NP00000 1
click click NCMS000 0.50012
aqu aqu NCMS000 0.774439
para para SPS00 0.998507
recibir recibir VMN0000 1
gratis gratis RG 0.75
Argenpress argenpress NP00000 1
en en SPS00 1
su su DP3CS0 1
correo correo NCMS000 0.735623
electr electr AQ0CS0 0.0829965
nico no NCMS00D 0.522084

