La el DA0FS0 0.972146
Unasur unasur NP00000 1
llama llamar VMIP3S0 0.948718
a a SPS00 0.99585
oposici oposici RG 0.751648
n n NCFS000 1
venezolana venezolano AQ0FS0 0.469804
a a SPS00 0.99585
reconocer reconocer VMN0000 1
resultado resultado NCMS000 0.807692
electoral electoral AQ0CS0 1
La la NP00000 1
cumbre cumbre NCFS000 1
extraordinaria extraordinario AQ0FS0 1
de de SPS00 0.999919
Unasur unasur NP00000 1
salud salud NCFS000 1
en en SPS00 1
Lima lima NP00000 1
a a SPS00 1
el el DA0MS0 1
presidente presidente NCMS000 1
de de SPS00 0.999919
Venezuela_Nicol venezuela_nicol NP00000 1
s segundo NCMN000 0.622321
Maduro maduro NP00000 1
por por SPS00 1
su su DP3CS0 1
elecci elecci AQ0CS0 0.0199855
n n NCFS000 1
y y CC 0.999812
llam llam NCMS000 0.700265
t t NCFS000 1
citamente citamente RG 1
a a SPS00 0.99585
la el DA0FS0 0.972146
oposici oposici AQ0CS0 0.0199855
n n NCFS000 1
venezolana venezolano AQ0FS0 0.469804
a a SPS00 0.99585
reconocer reconocer VMN0000 1
ese ese DD0MS0 0.98125
resultado resultado NCMS000 0.807692
de de SPS00 0.999919
los el DA0MP0 0.97623
comicios comicio NCMP000 1
de de SPS00 1
el el DA0MS0 1
domingo [G:??/??/??:??.??:??] W 1
ltimo ltimo RG 1
La la NP00000 1
cita citar VMIP3S0 0.166667
de de SPS00 0.999919
gobernantes gobernante NCCP000 0.916667
de de SPS00 0.999919
la el DA0FS0 0.972146
Uni uni NP00000 1
n n NCFS000 1
de de SPS00 0.999919
Naciones_Suramericanas_Unasur naciones_suramericanas_unasur NP00000 1
dur dur NCMS000 0.75005
aproximadamente aproximadamente RG 1
dos_horas TM_h:2 Zu 1
en en SPS00 1
las el DA0FP0 0.97051
que que PR0CN000 0.5625
analiz analiz AQ0CS0 1
la el DA0FS0 0.972146
situaci situaci RG 0.751648
n n NCFS000 1
venezolana venezolano AQ0FS0 0.469804
escuch escuch AQ0CN0 1
a a SPS00 0.99585
Maduro maduro NP00000 1
e y CC 0.973684
intercambi intercambi AQ0CN0 1
ideas idea NCFP000 0.939394
y y CC 0.999812
aprob aprob NCMS000 0.63631
una uno DI0FS0 0.951241
declaraci declaraci RG 0.751648
n n NCFS000 1
de de SPS00 0.999919
consenso consenso NCMS000 1
seg segundo NCMN000 1
n n NCFS000 1
inform inform NCMS000 0.700265
el el DA0MS0 1
mandatario mandatario NCMS000 1
anfitri anfitri RG 0.83337
n n NCFS000 1
Ollanta_Humala_El ollanta_humala_el NP00000 1
pronunciamiento pronunciamiento NCMS000 1
felicita felicitar VMIP3S0 0.994868
a a SPS00 1
el el DA0MS0 1
pueblo pueblo NCMS000 0.978261
venezolano venezolano AQ0MS0 0.357352
por por SPS00 1
su su DP3CS0 1
masiva masivo AQ0FS0 1
participaci participaci NCMS000 0.0996348
n n NCFS000 1
en en SPS00 1
los el DA0MP0 0.97623
comicios comicio NCMP000 1
de de SPS00 1
el el DA0MS0 1
domingo [G:??/??/??:??.??:??] W 1
ltimo ltimo RG 1
y y CC 0.999812
saluda saludar VMIP3S0 0.450733
a a SPS00 1
el el DA0MS0 1
presidente presidente NCMS000 1
Maduro maduro NP00000 1
por por SPS00 1
los el DA0MP0 0.97623
resultados resultado NCMP000 0.958333
y y CC 0.999812
por por SPS00 1
su su DP3CS0 1
elecci elecci RG 0.751648
n n NCFS000 1
como como CS 0.998579
presidente presidente NCMS000 1
de de SPS00 0.999919
la el DA0FS0 0.972146
Rep rep NP00000 1
blica blica AQ0FS0 1
Bolivariana_de_Venezuela_Exhorta bolivariana_de_venezuela_exhorta NP00000 1
a a SPS00 0.99585
quienes quien PR0CP000 1
participaron participar VMIS3P0 1
en en SPS00 1
los el DA0MP0 0.97623
comicios comicio NCMP000 1
a a SPS00 0.99585
respetar respetar VMN0000 1
los el DA0MP0 0.97623
resultados resultado NCMP000 0.958333
oficiales oficial AQ0CP0 0.866667
emanados emanar VMP00PM 1
de de SPS00 1
el el DA0MS0 1
Consejo_Nacional_Electoral_de_Venezuela consejo_nacional_electoral_de_venezuela NP00000 1
lo lo PP3CNA00 0.271163
que que CS 0.4375
es ser VSIP3S0 1
un uno DI0MS0 0.986987
t t NCFS000 1
cito citar VMIP1S0 1
llamado llamar VMP00SM 0.973684
a a SPS00 1
el el DA0MS0 1
opositor opositor NCMS000 0.642712
Henrique_Capriles henrique_capriles NP00000 1
a a SPS00 0.99585
que que PR0CN000 0.5625
cese cesar VMSP3S0 0.335616
su su DP3CS0 1
desacato desacato NCMS000 0.973497
a a SPS00 0.99585
esos ese DD0MP0 0.961538
resultados resultado NCMP000 0.958333
Los los NP00000 1
mandatarios mandatario NCMP000 1
suramericanos suramericano AQ0MP0 0.490617
plantearon plantear VMIS3P0 1
que que CS 0.4375
cualquier cualquiera DI0CS0 1
reclamo reclamo NCMS000 0.673603
cuestionamiento cuestionamiento NCMS000 1
o o CC 0.998845
procedimiento procedimiento NCMS000 1
extraordinario extraordinario AQ0MS0 0.833333
de de SPS00 0.999919
alguno alguno PI0MS000 0.5
de de SPS00 0.999919
los el DA0MP0 0.97623
participantes participante NCCP000 0.75
de de SPS00 0.999919
el el DA0MS0 1
proceso proceso NCMS000 0.973684
electoral electoral AQ0CS0 1
deber deber NCMS000 0.9
ser ser VSN0000 0.93883
canalizado canalizar VMP00SM 1
y y CC 0.999812
resuelto resolver VMP00SM 1
dentro_de dentro_de SPS00 1
el el DA0MS0 1
ordenamiento ordenamiento NCMS000 1
jur jur NCMS000 0.75005
dico do NCMS00D 0.736653
vigente vigente AQ0CS0 1
en en SPS00 1
Venezuela venezuela NP00000 1
y y CC 0.999812
la el DA0FS0 0.972146
voluntad voluntad NCFS000 1
democr democr NCMS000 1
tica tica AQ0FS0 0.595788
de de SPS00 0.999919
las el DA0FP0 0.97051
partes parte NCFP000 0.495495
En en NP00000 1
tal tal DD0CS0 0.741379
sentido sentido NCMS000 0.948276
toma tomar VMIP3S0 0.533333
nota nota NCFS000 0.3125
positiva positivo AQ0FS0 1
de de SPS00 0.999919
la el DA0FS0 0.972146
decisi decisi RG 1
n n NCFS000 1
de de SPS00 1
el el DA0MS0 1
CNE cne NP00000 1
de de SPS00 0.999919
implementar implementar VMN0000 1
una uno DI0FS0 0.951241
metodolog metodolog NCMS000 0.714133
a a SPS00 0.99585
que que CS 0.4375
permita permitir VMSP1S0 0.466667
la el DA0FS0 0.972146
auditor auditor NCMS000 1
a a SPS00 0.99585
total total AQ0CS0 0.944444
de de SPS00 0.999919
las el DA0FP0 0.97051
mesas mesa NCFP000 0.973497
electorales electoral AQ0CP0 1
es ser VSIP3S0 1
decir decir VMN0000 0.987805
el el DA0MS0 1
46_por_ciento 46/100 Zp 1
de de SPS00 0.999919
las el DA0FP0 0.97051
m m NCFS000 0.5
quinas quina NCFP000 1
que que PR0CN000 0.5625
no no RN 0.99778
fueron ser VSIS3P0 0.796296
auditadas auditar VMP00PF 1
tras tras SPS00 1
cumplir cumplir VMN0000 1
se se PP3CN000 1
la el DA0FS0 0.972146
normal normal AQ0CS0 0.9375
auditor auditor NCMS000 1
a a SPS00 0.99585
de de SPS00 1
el el DA0MS0 1
54_por_ciento 54/100 Zp 1
de de SPS00 0.999919
las el DA0FP0 0.97051
mismas mismo AQ0FP0 0.928571
Llama llama NP00000 1
a a SPS00 0.99585
cesar cesar VMN0000 1
toda todo DI0FS0 0.975806
actitud actitud NCFS000 1
o o CC 0.998845
acto acto NCMS000 1
de de SPS00 0.999919
violencia violencia NCFS000 1
que que PR0CN000 0.5625
ponga poner VMSP1S0 0.484848
en en SPS00 1
riesgo riesgo NCMS000 1
la el DA0FS0 0.972146
paz paz NCFS000 1
social social AQ0CS0 0.977273
de de SPS00 1
el el DA0MS0 1
pa pa NCFS000 0.740689
s segundo NCMN000 0.622321
y y CC 0.999812
expresa expresar VMIP3S0 0.777778
su su DP3CS0 1
solidaridad solidaridad NCFS000 1
con con SPS00 1
los el DA0MP0 0.97623
heridos herido NCMP000 0.5
y y CC 0.999812
las el DA0FP0 0.97051
familias familia NCFP000 1
de de SPS00 0.999919
las el DA0FP0 0.97051
v v NCFS000 1
ctimas ctimas NCFP000 1
fatales fatal AQ0CP0 1
de de SPS00 0.999919
los el DA0MP0 0.97623
hechos hecho NCMP000 0.375
violentos violento AQ0MP0 1
de de SPS00 1
el el DA0MS0 1
pasado_lunes [L:??/??/??:??.??:??] W 1
una uno DI0FS0 0.951241
referencia referencia NCFS000 0.666667
a a SPS00 0.99585
los el DA0MP0 0.97623
ataques ataque NCMP000 0.928571
de de SPS00 0.999919
grupos grupo NCMP000 1
violentos violento AQ0MP0 1
opositores opositor NCMP000 0.642687
que que PR0CN000 0.5625
dieron dar VMIS3P0 1
muerte muerte NCFS000 1
a a SPS00 0.99585
ocho 8 Z 1
ciudadanos ciudadano NCMP000 0.875
Los los NP00000 1
mandataron mandataron VMIS3P0 1
acordaron acordar VMIS3P0 1
a a SPS00 1
el el DA0MS0 1
respecto respecto NCMS000 0.75
enviar enviar VMN0000 1
a a SPS00 0.99585
Venezuela venezuela NP00000 1
una uno DI0FS0 0.951241
misi misi RG 1
n n NCFS000 1
de de SPS00 0.999919
acompa acompa VMSP3S0 1
amiento amentar VMIP1S0 0.5
de de SPS00 0.999919
la el DA0FS0 0.972146
investigaci investigaci AQ0CS0 0.0199855
n n NCFS000 1
de de SPS00 0.999919
los el DA0MP0 0.97623
violentos violento AQ0MP0 1
sucesos suceso NCMP000 1
de de SPS00 1
el el DA0MS0 1
pasado_lunes [L:??/??/??:??.??:??] W 1
que que PR0CN000 0.5625
dejaron dejar VMIS3P0 1
el el DA0MS0 1
citado citar VMP00SM 1
saldo saldo NCMS000 0.875
tr tr AQ0CS0 0.0829965
gico gico AQ0MS0 1
La la NP00000 1
declaraci declaraci RG 0.751648
n n NCFS000 1
llama llamar VMIP3S0 0.948718
tambi tambi AQ0CN0 1
n n NCFS000 1
a a SPS00 1
el el DA0MS0 1
di dar VMIS1S0 0.833333
logo logo NCMS000 1
y y CC 0.999812
a a SPS00 0.99585
contribuir contribuir VMN0000 1
a a SPS00 0.99585
preservar preservar VMN0000 1
un uno DI0MS0 0.986987
clima clima NCMS000 1
de de SPS00 0.999919
tolerancia tolerancia NCFS000 1
en en SPS00 1
beneficio beneficio NCMS000 0.833333
de de SPS00 0.999919
todo todo DI0MS0 0.559816
el el DA0MS0 1
pueblo pueblo NCMS000 0.978261
venezolano venezolano AQ0MS0 0.357352
Tras tras NP00000 1
la el DA0FS0 0.972146
lectura lectura NCFS000 1
el el DA0MS0 1
presidente presidente NCMS000 1
Humala humala NP00000 1
destac destac NCMN000 1
la el DA0FS0 0.972146
permanente permanente AQ0CS0 0.928571
misi misi RG 1
n n NCFS000 1
de de SPS00 0.999919
Unasur unasur NP00000 1
de de SPS00 0.999919
acompa acompa VMSP3S0 1
ar ar I 1
y y CC 0.999812
cooperar cooperar VMN0000 1
con con SPS00 1
los el DA0MP0 0.97623
procesos proceso NCMP000 1
de de SPS00 0.999919
fortalecimiento fortalecimiento NCMS000 1
en en SPS00 1
cualquiera cualquiera PI0CS000 0.863636
de de SPS00 0.999919
los el DA0MP0 0.97623
pa pa NCFS000 0.740689
ses ses AQ0CP0 0.068278
miembros miembro NCMP000 0.916667
Un uno DI0MS0 0.986987
clima clima NCMS000 1
de de SPS00 0.999919
distensi distensi RG 1
n n NCFS000 1
fraternidad fraternidad NCFS000 1
y y CC 0.999812
sonrisas sonrisa NCFP000 1
caracteriz caracteriz AQ0CS0 0.154065
el el DA0MS0 1
cierre cierre NCMS000 0.899603
de de SPS00 0.999919
la el DA0FS0 0.972146
reuni reuni NCMS000 0.0996348
n n NCFS000 1
celebrada celebrar VMP00SF 1
en en SPS00 1
el el DA0MS0 1
palacio palacio NCMS000 1
de de SPS00 0.999919
gobierno gobierno NCMS000 0.9
tras tras SPS00 1
lo el DA0NS0 0.457393
cual cual PR0CS000 0.9
los el DA0MP0 0.97623
mandatarios mandatario NCMP000 1
se se P00CN000 0.465602
aprestan aprestar VMIP3P0 1
a a SPS00 0.99585
viajar viajar VMN0000 1
a a SPS00 0.99585
Caracas caracas NP00000 1
para para SPS00 0.998507
participar participar VMN0000 1
en en SPS00 1
la el DA0FS0 0.972146
toma toma NCFS000 0.433333
de de SPS00 0.999919
posesi posesi RG 1
n n NCFS000 1
de de SPS00 1
el el DA0MS0 1
presidente presidente NCMS000 1
Maduro_Haga maduro_haga NP00000 1
click click NCMS000 0.50012
aqu aqu NCMS000 0.774439
para para SPS00 0.998507
recibir recibir VMN0000 1
gratis gratis RG 0.75
Argenpress argenpress NP00000 1
en en SPS00 1
su su DP3CS0 1
correo correo NCMS000 0.735623
electr electr AQ0CS0 0.0829965
nico no NCMS00D 0.522084

