Madres madres NP00000 0.288237
peque pecar VMSP3S0 0.305666
as as NCMS000 1
y y CC 0.999812
vulneradas vulnerar VMP00PF 1
Entr entr NP00000 1
a a SPS00 0.99585
la el DA0FS0 0.972146
farmacia farmacia NCFS000 1
de de SPS00 0.999919
la el DA0FS0 0.972146
terminal terminal NCCS000 0.442704
de de SPS00 0.999919
Retiro retiro NP00000 1
y y CC 0.999812
pidi pidi VMIS1S0 1
un uno DI0MS0 0.986987
Evatest_Las evatest_las NP00000 1
sandalias sandalia NCFP000 1
con con SPS00 1
alt alt NCMS000 0.607342
simas sima NCFP000 1
plataformas plataforma NCFP000 1
la el DA0FS0 0.972146
hac hac NCMS000 1
an an NCFS000 1
crecer crecer VMN0000 1
unos uno DI0MP0 0.879032
cent cent NCMS000 0.607342
metros metro NCMP000 1
Ten ten NP00000 1
a a SPS00 0.99585
la el DA0FS0 0.972146
piel piel NCFS000 1
oscura oscuro AQ0FS0 1
de de SPS00 1
el el DA0MS0 1
altiplano altiplano NCMS000 1
Y y NP00000 1
unos uno DI0MP0 0.879032
quince 15 Z 1
no no RN 0.99778
m m NCFS000 0.5
s segundo NCMN000 0.622321
Afuera afuera NP00000 1
esperaba esperar VMII3S0 0.65
l l NCFS000 0.639398
Flaco flaco NP00000 1
el el DA0MS0 1
pelo pelo NCMS000 0.958333
modelado modelar VMP00SM 0.606045
con con SPS00 1
gel gel NCMS000 1
en en SPS00 1
caprichoso caprichoso AQ0MS0 1
flequillo flequillo NCMS000 1
un uno DI0MS0 0.986987
piercing piercing NCMS000 0.833333
en en SPS00 1
el el DA0MS0 1
labio labio NCMS000 1
superior superior AQ0CS0 0.964286
y y CC 0.999812
dientes diente NCMP000 0.954545
raleados ralear VMP00PM 1
por por SPS00 1
mala malo AQ0FS0 0.95
alimentaci alimentaci NCMS000 0.0996348
n n NCFS000 1
Diecis diecis NP00000 1
is i NCFP000 1
tal_vez tal_vez RG 1
No no NP00000 1
m m NCFS000 0.5
s segundo NCMN000 0.622321
En en NP00000 1
alg alg NCMS000 0.714133
n n NCFS000 1
ba ba NCFS000 1
o o CC 0.998845
de de SPS00 0.999919
or or AQ0CS0 0.240813
n n NCFS000 1
penetrante penetrante AQ0CS0 1
y y CC 0.999812
puertas puerta NCFP000 1
con con SPS00 1
tel tel NCMS000 1
fonos fonosegundo NCMN000 0.649975
que que PR0CN000 0.5625
ofrecen ofrecer VMIP3P0 1
sexo sexo NCMS000 1
ella él PP3FS000 1
habr habr NCMS000 0.224371
sabido saber VMP00SM 1
si si CS 0.997706
estaba estar VAII1S0 0.5
sola solo AQ0FS0 1
o o CC 0.998845
alguien alguien PI0CS000 1
m m NCFS000 0.5
s segundo NCMN000 0.622321
comenzaba comenzar VMII3S0 0.65
a a SPS00 0.99585
habitar habitar VMN0000 1
la lo PP3FSA00 1
apret apret NCMS000 0.818202
ndole ndole NCFS000 1
las lo PP3FPA00 0.0291584
entra entrar VMIP3S0 0.916667
as as NCMS000 1
Las las NP00000 1
chicas chico NCFP000 0.928571
llegan llegar VMIP3P0 1
a a SPS00 1
el el DA0MS0 1
sistema sistema NCMS000 1
p p NCFS000 0.5
blico blico AQ0MS0 0.400224
de de SPS00 0.999919
salud salud NCFS000 1
cuando cuando CS 0.983796
ya ya RG 0.996988
est est NCMS000 1
n n NCFS000 1
embarazadas embarazar VMP00PF 0.75
Y y NP00000 1
a a SPS00 0.99585
veces vez NCFP000 1
tampoco tampoco RG 1
En_Salta en_salta NP00000 1
23_de_cada_cien 23/100 Zp 1
beb beb NCMS000 0.63631
s segundo NCMN000 0.622321
hinchan hinchar VMIP3P0 0.933684
panzas panza NCFP000 1
de de SPS00 0.999919
menos menos RG 1
de de SPS00 0.999919
19 19 Z 1
a a SPS00 0.99585
os o NCFP000 0.222222
En_Mendoza en_mendoza NP00000 1
el el DA0MS0 1
22 22 Z 1
7 7 Z 1
de de SPS00 0.999919
las el DA0FP0 0.97051
madres madre NCFP000 1
tienen tener VMIP3P0 1
entre entre SPS00 0.995223
15 15 Z 1
y y CC 0.999812
19 19 Z 1
Muchas muchas NP00000 1
otras otro PI0FP000 0.268519
son ser VSIP3P0 0.986772
vulneradas vulnerar VMP00PF 1
por por SPS00 1
propios propio AQ0MP0 0.884615
y y CC 0.999812
ajenos ajeno AQ0MP0 0.75
y y CC 0.999812
se se P00CN000 0.465602
hacen hacer VMIP3P0 1
madres madre NCFP000 1
cuando cuando CS 0.983796
s segundo NCMN000 0.622321
lo lo PP3CNA00 0.271163
pueden poder VMIP3P0 1
ser ser VSN0000 0.93883
desesperadamente desesperadamente RG 1
hijas hijo NCFP000 1
Violentamente violentamente NP00000 1
madres madre NCFP000 1
a a SPS00 0.99585
los el DA0MP0 0.97623
10 10 Z 1
a a SPS00 0.99585
los el DA0MP0 0.97623
11 11 Z 1
A a NP00000 1
los el DA0MP0 0.97623
12 12 Z 1
Solas solas NP00000 1
de de SPS00 0.999919
soledad soledad NCFS000 1
inmensa inmenso AQ0FS0 1
tantas tanto DI0FP0 0.944444
pibas pibas NCFP000 1
van ir VMIP3P0 1
a a SPS00 0.99585
buscar buscar VMN0000 1
se se PP3CN000 1
una uno DI0FS0 0.951241
vida vida NCFS000 1
a_tientas a_tientas RG 1
deficitarias deficitario AQ0FP0 1
de de SPS00 0.999919
amor amor NCMS000 1
y y CC 0.999812
de de SPS00 0.999919
abrigo abrigo NCMS000 0.833333
Tan tan NP00000 1
chiquitas chiquito AQ0FP0 0.25
salen salir VMIP3P0 0.916667
a a SPS00 0.99585
buscar buscar VMN0000 1
la lo PP3FSA00 1
con con SPS00 1
una uno DI0FS0 0.951241
madre madre NCFS000 1
que que PR0CN000 0.5625
las lo PP3FPA00 0.0291584
ve ver VMIP3S0 0.971154
ir ir VMN0000 1
se se PP3CN000 1
rodeada rodear VMP00SF 1
de de SPS00 0.999919
cuatro 4 Z 1
cinco 5 Z 0.98
seis_m LN_m:6 Zu 1
s segundo NCMN000 0.622321
Y y NP00000 1
ellas ellos PP3FP000 1
solas solo AQ0FP0 1
de de SPS00 0.999919
toda todo DI0FS0 0.975806
soledad soledad NCFS000 1
van ir VMIP3P0 1
a a SPS00 0.99585
buscar buscar VMN0000 1
aquello aquel PD0NS000 1
que que PR0CN000 0.5625
nunca nunca RG 1
encontr encontr VMN0000 0.633986
su su DP3CS0 1
madre madre NCFS000 1
pero pero CC 0.998821
se se P00CN000 0.465602
topar topar VMN0000 1
n n NCFS000 1
con con SPS00 1
un uno DI0MS0 0.986987
mismo mismo AQ0MS0 0.961905
destino destino NCMS000 0.944444
de de SPS00 0.999919
maternidades maternidad NCFP000 1
tempranas temprano AQ0FP0 1
m m NCFS000 0.5
ltiples ltiples AQ0CP0 1
de de SPS00 0.999919
padre padre NCMS000 1
ausente ausente AQ0CS0 0.6
o o CC 0.998845
en en SPS00 1
fuga fuga NCFS000 0.888889
En en NP00000 1
esa ese DD0FS0 0.978261
b b NCFS000 1
squeda squeda NCFS000 1
fren fren VMIP3P0 1
tica tica AQ0FS0 0.595788
de de SPS00 0.999919
no no RN 0.99778
estar estar VAN0000 1
solas solo AQ0FP0 1
tan tan RG 1
solas solo AQ0FP0 1
y y CC 0.999812
tan tan RG 1
en en SPS00 1
abandono abandono NCMS000 0.833333
en en SPS00 1
un uno DI0MS0 0.986987
mundo mundo NCMS000 1
que que PR0CN000 0.5625
parece parecer VMIP3S0 0.9875
un uno DI0MS0 0.986987
desierto desierto NCMS000 0.928571
feroz feroz AQ0CS0 1
en en SPS00 1
constante constante AQ0CS0 0.958333
estado estado NCMS000 0.662162
de de SPS00 0.999919
amenaza amenaza NCFS000 0.666667
Entonces entonces NP00000 1
ser ser VSN0000 0.93883
n n NCFS000 1
solas solo AQ0FP0 1
pero pero CC 0.998821
de de SPS00 0.999919
a a SPS00 0.99585
dos 2 Z 0.988722
De de NP00000 1
a a SPS00 0.99585
dos 2 Z 0.988722
abrazados abrazar VMP00PM 1
y y CC 0.999812
abandonados abandonar VMP00PM 1
los el DA0MP0 0.97623
dos 2 Z 0.988722
Ni ni NP00000 1
os os PP2CP000 0.722222
ambos ambos PI0MP000 0.638889
y y CC 0.999812
puestos poner VMP00PM 0.416667
a a SPS00 0.99585
fertilizar fertilizar VMN0000 1
en en SPS00 1
suelo suelo NCMS000 0.866667
rido rido VMP00SM 0.533481
A a NP00000 1
reto retar VMIP1S0 0.166667
ar ar I 1
en en SPS00 1
la el DA0FS0 0.972146
escarcha escarcha NCFS000 0.846947
En en NP00000 1
el el DA0MS0 1
mientras mientras CS 0.881579
ella él PP3FS000 1
se se P00CN000 0.465602
puede poder VMIP3S0 0.995614
morir morir VMN0000 1
El el NP00000 1
riesgo riesgo NCMS000 1
que que PR0CN000 0.5625
corre correr VMIP3S0 0.916667
es ser VSIP3S0 1
dos 2 Z 0.988722
veces vez NCFP000 1
mayor mayor AQ0CS0 0.989796
que que PR0CN000 0.5625
despu despu NCMS000 0.774439
s segundo NCMN000 0.622321
de de SPS00 0.999919
los el DA0MP0 0.97623
19 19 Z 1
Y y NP00000 1
cuatro 4 Z 1
veces vez NCFP000 1
mayor mayor AQ0CS0 0.989796
cuando cuando CS 0.983796
a a SPS00 0.99585
la el DA0FS0 0.972146
hora hora NCFS000 1
de de SPS00 0.999919
parir parir VMN0000 1
se se P00CN000 0.465602
ha haber VAIP3S0 0.998141
vivido vivir VMP00SM 1
menos menos RG 1
de de SPS00 0.999919
15 15 Z 1
La la NP00000 1
mortalidad mortalidad NCFS000 1
materna materno AQ0FS0 1
no no RN 0.99778
s segundo NCMN000 0.622321
lo lo PP3CNA00 0.271163
no no RN 0.99778
baja bajar VMIP3S0 0.03125
en en SPS00 1
la el DA0FS0 0.972146
Argentina argentina NP00000 1
sino_que sino_que CC 1
aument aument NCMS000 0.607342
en en SPS00 1
los el DA0MP0 0.97623
ltimos ltimos VMIP1P0 0.856975
quince 15 Z 1
a a SPS00 0.99585
os o NCFP000 0.222222
Y y NP00000 1
discute discutir VMIP3S0 0.75
n n NCFS000 1
meros mero AQ0MP0 0.357328
perversamente perversamente RG 1
como como CS 0.998579
los lo PP3MPA00 0.023584
discute discutir VMIP3S0 0.75
en en SPS00 1
el el DA0MS0 1
aumento aumento NCMS000 0.916667
de de SPS00 0.999919
la el DA0FS0 0.972146
leche leche NCFS000 1
o o CC 0.998845
en en SPS00 1
los el DA0MP0 0.97623
muertos muerto NCMP000 0.681818
por por SPS00 1
la el DA0FS0 0.972146
inundaci inundaci AQ0CS0 0.0199855
n n NCFS000 1
Mientras_el_Ministerio_de_Salud mientras_el_ministerio_de_salud NP00000 1
dice decir VMIP3S0 1
que que CS 0.4375
mueren morir VMIP3P0 1
por por SPS00 1
a a NCFS000 0.00415028
o o CC 0.998845
4 4 Z 1
4 4 Z 1
madres madre NCFP000 1
por por SPS00 1
cada cada DI0CS0 1
diez_mil 10000 Z 1
nacidos nacido NCMP000 0.1
vivos vivo AQ0MP0 0.785714
la el DA0FS0 0.972146
OMS oms NP00000 1
y y CC 0.999812
otros otro DI0MP0 0.56875
organismos organismo NCMP000 1
sanitarios sanitario AQ0MP0 0.75
mundiales mundial AQ0CP0 0.557257
anotan anotar VMIP3P0 1
7 7 Z 1
7 7 Z 1
Las las NP00000 1
chicas chico NCFP000 0.928571
se se P00CN000 0.465602
embarazan embarazar VMIP3P0 1
de de SPS00 0.999919
soledad soledad NCFS000 1
de de SPS00 0.999919
olvido olvido NCMS000 0.833333
de de SPS00 0.999919
vulneraci vulneraci RG 0.751648
n n NCFS000 1
de de SPS00 0.999919
vejaci vejaci RG 0.751648
n n NCFS000 1
de de SPS00 0.999919
tomar tomar VMN0000 1
pastillas pastilla NCFP000 1
sin sin SPS00 1
saber saber VMN0000 0.880952
c c NCFS000 1
mo mo AQ0MS0 0.297018
se se P00CN000 0.465602
toman tomar VMIP3P0 1
de de SPS00 0.999919
resistencia resistencia NCFS000 1
de de SPS00 0.999919
su su DP3CS0 1
pareja pareja NCFS000 0.928571
ocasional ocasional AQ0CS0 1
o o CC 0.998845
no no RN 0.99778
a a SPS00 1
el el DA0MS0 1
preservativo preservativo NCMS000 0.37614
de de SPS00 0.999919
desinformaci desinformaci RG 0.751648
n n NCFS000 1
de de SPS00 0.999919
desgano desgano NCMS000 0.973497
de de SPS00 0.999919
nomeimporta nomeimporta VMIP3S0 1
si si CS 0.997706
total total AQ0CS0 0.944444
la el DA0FS0 0.972146
vida vida NCFS000 1
no no RN 0.99778
dura duro AQ0FS0 0.925926
vence vencer VMIP3S0 0.994868
ah ah I 1
no no RN 0.99778
m m NCFS000 0.5
s segundo NCMN000 0.622321
a_la_vuelta_de a_la_vuelta_de SPS00 1
la el DA0FS0 0.972146
esquina esquina NCFS000 0.904762
de de SPS00 0.999919
rebeld rebeld NCFS000 0.961423
a a SPS00 0.99585
de de SPS00 0.999919
esperanza esperanza NCFS000 0.925926
de de SPS00 0.999919
desesperanza desesperanza NCFS000 0.846947
Y y NP00000 1
se se P00CN000 0.465602
mueren morir VMIP3P0 1
de de SPS00 0.999919
pobres pobre NCCP000 0.625
de de SPS00 0.999919
ni ni CC 0.995935
as as NCMS000 1
de de SPS00 0.999919
no no RN 0.99778
acceder acceder VMN0000 1
a a SPS00 0.99585
la el DA0FS0 0.972146
salud salud NCFS000 1
p p NCFS000 0.5
blica blica AQ0FS0 1
de de SPS00 0.999919
no no RN 0.99778
tener tener VMN0000 1
controles control NCMP000 0.995706
de de SPS00 0.999919
hambre hambre NCFS000 1
de de SPS00 0.999919
abortos aborto NCMP000 1
inseguros inseguro AQ0MP0 1
de de SPS00 0.999919
partos parto NCMP000 1
donde donde PR000000 0.963542
se se P00CN000 0.465602
den dar VMSP3P0 0.901254
Desde desde NP00000 1
2002 2002 Z 1
hay haber VMIP3S0 1
una uno DI0FS0 0.951241
Ley_Nacional ley_nacional NP00000 1
25 25 Z 1
673 673 Z 1
de de SPS00 0.999919
Salud_Sexual salud_sexual NP00000 1
y y CC 0.999812
Procreaci procreaci NP00000 1
n n NCFS000 1
Responsable_Desde responsable_desde NP00000 1
2003 2003 Z 1
hay haber VMIP3S0 1
un uno DI0MS0 0.986987
Programa_Nacional_de_Salud_Sexual programa_nacional_de_salud_sexual NP00000 1
y y CC 0.999812
Procreaci procreaci NP00000 1
n n NCFS000 1
Responsable_Desde responsable_desde NP00000 1
2006 2006 Z 1
hay haber VMIP3S0 1
un uno DI0MS0 0.986987
Programa_Nacional_de_Educaci programa_nacional_de_educaci NP00000 1
n n NCFS000 1
Sexual sexual NP00000 1
integral integral NCFS000 0.3723
Pero pero NP00000 1
no no RN 0.99778
hay haber VMIP3S0 1
una uno DI0FS0 0.951241
Ley_Nacional ley_nacional NP00000 1
contra contra SPS00 0.976316
el el DA0MS0 1
Desencanto_No desencanto_no NP00000 1
hay haber VMIP3S0 1
un uno DI0MS0 0.986987
Programa_Nacional_de_Educaci programa_nacional_de_educaci NP00000 1
n n NCFS000 1
para para SPS00 0.998507
la el DA0FS0 0.972146
Felicidad_No felicidad_no NP00000 1
hay haber VMIP3S0 1
un uno DI0MS0 0.986987
Plan_Nacional_de_Reconstrucci plan_nacional_de_reconstrucci NP00000 1
n n NCFS000 1
de de SPS00 0.999919
la el DA0FS0 0.972146
Esperanza_Decenas esperanza_decenas NP00000 1
de de SPS00 0.999919
miles mil NCMP000 1
de de SPS00 0.999919
pibes pibes NCFP000 0.624931
y y CC 0.999812
pibas pibas NCFP000 1
hijos hijo NCMP000 1
de de SPS00 1
el el DA0MS0 1
derrumbe derrumbe NCMS000 0.625
tienen tener VMIP3P0 1
destino destino NCMS000 0.944444
y y CC 0.999812
deciden decidir VMIP3P0 1
no no RN 0.99778
combatir combatir VMN0000 1
lo lo PP3CNA00 0.5 lo PP3MSA00 0.5
viven vivir VMIP3P0 1
en en SPS00 1
m m NCFS000 0.5
rgenes rgenes NCMP000 0.666655
concedidos conceder VMP00PM 1
donde donde PR000000 0.963542
vivir vivir VMN0000 0.978261
n n NCFS000 1
para para SPS00 0.998507
siempre siempre RG 1
sin sin SPS00 1
muros muro NCMP000 1
para para SPS00 0.998507
derribar derribar VMN0000 1
tienen tener VMIP3P0 1
hijos hijo NCMP000 1
con con SPS00 1
sus su DP3CP0 0.998462
mismos mismo AQ0MP0 0.884615
destinos destino NCMP000 1
y y CC 0.999812
los el DA0MP0 0.97623
dejar dejar VMN0000 1
n n NCFS000 1
andar andar VMN0000 0.875
por por SPS00 1
sus su DP3CP0 0.998462
mismas mismo AQ0FP0 0.928571
veredas vereda NCFP000 1
sin sin SPS00 1
rebelar rebelar VMN0000 1
se se PP3CN000 1
por por SPS00 1
grandes grande AQ0CP0 0.95
cosas cosa NCFP000 0.986842
se se P00CN000 0.465602
envenenar envenenar VMN0000 1
n n NCFS000 1
con con SPS00 1
la el DA0FS0 0.972146
naturaleza naturaleza NCFS000 1
mutante mutante AQ0CS0 0.627855
de de SPS00 1
el el DA0MS0 1
territorio territorio NCMS000 1
que que PR0CN000 0.5625
les le PP3CPD00 1
toc toc NC00000 0.538029
pero pero CC 0.998821
tambi tambi AQ0CN0 1
n n NCFS000 1
fumar fumar VMN0000 1
n n NCFS000 1
y y CC 0.999812
aspirar aspirar VMN0000 1
n n NCFS000 1
venenos veneno NCMP000 1
otros otro PI0MP000 0.43125
para para SPS00 0.998507
no no RN 0.99778
sentir sentir VMN0000 0.944444
y y CC 0.999812
pasar pasar VMN0000 1
por por SPS00 1
aqu aqu NCMS000 0.774439
con con SPS00 1
la el DA0FS0 0.972146
conciencia conciencia NCFS000 0.958333
rota rotar VMIP3S0 0.416502
mientras mientras CS 0.881579
dure durar VMSP1S0 0.444444
la el DA0FS0 0.972146
vida vida NCFS000 1
Entre entre NP00000 1
ellos ellos PP3MP000 1
el el DA0MS0 1
70 70 Z 1
de de SPS00 0.999919
las el DA0FP0 0.97051
chicas chico NCFP000 0.928571
no no RN 0.99778
usan usar VMIP3P0 1
un_m LN_m:1 Zu 1
todo todo DI0MS0 0.559816
anticonceptivo anticonceptivo NCMS000 0.476035
a a SPS00 1
el el DA0MS0 1
momento momento NCMS000 1
de de SPS00 0.999919
quedar quedar VMN0000 1
embarazadas embarazar VMP00PF 0.75
Ministerio_de_Salud_de_la_Naci ministerio_de_salud_de_la_naci NP00000 1
n n NCFS000 1
Y y NP00000 1
en en SPS00 1
plena pleno AQ0FS0 1
adolescencia adolescencia NCFS000 1
desconcertada desconcertar VMP00SF 1
paren parir VMIP3P0 0.881188
15_de_cada_cien 15/100 Zp 1
beb beb NCMS000 0.63631
s segundo NCMN000 0.622321
que que PR0CN000 0.5625
nacen nacer VMIP3P0 1
por por SPS00 1
a a SPS00 0.99585
o o CC 0.998845
En_Corrientes en_corrientes NP00000 1
el el DA0MS0 1
30 30 Z 1
de de SPS00 0.999919
los el DA0MP0 0.97623
embarazos embarazo NCMP000 1
son ser VSIP3P0 0.986772
adolescentes adolescente AQ0CP0 0.166667
seg segundo NCMN000 1
n n NCFS000 1
la el DA0FS0 0.972146
doctora doctor NCFS000 0.846935
Silvia_Lapertosa silvia_lapertosa NP00000 1
directora director AQ0FS0 0.65727
de de SPS00 1
el el DA0MS0 1
Hospital_Vidal_La hospital_vidal_la NP00000 1
provincia provincia NCFS000 1
que que PR0CN000 0.5625
gobierna gobernar VMIP3S0 0.666667
Ricardo_Colombi ricardo_colombi NP00000 1
supera superar VMIP3S0 0.994868
a a SPS00 1
el el DA0MS0 1
Chaco chaco NP00000 1
24 24 Z 1
5 5 Z 1
a a SPS00 0.99585
Formosa formosa NP00000 1
22 22 Z 1
6 6 Z 1
y y CC 0.999812
a a SPS00 0.99585
Misiones misiones NP00000 1
21 21 Z 1
6 6 Z 1
en en SPS00 1
maternidad maternidad NCFS000 1
ni ni CC 0.995935
a a SPS00 0.99585
En en NP00000 1
2012 2012 Z 1
dos 2 Z 0.988722
criaturas criatura NCFP000 1
de de SPS00 0.999919
diez 10 Z 1
a a SPS00 0.99585
os os PP2CP000 0.722222
aparecieron aparecer VMIS3P0 1
embarazadas embarazar VMP00PF 0.75
en en SPS00 1
Corrientes_Y corrientes_y NP00000 1
otra otro PI0FS000 0.198864
de de SPS00 0.999919
11 11 Z 1
en en SPS00 1
Entre_R entre_r NP00000 1
os o NCFP000 0.222222
Violentadas violentadas NP00000 1
en en SPS00 1
su su DP3CS0 1
fragilidad fragilidad NCFS000 1
por por SPS00 1
mayores mayor AQ0CP0 0.8125
y y CC 0.999812
brutalmente brutalmente RG 1
castigadas castigar VMP00PF 1
por por SPS00 1
las el DA0FP0 0.97051
instituciones institución NCFP000 1
La la NP00000 1
in in RG 0.388954
justicia justicia NCFS000 1
la el DA0FS0 0.972146
iglesia iglesia NCFS000 1
impiadosa impiadosa AQ0FS0 1
y y CC 0.999812
la el DA0FS0 0.972146
conciencia conciencia NCFS000 0.958333
medi medi VMIS1S0 1
tica tica AQ0FS0 0.595788
que que PR0CN000 0.5625
martilla martillar VMIP3S0 0.994868
en en SPS00 1
los el DA0MP0 0.97623
discursos discurso NCMP000 1
evitaron evitar VMIS3P0 1
la el DA0FS0 0.972146
pr pr NCMS000 0.224371
ctica ctica AQ0FS0 0.300042
de de SPS00 0.999919
la el DA0FS0 0.972146
interrupci interrupci AQ0CS0 0.0199855
n n NCFS000 1
de de SPS00 1
el el DA0MS0 1
embarazo embarazo NCMS000 0.75
en en SPS00 1
cuerpitos cuerpo NCMP00D 1
a a SPS00 0.99585
n n NCFS000 1
no no RN 0.99778
desarrollados desarrollar VMP00PM 0.75
en en SPS00 1
su su DP3CS0 1
plenitud plenitud NCFS000 1
con con SPS00 1
caderas cadera NCFP000 1
de de SPS00 0.999919
cristal cristal NCMS000 1
que que PR0CN000 0.5625
pod pod RG 0.0238395
an an NCFS000 1
romper romper VMN0000 1
se se PP3CN000 1
en en SPS00 1
mil 1000 Z 0.928571
pedazos pedazo NCMP000 1
a a SPS00 0.99585
la el DA0FS0 0.972146
hora hora NCFS000 1
de de SPS00 0.999919
la el DA0FS0 0.972146
luz luz NCFS000 1
Los los NP00000 1
ministros ministro NCMP000 1
de de SPS00 0.999919
Salud_de_Corrientes salud_de_corrientes NP00000 1
y y CC 0.999812
Entre_R entre_r NP00000 1
os os PP2CP000 0.722222
aportaron aportar VMIS3P0 1
su su DP3CS0 1
humanidad humanidad NCFS000 1
de de SPS00 0.999919
sumidero sumidero NCMS000 1
Si si NP00000 1
la lo PP3FSA00 0.0277626
ni ni CC 0.995935
a a SPS00 0.99585
ovula ovula NCFS000 0.842094
y y CC 0.999812
menstr menstr VMN0000 0.633986
a a SPS00 0.99585
ya ya RG 0.996988
est est NCMS000 1
preparada preparar VMP00SF 1
para para SPS00 0.998507
parir parir VMN0000 1
Aunque aunque NP00000 1
tenga tener VMSP1S0 0.452381
diez 10 Z 1
a a SPS00 0.99585
os o NCFP000 0.222222
O o NP00000 1
si si CS 0.997706
la el DA0FS0 0.972146
ni ni CC 0.995935
a a SPS00 0.99585
se se P00CN000 0.465602
embaraza embarazar VMIP3S0 0.994868
es ser VSIP3S0 1
para para SPS00 0.998507
cobrar cobrar VMN0000 1
la el DA0FS0 0.972146
Asignaci asignaci NP00000 1
n n NCFS000 1
por por SPS00 1
Hijo_Aunque hijo_aunque NP00000 1
tenga tener VMSP1S0 0.452381
diez 10 Z 1
a a SPS00 0.99585
os os PP2CP000 0.722222
Meses meses NP00000 1
despu despu NCMS000 0.774439
s segundo NCMN000 0.622321
los el DA0MP0 0.97623
diarios diario NCMP000 0.75
de de SPS00 0.999919
Corrientes corrientes NP00000 1
y y CC 0.999812
Entre_R entre_r NP00000 1
os os PP2CP000 0.722222
saludaban saludar VMII3P0 1
los el DA0MP0 0.97623
nacimientos nacimiento NCMP000 1
Pero pero NP00000 1
nadie nadie PI0CS000 1
m m NCFS000 0.5
s segundo NCMN000 0.622321
supo saber VMIS3S0 1
qu qu NCMS000 0.774439
heridas herir VMP00PF 0.166667
cruzaron cruzar VMIS3P0 1
de_punta_a_punta de_punta_a_punta RG 1
la el DA0FS0 0.972146
vida vida NCFS000 1
de de SPS00 0.999919
ellas ellos PP3FP000 1
Laceradas laceradas NP00000 1
y y CC 0.999812
enmadradas enmadrar VMP00PF 1
cuando cuando CS 0.983796
era ser VSII1S0 0.490859
tiempo tiempo NCMS000 1
de de SPS00 0.999919
mu mu NCCS000 1
ecas ecas AQ0FP0 0.333612
y y CC 0.999812
rayuela rayuela NCFS000 1
Cuando cuando NP00000 1
era ser VSII1S0 0.490859
tiempo tiempo NCMS000 1
de de SPS00 0.999919
escalar escalar VMN0000 0.499927
a a SPS00 1
el el DA0MS0 1
cielo cielo NCMS000 1
En_el_Hospital en_el_hospital NP00000 1
materno materno AQ0MS0 1
neonatal neonatal AQ0CS0 1
Madariaga_de_Posadas_Misiones madariaga_de_posadas_misiones NP00000 1
el el DA0MS0 1
a a NCFS000 0.00415028
o o CC 0.998845
pasado pasado NCMS000 0.352273
murieron morir VMIS3P0 1
cuatro 4 Z 1
mam mam NCMS000 0.700265
s segundo NCMN000 0.622321
Llegadas llegadas NP00000 1
a_duras_penas a_duras_penas RG 1
de de SPS00 0.999919
zonas zona NCFP000 1
de de SPS00 0.999919
arrabal arrabal NCMS000 1
casi casi RG 1
sin sin SPS00 1
controles control NCMP000 0.995706
prenatales prenatal AQ0CP0 1
Sus sus NP00000 1
chiquitos chiquito AQ0MP0 0.35727
nacen nacer VMIP3P0 1
con con SPS00 1
muy muy RG 1
bajo bajo SPS00 0.866071
peso peso NCMS000 0.958333
Y y NP00000 1
hay haber VMIP3S0 1
d d NCFS000 1
as as NCMS000 1
en en SPS00 1
los el DA0MP0 0.97623
que que PR0CN000 0.5625
dos 2 Z 0.988722
mam mam NCMS000 0.700265
s segundo NCMN000 0.622321
tienen tener VMIP3P0 1
que que CS 0.4375
compartir compartir VMN0000 1
una uno DI0FS0 0.951241
sola solo AQ0FS0 1
cama cama NCFS000 1
dice decir VMIP3S0 1
la el DA0FS0 0.972146
directora director NCFS000 0.34273
de de SPS00 1
el el DA0MS0 1
Hospital_Viviana_Figueredo_Cada hospital_viviana_figueredo_cada NP00000 1
parto parto NCMS000 0.75
deposita depositar VMIP3S0 0.994868
en en SPS00 1
el el DA0MS0 1
mundo mundo NCMS000 1
un uno DI0MS0 0.986987
individuo individuo NCMS000 0.9375
nico nico AQ0MS0 0.470565
e y CC 0.973684
irrepetible irrepetible AQ0CS0 1
Llamado llamado NP00000 1
a a SPS00 0.99585
dejar dejar VMN0000 1
una uno DI0FS0 0.951241
huella huella NCFS000 0.904762
singular singular AQ0CS0 0.657265
Puesto puesto NP00000 1
para para SPS00 0.998507
transformar transformar VMN0000 1
el el DA0MS0 1
aire aire NCMS000 0.986111
que que PR0CN000 0.5625
le le PP3CSD00 1
toc toc NC00000 0.538029
respirar respirar VMN0000 1
Nada nada NP00000 1
ser ser VSN0000 0.93883
igual igual AQ0CS0 0.716667
despu despu NCMS000 0.774439
s segundo NCMN000 0.622321
de de SPS00 0.999919
su su DP3CS0 1
paso paso NCMS000 0.89
por por SPS00 1
la el DA0FS0 0.972146
vereda vereda NCFS000 1
o o CC 0.998845
por por SPS00 1
la el DA0FS0 0.972146
salita sal NCFS00D 0.23008
Cada cada NP00000 1
ni ni CC 0.995935
o o CC 0.998845
nacido nacer VMP00SM 0.916667
en en SPS00 1
una uno DI0FS0 0.951241
villa villa NCFS000 1
en en SPS00 1
una uno DI0FS0 0.951241
casita casita NCFS000 1
de de SPS00 0.999919
lata lata NCFS000 0.733333
en en SPS00 1
un uno DI0MS0 0.986987
puesto puesto NCMS000 0.452381
rural rural AQ0CS0 1
de de SPS00 0.999919
Formosa formosa NP00000 1
en en SPS00 1
un uno DI0MS0 0.986987
barrio barrio NCMS000 1
de de SPS00 1
el el DA0MS0 1
conurbano conurbano NCMS000 1
en en SPS00 1
el el DA0MS0 1
valle valle NCMS000 0.91864
de de SPS00 0.999919
Famatina famatina NP00000 1
en en SPS00 1
la el DA0FS0 0.972146
orilla orilla NCFS000 0.846947
de de SPS00 0.999919
Rosario rosario NP00000 1
donde donde PR000000 0.963542
pasa pasar VMIP3S0 0.964286
el el DA0MS0 1
tren tren NCMS000 1
cada cada DI0CS0 1
uno uno PI0MS000 0.964744
est est NCMS000 1
llamado llamar VMP00SM 0.973684
a a SPS00 0.99585
cambiar cambiar VMN0000 1
lo lo PP3CNA00 0.5 lo PP3MSA00 0.5
todo todo DI0MS0 0.559816
A a NP00000 1
veces vez NCFP000 1
su su DP3CS0 1
llamita llama NCFS00D 1
se se P00CN000 0.465602
apaga apagar VMIP3S0 0.75
en en SPS00 1
d d NCFS000 1
as as NCMS000 1
Otras otras NP00000 1
veces vez NCFP000 1
enciende encender VMIP3S0 0.833333
a a SPS00 0.99585
las el DA0FP0 0.97051
dem dem NCMS000 1
s segundo NCMN000 0.622321
A a NP00000 1
veces vez NCFP000 1
sus su DP3CP0 0.998462
madres madre NCFP000 1
los lo PP3MPA00 0.023584
paren parir VMIP3P0 0.881188
sin sin SPS00 1
demasiadas demasiado DI0FP0 0.833333
razones razón NCFP000 0.966667
a a SPS00 0.99585
veces vez NCFP000 1
son ser VSIP3P0 0.986772
acusadas acusar VMP00PF 0.648879
por por SPS00 1
los el DA0MP0 0.97623
te te PP2CS000 0.933962
ricos rico AQ0MP0 0.4375
de de SPS00 1
el el DA0MS0 1
desprecio desprecio NCMS000 0.9
de de SPS00 0.999919
parir parir VMN0000 1
en en SPS00 1
serie serie NCFS000 0.925
para para SPS00 0.998507
cobrar cobrar VMN0000 1
subsidios subsidio NCMP000 1
a a SPS00 0.99585
veces vez NCFP000 1
los lo PP3MPA00 0.023584
lanzan lanzar VMIP3P0 1
a a SPS00 1
el el DA0MS0 1
mundo mundo NCMS000 1
como como CS 0.998579
misiles misil NCMP000 1
de de SPS00 0.999919
ternura ternura NCFS000 1
a a SPS00 0.99585
veces vez NCFP000 1
los lo PP3MPA00 0.023584
desquieren desquerer VMIP3P0 1
a a SPS00 0.99585
veces vez NCFP000 1
son ser VSIP3P0 0.986772
su su DP3CS0 1
arma arma NCFS000 0.944444
de de SPS00 0.999919
rebeld rebeld NCFS000 0.961423
a a SPS00 0.99585
Y y NP00000 1
a a SPS00 0.99585
veces vez NCFP000 1
semini semini RG 1
as as NCMS000 1
sin sin SPS00 1
amor amor NCMS000 1
ni ni CC 0.995935
abrigo abrigo NCMS000 0.833333
peque pecar VMSP3S0 0.305666
as as NCMS000 1
diosas dios NCFP000 1
en en SPS00 1
abandono abandono NCMS000 0.833333
los lo PP3MPA00 0.023584
paren parir VMIP3P0 0.881188
para para SPS00 0.998507
no no RN 0.99778
estar estar VAN0000 1
tan tan RG 1
solas solo AQ0FP0 1
ante ante SPS00 0.990566
la el DA0FS0 0.972146
inmensidad inmensidad NCFS000 1
que que PR0CN000 0.5625
acorrala acorralar VMIP3S0 0.989811
Un uno DI0MS0 0.986987
abrazo abrazo NCMS000 0.973497
calentito calentito AQ0MS0 1
ante ante SPS00 0.990566
tanto tanto DI0MS0 0.121053
invierno invierno NCMS000 1
Haga haga NP00000 1
click click NCMS000 0.50012
aqu aqu NCMS000 0.774439
para para SPS00 0.998507
recibir recibir VMN0000 1
gratis gratis RG 0.75
Argenpress argenpress NP00000 1
en en SPS00 1
su su DP3CS0 1
correo correo NCMS000 0.735623
electr electr AQ0CS0 0.0829965
nico no NCMS00D 0.522084

