Maduro maduro NP00000 0.00843373
acusa acusar VMIP3S0 0.994868
a a SPS00 0.99585
Estados_Unidos estados_unidos NP00000 1
de de SPS00 0.999919
la el DA0FS0 0.972146
violencia violencia NCFS000 1
en en SPS00 1
Venezuela_El venezuela_el NP00000 1
presidente presidente NCMS000 1
electo electo AQ0MS0 0.35735
de de SPS00 0.999919
Venezuela_Nicol venezuela_nicol NP00000 1
s segundo NCMN000 0.622321
Maduro maduro NP00000 1
acus acu NCFP000 1
a a SPS00 0.99585
la el DA0FS0 0.972146
embajada embajada NCFS000 1
de de SPS00 0.999919
Estados_Unidos estados_unidos NP00000 1
de de SPS00 0.999919
organizar organizar VMN0000 1
y y CC 0.999812
financiar financiar VMN0000 1
todos todo DI0MP0 0.622419
los el DA0MP0 0.97623
hechos hecho NCMP000 0.375
de de SPS00 0.999919
violencia violencia NCFS000 1
que que PR0CN000 0.5625
tuvieron_lugar tener_lugar VMIS3P0 1
durante durante SPS00 1
las el DA0FP0 0.97051
protestas protesta NCFP000 0.75
contra contra SPS00 0.976316
los el DA0MP0 0.97623
resultados resultado NCMP000 0.958333
de de SPS00 0.999919
las el DA0FP0 0.97051
elecciones elección NCFP000 1
presidenciales presidencial AQ0CP0 1
en en SPS00 1
el el DA0MS0 1
pa pa NCFS000 0.740689
s segundo NCMN000 0.622321
inform inform NCMS000 0.700265
la el DA0FS0 0.972146
prensa prensa NCFS000 0.925926
internacional internacional AQ0CS0 0.833333
La la NP00000 1
embajada embajada NCFS000 1
de de SPS00 0.999919
Estados_Unidos estados_unidos NP00000 1
es ser VSIP3S0 1
la el DA0FS0 0.972146
que que PR0CN000 0.5625
ha haber VAIP3S0 0.998141
financiado financiar VMP00SM 1
y y CC 0.999812
dirigido dirigir VMP00SM 1
todos todo DI0MP0 0.622419
los el DA0MP0 0.97623
hechos hecho NCMP000 0.375
de de SPS00 0.999919
violencia violencia NCFS000 1
en en SPS00 1
este este DD0MS0 0.956743
pa pa NCFS000 0.740689
s segundo NCMN000 0.622321
afirm afirm NCMS000 0.700265
Maduro maduro NP00000 1
quien quien PR0CS000 1
asegur asegur NCFS000 1
tener tener VMN0000 1
pruebas prueba NCFP000 0.9
parte parte NCFS000 0.497967
de de SPS00 0.999919
las el DA0FP0 0.97051
cuales cual PR0CP000 1
fueron ser VSIS3P0 0.796296
presentadas presentar VMP00PF 1
pero pero CC 0.998821
que que CS 0.4375
todas todo DI0FP0 0.945312
ser ser NCMS000 0.0611702
n n NCFS000 1
divulgadas divulgar VMP00PF 1
en en SPS00 1
las el DA0FP0 0.97051
pr pr NCMS000 0.224371
ximas ximas AQ0FP0 0.856883
horas hora NCFP000 1
Cabe cabe NP00000 1
recordar recordar VMN0000 1
que que CS 0.4375
el el DA0MS0 1
portavoz portavoz NCCS000 1
de de SPS00 1
el el DA0MS0 1
Departamento_de_Estado_Patrick_Ventrell departamento_de_estado_patrick_ventrell NP00000 1
propuso proponer VMIS3S0 1
un uno DI0MS0 0.986987
recuento recuento NCMS000 0.844925
de de SPS00 0.999919
los el DA0MP0 0.97623
votos voto NCMP000 1
tras tras SPS00 1
el el DA0MS0 1
asombro asombro NCMS000 0.75
que que PR0CN000 0.5625
el el DA0MS0 1
gobierno gobierno NCMS000 0.9
de de SPS00 0.999919
Estados_Unidos estados_unidos NP00000 1
mostr mostr VMN0000 0.633986
por por SPS00 1
la el DA0FS0 0.972146
rapidez rapidez NCFS000 1
con con SPS00 1
la el DA0FS0 0.972146
que que PR0CN000 0.5625
el el DA0MS0 1
Consejo_Nacional_Electoral_CNE_de_Venezuela consejo_nacional_electoral_cne_de_venezuela NP00000 1
proclam proclam NCMS000 0.700265
presidente presidente NCMS000 1
electo electo AQ0MS0 0.35735
a a SPS00 0.99585
Nicol nicol NP00000 1
s segundo NCMN000 0.622321
Maduro_Es maduro_es NP00000 1
dif dif NCFS000 1
cil cil AQ0CS0 1
de de SPS00 0.999919
entender entender VMN0000 0.9
la el DA0FS0 0.972146
decisi decisi RG 1
n n NCFS000 1
de de SPS00 1
el el DA0MS0 1
CNE cne NP00000 1
de de SPS00 0.999919
declarar declarar VMN0000 1
a a SPS00 0.99585
Maduro maduro NP00000 1
ganador ganador NCMS000 0.75
antes_de antes_de SPS00 1
completar completar VMN0000 1
el el DA0MS0 1
recuento recuento NCMS000 0.844925
completo completo AQ0MS0 0.75
dijo decir VMIS3S0 1
Ventrell ventrell NP00000 1
a a SPS00 0.99585
periodistas periodista NCCP000 1
tras tras SPS00 1
declarar declarar VMN0000 1
que que CS 0.4375
Estados_Unidos estados_unidos NP00000 1
contin contin NCMS000 0.499936
a a SPS00 0.99585
creyendo creer VMG0000 1
necesario necesario AQ0MS0 1
resolver resolver VMN0000 1
las el DA0FP0 0.97051
irregularidades irregularidad NCFP000 1
de de SPS00 0.999919
voto voto NCMS000 0.973468
y y CC 0.999812
pidi pidi VMIS1S0 1
de de SPS00 0.999919
nuevo nuevo AQ0MS0 1
que que CS 0.4375
se se P00CN000 0.465602
haga hacer VMSP1S0 0.444444
un uno DI0MS0 0.986987
recuento recuento NCMS000 0.844925
para para SPS00 0.998507
asegurar asegurar VMN0000 1
que que CS 0.4375
la el DA0FS0 0.972146
poblaci poblaci AQ0CS0 0.0199855
n n NCFS000 1
venezolana venezolano AQ0FS0 0.469804
se se P00CN000 0.465602
sienta sentar VMIP3S0 0.6
incluida incluir VMP00SF 1
en en SPS00 1
el el DA0MS0 1
proceso proceso NCMS000 0.973684
De de NP00000 1
esa ese DD0FS0 0.978261
manera manera NCFS000 1
el el DA0MS0 1
gobierno gobierno NCMS000 0.9
estadounidense estadounidense AQ0CS0 0.833333
evit evit NCMN000 1
reconocer reconocer VMN0000 1
a a SPS00 1
el el DA0MS0 1
Nicol nicol NP00000 1
s segundo NCMN000 0.622321
Maduro maduro NP00000 1
como como CS 0.998579
nuevo nuevo AQ0MS0 1
presidente presidente NCMS000 1
de de SPS00 0.999919
la el DA0FS0 0.972146
Rep rep NP00000 1
blica blica AQ0FS0 1
Bolivariana_de_Venezuela bolivariana_de_venezuela NP00000 1
y y CC 0.999812
rechaz rechaz AQ0CS0 0.803258
las el DA0FP0 0.97051
acusaciones acusación NCFP000 1
de de SPS00 1
el el DA0MS0 1
mandatario mandatario NCMS000 1
venezolano venezolano AQ0MS0 0.357352
sobre sobre SPS00 0.994203
la el DA0FS0 0.972146
implicaci implicaci AQ0CS0 0.0199855
n n NCFS000 1
de de SPS00 0.999919
Estados_Unidos estados_unidos NP00000 1
en en SPS00 1
los el DA0MP0 0.97623
actos acto NCMP000 1
de de SPS00 0.999919
violencia violencia NCFS000 1
Cabe cabe NP00000 1
destacar destacar VMN0000 1
que que CS 0.4375
la el DA0FS0 0.972146
v v NCFS000 1
spera spera AQ0FS0 0.222163
tuvieron_lugar tener_lugar VMIS3P0 1
multitudinarias multitudinario AQ0FP0 1
manifestaciones manifestación NCFP000 1
de de SPS00 0.999919
la el DA0FS0 0.972146
oposici oposici AQ0CS0 0.0199855
n n NCFS000 1
que que PR0CN000 0.5625
exige exigir VMIP3S0 0.875
el el DA0MS0 1
recuento recuento NCMS000 0.844925
de de SPS00 0.999919
los el DA0MP0 0.97623
votos voto NCMP000 1
tras tras SPS00 1
los el DA0MP0 0.97623
resultados resultado NCMP000 0.958333
de de SPS00 0.999919
las el DA0FP0 0.97051
elecciones elección NCFP000 1
presidenciales presidencial AQ0CP0 1
celebradas celebrar VMP00PF 1
el el DA0MS0 1
domingo_pasado [G:??/??/??:??.??:??] W 1
Como como NP00000 1
consecuencia consecuencia NCFS000 1
de de SPS00 0.999919
los el DA0MP0 0.97623
disturbios disturbio NCMP000 1
murieron morir VMIS3P0 1
a a SPS00 1
el el DA0MS0 1
menos menos RG 1
siete 7 Z 1
personas persona NCFP000 0.983871
y y CC 0.999812
m m NCFS000 0.5
s segundo NCMN000 0.622321
de de SPS00 0.999919
60 60 Z 1
fueron ser VSIS3P0 0.796296
heridas herida NCFP000 0.416667
Unos unos NP00000 1
135 135 Z 1
seguidores seguidor NCMP000 0.9
de de SPS00 0.999919
la el DA0FS0 0.972146
oposici oposici AQ0CS0 0.0199855
n n NCFS000 1
fueron ser VSIS3P0 0.796296
arrestados arrestar VMP00PM 1
Por por NP00000 1
su su DP3CS0 1
parte parte NCFS000 0.497967
la el DA0FS0 0.972146
presidenta presidente NCFS000 1
de de SPS00 0.999919
Argentina_Cristina_Fern argentina_cristina_fern NP00000 1
ndez ndez NCFS000 1
de de SPS00 0.999919
Kirchner kirchner NP00000 1
inst inst NCMS000 1
a a SPS00 1
el el DA0MS0 1
gobierno gobierno NCMS000 0.9
de de SPS00 0.999919
Estados_Unidos estados_unidos NP00000 1
a a SPS00 0.99585
que que PR0CN000 0.5625
reconozca reconocer VMSP3S0 0.62344
a a SPS00 1
el el DA0MS0 1
gobierno gobierno NCMS000 0.9
venezolano venezolano AQ0MS0 0.357352
tras tras SPS00 1
la el DA0FS0 0.972146
contienda contienda NCFS000 0.75
electoral electoral AQ0CS0 1
en en SPS00 1
la el DA0FS0 0.972146
que que PR0CN000 0.5625
Nicol nicol NP00000 1
s segundo NCMN000 0.622321
Maduro maduro NP00000 1
venci venci VMIS1S0 0.0691907
por por SPS00 1
un uno DI0MS0 0.986987
escaso escaso AQ0MS0 1
margen margen NCCS000 1
Quisiera quisiera NP00000 1
pedir pedir VMN0000 1
le le PP3CSD00 1
a a SPS00 1
el el DA0MS0 1
Gobierno_de_Estados_Unidos gobierno_de_estados_unidos NP00000 1
que que PR0CN000 0.5625
reconozca reconocer VMSP3S0 0.62344
a a SPS00 1
el el DA0MS0 1
gobierno gobierno NCMS000 0.9
venezolano venezolano AQ0MS0 0.357352
tras tras SPS00 1
elecciones elección NCFP000 1
libres libre AQ0CP0 0.916667
pidi pidi VMIS1S0 1
Cristina_Kirchner cristina_kirchner NP00000 1
quien quien PR0CS000 1
agreg agreg RG 0.14318
que que CS 0.4375
eso ese PD0NS000 1
va ir VMIP3S0 1
a a SPS00 0.99585
contribuir contribuir VMN0000 1
a a SPS00 0.99585
la el DA0FS0 0.972146
paz paz NCFS000 1
y y CC 0.999812
asegur asegur NCFS000 1
que que CS 0.4375
el el DA0MS0 1
viernes [V:??/??/??:??.??:??] W 1
estar estar VAN0000 1
acompa acompa VMSP3S0 1
ando andar VMIP1S0 1
la el DA0FS0 0.972146
asunci asunci AQ0CS0 0.0199855
n n NCFS000 1
de de SPS00 0.999919
Maduro maduro NP00000 1
con con SPS00 1
sus su DP3CP0 0.998462
pares par AQ0CP0 0.337249
sudamericanos sudamericano NCMP000 0.509383
De de NP00000 1
otro otro DI0MS0 0.61215
lado lado NCMS000 1
a a SPS00 0.99585
trav trav AQ0CS0 0.0433699
s segundo NCMN000 0.622321
de de SPS00 0.999919
un uno DI0MS0 0.986987
comunicado comunicado NCMS000 0.345763
oficial oficial AQ0CS0 0.916667
el el DA0MS0 1
gobierno gobierno NCMS000 0.9
de de SPS00 0.999919
Espa espa NP00000 1
a a SPS00 0.99585
expres expres NCMP000 0.667094
la el DA0FS0 0.972146
v v NCFS000 1
spera spera VMIP3S0 0.444593
su su DP3CS0 1
respeto respeto NCMS000 0.863636
por por SPS00 1
la el DA0FS0 0.972146
proclamaci proclamaci AQ0CS0 0.0199855
n n NCFS000 1
de de SPS00 0.999919
Nicol nicol NP00000 1
s segundo NCMN000 0.622321
Maduro maduro NP00000 1
como como CS 0.998579
presidente presidente NCMS000 1
electo electo AQ0MS0 0.35735
de de SPS00 0.999919
Venezuela venezuela NP00000 1
y y CC 0.999812
su su DP3CS0 1
deseo deseo NCMS000 0.5
de de SPS00 0.999919
que que CS 0.4375
en en SPS00 1
el el DA0MS0 1
marco marco NCMS000 0.9
de de SPS00 0.999919
la el DA0FS0 0.972146
Constituci constituci NP00000 1
n n NCFS000 1
todos todo DI0MP0 0.622419
los el DA0MP0 0.97623
actores actor NCMP000 1
pol pol NCMS000 0.861706
ticos ticos AQ0MP0 0.671839
act act NCMS000 0.607342
en en SPS00 1
con con SPS00 1
responsabilidad responsabilidad NCFS000 1
y y CC 0.999812
respeto respeto NCMS000 0.863636
a a SPS00 0.99585
las el DA0FP0 0.97051
instituciones institución NCFP000 1
Cumplidos cumplidos NP00000 1
los el DA0MP0 0.97623
tr tr AQ0CS0 0.0829965
mites mites NCMP000 1
constitucionales constitucional AQ0CP0 1
y y CC 0.999812
legales legal AQ0CP0 0.965
internos interno NCMP000 0.34281
el el DA0MS0 1
gobierno gobierno NCMS000 0.9
de de SPS00 0.999919
Espa espa NP00000 1
a a SPS00 0.99585
respeta respetar VMIP3S0 0.75
la el DA0FS0 0.972146
proclamaci proclamaci AQ0CS0 0.0199855
n n NCFS000 1
por por SPS00 1
parte parte NCFS000 0.497967
de de SPS00 1
el el DA0MS0 1
Consejo_Nacional_Electoral_de_Nicol consejo_nacional_electoral_de_nicol NP00000 1
s segundo NCMN000 0.622321
Maduro_Moros maduro_moros NP00000 1
como como CS 0.998579
Presidente presidente NP00000 1
electo electo NCMS000 0.64265
de de SPS00 0.999919
la el DA0FS0 0.972146
Rep rep NP00000 1
blica blica AQ0FS0 1
Bolivariana_de_Venezuela_El_Gobierno_de_Espa bolivariana_de_venezuela_el_gobierno_de_espa NP00000 1
a a SPS00 0.99585
expresa expresar VMIP3S0 0.777778
su su DP3CS0 1
deseo deseo NCMS000 0.5
de de SPS00 0.999919
que que CS 0.4375
en en SPS00 1
el el DA0MS0 1
marco marco NCMS000 0.9
de de SPS00 0.999919
la el DA0FS0 0.972146
Constituci constituci NP00000 1
n n NCFS000 1
todos todo DI0MP0 0.622419
los el DA0MP0 0.97623
actores actor NCMP000 1
pol pol NCMS000 0.861706
ticos ticos AQ0MP0 0.671839
act act NCMS000 0.607342
en en SPS00 1
con con SPS00 1
responsabilidad responsabilidad NCFS000 1
y y CC 0.999812
respeto respeto NCMS000 0.863636
a a SPS00 0.99585
las el DA0FP0 0.97051
instituciones institución NCFP000 1
seg segundo NCMN000 1
n n NCFS000 1
el el DA0MS0 1
texto texto NCMS000 1
de de SPS00 1
el el DA0MS0 1
comunicado comunicado NCMS000 0.345763
De de NP00000 1
acuerdo acordar VMIP1S0 0.0416667
el el DA0MS0 1
acta acta NCFS000 1
de de SPS00 1
el el DA0MS0 1
CNE_Maduro cne_maduro NP00000 1
obtuvo obtener VMIS3S0 1
el el DA0MS0 1
50 50 Z 1
75 75 Z 1
de de SPS00 0.999919
los el DA0MP0 0.97623
votos voto NCMP000 1
emitidos emitir VMP00PM 1
durante durante SPS00 1
la el DA0FS0 0.972146
jornada jornada NCFS000 1
electoral electoral AQ0CS0 1
de de SPS00 1
el el DA0MS0 1
domingo_pasado [G:??/??/??:??.??:??] W 1
mientras_que mientras_que CS 1
Henrique_Capriles henrique_capriles NP00000 1
candidato candidato NCMS000 1
de de SPS00 0.999919
la el DA0FS0 0.972146
Mesa_de_la_Unidad_Democr mesa_de_la_unidad_democr NP00000 1
tica tica AQ0FS0 0.595788
MUD mud NP00000 1
el el DA0MS0 1
48 48 Z 1
97 97 Z 1
Haga haga NP00000 1
click click NCMS000 0.50012
aqu aqu NCMS000 0.774439
para para SPS00 0.998507
recibir recibir VMN0000 1
gratis gratis RG 0.75
Argenpress argenpress NP00000 1
en en SPS00 1
su su DP3CS0 1
correo correo NCMS000 0.735623
electr electr AQ0CS0 0.0829965
nico no NCMS00D 0.522084

