M m NP00000 0.666667
s segundo NCMN000 0.622321
evidencias evidencia NCFP000 0.75
sobre sobre SPS00 0.994203
soberan soberan VMSI3P0 0.666364
a a SPS00 0.99585
insular insular AQ0CS0 1
de de SPS00 0.999919
Vietnam_Mapas vietnam_mapas NP00000 1
documentos documento NCMP000 1
objetos objeto NCMP000 1
y y CC 0.999812
publicaciones publicación NCFP000 1
que que PR0CN000 0.5625
evidencian evidenciar VMIP3P0 1
la el DA0FS0 0.972146
soberan soberan VMIP3P0 0.305874
a a SPS00 0.99585
de de SPS00 0.999919
Vietnam vietnam NP00000 1
sobre sobre SPS00 0.994203
los el DA0MP0 0.97623
archipi archipi NCFS000 1
lagos lago NCMP000 1
Hoang_Sa_Paracels hoang_sa_paracels NP00000 1
y y CC 0.999812
Truong_Sa_Spratlys truong_sa_spratlys NP00000 1
en en SPS00 1
el el DA0MS0 1
Mar_Oriental mar_oriental NP00000 1
se se P00CN000 0.465602
exhiben exhibir VMIP3P0 1
en en SPS00 1
la el DA0FS0 0.972146
provincia provincia NCFS000 1
central central AQ0CS0 0.916667
de de SPS00 0.999919
Ha_Tinh_Entre ha_tinh_entre NP00000 1
las el DA0FP0 0.97051
200 200 Z 1
evidencias evidencia NCFP000 0.75
presentadas presentar VMP00PF 1
se se P00CN000 0.465602
destacan destacar VMIP3P0 1
documentos documento NCMP000 1
publicados publicar VMP00PM 1
en en SPS00 1
chino chino NCMS000 0.708333
vietnamita vietnamita AQ0CS0 0.35727
y y CC 0.999812
franc franc NC00000 0.538029
s segundo NCMN000 0.622321
de de SPS00 1
el el DA0MS0 1
siglo_XVII [s:xvii] W 1
a_principios_de a_principios_de SPS00 1
el el DA0MS0 1
XX xx NP00000 1
mapas mapa NCMP000 1
antiguas antiguo AQ0FP0 0.75
de de SPS00 1
el el DA0MS0 1
siglo_XVI [s:xvi] W 1
y y CC 0.999812
tres 3 Z 1
Atlas_de_Reino_Unido_Alemania atlas_de_reino_unido_alemania NP00000 1
y y CC 0.999812
Estados_Unidos estados_unidos NP00000 1
elaborados elaborar VMP00PM 1
de de SPS00 0.999919
1626 1626 Z 1
a a SPS00 0.99585
1980 1980 Z 1
Todos todos NP00000 1
estos este DD0MP0 0.990566
documentos documento NCMP000 1
muestran mostrar VMIP3P0 1
que que CS 0.4375
Hoang_Sa hoang_sa NP00000 1
y y CC 0.999812
Truong_Sa truong_sa NP00000 1
pertenecen pertenecer VMIP3P0 1
a a SPS00 0.99585
Vietnam_La vietnam_la NP00000 1
exposici exposici RG 0.751648
n n NCFS000 1
permanecer permanecer VMN0000 1
abierta abrir VMP00SF 1
hasta hasta SPS00 0.955172
el el DA0MS0 1
pr pr NCMS000 0.224371
ximo ximo AQ0MS0 0.937453
8_de_junio [??:8/6/??:??.??:??] W 1
Haga haga NP00000 1
click click NCMS000 0.50012
aqu aqu NCMS000 0.774439
para para SPS00 0.998507
recibir recibir VMN0000 1
gratis gratis RG 0.75
Argenpress argenpress NP00000 1
en en SPS00 1
su su DP3CS0 1
correo correo NCMS000 0.735623
electr electr AQ0CS0 0.0829965
nico no NCMS00D 0.522084

