Menem menem NP00000 1
vendi vendi VMIS1S0 1
armas arma NCFP000 0.982759
haciendo hacer VMG0000 0.958333
trabajo trabajo NCMS000 0.940476
sucio sucio AQ0MS0 1
para para SPS00 0.998507
Estados_Unidos_El estados_unidos_el NP00000 1
largo largo AQ0MS0 0.458333
juicio juicio NCMS000 1
culminado culminar VMP00SM 1
en en SPS00 1
condena condena NCFS000 0.666667
para para SPS00 0.998507
Carlos_Menem carlos_menem NP00000 1
deja dejar VMIP3S0 0.952381
debate debate NCMS000 0.416667
sobre sobre SPS00 0.994203
las el DA0FP0 0.97051
absoluciones absolución NCFP000 1
anteriores anterior AQ0CP0 1
y y CC 0.999812
la el DA0FS0 0.972146
sentencia sentencia NCFS000 0.888889
de de SPS00 1
el el DA0MS0 1
jueves [J:??/??/??:??.??:??] W 1
El el NP00000 1
trasfondo trasfondo NCMS000 1
pol pol NCMS000 0.861706
tico tico AQ0MS0 0.806828
de de SPS00 1
el el DA0MS0 1
contrabando contrabando NCMS000 1
de de SPS00 0.999919
armas arma NCFP000 0.982759
fueron ser VSIS3P0 0.796296
las el DA0FP0 0.97051
relaciones relación NCFP000 0.944444
carnales carnal AQ0CP0 1
con con SPS00 1
el el DA0MS0 1
imperio imperio NCMS000 1
Como como NP00000 1
el el DA0MS0 1
contrabando contrabando NCMS000 1
de de SPS00 0.999919
armas arma NCFP000 0.982759
a a SPS00 0.99585
Croacia croacia NP00000 1
y y CC 0.999812
Ecuador ecuador NP00000 1
fue ser VSIS3S0 0.932292
muy muy RG 1
meneado menear VMP00SM 1
en en SPS00 1
los el DA0MP0 0.97623
medios medio NCMP000 0.95
durante durante SPS00 1
a a SPS00 0.99585
os os PP2CP000 0.722222
no no RN 0.99778
hay haber VMIP3S0 1
demasiada demasiado DI0FS0 0.888889
necesidad necesidad NCFS000 1
de de SPS00 0.999919
citar citar VMN0000 1
tanto tanto RG 0.857895
los el DA0MP0 0.97623
hechos hecho NCMP000 0.375
Son son NP00000 1
conocidos conocido NCMP000 0.3
Como como NP00000 1
pasaron pasar VMIS3P0 1
18 18 Z 1
a a SPS00 0.99585
os o NCFP000 0.222222
desde desde SPS00 1
la el DA0FS0 0.972146
denuncia denuncia NCFS000 0.333333
medi medi VMIS1S0 1
tica tica AQ0FS0 0.595788
y y CC 0.999812
el el DA0MS0 1
inicio inicio NCMS000 0.75
de de SPS00 0.999919
las el DA0FP0 0.97051
actuaciones actuación NCFP000 1
judiciales judicial AQ0CP0 1
algo algo PI0CS000 0.896341
hay haber VMIP3S0 1
que que CS 0.4375
refrescar refrescar VMN0000 1
porque porque CS 1
el el DA0MS0 1
tiempo tiempo NCMS000 1
borra borrar VMIP3S0 0.666667
algunos alguno DI0MP0 0.476562
recuerdos recuerdo NCMP000 1
Carlos_Menem carlos_menem NP00000 1
firm firm NCMS000 0.700265
decretos decreto NCMP000 1
reservados reservar VMP00PM 0.691767
entre entre SPS00 0.995223
1991 1991 Z 1
y y CC 0.999812
1993 1993 Z 1
para para SPS00 0.998507
exportar exportar VMN0000 1
armas arma NCFP000 0.982759
a a SPS00 0.99585
Panam panam NP00000 1
y y CC 0.999812
Venezuela_Empezaron venezuela_empezaron NP00000 1
a a SPS00 0.99585
embarcar embarcar VMN0000 1
se se PP3CN000 1
v v NCFS000 1
a a SPS00 0.99585
mar mar NCCS000 1
tima timar VMIP3S0 0.994868
y y CC 0.999812
a a SPS00 0.99585
rea reo NCFS000 0.592721
hasta hasta SPS00 0.955172
que que CS 0.4375
en en SPS00 1
1995 1995 Z 1
se se P00CN000 0.465602
conocieron conocer VMIS3P0 1
las el DA0FP0 0.97051
primeras 1 AO0FP0 0.9
denuncias denuncia NCFP000 0.75
Y y NP00000 1
en en SPS00 1
el el DA0MS0 1
juzgado juzgado NCMS000 0.25
federal federal AQ0CS0 1
de de SPS00 0.999919
Jorge_Urso jorge_urso NP00000 1
se se P00CN000 0.465602
abri abri RG 0.83337
el el DA0MS0 1
expediente expediente NCMS000 0.918697
por por SPS00 1
asociaci asociaci RG 0.751648
n n NCFS000 1
il il AQ0CS0 0.768581
cita cita NCFS000 0.666667
falsedad falsedad NCFS000 1
ideol ideol NCMS000 0.861706
gica gica AQ0FS0 0.925822
y y CC 0.999812
contrabando contrabando NCMS000 1
con con SPS00 1
el el DA0MS0 1
fiscal fiscal NCCS000 0.342737
Carlos_Stornelli carlos_stornelli NP00000 1
preparando preparar VMG0000 1
la el DA0FS0 0.972146
acusaci acusaci AQ0CS0 0.0199855
n n NCFS000 1
Estaban estaban NP00000 1
imputados imputar VMP00PM 1
el el DA0MS0 1
ex ex AQ0CN0 0.25
presidente presidente NCMS000 1
su su DP3CS0 1
ex ex AQ0CN0 0.25
ministro ministro NCMS000 1
de de SPS00 0.999919
Defensa_Oscar_Camili defensa_oscar_camili NP00000 1
n n NCFS000 1
el el DA0MS0 1
interventor interventor NCMS000 0.64273
de de SPS00 0.999919
Fabricaciones_Militares_Luis_Sarlanga fabricaciones_militares_luis_sarlanga NP00000 1
el el DA0MS0 1
cu cu NCFS000 1
ado adir VMIP1S0 1
presidencial presidencial AQ0CS0 1
Emir_Yoma emir_yoma NP00000 1
el el DA0MS0 1
ex ex AQ0CN0 0.25
jefe jefe NCMS000 1
de de SPS00 0.999919
la el DA0FS0 0.972146
Fuerza_A fuerza_a NP00000 1
rea reo NCFS000 0.592721
Juan_Paulik juan_paulik NP00000 1
el el DA0MS0 1
ex ex NCCN000 0.75
titular titular AQ0CS0 0.166667
de de SPS00 1
el el DA0MS0 1
Ej ej NP00000 1
rcito rcito NCMS000 1
general general AQ0CS0 0.90625
Mart mart NP00000 1
n n NCFS000 1
Balza balza NP00000 1
y y CC 0.999812
otros otro DI0MP0 0.56875
militares militar AQ0CP0 0.541667
y y CC 0.999812
civiles civil AQ0CP0 0.916667
Se se NP00000 1
acreditaron acreditar VMIS3P0 1
siete 7 Z 1
embarques embarque NCMP000 0.995706
por por SPS00 1
mar mar NCCS000 1
a a SPS00 0.99585
Croacia croacia NP00000 1
en en SPS00 1
guerra guerra NCFS000 1
de de SPS00 0.999919
secesi secesi RG 1
n n NCFS000 1
contra contra SPS00 0.976316
Serbia serbia NP00000 1
y y CC 0.999812
tres 3 Z 1
fletes flete NCMP000 0.935714
a a SPS00 0.99585
reos reo NCMP000 0.75
a a SPS00 0.99585
Ecuador ecuador NP00000 1
en en SPS00 1
guerra guerra NCFS000 1
con con SPS00 1
Per per NP00000 1
por por SPS00 1
la el DA0FS0 0.972146
cordillera cordillera NCFS000 1
de de SPS00 1
el el DA0MS0 1
C c NP00000 1
ndor ndor NCMS000 1
Ni_Panam ni_panam NP00000 1
ten tener VMM02S0 1
a a SPS00 0.99585
ej ej NCMS000 0.692259
rcito rcito NCMS000 1
tras tras SPS00 1
la el DA0FS0 0.972146
ocupaci ocupaci AQ0CS0 0.0199855
n n NCFS000 1
de de SPS00 0.999919
EE_UU ee_uu NP00000 1
en en SPS00 1
1989 1989 Z 1
ni ni CC 0.995935
la el DA0FS0 0.972146
Venezuela_de_Rafael_Caldera venezuela_de_rafael_caldera NP00000 1
hab hab NCMS000 0.63631
a a SPS00 0.99585
comprado comprar VMP00SM 1
ni ni CC 0.995935
una uno DI0FS0 0.951241
bala bala NCFS000 0.777778
Se se NP00000 1
falsearon falsear VMIS3P0 1
los el DA0MP0 0.97623
destinos destino NCMP000 1
en en SPS00 1
los el DA0MP0 0.97623
decretos decreto NCMP000 1
de de SPS00 1
el el DA0MS0 1
PEN pen NP00000 1
para para SPS00 0.998507
encubrir encubrir VMN0000 1
esa ese DD0FS0 0.978261
venta venta NCFS000 1
de de SPS00 0.999919
6 6 Z 1
500_toneladas WG_tm:500 Zu 1
de de SPS00 0.999919
fusiles fusil NCMP000 0.75
balas balar VMIP2S0 0.25
ca ca I 1
ones ones NCFP000 0.783391
obuses obús NCMP000 1
y y CC 0.999812
misiles misil NCMP000 1
fletados fletar VMP00PM 1
a a SPS00 0.99585
destinos destino NCMP000 1
donde donde PR000000 0.963542
pol pol NCMS000 0.861706
tica tica AQ0FS0 0.595788
y y CC 0.999812
jur jur NCMS000 0.75005
dicamente dicamente RG 1
Argentina argentina NP00000 1
no no RN 0.99778
deb deb NCMS000 0.63631
a a SPS00 0.99585
meter meter VMN0000 1
se se PP3CN000 1
En_Croacia en_croacia NP00000 1
hab hab NCMS000 0.63631
a a SPS00 0.99585
un uno DI0MS0 0.986987
embargo embargo NCMS000 0.973496
de de SPS00 0.999919
armamentos armamento NCMP000 1
de de SPS00 0.999919
la el DA0FS0 0.972146
ONU onu NP00000 1
y y CC 0.999812
en en SPS00 1
el el DA0MS0 1
conflicto conflicto NCMS000 1
sudamericano sudamericano AQ0MS0 0.63727
Buenos_Aires buenos_aires NP00000 1
era ser VSII1S0 0.490859
garante garante AQ0CS0 0.634173
de de SPS00 1
el el DA0MS0 1
Tratado_de_R tratado_de_r NP00000 1
o o CC 0.998845
de de SPS00 0.999919
Janeiro_Y janeiro_y NP00000 1
sin sin SPS00 1
embargo embargo NCMS000 0.973496
Menem menem NP00000 1
lo lo PP3CNA00 0.271163
hizo hacer VMIS3S0 1
Hab hab NP00000 1
a a SPS00 0.99585
dos 2 Z 0.988722
buenas bueno AQ0FP0 1
razones razón NCFP000 0.966667
para para SPS00 0.998507
ello ello PD0NS000 1
servir servir VMN0000 1
a a SPS00 1
el el DA0MS0 1
imperio imperio NCMS000 1
en en SPS00 1
una uno DI0FS0 0.951241
poca poco PI0FS000 0.1
de de SPS00 0.999919
relaciones relación NCFP000 0.944444
carnales carnal AQ0CP0 1
y y CC 0.999812
ganar ganar VMN0000 1
muy muy RG 1
buena bueno AQ0FS0 1
plata plata NCFS000 1
por por SPS00 1
los el DA0MP0 0.97623
embarques embarque NCMP000 0.995706
para para SPS00 0.998507
su su DP3CS0 1
entorno entorno NCMS000 0.95
pol pol NCMS000 0.861706
tico tico AQ0MS0 0.806828
y y CC 0.999812
familiar familiar AQ0CS0 0.9375
El el NP00000 1
negocio negocio NCMS000 0.875
de de SPS00 0.999919
venta venta NCFS000 1
de de SPS00 0.999919
armas arma NCFP000 0.982759
deja dejar VMIP3S0 0.952381
buena bueno AQ0FS0 1
plata plata NCFS000 1
Amigos amigos NP00000 1
son ser VSIP3P0 0.986772
los el DA0MP0 0.97623
amigos amigo NCMP000 0.96875
Como como NP00000 1
lo el DA0NS0 0.457393
cort cort NCMS000 1
s segundo NCMN000 0.622321
no no RN 0.99778
quita quitar VMIP3S0 0.85
lo el DA0NS0 0.457393
valiente valiente NCCS000 0.25
hay haber VMIP3S0 1
que que CS 0.4375
decir decir VMN0000 0.987805
que que CS 0.4375
La_Naci la_naci NP00000 1
n n NCFS000 1
public public RG 0.5
la el DA0FS0 0.972146
primera 1 AO0FS0 0.987179
noticia noticia NCFS000 0.962963
sobre sobre SPS00 0.994203
los el DA0MP0 0.97623
embarques embarque NCMP000 0.995706
en en SPS00 1
febrero_de_2005 [??:??/2/2005:??.??:??] W 1
bien bien RG 0.898039
que que CS 0.4375
en en SPS00 1
una uno DI0FS0 0.951241
peque peque NCCS000 0.618697
a a SPS00 0.99585
nota nota NCFS000 0.3125
sin sin SPS00 1
demasiada demasiado DI0FS0 0.888889
importancia importancia NCFS000 1
Su su NP00000 1
socio socio NCMS000 1
y y CC 0.999812
rival rival NCCS000 0.8125
Clar clar NP00000 1
n n NCFS000 1
presume presumir VMIP3S0 0.833333
de de SPS00 0.999919
la el DA0FS0 0.972146
primicia primicia NCFS000 1
porque porque CS 1
en en SPS00 1
marzo [??:??/3/??:??.??:??] W 1
public public RG 0.5
una uno DI0FS0 0.951241
investigaci investigaci AQ0CS0 0.0199855
n n NCFS000 1
mayor mayor AQ0CS0 0.989796
firmada firmar VMP00SF 1
por por SPS00 1
Daniel_Santoro_Y daniel_santoro_y NP00000 1
en en SPS00 1
sta sta NCFS000 0.332037
se se P00CN000 0.465602
bas ba NCFP000 1
el el DA0MS0 1
abogado abogado NCMS000 0.833333
Ricardo_Monner_Sans ricardo_monner_sans NP00000 1
para para SPS00 0.998507
presentar presentar VMN0000 1
se se PP3CN000 1
con con SPS00 1
la el DA0FS0 0.972146
denuncia denuncia NCFS000 0.333333
ante ante SPS00 0.990566
Urso urso NP00000 1
interviniendo intervenir VMG0000 1
el el DA0MS0 1
fiscal fiscal NCCS000 0.342737
Stornelli stornelli NP00000 1
hoy hoy RG 0.877358
es ser VSIP3S0 1
jefe jefe NCMS000 1
de de SPS00 0.999919
Seguridad_de_Boca_Juniors seguridad_de_boca_juniors NP00000 1
y y CC 0.999812
no no RN 0.99778
sirve servir VMIP3S0 0.916667
ni ni CC 0.995935
para para SPS00 0.998507
detectar detectar VMN0000 1
los el DA0MP0 0.97623
torpes torpe AQ0CP0 1
movimientos movimiento NCMP000 1
de de SPS00 0.999919
los el DA0MP0 0.97623
barras barra NCFP000 0.95625
de de SPS00 0.999919
la el DA0FS0 0.972146
12 12 Z 1
La la NP00000 1
gravedad gravedad NCFS000 1
de de SPS00 1
el el DA0MS0 1
asunto asunto NCMS000 1
fue ser VSIS3S0 0.932292
mayor mayor AQ0CS0 0.989796
en en SPS00 1
1995 1995 Z 1
porque porque CS 1
a_principios_de a_principios_de SPS00 1
ese ese DD0MS0 0.98125
noviembre [??:??/11/??:??.??:??] W 1
se se P00CN000 0.465602
produjo producir VMIS3S0 1
una uno DI0FS0 0.951241
voladura voladura NCFS000 1
de de SPS00 0.999919
FM fm NP00000 1
en en SPS00 1
R r NP00000 1
o o CC 0.998845
Tercero tercero NP00000 1
con con SPS00 1
7 7 Z 1
muertos muerto NCMP000 0.681818
y y CC 0.999812
700 700 Z 1
heridos herido NCMP000 0.5
Un uno DI0MS0 0.986987
veloz veloz AQ0CS0 1
Menem menem NP00000 1
y y CC 0.999812
un uno DI0MS0 0.986987
sol sol NCMS000 1
cito citar VMIP1S0 1
Ram ram NP00000 1
n n NCFS000 1
Mestre mestre NP00000 1
gobernador gobernador NCMS000 0.64273
de de SPS00 0.999919
C c NP00000 1
rdoba rdoba NCFS000 1
aseguraron asegurar VMIS3P0 1
que que CS 0.4375
hab hab NCMS000 0.63631
a a SPS00 0.99585
sido ser VSP00SM 1
un uno DI0MS0 0.986987
accidente accidente NCMS000 0.8125
pero pero CC 0.998821
para para SPS00 0.998507
much much AQ0CN0 1
simos simos AQSMP0 0.83315
observadores observador NCMP000 0.75
y y CC 0.999812
testigos testigo NCCP000 1
fue ser VSIS3S0 0.932292
un uno DI0MS0 0.986987
da dar VMIP3S0 0.983871
o o CC 0.998845
colateral colateral AQ0CS0 0.65727
de de SPS00 0.999919
la el DA0FS0 0.972146
causa causa NCFS000 0.794872
armas arma NCFP000 0.982759
Se se NP00000 1
habr habr VMN0000 0.633986
a a SPS00 0.99585
querido querer VMP00SM 0.928571
disimular disimular VMN0000 1
all all NCFN000 1
el el DA0MS0 1
faltante faltante AQ0CS0 1
de de SPS00 0.999919
ca ca I 1
ones ones NCFP000 0.783391
de de SPS00 1
el el DA0MS0 1
Ej ej NP00000 1
rcito rcito NCMS000 1
FM fm NP00000 1
vendidos vender VMP00PM 1
a a SPS00 0.99585
Croacia_El croacia_el NP00000 1
inicio iniciar VMIP1S0 0.25
de de SPS00 0.999919
la el DA0FS0 0.972146
causa causa NCFS000 0.794872
armas arma NCFP000 0.982759
fue ser VSIS3S0 0.932292
en en SPS00 1
marzo_de_1995 [??:??/3/1995:??.??:??] W 1
por por SPS00 1
lo el DA0NS0 0.457393
que que PR0CN000 0.5625
transcurrieron transcurrir VMIS3P0 1
diecis diecis NCMN000 1
is i NCFP000 1
a a SPS00 0.99585
os o NCFP000 0.222222
hasta hasta SPS00 0.955172
que que CS 0.4375
el el DA0MS0 1
13_de_septiembre_de_2011 [??:13/9/2011:??.??:??] W 1
tras tras SPS00 1
un uno DI0MS0 0.986987
trabajoso trabajoso AQ0MS0 1
juicio juicio NCMS000 1
de de SPS00 0.999919
tres 3 Z 1
a a SPS00 0.99585
os o NCFP000 0.222222
en en SPS00 1
el el DA0MS0 1
Tribunal_Oral_Penal_Econ tribunal_oral_penal_econ NP00000 1
mico mico NCMS000 1
TOPE tope NP00000 1
3 3 Z 1
se se P00CN000 0.465602
leyeron leer VMIS3P0 1
sentencias sentencia NCFP000 0.973497
absurdas absurdo AQ0FP0 1
Los los NP00000 1
18 18 Z 1
imputados imputar VMP00PM 1
fueron ir VMIS3P0 0.203704
absueltos absolver VMP00PM 1
por por SPS00 1
el el DA0MS0 1
voto voto NCMS000 0.973468
de de SPS00 0.999919
dos 2 Z 0.988722
de de SPS00 0.999919
los el DA0MP0 0.97623
camaristas camarista NCMP000 1
Imas imas NP00000 1
y y CC 0.999812
Artabe_Losada artabe_losada NP00000 1
el el DA0MS0 1
tercero 3 AO0MS0 0.9
vot vot NCCS000 1
a_favor_de a_favor_de SPS00 1
condenas condena NCFP000 0.973497
en en SPS00 1
l l NCFS000 0.639398
nea nea AQ0FS0 0.499863
con con SPS00 1
lo el DA0NS0 0.457393
pedido pedido NCMS000 0.25
por por SPS00 1
las el DA0FP0 0.97051
querellas querella NCFP000 0.973497
de de SPS00 1
el el DA0MS0 1
Estado estado NP00000 1
y y CC 0.999812
la el DA0FS0 0.972146
Aduana_Por aduana_por NP00000 1
qu qu NCMS000 0.774439
el el DA0MS0 1
fallo fallo NCMS000 0.8125
fue ser VSIS3S0 0.932292
de de SPS00 1
el el DA0MS0 1
TOPE tope NP00000 1
y y CC 0.999812
no no RN 0.99778
de de SPS00 0.999919
la el DA0FS0 0.972146
justicia justicia NCFS000 1
federal federal AQ0CS0 1
Es es NP00000 1
que que PR0CN000 0.5625
2001 2001 Z 1
la el DA0FS0 0.972146
Corte_Suprema_de_Justicia corte_suprema_de_justicia NP00000 1
amiga amigo NCFS000 0.892857
de de SPS00 0.999919
Menem menem NP00000 1
anul anul AQ0CS0 0.600012
los el DA0MP0 0.97623
cargos cargo NCMP000 1
por por SPS00 1
asociaci asociaci RG 0.751648
n n NCFS000 1
il il AQ0CS0 0.768581
cita cita NCFS000 0.666667
y y CC 0.999812
falsedad falsedad NCFS000 1
ideol ideol NCMS000 0.861706
gica gica AQ0FS0 0.925822
S s NP00000 1
lo el DA0NS0 0.457393
dej dej NCMS000 0.692259
en en SPS00 1
pie pie NCMS000 1
el el DA0MS0 1
delito delito NCMS000 1
por por SPS00 1
contrabando contrabando NCMS000 1
y y CC 0.999812
gir gir VMN0000 1
las el DA0FP0 0.97051
actuaciones actuación NCFP000 1
a a SPS00 0.99585
la el DA0FS0 0.972146
justicia justicia NCFS000 1
Penal_Econ penal_econ NP00000 1
mica mica NCFS000 1
Se se NP00000 1
sab sab NCMS000 0.63631
a a SPS00 0.99585
que que CS 0.4375
esa ese DD0FS0 0.978261
ltima ltima NCFS000 0.833242
acusaci acusaci RG 0.751648
n n NCFS000 1
y y CC 0.999812
ese ese DD0MS0 0.98125
fuero fuero NCMS000 1
iban ir VMII3P0 1
a a SPS00 0.99585
ser ser VSN0000 0.93883
mucho mucho DI0MS0 0.275362
m m NCFS000 0.5
s segundo NCMN000 0.622321
benignos benigno AQ0MP0 1
No no NP00000 1
se se P00CN000 0.465602
sab sab NCMS000 0.63631
a a SPS00 0.99585
cu cu NCFS000 1
n n NCFS000 1
benignos benigno AQ0MP0 1
iban ir VMII3P0 1
a a SPS00 0.99585
ser ser VSN0000 0.93883
los el DA0MP0 0.97623
amigos amigo NCMP000 0.96875
de de SPS00 0.999919
la el DA0FS0 0.972146
Corte corte NP00000 1
y y CC 0.999812
el el DA0MS0 1
TOPE tope NP00000 1
3 3 Z 1
Nuevos nuevos NP00000 1
aires aire NCMP000 1
a a SPS00 1
el el DA0MS0 1
menos menos RG 1
en en SPS00 1
parte parte NCFS000 0.497967
El el NP00000 1
fallo fallo NCMS000 0.8125
absolutorio absolutorio AQ0MS0 1
para para SPS00 0.998507
toda todo DI0FS0 0.975806
la el DA0FS0 0.972146
runfla runfla NCFS000 1
menemista menemista AQ0CS0 1
en en SPS00 1
septiembre_de_2011 [??:??/9/2011:??.??:??] W 1
fue ser VSIS3S0 0.932292
tan tan RG 1
escandaloso escandaloso AQ0MS0 0.75
que que CS 0.4375
no no RN 0.99778
pudo poder VMIS3S0 1
mantener mantener VMN0000 1
se se PP3CN000 1
Se se NP00000 1
hab hab NCMS000 0.63631
a a SPS00 0.99585
comprobado comprobar VMP00SM 1
que que CS 0.4375
Croacia croacia NP00000 1
y y CC 0.999812
Ecuador ecuador NP00000 1
hab hab NCMS000 0.63631
an an NCFS000 1
pagado pagar VMP00SM 1
53_millones_de_d TM_d:53000000 Zu 1
lares lar NCMP000 1
depositados depositar VMP00PM 1
en en SPS00 1
bancos banco NCMP000 1
uruguayos uruguayo AQ0MP0 0.35727
de de SPS00 0.999919
los el DA0MP0 0.97623
que que PR0CN000 0.5625
el el DA0MS0 1
contrabandista contrabandista NCCS000 0.462749
Diego_Palleros diego_palleros NP00000 1
hab hab NCMS000 0.63631
a a SPS00 0.99585
abonado abonado NCMS000 0.354391
34_millones 34000000 Zd 1
a a SPS00 0.99585
FM fm NP00000 1
y y CC 0.999812
se se P00CN000 0.465602
hab hab NCMS000 0.63631
a a SPS00 0.99585
quedado quedar VMP00SM 1
con con SPS00 1
una uno DI0FS0 0.951241
comisi comisi RG 1
n n NCFS000 1
de de SPS00 0.999919
2_millones 2000000 Zd 1
El el NP00000 1
resto resto NCMS000 0.961538
se se P00CN000 0.465602
habr habr VMN0000 0.633986
an an NCFS000 1
dividido dividir VMP00SM 1
entre entre SPS00 0.995223
los el DA0MP0 0.97623
intervinientes interviniente AQ0CP0 1
de de SPS00 0.999919
esta este DD0FS0 0.982143
asociaci asociaci AQ0CS0 0.0199855
n n NCFS000 1
poco poco DI0MS0 0.126016
l l NCFS000 0.639398
cita citar VMIP3S0 0.166667
que que CS 0.4375
para para SPS00 0.998507
la el DA0FS0 0.972146
Corte_de_los_Milagros corte_de_los_milagros NP00000 1
no no RN 0.99778
fue ser VSIS3S0 0.932292
tal tal DD0CS0 0.741379
El el NP00000 1
nico nico AQ0MS0 0.470565
que que PR0CN000 0.5625
sal sal NCFS000 0.916667
a a SPS00 0.99585
perjudicado perjudicar VMP00SM 0.631784
pol pol NCMS000 0.861706
ticamente ticamente RG 1
fue ser VSIS3S0 0.932292
el el DA0MS0 1
general general AQ0CS0 0.90625
Balza balza NP00000 1
embajador embajador NCMS000 1
en en SPS00 1
Colombia colombia NP00000 1
y y CC 0.999812
actualmente actualmente RG 1
en en SPS00 1
Costa_Rica_Se costa_rica_se NP00000 1
ped ped NCMS000 1
a a SPS00 0.99585
investigar investigar VMN0000 1
lo lo PP3CNA00 0.5 lo PP3MSA00 0.5
porque porque CS 1
hab hab NCMS000 0.63631
a a SPS00 0.99585
declarado declarar VMP00SM 1
que que CS 0.4375
a a SPS00 1
el el DA0MS0 1
Ej ej NP00000 1
rcito rcito NCMS000 1
no no RN 0.99778
le le PP3CSD00 1
hab hab NCMS000 0.63631
a a SPS00 0.99585
faltado faltar VMP00SM 1
ning ning NCMS000 0.833333
n n NCFS000 1
ca ca I 1
n n NCFS000 1
Sin sin NP00000 1
embargo embargo NCMS000 0.973496
hubo haber VMIS3S0 0.95
testigos testigo NCCP000 1
de de SPS00 0.999919
que que CS 0.4375
los el DA0MP0 0.97623
ca ca I 1
ones ones NCFP000 0.783391
Citec citec NP00000 1
de de SPS00 0.999919
155_mil_metros LN_m:155000 Zu 1
y y CC 0.999812
los el DA0MP0 0.97623
Otto_Melara otto_melara NP00000 1
de de SPS00 0.999919
105_mil_metros LN_m:105000 Zu 1
disparaban disparar VMII3P0 1
de_lo_lindo de_lo_lindo RG 1
en en SPS00 1
Croacia croacia NP00000 1
matando matar VMG0000 1
serbios serbio NCMP000 0.49288
y y CC 0.999812
dividiendo dividir VMG0000 1
a a SPS00 0.99585
Yugoslavia_Las yugoslavia_las NP00000 1
absoluciones absolución NCFP000 1
derivaron derivar VMIS3P0 1
en en SPS00 1
un uno DI0MS0 0.986987
nuevo nuevo AQ0MS0 1
juicio juicio NCMS000 1
anulada anular VMP00SF 1
la el DA0FS0 0.972146
sentencia sentencia NCFS000 0.888889
anterior anterior AQ0CS0 1
por por SPS00 1
la el DA0FS0 0.972146
C c NP00000 1
mara mara VMSI3S0 0.142887
de de SPS00 0.999919
Casaci casaci NP00000 1
n n NCFS000 1
en en SPS00 1
marzo [??:??/3/??:??.??:??] W 1
pasado pasar VMP00SM 0.647727
Y y NP00000 1
en en SPS00 1
este este DD0MS0 0.956743
caso caso NCMS000 0.990741
s segundo NCMN000 0.622321
hubo haber VMIS3S0 0.95
bastante bastante RG 0.763889
de de SPS00 0.999919
justicia justicia NCFS000 1
con con SPS00 1
el el DA0MS0 1
nuevo nuevo AQ0MS0 1
veredicto veredicto NCMS000 1
que que CS 0.4375
el el DA0MS0 1
jueves [J:??/??/??:??.??:??] W 1
de de SPS00 0.999919
esta este DD0FS0 0.982143
semana semana NCFS000 1
dio_a_conocer dar_a_conocer VMIS3S0 1
el el DA0MS0 1
TOPE tope NP00000 1
3 3 Z 1
A a NP00000 1
el el DA0MS0 1
ex ex AQ0CN0 0.25
presidente presidente NCMS000 1
le le PP3CSD00 1
dieron dar VMIS3P0 1
7 7 Z 1
a a SPS00 0.99585
os o NCFP000 0.222222
de de SPS00 0.999919
prisi prisi RG 1
n n NCFS000 1
a a SPS00 0.99585
Camili camili NP00000 1
n n NCFS000 1
5 5 Z 1
y y CC 0.999812
medio medio AQ0MS0 0.312821
y y CC 0.999812
as as NCMS000 1
en en SPS00 1
cadencia cadencia NCFS000 1
descendente descendente AQ0CS0 1
a a SPS00 0.99585
los el DA0MP0 0.97623
dem dem NCMS000 1
s segundo NCMN000 0.622321
La la NP00000 1
justicia justicia NCFS000 1
lleg lleg NCMS000 0.714133
con con SPS00 1
una uno DI0FS0 0.951241
puntualidad puntualidad NCFS000 1
nada nada RG 0.135556
suiza suizo AQ0FS0 0.5
Muchos muchos NP00000 1
a a SPS00 0.99585
os o NCFP000 0.222222
de de SPS00 0.999919
retardo retardo NCMS000 0.823629
que que PR0CN000 0.5625
dejaron dejar VMIS3P0 1
sin sin SPS00 1
saber saber VMN0000 0.880952
el el DA0MS0 1
resultado resultado NCMS000 0.807692
a a SPS00 0.99585
Ana_Gritti ana_gritti NP00000 1
querellante querellante AQ0CS0 0.65727
de de SPS00 0.999919
la el DA0FS0 0.972146
causa causa NCFS000 0.794872
voladura voladura NCFS000 1
de de SPS00 0.999919
R r NP00000 1
o o CC 0.998845
Tercero tercero NP00000 1
donde donde PR000000 0.963542
muri muri RG 0.83337
su su DP3CS0 1
esposo esposo NCMS000 0.9
Gritti gritti NP00000 1
falleci falleci RG 0.751648
cuando cuando CS 0.983796
los el DA0MP0 0.97623
acusados acusado NCMP000 0.308257
en en SPS00 1
ambos ambos DI0MP0 0.361111
expedientes expediente NCMP000 0.75
gozaban gozar VMII3P0 1
de de SPS00 0.999919
total total AQ0CS0 0.944444
libertad libertad NCFS000 0.978261
El el NP00000 1
fallo fallar VMIP1S0 0.0625
de de SPS00 1
el el DA0MS0 1
jueves [J:??/??/??:??.??:??] W 1
ser ser VSN0000 0.93883
recurrido recurrir VMP00SM 1
por por SPS00 1
los el DA0MP0 0.97623
letrados letrado NCMP000 0.609395
de de SPS00 1
el el DA0MS0 1
hombre hombre NCMS000 0.95679
de de SPS00 0.999919
Anillaco anillaco NP00000 1
y y CC 0.999812
dem dem NCMS000 1
s segundo NCMN000 0.622321
condenados condenar VMP00PM 0.5
No no NP00000 1
estar estar VAN0000 1
firme firme AQ0CS0 0.84
hasta hasta SPS00 0.955172
que que CS 0.4375
la el DA0FS0 0.972146
Corte corte NP00000 1
no no RN 0.99778
lo lo PP3CNA00 0.271163
confirme confirmar VMSP1S0 0.62344
y y CC 0.999812
adem adem NCMS000 1
s segundo NCMN000 0.622321
el el DA0MS0 1
senador senador NCMS000 1
tiene tener VMIP3S0 1
fueros fuero NCMP000 1
Para para NP00000 1
quit quit NCMN000 1
rselos rselos AQ0MP0 0.0980385
habr habr NCMS000 0.224371
a a SPS00 0.99585
que que CS 0.4375
aguardar aguardar VMN0000 1
el el DA0MS0 1
pronunciamiento pronunciamiento NCMS000 1
de de SPS00 0.999919
los el DA0MP0 0.97623
cortesanos cortesano NCMP000 0.625
y y CC 0.999812
luego luego RG 0.983871
reunir reunir VMN0000 1
dos_tercios 2/3 Zp 1
de de SPS00 0.999919
los el DA0MP0 0.97623
votos voto NCMP000 1
en en SPS00 1
la el DA0FS0 0.972146
C c NP00000 1
mara mara NCFS000 0.714265
Alta alta NP00000 1
para para SPS00 0.998507
desaforar desaforar VMN0000 1
lo lo PP3CNA00 0.5 lo PP3MSA00 0.5
Y y NP00000 1
a a SPS00 0.99585
n n NCFS000 1
si si CS 0.997706
todo todo DI0MS0 0.559816
eso ese PD0NS000 1
se se P00CN000 0.465602
pudiera poder VMSI3S0 0.622727
hacer hacer VMN0000 1
el el DA0MS0 1
destino destino NCMS000 0.944444
de de SPS00 1
el el DA0MS0 1
reo reo NCMS000 0.542754
no no RN 0.99778
ser ser VSN0000 0.93883
Ezeiza ezeiza NP00000 1
ni ni CC 0.995935
Marcos_Paz marcos_paz NP00000 1
sino sino CC 0.981707
alguno alguno PI0MS000 0.5
de de SPS00 0.999919
sus su DP3CP0 0.998462
varios varios DI0MP0 0.883333
domicilios domicilio NCMP000 1
atento atento AQ0MS0 0.974373
a a SPS00 0.99585
sus su DP3CP0 0.998462
82 82 Z 1
a a SPS00 0.99585
os o NCFP000 0.222222
No no NP00000 1
deja dejar VMIP3S0 0.952381
de de SPS00 0.999919
ser ser VSN0000 0.93883
una uno DI0FS0 0.951241
buena bueno AQ0FS0 1
noticia noticia NCFS000 0.962963
que que PR0CN000 0.5625
la el DA0FS0 0.972146
justicia justicia NCFS000 1
presionada presionar VMP00SF 1
por por SPS00 1
una uno DI0FS0 0.951241
opini opini AQ0CS0 0.0199855
n n NCFS000 1
p p NCFS000 0.5
blica blica AQ0FS0 1
furiosa furioso AQ0FS0 1
por por SPS00 1
las el DA0FP0 0.97051
tardanzas tardanza NCFP000 1
y y CC 0.999812
absoluciones absolución NCFP000 1
fallara fallar VMSI3S0 0.649999
esta este DD0FS0 0.982143
vez vez NCFS000 1
en en SPS00 1
t t NCFS000 1
rminos rminos NCMP000 1
condenatorios condenatorio AQ0MP0 1
A a NP00000 1
el el DA0MS0 1
menos menos RG 1
en en SPS00 1
parte parte NCFS000 0.497967
hay haber VMIP3S0 1
nuevos nuevo AQ0MP0 1
aires aire NCMP000 1
en en SPS00 1
Tribunales_Lejos_de tribunales_lejos_de NP00000 1
indicar indicar VMN0000 1
que que CS 0.4375
la el DA0FS0 0.972146
reforma reforma NCFS000 0.866667
judicial judicial AQ0CS0 1
ser ser VSN0000 0.93883
a a SPS00 0.99585
innecesaria innecesario AQ0FS0 1
eso ese PD0NS000 1
deber deber NCMS000 0.9
a a SPS00 0.99585
servir servir VMN0000 1
para para SPS00 0.998507
que que PR0CN000 0.5625
sta sta NCFS000 0.332037
se se P00CN000 0.465602
lleve_a_cabo llevar_a_cabo VMSP1S0 0.462057
en en SPS00 1
profundidad profundidad NCFS000 1
Que que NP00000 1
digan decir VMSP3P0 0.901254
la el DA0FS0 0.972146
verdad verdad NCFS000 1
Las las NP00000 1
condenas condena NCFP000 0.973497
a a SPS00 1
el el DA0MS0 1
ex ex AQ0CN0 0.25
presidente presidente NCMS000 1
han haber VAIP3P0 1
sido ser VSP00SM 1
bien bien RG 0.898039
recibidas recibir VMP00PF 1
por por SPS00 1
la el DA0FS0 0.972146
mayor mayor AQ0CS0 0.989796
a a SPS00 0.99585
de de SPS00 0.999919
la el DA0FS0 0.972146
poblaci poblaci AQ0CS0 0.0199855
n n NCFS000 1
que que PR0CN000 0.5625
lo lo PP3CNA00 0.271163
tiene tener VMIP3S0 1
en en SPS00 1
la el DA0FS0 0.972146
mira mira NCFS000 0.0666667
hace hacer VMIP3S0 1
varios varios DI0MP0 0.883333
a a SPS00 0.99585
os os PP2CP000 0.722222
Abundan abundan NP00000 1
cr cr NCMS000 1
ticas ticas AQ0FP0 0.760898
a a SPS00 0.99585
las el DA0FP0 0.97051
pol pol NCMS000 0.861706
ticas ticas AQ0FP0 0.760898
neoliberales neoliberal AQ0CP0 0.557357
y y CC 0.999812
privatizadoras privatizador AQ0FP0 1
de de SPS00 0.999919
su su DP3CS0 1
gobierno gobierno NCMS000 0.9
la el DA0FS0 0.972146
corrupci corrupci AQ0CS0 0.0199855
n n NCFS000 1
el el DA0MS0 1
desempleo desempleo NCMS000 1
etc etcétera Fs 1
tera tera NCFS000 1
Algunos algunos NP00000 1
de de SPS00 0.999919
esos ese DD0MP0 0.961538
programas programa NCMP000 0.9
apoyados apoyar VMP00PM 1
por por SPS00 1
las el DA0FP0 0.97051
grandes grande NCCP000 0.05
centrales central AQ0CP0 0.666667
empresarias empresario NCFP000 1
y y CC 0.999812
el el DA0MS0 1
FMI_Banco_Mundial fmi_banco_mundial NP00000 1
hicieron hacer VMIS3P0 1
las el DA0FP0 0.97051
delicias delicia NCFP000 1
de de SPS00 0.999919
los el DA0MP0 0.97623
medios medio NCMP000 0.95
monop monop NCFS000 0.5
licos licos AQ0MP0 0.458279
que que PR0CN000 0.5625
luego luego RG 0.983871
se se P00CN000 0.465602
fueron ir VMIS3P0 0.203704
despegando despegar VMG0000 1
de de SPS00 1
el el DA0MS0 1
menemo menemo AQ0MS0 0.153888
cavallismo cavallismo NCMS000 1
Clar clar NP00000 1
n n NCFS000 1
y y CC 0.999812
La_Naci la_naci NP00000 1
n n NCFS000 1
como como CS 0.998579
se se P00CN000 0.465602
mencion mencion VMIS3P0 0.923476
m m NCFS000 0.5
s segundo NCMN000 0.622321
arriba arriba RG 0.955556
compiten competir VMIP3P0 1
en en SPS00 1
qui qui NCMS000 1
n n NCFS000 1
public public RG 0.5
la el DA0FS0 0.972146
primera 1 AO0FS0 0.987179
nota nota NCFS000 0.3125
sobre sobre SPS00 0.994203
el el DA0MS0 1
contrabando contrabando NCMS000 1
de de SPS00 0.999919
armas arma NCFP000 0.982759
en en SPS00 1
1995 1995 Z 1
pero pero CC 0.998821
no no RN 0.99778
dicen decir VMIP3P0 1
nada nada PI0CS000 0.846667
sobre sobre SPS00 0.994203
el el DA0MS0 1
apoyo apoyo NCMS000 0.928571
que que PR0CN000 0.5625
brindaron brindar VMIS3P0 1
en en SPS00 1
1992 1992 Z 1
a a SPS00 1
el el DA0MS0 1
plan plan NCMS000 1
para para SPS00 0.998507
privatizar privatizar VMN0000 1
los el DA0MP0 0.97623
ferrocarriles ferrocarril NCMP000 1
Y y NP00000 1
esta este DD0FS0 0.982143
semana semana NCFS000 1
el el DA0MS0 1
d d NCFS000 1
a a SPS00 0.99585
antes_de antes_de SPS00 1
el el DA0MS0 1
fallo fallo NCMS000 0.8125
de de SPS00 1
el el DA0MS0 1
TOPE tope NP00000 1
3 3 Z 1
se se P00CN000 0.465602
produjo producir VMIS3S0 1
la el DA0FS0 0.972146
en en SPS00 1
sima sima NCFS000 1
cat cat NCMS000 1
strofe strofe NCFS000 1
en en SPS00 1
un uno DI0MS0 0.986987
ramal ramal NCMS000 1
de de SPS00 0.999919
pasajeros pasajero NCMP000 0.492798
privatizado privatizar VMP00SM 1
por por SPS00 1
aquel aquel DD0MS0 0.985714
gobierno gobierno NCMS000 0.9
y y CC 0.999812
con con SPS00 1
continuidades continuidad NCFP000 1
hasta hasta SPS00 0.955172
hoy hoy NCMS000 0.122642
Ser ser NP00000 1
a a SPS00 0.99585
bueno bueno AQ0MS0 0.453125
que que CS 0.4375
aquellos aquel DD0MP0 0.833333
medios medio NCMP000 0.95
indagaran indagar VMSI3P0 1
en en SPS00 1
sus su DP3CP0 0.998462
archivos archivo NCMP000 1
y y CC 0.999812
publiquen publicar VMSP3P0 0.901254
sus su DP3CP0 0.998462
elogios elogio NCMP000 1
de de SPS00 0.999919
veinte 20 Z 1
a a SPS00 0.99585
os os PP2CP000 0.722222
atr atr AQ0CS0 0.0829965
s segundo NCMN000 0.622321
a a SPS00 0.99585
un uno DI0MS0 0.986987
esquema esquema NCMS000 1
fondomonetarista fondomonetarista AQ0CS0 0.499867
que que PR0CN000 0.5625
redujo reducir VMIS3S0 1
miles mil NCMP000 1
de de SPS00 0.999919
kil kil AQ0CS0 0.768581
metros metro NCMP000 1
de de SPS00 0.999919
v v NCFS000 1
as as NCMS000 1
y y CC 0.999812
el el DA0MS0 1
plantel plantel NCMS000 1
de de SPS00 0.999919
trabajadores trabajador NCMP000 0.928571
adem adem NCMS000 1
s segundo NCMN000 0.622321
de de SPS00 0.999919
muchos mucho DI0MP0 0.541667
otros otro PI0MP000 0.43125
da dar VMIP3S0 0.983871
os o NCFP000 0.222222
a a SPS00 1
el el DA0MS0 1
pa pa NCFS000 0.740689
s segundo NCMN000 0.622321
Las las NP00000 1
relaciones relación NCFP000 0.944444
carnales carnal AQ0CP0 1
Se se NP00000 1
ha haber VAIP3S0 0.998141
hablado hablar VMP00SM 1
en en SPS00 1
esta este DD0FS0 0.982143
causa causa NCFS000 0.794872
de de SPS00 0.999919
los el DA0MP0 0.97623
aspectos aspecto NCMP000 1
legales legal AQ0CP0 0.965
y y CC 0.999812
pol pol NCMS000 0.861706
ticos ticos AQ0MP0 0.671839
las el DA0FP0 0.97051
coimas coima NCFP000 1
y y CC 0.999812
de de SPS00 0.999919
los el DA0MP0 0.97623
favores favor NCMP000 1
judiciales judicial AQ0CP0 1
que que PR0CN000 0.5625
hab hab NCMS000 0.63631
an an NCFS000 1
beneficiado beneficiar VMP00SM 0.25
a a SPS00 1
el el DA0MS0 1
ex ex AQ0CN0 0.25
presidente presidente NCMS000 1
En en NP00000 1
cambio cambio NCMS000 0.97619
se se P00CN000 0.465602
ha haber VAIP3S0 0.998141
mencionado mencionar VMP00SM 1
muy muy RG 1
poco poco RG 0.54065
el el DA0MS0 1
trasfondo trasfondo NCMS000 1
pol pol NCMS000 0.861706
tico tico AQ0MS0 0.806828
de de SPS00 1
el el DA0MS0 1
asunto asunto NCMS000 1
No no NP00000 1
fue ser VSIS3S0 0.932292
casual casual AQ0CS0 1
que que CS 0.4375
Menem menem NP00000 1
contrabandeara contrabandear VMSI3S0 0.65
armas arma NCFP000 0.982759
hacia hacia SPS00 1
Croacia croacia NP00000 1
en en SPS00 1
ese ese DD0MS0 0.98125
momento momento NCMS000 1
Se se NP00000 1
libraba librar VMII3S0 0.649995
en en SPS00 1
la el DA0FS0 0.972146
ex ex NCCN000 0.75
Yugoslavia yugoslavia NP00000 1
la el DA0FS0 0.972146
primera 1 AO0FS0 0.987179
de de SPS00 0.999919
las el DA0FP0 0.97051
guerras guerra NCFP000 1
separatistas separatista AQ0CP0 0.507211
por por SPS00 1
parte parte NCFS000 0.497967
de de SPS00 0.999919
Croacia croacia NP00000 1
y y CC 0.999812
Eslovenia eslovenia NP00000 1
alentadas alentar VMP00PF 1
por por SPS00 1
la el DA0FS0 0.972146
OTAN_Estados_Unidos_Alemania otan_estados_unidos_alemania NP00000 1
y y CC 0.999812
el el DA0MS0 1
Vaticano vaticano NP00000 1
de de SPS00 1
el el DA0MS0 1
casi casi RG 1
santo santo AQ0MS0 0.166667
Juan_Pablo_II_Ese juan_pablo_ii_ese NP00000 1
bloque bloque NCMS000 0.625
imperialista imperialista AQ0CS0 1
quer quer VMN0000 0.717691
a a SPS00 0.99585
derrotar derrotar VMN0000 1
a a SPS00 0.99585
Serbia serbia NP00000 1
que que CS 0.4375
con con SPS00 1
Montenegro montenegro NP00000 1
resist resist NCMS000 1
an an NCFS000 1
la el DA0FS0 0.972146
p p NCFS000 0.5
rdida rdida VMP00SF 0.61536
total total AQ0CS0 0.944444
de de SPS00 0.999919
la el DA0FS0 0.972146
otrora otrora RG 1
pujante pujante AQ0CS0 1
Rep rep NP00000 1
blica blica AQ0FS0 1
Socialista_Federativa_de_Yugoslavia socialista_federativa_de_yugoslavia NP00000 1
fundada fundar VMP00SF 1
por por SPS00 1
el el DA0MS0 1
mariscal mariscal NCMS000 1
Tito tito NP00000 1
luego_de luego_de SPS00 1
la el DA0FS0 0.972146
II_Guerra_Mundial_Ese ii_guerra_mundial_ese NP00000 1
separatismo separatismo NCMS000 1
tuvo tener VMIS3S0 1
xito xito NCMS000 1
con con SPS00 1
la el DA0FS0 0.972146
guerra guerra NCFS000 1
las el DA0FP0 0.97051
matanzas matanza NCFP000 1
y y CC 0.999812
la el DA0FS0 0.972146
diplomacia diplomacia NCFS000 1
m m NCFS000 0.5
s segundo NCMN000 0.622321
el el DA0MS0 1
se se P00CN000 0.465602
uelo uelo VMIP1S0 0.0199948
de de SPS00 0.999919
un uno DI0MS0 0.986987
desarrollo desarrollo NCMS000 0.964286
econ econ NCMS000 1
mico mico NCMS000 1
europeo europeo AQ0MS0 0.9
que que CS 0.4375
estos este DD0MP0 0.990566
a a SPS00 0.99585
os os PP2CP000 0.722222
mostraron mostrar VMIS3P0 1
como como CS 0.998579
un uno DI0MS0 0.986987
fraude fraude NCMS000 1
Luego_de_Croacia luego_de_croacia NP00000 1
sigui sigui VMIS1S0 0.499989
Bosnia bosnia NP00000 1
y y CC 0.999812
el el DA0MS0 1
golpe golpe NCMS000 1
de de SPS00 0.999919
gracia gracia NCFS000 1
para para SPS00 0.998507
Belgrado belgrado NP00000 1
lleg lleg NCMS000 0.714133
en en SPS00 1
1999 1999 Z 1
con con SPS00 1
la el DA0FS0 0.972146
guerra guerra NCFS000 1
humanitaria humanitario AQ0FS0 1
de de SPS00 0.999919
la el DA0FS0 0.972146
OTAN otan NP00000 1
con con SPS00 1
la el DA0FS0 0.972146
excusa excusa NCFS000 0.794
de de SPS00 0.999919
Kosovo kosovo NP00000 1
hoy hoy RG 0.877358
un uno DI0MS0 0.986987
protectorado protectorado NCMS000 1
de de SPS00 0.999919
la el DA0FS0 0.972146
OTAN_Menem otan_menem NP00000 1
sirvi sirvi VMIS1S0 1
para para SPS00 0.998507
el el DA0MS0 1
trabajo trabajo NCMS000 0.940476
sucio sucio AQ0MS0 1
pedido pedir VMP00SM 0.75
por por SPS00 1
Bill_Clinton_Con bill_clinton_con NP00000 1
el el DA0MS0 1
esc esc NC00000 0.538029
ndalo ndalo NCMS000 1
Ir ir NP00000 1
n n NCFS000 1
contras contra NCFP000 0.649975
de de SPS00 0.999919
tiempos tiempo NCMP000 1
de de SPS00 0.999919
Reagan reagan NP00000 1
el el DA0MS0 1
presidente presidente NCMS000 1
norteamericano norteamericano AQ0MS0 0.833333
no no RN 0.99778
quer quer VMN0000 0.717691
a a SPS00 0.99585
que que CS 0.4375
sus su DP3CP0 0.998462
funcionarios funcionario NCMP000 1
o o CC 0.998845
el el DA0MS0 1
Pent pent NP00000 1
gono gono NCMS000 0.89996
aparecieran aparecer VMSI3P0 1
en en SPS00 1
la el DA0FS0 0.972146
provisi provisi RG 1
n n NCFS000 1
de de SPS00 0.999919
armas arma NCFP000 0.982759
a a SPS00 0.99585
sus su DP3CP0 0.998462
aliados aliado NCMP000 0.875
croatas croata AQ0CP0 0.357413
y y CC 0.999812
bosnios bosnio AQ0MP0 0.375
Esa esa NP00000 1
tarea tarea NCFS000 1
fue ser VSIS3S0 0.932292
cumplida cumplir VMP00SF 1
con con SPS00 1
gusto gusto NCMS000 0.961538
por por SPS00 1
Menem menem NP00000 1
listo listar VMIP1S0 0.166667
para para SPS00 0.998507
todos todo DI0MP0 0.622419
los el DA0MP0 0.97623
servicios servicio NCMP000 1
demandados demandar VMP00PM 0.691707
por por SPS00 1
las el DA0FP0 0.97051
relaciones relación NCFP000 0.944444
carnales carnal AQ0CP0 1
Su su NP00000 1
grupo grupo NCMS000 1
pol pol NCMS000 0.861706
tico tico AQ0MS0 0.806828
y y CC 0.999812
entorno entorno NCMS000 0.95
se se P00CN000 0.465602
habr habr VMN0000 0.633986
a a SPS00 0.99585
repartido repartir VMP00SM 1
19_millones_de_d TM_d:19000000 Zu 1
lares lar NCMP000 1
en en SPS00 1
comisiones comisión NCFP000 0.875
por por SPS00 1
las el DA0FP0 0.97051
armas arma NCFP000 0.982759
Como como NP00000 1
pol pol NCMS000 0.861706
tico tico AQ0MS0 0.806828
presumi presumi RG 0.751648
de de SPS00 0.999919
ser ser VSN0000 0.93883
el el DA0MS0 1
primero 1 AO0MS0 0.613333
en en SPS00 1
recibir recibir VMN0000 1
de de SPS00 0.999919
Clinton clinton NP00000 1
el el DA0MS0 1
poco poco RG 0.54065
honroso honroso AQ0MS0 1
t t NCFS000 1
tulo tulo NCMS000 1
de de SPS00 0.999919
pa pa NCFS000 0.740689
s segundo NCMN000 0.622321
aliado aliado NCMS000 0.75
especial especial AQ0CS0 1
extra extra NCCS000 0.642702
OTAN otan NP00000 1
en en SPS00 1
ese ese DD0MS0 0.98125
sitial sitial NCMS000 1
tan tan RG 1
opuesto oponer VMP00SM 1
a a SPS00 0.99585
la el DA0FS0 0.972146
integraci integraci AQ0CS0 0.0199855
n n NCFS000 1
regional regional AQ0CS0 1
hoy hoy RG 0.877358
quiere querer VMIP3S0 0.982759
sentar sentar VMN0000 1
se se PP3CN000 1
el el DA0MS0 1
colombiano colombiano NCMS000 0.5
Juan_M_Santos_Haga juan_m_santos_haga NP00000 1
click click NCMS000 0.50012
aqu aqu NCMS000 0.774439
para para SPS00 0.998507
recibir recibir VMN0000 1
gratis gratis RG 0.75
Argenpress argenpress NP00000 1
en en SPS00 1
su su DP3CS0 1
correo correo NCMS000 0.735623
electr electr AQ0CS0 0.0829965
nico no NCMS00D 0.522084

