Micheli_Yasky micheli_yasky NP00000 1
resolvi resolvi VMIS1S0 1
ser ser VSN0000 0.93883
representante representante AQ0CS0 0.25
de de SPS00 1
el el DA0MS0 1
gobierno gobierno NCMS000 0.9
Pablo_Micheli pablo_micheli NP00000 1
recibe recibir VMIP3S0 0.833333
a a SPS00 0.99585
Mundo_Gremial mundo_gremial NP00000 1
en en SPS00 1
la el DA0FS0 0.972146
sede sede NCFS000 0.8125
principal principal AQ0CS0 0.9375
de de SPS00 0.999919
la el DA0FS0 0.972146
Central_de_Trabajadores_de_la_Argentina central_de_trabajadores_de_la_argentina NP00000 1
en en SPS00 1
la el DA0FS0 0.972146
calle calle NCFS000 0.96875
Lima lima NP00000 1
a a SPS00 1
el el DA0MS0 1
600 600 Z 1
de de SPS00 0.999919
la el DA0FS0 0.972146
Ciudad_de_Buenos_Aires ciudad_de_buenos_aires NP00000 1
a a SPS00 0.99585
metros metro NCMP000 1
de de SPS00 0.999919
la el DA0FS0 0.972146
9_de_Julio [??:9/7/??:??.??:??] W 1
y y CC 0.999812
con con SPS00 1
profunda profundar VMIP3S0 0.166667
indignaci indignaci RG 0.751648
n n NCFS000 1
de de SPS00 0.999919
lo el DA0NS0 0.457393
que que PR0CN000 0.5625
ve ver VMIP3S0 0.971154
a a SPS00 0.99585
trav trav AQ0CS0 0.0433699
s segundo NCMN000 0.622321
de de SPS00 0.999919
los el DA0MP0 0.97623
ventanales ventanal NCMP000 1
de de SPS00 0.999919
su su DP3CS0 1
oficina oficina NCFS000 1
te te PP2CS000 0.933962
matan matar VMIP3P0 1
ac ac NCFS000 1
en en SPS00 1
la el DA0FS0 0.972146
puerta puerta NCFS000 1
el el DA0MS0 1
Metro_Bus metro_bus NP00000 1
es ser VSIP3S0 1
un uno DI0MS0 0.986987
robo robo NCMS000 0.75
a_mano_armada a_mano_armada RG 1
mira mirar VMIP3S0 0.266667
como como CS 0.998579
Macri macri NP00000 1
destruye destruir VMIP3S0 0.75
todo todo DI0MS0 0.559816
Habla habla NP00000 1
de de SPS00 0.999919
la el DA0FS0 0.972146
posibilidad posibilidad NCFS000 1
de de SPS00 0.999919
ser ser VSN0000 0.93883
Diputado_Nacional_por_el_FAP diputado_nacional_por_el_fap NP00000 1
o o CC 0.998845
Proyecto_Sur proyecto_sur NP00000 1
pero pero CC 0.998821
nunca nunca RG 1
con con SPS00 1
el el DA0MS0 1
radicalismo radicalismo NCMS000 1
o o CC 0.998845
el el DA0MS0 1
PJ pj NP00000 1
y y CC 0.999812
avisa avisar VMIP3S0 0.994868
que que CS 0.4375
el el DA0MS0 1
pr pr NCMS000 0.224371
ximo ximo AQ0MS0 0.937453
Paro paro NP00000 1
que que CS 0.4375
realizar realizar VMN0000 1
n n NCFS000 1
con con SPS00 1
Moyano moyano NP00000 1
ser ser VSN0000 0.93883
m m NCFS000 0.5
s segundo NCMN000 0.622321
grande grande AQ0CS0 0.9
que que CS 0.4375
el el DA0MS0 1
pasado pasado NCMS000 0.352273
20 20 Z 1
N_Qu n_qu NP00000 1
an an NCFS000 1
lisis lisis NCFN000 1
haces haz NCMP000 0.973447
de de SPS00 1
el el DA0MS0 1
Congreso_de_la_CTA_Fue_el_Congreso congreso_de_la_cta_fue_el_congreso NP00000 1
de de SPS00 0.999919
la el DA0FS0 0.972146
consolidaci consolidaci AQ0CS0 0.0199855
n n NCFS000 1
de de SPS00 0.999919
nuestra nuestro DP1FSP 0.892857
pol pol NCMS000 0.861706
tica tica AQ0FS0 0.595788
despu despu NCMS000 0.774439
s segundo NCMN000 0.622321
de de SPS00 0.999919
la el DA0FS0 0.972146
ruptura ruptura NCFS000 1
grotesca grotesco AQ0FS0 1
que que PR0CN000 0.5625
tuvimos tener VMIS1P0 1
con con SPS00 1
Yasky yasky NP00000 1
y y CC 0.999812
lo lo PP3CNA00 0.271163
digo decir VMIP1S0 1
as as NCMS000 1
porque porque CS 1
embarraron embarrar VMIS3P0 1
la el DA0FS0 0.972146
cancha cancha NCFS000 1
y y CC 0.999812
desprestigiaron desprestigiar VMIS3P0 1
la el DA0FS0 0.972146
elecci elecci AQ0CS0 0.0199855
n n NCFS000 1
de de SPS00 0.999919
autoridades autoridad NCFP000 1
Este_Congreso este_congreso NP00000 1
muestra mostrar VMIP3S0 0.703704
que que CS 0.4375
se se P00CN000 0.465602
viene venir VMIP3S0 1
consolidando consolidar VMG0000 1
la el DA0FS0 0.972146
Unidad_de_Acci unidad_de_acci NP00000 1
n n NCFS000 1
esa ese DD0FS0 0.978261
que que PR0CN000 0.5625
se se P00CN000 0.465602
vio ver VMIS3S0 1
el el DA0MS0 1
20_de_noviembre [??:20/11/??:??.??:??] W 1
de de SPS00 1
el el DA0MS0 1
a a NCFS000 0.00415028
o o CC 0.998845
pasado pasar VMP00SM 0.647727
en en SPS00 1
la el DA0FS0 0.972146
movilizaci movilizaci AQ0CS0 0.0199855
n n NCFS000 1
que que PR0CN000 0.5625
hicimos hacer VMIS1P0 1
con con SPS00 1
Moyano moyano NP00000 1
cuando cuando CS 0.983796
se se P00CN000 0.465602
paraliz paraliz AQ0CS0 1
el el DA0MS0 1
pa pa NCFS000 0.740689
s segundo NCMN000 0.622321
Afirm afirm NP00000 1
el el DA0MS0 1
crecimiento crecimiento NCMS000 1
de de SPS00 0.999919
la el DA0FS0 0.972146
CTA cta NP00000 1
esto este PD0NS000 1
no no RN 0.99778
fue ser VSIS3S0 0.932292
a a SPS00 0.99585
la el DA0FS0 0.972146
defensiva defensiva NCFS000 0.25
sino sino CC 0.981707
por_el_contrario por_el_contrario RG 1
a a SPS00 0.99585
la el DA0FS0 0.972146
ofensiva ofensiva NCFS000 0.75
Resolvimos resolvimos NP00000 1
dos 2 Z 0.988722
cuestiones cuestión NCFP000 0.875
centrales central AQ0CP0 0.666667
una uno DI0FS0 0.951241
fue ser VSIS3S0 0.932292
la el DA0FS0 0.972146
creaci creaci AQ0CS0 0.0199855
n n NCFS000 1
de de SPS00 0.999919
una uno DI0FS0 0.951241
consulta consulta NCFS000 0.546947
popular popular AQ0CS0 1
por por SPS00 1
los el DA0MP0 0.97623
bienes bien NCMP000 1
comunes común AQ0CP0 1
y y CC 0.999812
el el DA0MS0 1
otro otro PI0MS000 0.38785
tema temer VMSP1S0 0.015625
es ser VSIP3S0 1
el el DA0MS0 1
Paro_Qu paro_qu NP00000 1
expectativas expectativa NCFP000 1
ten tener VMM02S0 1
s segundo NCMN000 0.622321
sobre sobre SPS00 0.994203
eso ese PD0NS000 1
Lo lo NP00000 1
que que PR0CN000 0.5625
sabemos saber VMIP1P0 1
es ser VSIP3S0 1
que que CS 0.4375
va ir VMIP3S0 1
a a SPS00 0.99585
ser ser VSN0000 0.93883
un uno DI0MS0 0.986987
Paro_Nacional paro_nacional NP00000 1
casi casi RG 1
con con SPS00 1
seguridad seguridad NCFS000 1
No no NP00000 1
est est NCMS000 1
confirmado confirmar VMP00SM 1
que que PR0CN000 0.5625
vaya ir VMSP1S0 0.22
a a SPS00 0.99585
realizar realizar VMN0000 1
se se PP3CN000 1
una uno DI0FS0 0.951241
movilizaci movilizaci AQ0CS0 0.0199855
n n NCFS000 1
aunque aunque CC 1
el el DA0MS0 1
hecho hecho NCMS000 0.381579
en en SPS00 1
s segundo NCMN000 0.622321
lo lo PP3CNA00 0.271163
va ir VMIP3S0 1
a a SPS00 0.99585
ser ser VSN0000 0.93883
Seguramente seguramente NP00000 1
ser ser VSN0000 0.93883
m m NCFS000 0.5
s segundo NCMN000 0.622321
fuerte fuerte AQ0CS0 0.892857
que que CS 0.4375
el el DA0MS0 1
20_Noviembre [??:20/11/??:??.??:??] W 1
porque porque CS 1
la el DA0FS0 0.972146
gente gente NCFS000 1
est est NCMS000 1
con con SPS00 1
mucha mucho DI0FS0 0.97619
bronca bronca NCFS000 0.506153
aunque aunque CC 1
la el DA0FS0 0.972146
de de SPS00 0.999919
ma ma AQ0FS0 0.14579
ana ana NCFS000 1
18 18 Z 1
A a NP00000 1
en_contra_de en_contra_de SPS00 1
la el DA0FS0 0.972146
reforma reforma NCFS000 0.866667
judicial judicial AQ0CS0 1
va ir VMIP3S0 1
a a SPS00 0.99585
ser ser VSN0000 0.93883
muy muy RG 1
grande grande AQ0CS0 0.9
de de SPS00 0.999919
todas todo DI0FP0 0.945312
formas forma NCFP000 0.921053
hay haber VMIP3S0 1
mucha mucho DI0FS0 0.97619
gorilada gorilada NCFS000 0.499723
ah ah I 1
ojo ojo I 0.107143
Convocatorias convocatorias NP00000 1
agresivas agresivo AQ0FP0 1
por por SPS00 1
Twitter twitter NP00000 1
las el DA0FP0 0.97051
cuales cual PR0CP000 1
no no RN 0.99778
comparto compartir VMIP1S0 1
Y y NP00000 1
que que CS 0.4375
Macri macri NP00000 1
est est NCMS000 1
convocando convocar VMG0000 1
a a SPS00 0.99585
la el DA0FS0 0.972146
movilizaci movilizaci AQ0CS0 0.0199855
n n NCFS000 1
ya ya RG 0.996988
me me PP1CS000 0.889706
parece parecer VMIP3S0 0.9875
el el DA0MS0 1
colmo colmo NCMS000 0.666667
Por por NP00000 1
qu qu NCMS000 0.774439
te te PP2CS000 0.933962
seduce seducir VMIP3S0 0.833333
juntar juntar VMN0000 1
te te PP2CS000 1
con con SPS00 1
Moyano_En moyano_en NP00000 1
primer 1 AO0MS0 1
lugar lugar NCMS000 1
porque porque CS 1
tenemos tener VMIP1P0 1
cosas cosa NCFP000 0.986842
en en SPS00 1
com cometro NCMN000 0.65
n n NCFS000 1
Enfrent enfrent NP00000 1
a a SPS00 1
el el DA0MS0 1
Neoliberalismo neoliberalismo NP00000 1
no no RN 0.99778
quiso querer VMIS3S0 1
comprar comprar VMN0000 1
acciones acción NCFP000 0.916667
de de SPS00 0.999919
las el DA0FP0 0.97051
empresas empresa NCFP000 1
privatizadas privatizar VMP00PF 1
y y CC 0.999812
prefiri prefiri RG 0.83337
luchar luchar VMN0000 1
contra contra SPS00 0.976316
ese ese DD0MS0 0.98125
sistema sistema NCMS000 1
Y y NP00000 1
fundamentalmente fundamentalmente RG 1
porque porque CS 1
Moyano moyano NP00000 1
eligi eligi VMIS1S0 0.0691907
en en SPS00 1
su su DP3CS0 1
momento momento NCMS000 1
ser ser VSN0000 0.93883
Secretario_General_de_la_CGT secretario_general_de_la_cgt NP00000 1
a a SPS00 0.99585
convertir convertir VMN0000 1
se se PP3CN000 1
en en SPS00 1
presidente presidente NCMS000 1
de de SPS00 1
el el DA0MS0 1
Partido_Justicialista partido_justicialista NP00000 1
opt opt NCMS000 0.607342
representar representar VMN0000 1
a a SPS00 0.99585
sus su DP3CP0 0.998462
compa compa VMSP3S0 1
eros eros NCMP000 0.851076
y y CC 0.999812
ese ese DD0MS0 0.98125
no no RN 0.99778
es ser VSIP3S0 1
un uno DI0MS0 0.986987
detalle detalle NCMS000 0.892857
menor menor AQ0CS0 0.978261
Nos nos NP00000 1
separan separar VMIP3P0 1
profundas profundo AQ0FP0 0.97439
diferencias diferencia NCFP000 0.928571
ideol ideol NCMS000 0.861706
gicas gicas AQ0FP0 1
y y CC 0.999812
por por SPS00 1
eso ese PD0NS000 1
esto este PD0NS000 1
se se P00CN000 0.465602
llama llamar VMIP3S0 0.948718
diversidad diversidad NCFS000 1
lo el DA0NS0 0.457393
cual cual PR0CS000 0.9
esta este DD0FS0 0.982143
mujer mujer NCFS000 0.959459
no no RN 0.99778
entiende entender VMIP3S0 0.9375
por por SPS00 1
Cristina_Kirchner_La_CTA cristina_kirchner_la_cta NP00000 1
no no RN 0.99778
se se P00CN000 0.465602
junta juntar VMIP3S0 0.220175
con con SPS00 1
Moyano moyano NP00000 1
se se P00CN000 0.465602
junta juntar VMIP3S0 0.220175
con con SPS00 1
la el DA0FS0 0.972146
CGT cgt NP00000 1
por por SPS00 1
un uno DI0MS0 0.986987
fin fin NCMS000 1
com cometro NCMN000 0.65
n n NCFS000 1
y y CC 0.999812
la el DA0FS0 0.972146
Unidad_de_Acci unidad_de_acci NP00000 1
n n NCFS000 1
Es es NP00000 1
una uno DI0FS0 0.951241
demostraci demostraci AQ0CS0 0.0199855
n n NCFS000 1
de de SPS00 0.999919
madurez madurez NCFS000 1
pol pol NCMS000 0.861706
tica tica AQ0FS0 0.595788
y y CC 0.999812
civil civil AQ0CS0 0.95
Cre cre NP00000 1
s segundo NCMN000 0.622321
que que PR0CN000 0.5625
en en SPS00 1
alg alg NCMS000 0.714133
n n NCFS000 1
momento momento NCMS000 1
te te PP2CS000 0.933962
podes podar VMSP2S0 1
juntar juntar VMN0000 1
con con SPS00 1
Hugo_Yasky_Con_Yasky_No hugo_yasky_con_yasky_no NP00000 1
con con SPS00 1
Yasky yasky NP00000 1
no no RN 0.99778
hay haber VMIP3S0 1
vuelta vuelta NCFS000 0.954545
atr atr VMN0000 0.633986
s segundo NCMN000 0.622321
l l NCFS000 0.639398
resolvi resolvi VMIS1S0 1
cambiar cambiar VMN0000 1
de de SPS00 0.999919
ser ser VSN0000 0.93883
representante representante NCCS000 0.75
de de SPS00 0.999919
los el DA0MP0 0.97623
trabajadores trabajador NCMP000 0.928571
frente_a frente_a SPS00 1
el el DA0MS0 1
gobierno gobierno NCMS000 0.9
a a SPS00 0.99585
ser ser VSN0000 0.93883
representante representante NCCS000 0.75
de de SPS00 1
el el DA0MS0 1
gobierno gobierno NCMS000 0.9
frente_a frente_a SPS00 1
los el DA0MP0 0.97623
trabajadores trabajador NCMP000 0.928571
Eso eso NP00000 1
no no RN 0.99778
tiene tener VMIP3S0 1
retorno retorno NCMS000 0.9
creo crear VMIP1S0 0.5
que que CS 0.4375
cuando cuando CS 0.983796
cambi cambi AQ0CN0 1
s segundo NCMN000 0.622321
el el DA0MS0 1
rol rol NCMS000 1
ya ya RG 0.996988
no no RN 0.99778
hay haber VMIP3S0 1
vuelta vuelta NCFS000 0.954545
atr atr VMN0000 0.633986
s segundo NCMN000 0.622321
Yo yo NP00000 1
creo crear VMIP1S0 0.5
que que CS 0.4375
con con SPS00 1
los el DA0MP0 0.97623
trabajadores trabajador NCMP000 0.928571
que que PR0CN000 0.5625
representa representar VMIP3S0 0.928571
que que CS 0.4375
ya ya RG 0.996988
son ser VSIP3P0 0.986772
muy muy RG 1
pocos poco PI0MP000 0.416667
estamos estar VAIP1P0 1
muy muy RG 1
cerca cerca RG 0.925
de de SPS00 0.999919
unir unir VMN0000 1
nos nos PP1CP000 1
Qu qu NP00000 1
pens pens AQ0MP0 0.0688208
s segundo NCMN000 0.622321
de de SPS00 0.999919
la el DA0FS0 0.972146
Reforma_Judicial_Que reforma_judicial_que NP00000 1
es ser VSIP3S0 1
una uno DI0FS0 0.951241
estafa estafa NCFS000 0.846904
Este este NP00000 1
gobierno gobierno NCMS000 0.9
ha haber VAIP3S0 0.998141
interpretado interpretar VMP00SM 1
mal mal RG 0.492063
el el DA0MS0 1
hecho hecho NCMS000 0.381579
de de SPS00 0.999919
gobernar gobernar VMN0000 1
cree creer VMIP3S0 0.911111
que que CS 0.4375
gobernar gobernar VMN0000 1
es ser VSIP3S0 1
dominar dominar VMN0000 1
a a SPS00 0.99585
todos todo DI0MP0 0.622419
los el DA0MP0 0.97623
poderes poder NCMP000 1
y y CC 0.999812
eso ese PD0NS000 1
no no RN 0.99778
es ser VSIP3S0 1
democracia democracia NCFS000 1
parecen parecer VMIP3P0 1
el el DA0MS0 1
Partido_Comunista_de_la_Uni partido_comunista_de_la_uni NP00000 1
n n NCFS000 1
Sovi sovi NP00000 1
tica tica NCFS000 0.372209
Cooptan cooptan NP00000 1
todo todo DI0MS0 0.559816
Pero pero NP00000 1
esto este PD0NS000 1
es ser VSIP3S0 1
a a SPS00 0.99585
n n NCFS000 1
m m NCFS000 0.5
s segundo NCMN000 0.622321
grave grave AQ0CS0 0.90625
van ir VMIP3P0 1
por por SPS00 1
el el DA0MS0 1
derecho derecho NCMS000 0.884615
a a SPS00 0.99585
huelga huelga NCFS000 0.916667
que que PR0CN000 0.5625
ni ni CC 0.995935
Menem menem NP00000 1
pudo poder VMIS3S0 1
s segundo NCMN000 0.622321
lo lo PP3CNA00 0.271163
la el DA0FS0 0.972146
dictadura dictadura NCFS000 1
militar militar AQ0CS0 0.666667
lo lo PP3CNA00 0.271163
hizo hacer VMIS3S0 1
van ir VMIP3P0 1
por por SPS00 1
eliminar eliminar VMN0000 1
las el DA0FP0 0.97051
cautelares cautelar AQ0CP0 0.974074
que que PR0CN000 0.5625
es ser VSIP3S0 1
la el DA0FS0 0.972146
nica nica AQ0FS0 0.730709
herramienta herramienta NCFS000 1
que que PR0CN000 0.5625
tienen tener VMIP3P0 1
los el DA0MP0 0.97623
trabajadores trabajador NCMP000 0.928571
y y CC 0.999812
van ir VMIP3P0 1
por por SPS00 1
eliminar eliminar VMN0000 1
los el DA0MP0 0.97623
juicios juicio NCMP000 1
de de SPS00 0.999919
los el DA0MP0 0.97623
jubilados jubilado NCMP000 0.308263
a a SPS00 0.99585
la el DA0FS0 0.972146
ANSES anses NP00000 1
por por SPS00 1
el el DA0MS0 1
82_m LN_m:82 Zu 1
vil vil NCCS000 0.25
entre entre SPS00 0.995223
otras otro DI0FP0 0.731481
cosas cosa NCFP000 0.986842
Yo yo NP00000 1
creo crear VMIP1S0 0.5
que que CS 0.4375
no no RN 0.99778
la lo PP3FSA00 0.0277626
van ir VMIP3P0 1
a a SPS00 0.99585
poder poder VMN0000 0.288462
reformar reformar VMN0000 1
C c NP00000 1
mo mo AQ0MS0 0.297018
te te PP2CS000 0.933962
ves ver VMIP2S0 0.75
en en SPS00 1
el el DA0MS0 1
2015 2015 Z 1
Sonrisa_C sonrisa_c NP00000 1
lculo lculo NCMS000 1
que que PR0CN000 0.5625
en en SPS00 1
el el DA0MS0 1
Congreso_de_la_Naci congreso_de_la_naci NP00000 1
n n NCFS000 1
como como CS 0.998579
Diputado_Me diputado_me NP00000 1
lo lo PP3CNA00 0.271163
han haber VAIP3P0 1
ofrecido ofrecer VMP00SM 1
y y CC 0.999812
lo lo PP3CNA00 0.271163
estoy estar VAIP1S0 1
evaluando evaluar VMG0000 1
Y y NP00000 1
por por SPS00 1
qu qu NCMS000 0.774439
no no RN 0.99778
Porque porque NP00000 1
me me PP1CS000 0.889706
encanta encantar VMIP3S0 0.994868
ser ser VSN0000 0.93883
Secretario_General_de_la_CTA secretario_general_de_la_cta NP00000 1
y y CC 0.999812
no no RN 0.99778
puedo poder VMIP1S0 1
hacer hacer VMN0000 1
las el DA0FP0 0.97051
dos 2 Z 0.988722
cosas cosa NCFP000 0.986842
desde desde SPS00 1
mi mi DP1CSS 0.995536
concepci concepci AQ0CS0 0.0199855
n n NCFS000 1
aunque aunque CC 1
s segundo NCMN000 0.622321
que que PR0CN000 0.5625
no no RN 0.99778
se se P00CN000 0.465602
pone poner VMIP3S0 1
en en SPS00 1
riesgo riesgo NCMS000 1
la el DA0FS0 0.972146
autonom autonom NCMS000 0.500053
a a SPS00 0.99585
Salvo salvo NP00000 1
que que PR0CN000 0.5625
abrieran abrir VMSI3P0 1
las el DA0FP0 0.97051
listas lista NCFP000 0.687557
y y CC 0.999812
me me PP1CS000 0.889706
ofrecieran ofrecer VMSI3P0 1
ser ser VSN0000 0.93883
candidato candidato NCMS000 1
a a SPS00 0.99585
diputado diputado NCMS000 0.833333
por por SPS00 1
la el DA0FS0 0.972146
CTA cta NP00000 1
s segundo NCMN000 0.622321
pero pero CC 0.998821
para para SPS00 0.998507
ir ir VMN0000 1
s segundo NCMN000 0.622321
lo lo PP3CNA00 0.271163
tengo tener VMIP1S0 1
que que CS 0.4375
tener tener VMN0000 1
un uno DI0MS0 0.986987
Partido partido NP00000 1
y y CC 0.999812
yo yo PP1CSN00 1
jam jam NCMS000 0.700265
s segundo NCMN000 0.622321
har har VMN0000 1
a a SPS00 0.99585
un uno DI0MS0 0.986987
partido partido NCMS000 0.886364
pol pol NCMS000 0.861706
tico tico AQ0MS0 0.806828
de de SPS00 0.999919
la el DA0FS0 0.972146
CTA_La_Central cta_la_central NP00000 1
no no RN 0.99778
es ser VSIP3S0 1
mi mi DP1CSS 0.995536
vida vida NCFS000 1
s segundo NCMN000 0.622321
lo lo PP3CNA00 0.271163
es ser VSIP3S0 1
esta este DD0FS0 0.982143
causa causa NCFS000 0.794872
Y y NP00000 1
por por SPS00 1
qu qu NCMS000 0.774439
s segundo NCMN000 0.622321
Porque porque NP00000 1
ser ser NCMS000 0.0611702
Secretario_General_de_la_CTA secretario_general_de_la_cta NP00000 1
y y CC 0.999812
Diputado_Nacional diputado_nacional NP00000 1
te te PP2CS000 0.933962
da dar VMIP3S0 0.983871
un_peso $_CUP:1 Zm 1
importante importante AQ0CS0 1
Tambi tambi NP00000 1
n n NCFS000 1
puedo poder VMIP1S0 1
ser ser VSN0000 1
lo lo PP3CNA00 0.5 lo PP3MSA00 0.5
y y CC 0.999812
no no RN 0.99778
estar estar VAN0000 1
m m NCFS000 0.5
s segundo NCMN000 0.622321
a_el_frente_de al_frente_de SPS00 1
la el DA0FS0 0.972146
Central central NP00000 1
porque porque CS 1
no no RN 0.99778
deber deber NCMS000 0.9
a a SPS00 0.99585
estar estar VAN0000 1
un uno DI0MS0 0.986987
mandato mandato NCMS000 1
m m NCFS000 0.5
s segundo NCMN000 0.622321
creo crear VMIP1S0 0.5
que que CS 0.4375
hay haber VMIP3S0 1
que que CS 0.4375
dejar dejar VMN0000 1
paso paso NCMS000 0.89
a a SPS00 0.99585
los el DA0MP0 0.97623
dem dem NCMS000 1
s segundo NCMN000 0.622321
hay haber VMIP3S0 1
gente gente NCFS000 1
capaz capaz AQ0CS0 1
Har har NP00000 1
a a SPS00 0.99585
pol pol NCMS000 0.861706
tica tica AQ0FS0 0.595788
para para SPS00 0.998507
transformar transformar VMN0000 1
la el DA0FS0 0.972146
realidad realidad NCFS000 1
si si CS 0.997706
no no RN 0.99778
pensara pensar VMSI3S0 0.65
que que CS 0.4375
puedo poder VMIP1S0 1
cambiar cambiar VMN0000 1
algo algo PI0CS000 0.896341
me me PP1CS000 0.889706
quedo quedar VMIP1S0 0.439994
en en SPS00 1
mi mi DP1CSS 0.995536
casa casa NCFS000 0.971264
con con SPS00 1
mi mi DP1CSS 0.995536
hijo hijo NCMS000 1
de de SPS00 0.999919
8 8 Z 1
a a SPS00 0.99585
os os PP2CP000 0.722222
que que CS 0.4375
lo el DA0NS0 0.457393
extra extra NCCS000 0.642702
o o CC 0.998845
un uno DI0MS0 0.986987
mont mont NCMS000 0.607342
n n NCFS000 1
Qu qu NP00000 1
dej dej NCMS000 0.692259
pol pol NCMS000 0.861706
ticamente ticamente RG 1
el el DA0MS0 1
desastre desastre NCMS000 1
clim clim NCMS000 0.700265
tico tico AQ0MS0 0.806828
de de SPS00 0.999919
La_Plata la_plata NP00000 1
y y CC 0.999812
Capital_Ocurri capital_ocurri NP00000 1
en en SPS00 1
dos 2 Z 0.988722
de de SPS00 0.999919
las el DA0FP0 0.97051
ciudades ciudad NCFP000 1
m m NCFS000 0.5
s segundo NCMN000 0.622321
modernas moderno AQ0FP0 0.833333
de de SPS00 0.999919
la el DA0FS0 0.972146
Rep rep NP00000 1
blica blica AQ0FS0 1
Argentina argentina NP00000 1
eso ese PD0NS000 1
demuestra demostrar VMIP3S0 0.9
la el DA0FS0 0.972146
precariedad precariedad NCFS000 1
de de SPS00 0.999919
nuestro nuestro DP1MSP 0.933333
sistema sistema NCMS000 1
Me me NP00000 1
dan dar VMIP3P0 1
verg verg RG 0.14318
enza enza VMIP3S0 0.599816
los el DA0MP0 0.97623
gobernantes gobernante NCCP000 0.916667
que que PR0CN000 0.5625
tenemos tener VMIP1P0 1
Ac ac NP00000 1
quebr quebr VMN0000 0.633986
el el DA0MS0 1
trabajador trabajador NCMS000 0.833333
el el DA0MS0 1
vecino vecino NCMS000 0.75
de de SPS00 1
el el DA0MS0 1
barrio barrio NCMS000 1
el el DA0MS0 1
hombre hombre NCMS000 0.95679
com cometro NCMN000 0.65
n n NCFS000 1
Tambi tambi NP00000 1
n n NCFS000 1
me me PP1CS000 0.889706
da dar VMIP3S0 0.983871
verg verg RG 0.14318
enza enza VMIP3S0 0.599816
mi mi DP1CSS 0.995536
actitud actitud NCFS000 1
como como CS 0.998579
ciudadano ciudadano NCMS000 0.875
porque porque CS 1
si si CS 0.997706
tenemos tener VMIP1P0 1
estos este DD0MP0 0.990566
gobiernos gobierno NCMP000 1
algo algo PI0CS000 0.896341
tengo tener VMIP1S0 1
que que CS 0.4375
ver ver VMN0000 0.987179
Cu cu NP00000 1
les le PP3CPD00 1
fueron ir VMIS3P0 0.203704
las el DA0FP0 0.97051
diferencias diferencia NCFP000 0.928571
entre entre SPS00 0.995223
el el DA0MS0 1
accionar accionar VMN0000 1
sindical sindical AQ0CS0 1
y y CC 0.999812
el el DA0MS0 1
pol pol NCMS000 0.861706
tico tico AQ0MS0 0.806828
en en SPS00 1
la el DA0FS0 0.972146
Tragedia_Desde tragedia_desde NP00000 1
lo lo PP3CNA00 0.271163
sindical sindical AQ0CS0 1
nosotros nosotros PP1MP000 1
y y CC 0.999812
hablo hablar VMIP1S0 1
por por SPS00 1
todos todo PI0MP000 0.374631
no no RN 0.99778
solo solo RG 0.0555556
la el DA0FS0 0.972146
CTA cta NP00000 1
lo lo PP3CNA00 0.271163
vivimos vivir VMIP1P0 0.65
desde desde SPS00 1
una uno DI0FS0 0.951241
posici posici AQ0CS0 0.0199855
n n NCFS000 1
expectante expectante AQ0CS0 1
en en SPS00 1
ning ning NCMS000 0.833333
n n NCFS000 1
momento momento NCMS000 1
quisimos querer VMIS1P0 1
reemplazar reemplazar VMN0000 1
a a SPS00 1
el el DA0MS0 1
Estado estado NP00000 1
quien quien PR0CS000 1
es ser VSIP3S0 1
el el DA0MS0 1
que que PR0CN000 0.5625
realmente realmente RG 1
debe deber VMIP3S0 0.974359
encargar encargar VMN0000 1
se se PP3CN000 1
de de SPS00 0.999919
ayudar ayudar VMN0000 1
a a SPS00 0.99585
los el DA0MP0 0.97623
damnificados damnificado NCMP000 0.308233
Sin sin NP00000 1
embargo embargo NCMS000 0.973496
aportamos aportar VMIP1P0 0.649991
nuestros nuestro DP1MPP 0.854167
militantes militante NCCP000 0.642613
los lo PP3MPA00 0.023584
compa compa VMSP3S0 1
eros eros NCMP000 0.851076
y y CC 0.999812
compa compa VMSP3S0 1
eras era NCFP000 0.111111
juntamos juntar VMIP1P0 0.65
cosas cosa NCFP000 0.986842
lo el DA0NS0 0.457393
que que PR0CN000 0.5625
hizo hacer VMIS3S0 1
todo todo DI0MS0 0.559816
el el DA0MS0 1
pueblo pueblo NCMS000 0.978261
La la NP00000 1
diferencia diferencia NCFS000 0.738095
Nosotros nosotros NP00000 1
no no RN 0.99778
tenemos tener VMIP1P0 1
el el DA0MS0 1
gobierno gobierno NCMS000 0.9
para para SPS00 0.998507
resolver resolver VMN0000 1
ellos ellos PP3MP000 1
tienen tener VMIP3P0 1
todo todo DI0MS0 0.559816
la el DA0FS0 0.972146
plata plata NCFS000 1
los el DA0MP0 0.97623
recursos recurso NCMP000 1
Macri macri NP00000 1
por_ejemplo por_ejemplo RG 1
ten tener VMM02S0 1
a a SPS00 0.99585
todo todo PI0MS000 0.430982
para para SPS00 0.998507
actuar actuar VMN0000 1
y y CC 0.999812
puso poner VMIS3S0 1
600 600 Z 1
agentes agente NCCP000 0.928571
para para SPS00 0.998507
enfrentar enfrentar VMN0000 1
una uno DI0FS0 0.951241
tragedia tragedia NCFS000 1
de de SPS00 0.999919
este este DD0MS0 0.956743
estilo estilo NCMS000 0.916667
en en SPS00 1
una uno DI0FS0 0.951241
ciudad ciudad NCFS000 1
de de SPS00 0.999919
3_millones 3000000 Zd 1
de de SPS00 0.999919
habitantes habitante NCCP000 1
est est NCMS000 1
n n NCFS000 1
desorientados desorientar VMP00PM 1
no no RN 0.99778
tienen tener VMIP3P0 1
idea idea NCFS000 0.974138
Es es NP00000 1
posible posible AQ0CS0 1
ese ese DD0MS0 0.98125
cambio cambio NCMS000 0.97619
cultural cultural AQ0CS0 1
que que PR0CN000 0.5625
menciona mencionar VMIP3S0 0.994868
en en SPS00 1
un uno DI0MS0 0.986987
corto corto AQ0MS0 0.9
o o CC 0.998845
mediano mediano AQ0MS0 1
plazo plazo NCMS000 1
Deber deber NP00000 1
a a SPS00 0.99585
lo lo PP3CNA00 0.271163
necesitamos necesitar VMIP1P0 0.65
urgente urgente AQ0CS0 1
pero pero CC 0.998821
no no RN 0.99778
s segundo NCMN000 0.622321
si si CS 0.997706
va ir VMIP3S0 1
a a SPS00 0.99585
ser ser VSN0000 0.93883
as as NCMS000 1
imagina imaginar VMM02S0 1
te te PP2CS000 1
que que CS 0.4375
tenemos tener VMIP1P0 1
el el DA0MS0 1
50 50 Z 1
de de SPS00 0.999919
los el DA0MP0 0.97623
chicos chico NCMP000 0.96875
de de SPS00 0.999919
16 16 Z 1
a a SPS00 0.99585
os os PP2CP000 0.722222
en en SPS00 1
nuestro nuestro DP1MSP 0.933333
pa pa NCFS000 0.740689
s segundo NCMN000 0.622321
que que PR0CN000 0.5625
no no RN 0.99778
estudia estudiar VMIP3S0 0.994868
ni ni CC 0.995935
trabaja trabajar VMIP3S0 0.875
el el DA0MS0 1
cambio cambio NCMS000 0.97619
se se P00CN000 0.465602
va ir VMIP3S0 1
a a SPS00 0.99585
hacer hacer VMN0000 1
dif dif NCFS000 1
cil cil AQ0CS0 1
Ac ac NP00000 1
se se P00CN000 0.465602
preocupan preocupar VMIP3P0 1
porque porque CS 1
los el DA0MP0 0.97623
chicos chico NCMP000 0.96875
voten votar VMSP3P0 0.75
yo yo PP1CSN00 1
no no RN 0.99778
estoy estar VAIP1S0 1
en_contra_de en_contra_de SPS00 1
eso ese PD0NS000 1
pero pero CC 0.998821
primero primero RG 0.373333
que que CS 0.4375
le le PP3CSD00 1
garanticen garantizar VMSP3P0 0.901254
el el DA0MS0 1
estudio estudio NCMS000 0.954545
Haga haga NP00000 1
click click NCMS000 0.50012
aqu aqu NCMS000 0.774439
para para SPS00 0.998507
recibir recibir VMN0000 1
gratis gratis RG 0.75
Argenpress argenpress NP00000 1
en en SPS00 1
su su DP3CS0 1
correo correo NCMS000 0.735623
electr electr AQ0CS0 0.0829965
nico no NCMS00D 0.522084

