Paraguay_Elecciones paraguay_elecciones NP00000 1
antidemocraticas antidemocraticas NCFP000 0.239102
De de NP00000 1
inmediato inmediato AQ0MS0 1
a a SPS00 1
el el DA0MS0 1
cierre cierre NCMS000 0.899603
de de SPS00 0.999919
las el DA0FP0 0.97051
urnas urna NCFP000 1
ser ser VSN0000 0.93883
n n NCFS000 1
legalizadas legalizar VMP00PF 1
por por SPS00 1
el el DA0MS0 1
Tribunal_Superior_de_Justicia_Electoral tribunal_superior_de_justicia_electoral NP00000 1
y y CC 0.999812
legitimadas legitimar VMP00PF 1
por por SPS00 1
la el DA0FS0 0.972146
Organizaci organizaci NP00000 1
n n NCFS000 1
de de SPS00 0.999919
Estados_Americanos_OEA estados_americanos_oea NP00000 1
as as NCMS000 1
como como CS 0.998579
por por SPS00 1
algunos alguno DI0MP0 0.476562
otros otro DI0MP0 0.56875
organismos organismo NCMP000 1
y y CC 0.999812
ciertos cierto AQ0MP0 1
gobiernos gobierno NCMP000 1
extranjeros extranjero AQ0MP0 0.833333
pero pero CC 0.998821
nadie nadie PI0CS000 1
honestamente honestamente RG 1
podr podr VMN0000 0.633986
negar negar VMN0000 1
la el DA0FS0 0.972146
ausencia ausencia NCFS000 1
de de SPS00 0.999919
democracia democracia NCFS000 1
que que PR0CN000 0.5625
es ser VSIP3S0 1
la el DA0FS0 0.972146
caracter caracter NCMS000 1
stica stica AQ0FS0 0.76459
m m NCFS000 0.5
s segundo NCMN000 0.622321
sobresaliente sobresaliente AQ0CS0 0.75
de de SPS00 0.999919
las el DA0FP0 0.97051
elecciones elección NCFP000 1
generales general AQ0CP0 0.444444
convocadas convocar VMP00PF 1
para para SPS00 0.998507
este este DD0MS0 0.956743
domingo_21 [G:21/??/??:??.??:??] W 1
en en SPS00 1
Paraguay_Su paraguay_su NP00000 1
realizaci realizaci RG 0.751648
n n NCFS000 1
si si CS 0.997706
bien bien RG 0.898039
puede poder VMIP3S0 0.995614
ser ser VSN0000 0.93883
interpretada interpretar VMP00SF 1
como como CS 0.998579
una uno DI0FS0 0.951241
oportunidad oportunidad NCFS000 1
para para SPS00 0.998507
reordenar reordenar VMN0000 1
la el DA0FS0 0.972146
vida vida NCFS000 1
institucional institucional AQ0CS0 1
de de SPS00 1
el el DA0MS0 1
pa pa NCFS000 0.740689
s segundo NCMN000 0.622321
fracturada fracturar VMP00SF 1
hace hacer VMIP3S0 1
10 10 Z 1
meses mes NCMP000 0.964286
con con SPS00 1
el el DA0MS0 1
Golpe_de_Estado golpe_de_estado NP00000 1
llamado llamar VMP00SM 0.973684
falsamente falsamente RG 1
parlamentario parlamentario AQ0MS0 0.75
el el DA0MS0 1
resultado resultado NCMS000 0.807692
electoral electoral AQ0CS0 1
constituir constituir VMN0000 1
un uno DI0MS0 0.986987
desaf desaf I 1
o o CC 0.998845
insoslayable insoslayable AQ0CS0 1
para para SPS00 0.998507
la el DA0FS0 0.972146
democracia democracia NCFS000 1
en en SPS00 1
todo todo DI0MS0 0.559816
el el DA0MS0 1
mundo mundo NCMS000 1
porque porque CS 1
su su DP3CS0 1
reconocimiento reconocimiento NCMS000 1
significar significar VMN0000 1
legalizar legalizar VMN0000 1
lo el DA0NS0 0.457393
ileg ileg NCMS000 0.714133
timo timo NCMS000 0.973479
Qu qu NP00000 1
har har VMN0000 1
n n NCFS000 1
entonces entonces RG 0.97619
el el DA0MS0 1
MERCOSUR_UNASUR_Y_LA_CELAC_El mercosur_unasur_y_la_celac_el NP00000 1
primer 1 AO0MS0 1
elemento elemento NCMS000 0.9
que que PR0CN000 0.5625
permite permitir VMIP3S0 0.966667
considerar considerar VMN0000 1
antidemocr antidemocr NCMS000 1
ticas ticas AQ0FP0 0.760898
estas este DD0FP0 0.960526
elecciones elección NCFP000 1
es ser VSIP3S0 1
el el DA0MS0 1
car car NCMS000 1
cter cter NCMS000 1
espurio espurio AQ0MS0 1
y y CC 0.999812
faccioso faccioso AQ0MS0 0.65727
de de SPS00 1
el el DA0MS0 1
gobierno gobierno NCMS000 0.9
convocante convocante AQ0CS0 0.657243
instalado instalar VMP00SM 1
hace hacer VMIP3S0 1
10 10 Z 1
meses mes NCMP000 0.964286
tras tras SPS00 1
un uno DI0MS0 0.986987
Golpe_de_Estado golpe_de_estado NP00000 1
llamado llamar VMP00SM 0.973684
parlamentario parlamentario AQ0MS0 0.75
que que CS 0.4375
termin termin NCMS000 0.499936
con con SPS00 1
la el DA0FS0 0.972146
administraci administraci AQ0CS0 0.0199855
n n NCFS000 1
de de SPS00 0.999919
Fernando_Lugo fernando_lugo NP00000 1
elegido elegir VMP00SM 0.75
en en SPS00 1
las el DA0FP0 0.97051
elecciones elección NCFP000 1
m m NCFS000 0.5
s segundo NCMN000 0.622321
libres libre AQ0CP0 0.916667
en en SPS00 1
200 200 Z 1
a a SPS00 0.99585
os o NCFP000 0.222222
de de SPS00 0.999919
historia historia NCFS000 1
de de SPS00 1
el el DA0MS0 1
pa pa NCFS000 0.740689
s segundo NCMN000 0.622321
a a SPS00 0.99585
cuatro 4 Z 1
a a SPS00 0.99585
os os PP2CP000 0.722222
de de SPS00 0.999919
su su DP3CS0 1
ejercicio ejercicio NCMS000 1
y y CC 0.999812
a a SPS00 0.99585
s segundo NCMN000 0.622321
lo lo PP3CNA00 0.271163
un uno DI0MS0 0.986987
a a SPS00 0.99585
o o CC 0.998845
de de SPS00 0.999919
finalizar finalizar VMN0000 1
su su DP3CS0 1
mandato mandato NCMS000 1
La la NP00000 1
corrupci corrupci VMIS1S0 0.0691907
n n NCFS000 1
imperante imperante AQ0CS0 1
en en SPS00 1
toda todo DI0FS0 0.975806
la el DA0FS0 0.972146
campa campar VMIP3S0 0.994867
a a SPS00 0.99585
electoral electoral AQ0CS0 1
a a SPS00 0.99585
nivel nivel NCMS000 1
de de SPS00 0.999919
los el DA0MP0 0.97623
dos 2 Z 0.988722
principales principal AQ0CP0 0.875
partidos partido NCMP000 0.928571
el el DA0MS0 1
Colorado colorado NP00000 1
y y CC 0.999812
el el DA0MS0 1
Liberal liberal NP00000 1
cuyos cuyo PR0MP000 1
dirigentes dirigente NCCP000 0.75
confiesan confesar VMIP3P0 1
que que CS 0.4375
han haber VAIP3P0 1
invertido invertir VMP00SM 0.691767
muchos mucho DI0MP0 0.541667
millones millón NCMP000 1
de de SPS00 0.999919
d d NCFS000 1
lares lar NCMP000 1
es ser VSIP3S0 1
el el DA0MS0 1
segundo 2 AO0MS0 0.742424
elemento elemento NCMS000 0.9
antidemocr antidemocr NCMS000 1
tico tico AQ0MS0 0.806828
en en SPS00 1
juego juego NCMS000 0.979167
a a SPS00 1
el el DA0MS0 1
que que PR0CN000 0.5625
se se P00CN000 0.465602
debe deber VMIP3S0 0.974359
sumar sumar VMN0000 1
un_tercero 1/3 Zp 1
la el DA0FS0 0.972146
censura censura NCFS000 0.666667
aplicada aplicar VMP00SF 1
por por SPS00 1
algunos alguno DI0MP0 0.476562
rganos rganos NCMP000 1
de de SPS00 0.999919
prensa prensa NCFS000 0.925926
a a SPS00 0.99585
las el DA0FP0 0.97051
fuerzas fuerza NCFP000 0.954545
progresistas progresista AQ0CP0 0.418141
o o CC 0.998845
de de SPS00 0.999919
oposici oposici RG 0.751648
n n NCFS000 1
a a SPS00 0.99585
ese ese DD0MS0 0.98125
bic bic NCFS000 1
falo falo NCMS000 1
y y CC 0.999812
viejo viejo AQ0MS0 0.8125
engendro engendro NCMS000 0.973497
cupular cupular AQ0CS0 1
colorado colorar VMP00SM 1
liberal liberal NCMS000 0.383636
En en NP00000 1
concreto concreto NCMS000 0.687584
An an NP00000 1
bal bal AQ0CS0 1
Carrillo_Iramain carrillo_iramain NP00000 1
el el DA0MS0 1
presidenciable presidenciable AQ0CS0 1
de de SPS00 1
el el DA0MS0 1
Frente_Guasu frente_guasu NP00000 1
encabezado encabezar VMP00SM 0.591844
por por SPS00 1
Lugo lugo NP00000 1
e y CC 0.973684
integrado integrar VMP00SM 1
por por SPS00 1
una_docena 12 Zd 1
de de SPS00 0.999919
partidos partido NCMP000 0.928571
y y CC 0.999812
organizaciones organización NCFP000 1
acus acu NCFP000 1
a a SPS00 1
el el DA0MS0 1
Canal canal NP00000 1
9 9 Z 1
de de SPS00 0.999919
la el DA0FS0 0.972146
Televisi televisi NP00000 1
n n NCFS000 1
privada privar VMP00SF 0.833333
y y CC 0.999812
a a SPS00 0.99585
la el DA0FS0 0.972146
propia propio AQ0FS0 1
Televisi televisi NP00000 1
n n NCFS000 1
P p NP00000 1
blica blica AQ0FS0 1
de de SPS00 0.999919
censurar censurar VMN0000 1
a a SPS00 0.99585
esa ese DD0FS0 0.978261
fuerza fuerza NCFS000 0.968254
pol pol NCMS000 0.861706
tica tica AQ0FS0 0.595788
que que PR0CN000 0.5625
seg segundo NCMN000 1
n n NCFS000 1
algunos alguno DI0MP0 0.476562
sondeos sondeo NCMP000 1
se se P00CN000 0.465602
situar situar VMN0000 1
a a SPS00 0.99585
en en SPS00 1
tercera 3 AO0FS0 0.928571
posici posici NCMS000 0.0996348
n n NCFS000 1
en en SPS00 1
las el DA0FP0 0.97051
preferencias preferencia NCFP000 1
de de SPS00 1
el el DA0MS0 1
electorado electorado NCMS000 1
con con SPS00 1
similitudes similitud NCFP000 1
en en SPS00 1
las el DA0FP0 0.97051
intenciones intención NCFP000 1
y y CC 0.999812
parejas pareja NCFP000 0.875
posibilidades posibilidad NCFP000 1
con con SPS00 1
el el DA0MS0 1
reci reci NCMS000 0.0996348
n n NCFS000 1
formado formar VMP00SM 1
Movimiento_Avanza_Pa movimiento_avanza_pa NP00000 1
s segundo NCMN000 0.622321
conducido conducir VMP00SM 1
por por SPS00 1
el el DA0MS0 1
comunicador comunicador NCMS000 1
Mario_Ferreiro_La mario_ferreiro_la NP00000 1
discriminaci discriminaci VMIS1S0 0.0691907
n n NCFS000 1
de de SPS00 0.999919
fuerzas fuerza NCFP000 0.954545
opositoras opositor AQ0FP0 0.357492
en en SPS00 1
particular particular AQ0CS0 0.75
las el DA0FP0 0.97051
progresistas progresista NCCP000 0.581859
o o CC 0.998845
con con SPS00 1
alg alg NCMS000 0.714133
n n NCFS000 1
tinte tinte NCMS000 0.889342
de de SPS00 0.999919
izquierda izquierda NCFS000 0.5
tambi tambi AQ0CN0 1
n n NCFS000 1
se se P00CN000 0.465602
ha haber VAIP3S0 0.998141
expresado expresar VMP00SM 1
en en SPS00 1
la el DA0FS0 0.972146
invitaci invitaci AQ0CS0 0.0199855
n n NCFS000 1
a a SPS00 0.99585
los el DA0MP0 0.97623
postulantes postulante AQ0MP0 1
en en SPS00 1
los el DA0MP0 0.97623
programas programa NCMP000 0.9
de de SPS00 0.999919
la el DA0FS0 0.972146
pantalla pantalla NCFS000 1
chica chico AQ0FS0 0.166667
y y CC 0.999812
en en SPS00 1
dos 2 Z 0.988722
actos acto NCMP000 1
p p NCFS000 0.5
blicos blicos AQ0MP0 1
realizados realizar VMP00PM 1
en en SPS00 1
el el DA0MS0 1
Banco_Central banco_central NP00000 1
Un_cuarto 1/4 Zp 1
elemento elemento NCMS000 0.9
probatorio probatorio AQ0MS0 1
de de SPS00 1
el el DA0MS0 1
car car NCMS000 1
cter cter NCMS000 1
antidemocr antidemocr NCMS000 1
tico tico AQ0MS0 0.806828
de de SPS00 0.999919
las el DA0FP0 0.97051
elecciones elección NCFP000 1
de de SPS00 0.999919
este este DD0MS0 0.956743
domingo [G:??/??/??:??.??:??] W 1
en en SPS00 1
Paraguay paraguay NP00000 1
es ser VSIP3S0 1
que que PR0CN000 0.5625
se se P00CN000 0.465602
llegar llegar VMN0000 1
a a SPS00 0.99585
las el DA0FP0 0.97051
urnas urna NCFP000 1
con con SPS00 1
una uno DI0FS0 0.951241
fuerte fuerte AQ0CS0 0.892857
presi presi NCMS000 1
n n NCFS000 1
sobre sobre SPS00 0.994203
el el DA0MS0 1
pueblo pueblo NCMS000 0.978261
buscando buscar VMG0000 1
difundir difundir VMN0000 1
miedo miedo NCMS000 1
particularmente particularmente RG 1
en en SPS00 1
las el DA0FP0 0.97051
poblaciones población NCFP000 1
rurales rural AQ0CP0 1
de de SPS00 0.999919
lo el DA0NS0 0.457393
que que PR0CN000 0.5625
es ser VSIP3S0 1
una uno DI0FS0 0.951241
muestra muestra NCFS000 0.259259
grosera grosero AQ0FS0 0.50725
la el DA0FS0 0.972146
docena docena NCFS000 0.642607
de de SPS00 0.999919
presos preso AQ0MP0 0.25
pol pol NCMS000 0.861706
ticos ticos AQ0MP0 0.671839
que que PR0CN000 0.5625
desde desde SPS00 1
hace hacer VMIP3S0 1
varios varios DI0MP0 0.883333
meses mes NCMP000 0.964286
est est NCMS000 1
n n NCFS000 1
repartidos repartir VMP00PM 1
en en SPS00 1
diferentes diferente AQ0CP0 1
c c NCFS000 1
rceles rceles NCFP000 1
de de SPS00 1
el el DA0MS0 1
pa pa NCFS000 0.740689
s segundo NCMN000 0.622321
sin sin SPS00 1
condena condena NCFS000 0.666667
por por SPS00 1
falta falta NCFS000 0.693182
de de SPS00 0.999919
pruebas prueba NCFP000 0.9
Todos todos NP00000 1
son ser VSIP3P0 0.986772
activistas activista NCCP000 0.581859
campesinos campesino AQ0MP0 0.5
cuyo cuyo PR0MS000 1
delito delito NCMS000 1
es ser VSIP3S0 1
reclamar reclamar VMN0000 1
una uno DI0FS0 0.951241
reforma reforma NCFS000 0.866667
agraria agrario AQ0FS0 1
que que PR0CN000 0.5625
redistribuya redistribuir VMSP3S0 0.623432
la el DA0FS0 0.972146
tierra tierra NCFS000 1
y y CC 0.999812
termine terminar VMM03S0 0.0531216
con con SPS00 1
el el DA0MS0 1
abandono abandono NCMS000 0.833333
y y CC 0.999812
expulsi expulsi RG 1
n n NCFS000 1
de de SPS00 0.999919
sus su DP3CP0 0.998462
chacras chacra NCFP000 1
de de SPS00 0.999919
unas uno DI0FP0 0.925926
300_mil 300000 Z 1
familias familia NCFP000 1
convertidas convertir VMP00PF 1
en en SPS00 1
parias paria NCCP000 1
sin sin SPS00 1
que que CS 0.4375
el el DA0MS0 1
Ministerio_P ministerio_p NP00000 1
blico blico AQ0MS0 0.400224
haya haber VASP1S0 0.378571
podido poder VMP00SM 1
hasta hasta SPS00 0.955172
ahora ahora RG 1
presentar presentar VMN0000 1
cargos cargo NCMP000 1
que que CS 0.4375
justifiquen justificar VMSP3P0 0.901254
tal tal DD0CS0 0.741379
encierro encierro NCMS000 0.75
ni ni CC 0.995935
tampoco tampoco RG 1
la el DA0FS0 0.972146
car car NCMS000 1
tula tula VMIP3S0 0.105266
de de SPS00 0.999919
pr pr VMN0000 0.633986
fugos fugos NCCP000 0.666601
que que PR0CN000 0.5625
la el DA0FS0 0.972146
Fiscal fiscal NP00000 1
a a SPS00 0.99585
ha haber VAIP3S0 0.998141
puesto poner VMP00SM 0.547619
contra contra SPS00 0.976316
unos uno DI0MP0 0.879032
50 50 Z 1
humildes humilde AQ0CP0 1
labriegos labriego NCMP000 1
obligados obligar VMP00PM 0.9
a a SPS00 0.99585
vivir vivir VMN0000 0.978261
escondidos esconder VMP00PM 1
como como CS 0.998579
delincuentes delincuente NCCP000 0.833333
Su su NP00000 1
calvario calvario NCMS000 1
uno_m LN_m:1 Zu 1
s segundo NCMN000 0.622321
en en SPS00 1
la el DA0FS0 0.972146
larga largo AQ0FS0 0.75
historia historia NCFS000 1
de de SPS00 0.999919
sufrimiento sufrimiento NCMS000 1
y y CC 0.999812
humillaci humillaci RG 0.751648
n n NCFS000 1
de de SPS00 1
el el DA0MS0 1
campesinado campesinado NCMS000 1
paraguayo paraguayo AQ0MS0 0.65727
comenz comenz NCFS000 0.620205
el el DA0MS0 1
15_de_junio [??:15/6/??:??.??:??] W 1
de de SPS00 1
el el DA0MS0 1
a a NCFS000 0.00415028
o o CC 0.998845
pasado pasar VMP00SM 0.647727
cuando cuando CS 0.983796
se se P00CN000 0.465602
produjo producir VMIS3S0 1
una uno DI0FS0 0.951241
masacre masacre NCFS000 0.886136
de de SPS00 0.999919
campesinos campesino NCMP000 0.5
y y CC 0.999812
polic polic NCFS000 1
as as NCMS000 1
que que PR0CN000 0.5625
diversos diverso AQ0MP0 1
elementos elemento NCMP000 1
y y CC 0.999812
fuentes fuente NCFP000 1
consideran considerar VMIP3P0 1
que que CS 0.4375
fue ser VSIS3S0 0.932292
parte parte NCFS000 0.497967
de de SPS00 1
el el DA0MS0 1
plan plan NCMS000 1
golpista golpista AQ0CS0 0.357522
que que CS 0.4375
una uno DI0FS0 0.951241
semana semana NCFS000 1
despu despu NCMS000 0.774439
s segundo NCMN000 0.622321
termin termin RG 0.388954
con con SPS00 1
el el DA0MS0 1
Gobierno_de_Lugo gobierno_de_lugo NP00000 1
Siete 7 Z 1
polic polic NCFS000 1
as as NCMS000 1
y y CC 0.999812
unos uno DI0MP0 0.879032
20 20 Z 1
campesinos campesino NCMP000 0.5
murieron morir VMIS3P0 1
algunos alguno PI0MP000 0.523438
rematados rematar VMP00PM 1
en en SPS00 1
el el DA0MS0 1
suelo suelo NCMS000 0.866667
y y CC 0.999812
otros otro PI0MP000 0.43125
porque porque CS 1
las el DA0FP0 0.97051
fuerzas fuerza NCFP000 0.954545
de de SPS00 1
el el DA0MS0 1
orden orden NCMS000 0.6
los lo PP3MPA00 0.023584
dejaron dejar VMIS3P0 1
desangrar desangrar VMN0000 1
se se PP3CN000 1
sin sin SPS00 1
prestar prestar VMN0000 1
les le PP3CPD00 1
atenci atenci RG 0.751648
n n NCFS000 1
m m NCFS000 0.5
dica dica VMIP3S0 0.768885
Ese ese NP00000 1
hecho hecho NCMS000 0.381579
fue ser VSIS3S0 0.932292
utilizado utilizar VMP00SM 1
por por SPS00 1
la el DA0FS0 0.972146
dirigencia dirigencia NCFS000 1
derechista derechista AQ0CS0 0.65727
enquistada enquistar VMP00SF 1
en en SPS00 1
los el DA0MP0 0.97623
partidos partido NCMP000 0.928571
y y CC 0.999812
gremios gremio NCMP000 1
empresariales empresarial AQ0CP0 1
aplicando aplicar VMG0000 1
un uno DI0MS0 0.986987
dise dise NCFS000 0.99146
o o CC 0.998845
perge perge VMIP3S0 1
ado adir VMIP1S0 1
por por SPS00 1
ciertos cierto AQ0MP0 1
diplom diplom NCMS000 0.500053
ticos ticos AQ0MP0 0.671839
extranjeros extranjero AQ0MP0 0.833333
y y CC 0.999812
elementos elemento NCMP000 1
de de SPS00 0.999919
las el DA0FP0 0.97051
corporaciones corporación NCFP000 1
sojeras sojeras AQ0FP0 0.499845
y y CC 0.999812
de de SPS00 0.999919
la el DA0FS0 0.972146
megaminer megaminer VMN0000 1
a a SPS00 0.99585
para para SPS00 0.998507
acusar acusar VMN0000 1
a a SPS00 0.99585
Lugo lugo NP00000 1
de de SPS00 0.999919
mal mal RG 0.492063
desempe desempe VMIP3S0 1
o o CC 0.998845
de de SPS00 0.999919
sus su DP3CP0 0.998462
funciones función NCFP000 0.916667
En en NP00000 1
una uno DI0FS0 0.951241
parodia parodia NCFS000 0.547222
de de SPS00 0.999919
juicio juicio NCMS000 1
pol pol NCMS000 0.861706
tico tico AQ0MS0 0.806828
que que PR0CN000 0.5625
dur dur NCMS000 0.75005
17_horas TM_h:17 Zu 1
el el DA0MS0 1
parlamento parlamento NCMS000 0.75
destituy destituy RG 0.993863
a a SPS00 1
el el DA0MS0 1
mandatario mandatario NCMS000 1
que que CS 0.4375
hab hab NCMS000 0.63631
a a SPS00 0.99585
sido ser VSP00SM 1
elegido elegir VMP00SM 0.75
democr democr NCMS000 1
ticamente ticamente RG 1
el el DA0MS0 1
20_de_abril_del_2008 [??:20/4/2008:??.??:??] W 1
en en SPS00 1
presencia presencia NCFS000 0.962963
de de SPS00 0.999919
miles mil NCMP000 1
de de SPS00 0.999919
extranjeros extranjero NCMP000 0.166667
que que PR0CN000 0.5625
hab hab NCMS000 0.63631
an an NCFS000 1
llegado llegar VMP00SM 1
a a SPS00 1
el el DA0MS0 1
pa pa NCFS000 0.740689
s segundo NCMN000 0.622321
con con SPS00 1
la el DA0FS0 0.972146
esperanza esperanza NCFS000 0.925926
de de SPS00 0.999919
ver ver VMN0000 0.987179
resurgir resurgir VMN0000 1
la el DA0FS0 0.972146
democracia democracia NCFS000 1
en en SPS00 1
este este DD0MS0 0.956743
pa pa NCFS000 0.740689
s segundo NCMN000 0.622321
miembro miembro NCMS000 0.9
de de SPS00 1
el el DA0MS0 1
MERCOSUR mercosur NP00000 1
y y CC 0.999812
la el DA0FS0 0.972146
UNSAUR unsaur NP00000 1
de de SPS00 0.999919
donde donde PR000000 0.963542
qued qued NCFS000 0.643721
suspendido suspender VMP00SM 1
a_partir_de a_partir_de SPS00 1
cortando cortar VMG0000 1
el el DA0MS0 1
proceso proceso NCMS000 0.973684
de de SPS00 0.999919
cambios cambio NCMP000 1
Insultos insultos NP00000 1
y y CC 0.999812
acusaciones acusación NCFP000 1
de de SPS00 0.999919
corrupci corrupci RG 0.751648
n n NCFS000 1
es ser VSIP3S0 1
lo el DA0NS0 0.457393
que que PR0CN000 0.5625
m m NCFS000 0.5
s segundo NCMN000 0.622321
sobresale sobresalir VMIP3S0 1
entre entre SPS00 0.995223
los el DA0MP0 0.97623
candidatos candidato NCMP000 1
con con SPS00 1
m m NCFS000 0.5
s segundo NCMN000 0.622321
posibilidades posibilidad NCFP000 1
de de SPS00 0.999919
imponer imponer VMN0000 1
se se PP3CN000 1
Propuestas propuestas NP00000 1
de de SPS00 0.999919
programa programa NCMS000 0.866667
de de SPS00 0.999919
gobierno gobierno NCMS000 0.9
no no RN 0.99778
existen existir VMIP3P0 1
Cartes cartes NP00000 1
es ser VSIP3S0 1
presentado presentar VMP00SM 1
por por SPS00 1
los el DA0MP0 0.97623
liberales liberal NCMP000 0.509004
y y CC 0.999812
no no RN 0.99778
s segundo NCMN000 0.622321
lo lo PP3CNA00 0.271163
por por SPS00 1
ellos ellos PP3MP000 1
como como CS 0.998579
narcotraficante narcotraficante NCCS000 1
y y CC 0.999812
contrabandista contrabandista AQ0CS0 0.537251
y y CC 0.999812
ste ste AQ0CS0 0.12342
dice decir VMIP3S0 1
que que CS 0.4375
obligar obligar VMN0000 1
a a SPS00 0.99585
Alegre alegre NP00000 1
a a SPS00 0.99585
devolver devolver VMN0000 1
a a SPS00 1
el el DA0MS0 1
Estado estado NP00000 1
25_millones_de_d TM_d:25000000 Zu 1
lares lar NCMP000 1
que que CS 0.4375
malvers malvers NCMP000 0.75
cuando cuando CS 0.983796
fue ser VSIS3S0 0.932292
Ministro_de_Obras_P ministro_de_obras_p NP00000 1
blicas blicas AQ0FP0 1
en en SPS00 1
el el DA0MS0 1
Gobierno_de_Lugo gobierno_de_lugo NP00000 1
quien quien PR0CS000 1
lo lo PP3CNA00 0.271163
destituy destituy RG 0.993863
a a SPS00 0.99585
los el DA0MP0 0.97623
dos 2 Z 0.988722
a a SPS00 0.99585
os os PP2CP000 0.722222
En en NP00000 1
pol pol NCMS000 0.861706
tica tica AQ0FS0 0.595788
internacional internacional AQ0CS0 0.833333
aunque aunque CC 1
es ser VSIP3S0 1
un uno DI0MS0 0.986987
tema tema NCMS000 0.953125
casi casi RG 1
ignorado ignorar VMP00SM 1
por por SPS00 1
ambos ambos DI0MP0 0.361111
candidatos candidato NCMP000 1
algo algo PI0CS000 0.896341
de de SPS00 0.999919
sus su DP3CP0 0.998462
intenciones intención NCFP000 1
se se P00CN000 0.465602
filtra filtrar VMIP3S0 0.994864
a a SPS00 0.99585
trav trav AQ0CS0 0.0433699
s segundo NCMN000 0.622321
de de SPS00 0.999919
alg alg NCMS000 0.714133
n n NCFS000 1
postulante postulante AQ0MS0 1
a a SPS00 0.99585
gobernador gobernador AQ0MS0 0.35727
o o CC 0.998845
parlamentario parlamentario AQ0MS0 0.75
y y CC 0.999812
en en SPS00 1
general general AQ0CS0 0.90625
poca poco DI0FS0 0.9
diferencia diferencia NCFS000 0.738095
habr habr AQ0CS0 0.0829965
a a SPS00 0.99585
con con SPS00 1
el el DA0MS0 1
comportamiento comportamiento NCMS000 1
de de SPS00 1
el el DA0MS0 1
actual actual AQ0CS0 1
gobierno gobierno NCMS000 0.9
de de SPS00 1
el el DA0MS0 1
golpe golpe NCMS000 1
es ser VSIP3S0 1
decir decir VMN0000 0.987805
continuar continuar VMN0000 1
la el DA0FS0 0.972146
subordinaci subordinaci AQ0CS0 0.0199855
n n NCFS000 1
a a SPS00 0.99585
Estados_Unidos estados_unidos NP00000 1
en en SPS00 1
todos todo DI0MP0 0.622419
los el DA0MP0 0.97623
planos plano NCMP000 0.916667
En en NP00000 1
la el DA0FS0 0.972146
afanada afanar VMP00SF 1
competencia competencia NCFS000 1
por por SPS00 1
quien quien PR0CS000 1
es ser VSIP3S0 1
m m NCFS000 0.5
s segundo NCMN000 0.622321
entreguista entreguista AQ0CS0 1
de de SPS00 0.999919
los el DA0MP0 0.97623
intereses interés NCMP000 0.916667
y y CC 0.999812
la lo PP3FSA00 0.0277626
soberan soberan VMSI3P0 0.666364
a a SPS00 0.99585
nacional nacional AQ0CS0 1
Cartes cartes NP00000 1
aparenta aparentar VMIP3S0 0.75
ser ser VSN0000 0.93883
a a SPS00 0.99585
n n NCFS000 1
m m NCFS000 0.5
s segundo NCMN000 0.622321
preocupante preocupante AQ0CS0 1
que que PR0CN000 0.5625
Alegre alegre NP00000 1
pues pues CS 0.990385
se se P00CN000 0.465602
declara declarar VMIP3S0 0.75
partidario partidario AQ0MS0 0.75
de de SPS00 0.999919
confiar confiar VMN0000 1
a a SPS00 1
el el DA0MS0 1
Ej ej NP00000 1
rcito rcito NCMS000 1
la el DA0FS0 0.972146
misi misi RG 1
n n NCFS000 1
de de SPS00 0.999919
control control NCMS000 1
de de SPS00 0.999919
la el DA0FS0 0.972146
ciudadan ciudadan VMIP3P0 0.790742
a a SPS00 0.99585
desplazando desplazar VMG0000 1
a a SPS00 0.99585
la el DA0FS0 0.972146
polic polic NCFS000 1
a a SPS00 0.99585
proyecto proyecto NCMS000 0.9375
avanzado avanzar VMP00SM 1
por por SPS00 1
el el DA0MS0 1
Pent pent NP00000 1
gono gono NCMS000 0.89996
para para SPS00 0.998507
toda todo DI0FS0 0.975806
Latinoam latinoam NP00000 1
rica rico AQ0FS0 0.75
Adem adem NP00000 1
s segundo NCMN000 0.622321
en_el_entorno_de en_el_entorno_de SPS00 1
el el DA0MS0 1
candidato candidato NCMS000 1
colorado colorar VMP00SM 1
hay haber VMIP3S0 1
varios varios DI0MP0 0.883333
egresados egresar VMP00PM 1
de de SPS00 0.999919
cursos curso NCMP000 1
militares militar AQ0CP0 0.541667
y y CC 0.999812
de de SPS00 0.999919
espionaje espionaje NCMS000 1
organizados organizar VMP00PM 1
por por SPS00 1
Estados_Unidos estados_unidos NP00000 1
y y CC 0.999812
todos todo PI0MP000 0.374631
apoyan apoyar VMIP3P0 1
la el DA0FS0 0.972146
instalaci instalaci AQ0CS0 0.0199855
n n NCFS000 1
de de SPS00 0.999919
una uno DI0FS0 0.951241
base base NCCS000 0.955882
b b NCFS000 1
lica lica AQ0FS0 0.500121
en en SPS00 1
el el DA0MS0 1
Chaco chaco NP00000 1
en en SPS00 1
la el DA0FS0 0.972146
frontera frontera NCFS000 0.95
con con SPS00 1
Bolivia bolivia NP00000 1
con con SPS00 1
los el DA0MP0 0.97623
radares radar NCMP000 1
puestos poner VMP00PM 0.416667
en en SPS00 1
direcci direcci RG 0.751648
n n NCFS000 1
de de SPS00 0.999919
Argentina_Brasil_Venezuela argentina_brasil_venezuela NP00000 1
y y CC 0.999812
la el DA0FS0 0.972146
rica rico AQ0FS0 0.75
Amazon amazon NP00000 1
a a SPS00 0.99585
Por por NP00000 1
la el DA0FS0 0.972146
vereda vereda NCFS000 1
de de SPS00 0.999919
enfrente enfrente RG 0.75
camina caminar VMIP3S0 0.75
una uno DI0FS0 0.951241
parte parte NCFS000 0.497967
de de SPS00 1
el el DA0MS0 1
pueblo pueblo NCMS000 0.978261
que que PR0CN000 0.5625
piensa pensar VMIP3S0 0.875
diferente diferente AQ0CS0 1
pero pero CC 0.998821
que que CS 0.4375
a a SPS00 0.99585
n n NCFS000 1
no no RN 0.99778
cuenta contar VMIP3S0 0.219697
con con SPS00 1
una uno DI0FS0 0.951241
representaci representaci AQ0CS0 0.0199855
n n NCFS000 1
pol pol NCMS000 0.861706
tica tica AQ0FS0 0.595788
que que PR0CN000 0.5625
vaya ir VMSP1S0 0.22
a a SPS00 0.99585
la el DA0FS0 0.972146
par par NCMS000 0.9375
convencida convencer VMP00SF 1
de de SPS00 0.999919
que que CS 0.4375
el el DA0MS0 1
pa pa NCFS000 0.740689
s segundo NCMN000 0.622321
necesita necesitar VMIP3S0 0.95
cambios cambio NCMP000 1
pol pol NCMS000 0.861706
ticos ticos AQ0MP0 0.671839
econ econ NCMS000 1
micos mico NCMP000 1
y y CC 0.999812
culturales cultural AQ0CP0 1
tomando tomar VMG0000 1
cuerpo cuerpo NCMS000 1
el el DA0MS0 1
reclamo reclamo NCMS000 0.673603
de de SPS00 0.999919
un uno DI0MS0 0.986987
cambio cambio NCMS000 0.97619
estructural estructural AQ0CS0 1
de de SPS00 1
el el DA0MS0 1
Estado estado NP00000 1
cuya cuyo PR0FS000 1
funci funci RG 0.751648
n n NCFS000 1
sirva servir VMSP1S0 0.444444
para para SPS00 0.998507
consolidar consolidar VMN0000 1
independencia independencia NCFS000 1
y y CC 0.999812
bienestar bienestar NCMS000 1
social social AQ0CS0 0.977273
goces goce NCMP000 0.75
que que PR0CN000 0.5625
disfrut disfrut NCMS000 0.607342
la el DA0FS0 0.972146
poblaci poblaci AQ0CS0 0.0199855
n n NCFS000 1
desde desde SPS00 1
el el DA0MS0 1
nacimiento nacimiento NCMS000 1
de de SPS00 0.999919
Naci naci NP00000 1
n n NCFS000 1
Independiente independiente NP00000 1
en en SPS00 1
1813 1813 Z 1
hasta hasta SPS00 0.955172
1864 1864 Z 1
cuando cuando CS 0.983796
el el DA0MS0 1
imperio imperio NCMS000 1
ingl ingl AQ0CS0 0.587402
s segundo NCMN000 0.622321
lanz lanz AQ0CS0 0.220278
la el DA0FS0 0.972146
Guerra_de_la_Triple_Infamia_Alianza guerra_de_la_triple_infamia_alianza NP00000 1
con con SPS00 1
los el DA0MP0 0.97623
ej ej NCMS000 0.692259
rcitos rcitos NCMP000 1
de de SPS00 0.999919
Argentina_Brasil argentina_brasil NP00000 1
y y CC 0.999812
Uruguay_Haga uruguay_haga NP00000 1
click click NCMS000 0.50012
aqu aqu NCMS000 0.774439
para para SPS00 0.998507
recibir recibir VMN0000 1
gratis gratis RG 0.75
Argenpress argenpress NP00000 1
en en SPS00 1
su su DP3CS0 1
correo correo NCMS000 0.735623
electr electr AQ0CS0 0.0829965
nico no NCMS00D 0.522084

