Territorio territorio NCMS000 0.711763
robado robar VMP00SM 1
ser ser VSN0000 0.93883
recuperado recuperar VMP00SM 1
Tres_d TM_d:3 Zu 1
as as NCMS000 1
de de SPS00 0.999919
debate debate NCMS000 0.416667
intercambio intercambio NCMS000 0.5
y y CC 0.999812
articulaci articulaci RG 0.751648
n n NCFS000 1
de de SPS00 0.999919
luchas luchar VMIP2S0 0.166667
Dos 2 Z 0.988722
documentos documento NCMP000 1
de de SPS00 0.999919
posicionamiento posicionamiento NCMS000 1
pol pol NCMS000 0.861706
tico tico AQ0MS0 0.806828
para para SPS00 0.998507
el el DA0MS0 1
Gobernador_de_Formosa gobernador_de_formosa NP00000 1
y y CC 0.999812
para para SPS00 0.998507
la el DA0FS0 0.972146
Presidenta_de_Argentina_Lo presidenta_de_argentina_lo NP00000 1
principal principal AQ0CS0 0.9375
el el DA0MS0 1
territorio territorio NCMS000 1
La la NP00000 1
denuncia denunciar VMIP3S0 0.583333
a a SPS00 0.99585
las el DA0FP0 0.97051
industrias industria NCFP000 0.75
extractivas extractivo AQ0FP0 1
las el DA0FP0 0.97051
respuestas respuesta NCFP000 1
a a SPS00 0.99585
las el DA0FP0 0.97051
organizaciones organización NCFP000 1
que que PR0CN000 0.5625
cuestionan cuestionar VMIP3P0 1
la el DA0FS0 0.972146
lucha lucha NCFS000 0.880952
y y CC 0.999812
una uno DI0FS0 0.951241
Cumbre_Ind cumbre_ind NP00000 1
gena gena AQ0FS0 0.426806
que que PR0CN000 0.5625
dej dej NCMS000 0.692259
huellas hollar VMIP2S0 0.166667
La la NP00000 1
marcha marcha NCFS000 0.948718
por por SPS00 1
las el DA0FP0 0.97051
calles calle NCFP000 0.954545
de de SPS00 0.999919
Formosa formosa NP00000 1
y y CC 0.999812
un uno DI0MS0 0.986987
grito grito NCMS000 0.833333
con con SPS00 1
destinatario destinatario NCMS000 0.75
claro claro AQ0MS0 0.453704
Asesino_Territorio asesino_territorio NP00000 1
robado robar VMP00SM 1
ser ser VSN0000 0.93883
recuperado recuperar VMP00SM 1
fue ser VSIS3S0 0.932292
el el DA0MS0 1
grito grito NCMS000 0.833333
principal principal AQ0CS0 0.9375
de de SPS00 0.999919
la el DA0FS0 0.972146
marcha marcha NCFS000 0.948718
de de SPS00 0.999919
ayer ayer NCMS000 0.433333
por por SPS00 1
las el DA0FP0 0.97051
calles calle NCFP000 0.954545
de de SPS00 0.999919
Formosa formosa NP00000 1
en en SPS00 1
el el DA0MS0 1
marco marco NCMS000 0.9
de de SPS00 0.999919
la el DA0FS0 0.972146
Cumbre_Nacional_de_Pueblos cumbre_nacional_de_pueblos NP00000 1
y y CC 0.999812
Organizaciones_Ind organizaciones_ind NP00000 1
genas genas NCCP000 1
Luego_de luego_de NP00000 1
dos_d TM_d:2 Zu 1
as as NCMS000 1
de de SPS00 0.999919
trabajo trabajo NCMS000 0.940476
250 250 Z 1
dirigentes dirigente NCCP000 0.75
de de SPS00 0.999919
15 15 Z 1
pueblos pueblo NCMP000 1
ind ind AQ0CN0 0.357839
genas genas NCCP000 1
elaboraron elaborar VMIS3P0 1
dos 2 Z 0.988722
documentos documento NCMP000 1
uno uno PI0MS000 0.964744
para para SPS00 0.998507
el el DA0MS0 1
gobierno gobierno NCMS000 0.9
nacional nacional AQ0CS0 1
y y CC 0.999812
otro otro PI0MS000 0.38785
para para SPS00 0.998507
el el DA0MS0 1
provincial provincial AQ0CS0 1
con con SPS00 1
demandas demanda NCFP000 0.75
concretas concreto AQ0FP0 0.75
y y CC 0.999812
coordinaron coordinar VMIS3P0 1
acciones acción NCFP000 0.916667
de de SPS00 0.999919
lucha lucha NCFS000 0.880952
para para SPS00 0.998507
el el DA0MS0 1
corto corto AQ0MS0 0.9
y y CC 0.999812
mediano mediano AQ0MS0 1
plazo plazo NCMS000 1
Cuando cuando NP00000 1
la el DA0FS0 0.972146
marcha marcha NCFS000 0.948718
lleg lleg NCMS000 0.714133
hasta hasta SPS00 0.955172
la el DA0FS0 0.972146
puerta puerta NCFS000 1
de de SPS00 0.999919
la el DA0FS0 0.972146
Casa_de_Gobierno casa_de_gobierno NP00000 1
provincial provincial AQ0CS0 1
un uno DI0MS0 0.986987
solo solo AQ0MS0 0.930556
grito grito NCMS000 0.833333
destinado destinar VMP00SM 1
a a SPS00 1
el el DA0MS0 1
Gobernador gobernador NP00000 1
reson reson NCMS000 1
en en SPS00 1
la el DA0FS0 0.972146
capital capital NCFS000 0.372549
formose formose VMSI3S0 0.317009
a a SPS00 0.99585
Asesino_Asesino_Asesino_En asesino_asesino_asesino_en NP00000 1
las el DA0FP0 0.97051
afueras afueras NCFP000 0.75
de de SPS00 0.999919
Formosa formosa NP00000 1
capital capital NCFS000 0.372549
se se P00CN000 0.465602
desarroll desarroll AQ0CS0 0.587402
desde desde SPS00 1
el el DA0MS0 1
lunes [L:??/??/??:??.??:??] W 1
y y CC 0.999812
hasta hasta SPS00 0.955172
ayer ayer RG 0.566667
mi mi DP1CSS 0.995536
rcoles rcoles NCMP000 0.750052
una uno DI0FS0 0.951241
hist hist NCMS000 1
rica rico AQ0FS0 0.75
cumbre cumbre NCFS000 1
ind ind AQ0CN0 0.357839
gena gena NCFS000 0.487826
convocada convocar VMP00SF 1
por por SPS00 1
el el DA0MS0 1
Consejo_Plurinacional_Ind consejo_plurinacional_ind NP00000 1
gena gena AQ0FS0 0.426806
espacio espacio NCMS000 0.96875
de de SPS00 0.999919
articulaci articulaci RG 0.751648
n n NCFS000 1
de de SPS00 0.999919
dirigentes dirigente NCCP000 0.75
ind ind AQ0CN0 0.357839
genas genas NCCP000 1
de de SPS00 0.999919
todo todo DI0MS0 0.559816
el el DA0MS0 1
pa pa NCFS000 0.740689
s segundo NCMN000 0.622321
El el NP00000 1
lunes [L:??/??/??:??.??:??] W 1
se se P00CN000 0.465602
hizo hacer VMIS3S0 1
hincapi hincapi AQ0MS0 1
en en SPS00 1
la el DA0FS0 0.972146
realidad realidad NCFS000 1
de de SPS00 0.999919
Formosa formosa NP00000 1
donde donde PR000000 0.963542
los el DA0MP0 0.97623
cuatro 4 Z 1
pueblos pueblo NCMP000 1
Qom_Pilag_Wichi qom_pilag_wichi NP00000 1
y y CC 0.999812
Nivakl nivakl NP00000 1
elaboraron elaborar VMIS3P0 1
un uno DI0MS0 0.986987
documento documento NCMS000 0.973494
sobre sobre SPS00 0.994203
la el DA0FS0 0.972146
realidad realidad NCFS000 1
provincial provincial AQ0CS0 1
El el NP00000 1
martes [M:??/??/??:??.??:??] W 1
llegaron llegar VMIS3P0 1
los el DA0MP0 0.97623
dirigentes dirigente NCCP000 0.75
de de SPS00 0.999919
quince 15 Z 1
pueblos pueblo NCMP000 1
ind ind AQ0CN0 0.357839
genas genas NCCP000 1
de de SPS00 0.999919
16 16 Z 1
provincias provincia NCFP000 1
Desde desde NP00000 1
la el DA0FS0 0.972146
ma ma AQ0FS0 0.14579
ana ana NCFS000 1
y y CC 0.999812
hasta hasta SPS00 0.955172
la el DA0FS0 0.972146
medianoche [??:??/??/??:00.00:am] W 1
con con SPS00 1
breves breve AQ0CP0 1
descansos descanso NCMP000 1
escribieron escribir VMIS3P0 1
un uno DI0MS0 0.986987
documento documento NCMS000 0.973494
para para SPS00 0.998507
ser ser VSN0000 0.93883
presentado presentar VMP00SM 1
en en SPS00 1
Casa_Rosada casa_rosada NP00000 1
a a SPS00 0.99585
la el DA0FS0 0.972146
presidenta presidente NCFS000 1
Cristina_Fern cristina_fern NP00000 1
ndez ndez NCFS000 1
de de SPS00 0.999919
Kirchner_A kirchner_a NP00000 1
las el DA0FP0 0.97051
9 9 Z 1
45 45 Z 1
de de SPS00 0.999919
ayer ayer NCMS000 0.433333
parti parti NCMS000 1
desde desde SPS00 1
la el DA0FS0 0.972146
Casa_Juan_Pablo_II casa_juan_pablo_ii NP00000 1
lugar lugar NCMS000 1
de de SPS00 1
el el DA0MS0 1
encuentro encuentro NCMS000 0.5625
la el DA0FS0 0.972146
columna columna NCFS000 1
de de SPS00 0.999919
dirigentes dirigente NCCP000 0.75
ind ind AQ0CN0 0.357839
genas genas NCCP000 1
La la NP00000 1
bandera bandera NCFS000 1
de de SPS00 1
el el DA0MS0 1
encuentro encuentro NCMS000 0.5625
con con SPS00 1
el el DA0MS0 1
lema lema NCMS000 1
memoria memoria NCFS000 1
verdad verdad NCFS000 1
y y CC 0.999812
justicia justicia NCFS000 1
para para SPS00 0.998507
los el DA0MP0 0.97623
pueblos pueblo NCMP000 1
ind ind AQ0CN0 0.357839
genas genas NCCP000 1
encabez encabez RG 0.208241
la el DA0FS0 0.972146
marcha marcha NCFS000 0.948718
Banderas_de_el_Pueblo_Mapuche banderas_de_el_pueblo_mapuche NP00000 1
y y CC 0.999812
la el DA0FS0 0.972146
wiphala wiphala NCFS000 0.434802
multicolor multicolor AQ0CS0 1
de de SPS00 0.999919
las el DA0FP0 0.97051
naciones nación NCFP000 1
originarias originario AQ0FP0 1
se se P00CN000 0.465602
dejaban dejar VMII3P0 1
ver ver VMN0000 0.987179
desde desde SPS00 1
lejos lejos RG 1
Sobre sobre NP00000 1
la el DA0FS0 0.972146
ruta ruta NCFS000 1
11 11 Z 1
camino camino NCMS000 0.978261
a a SPS00 0.99585
la el DA0FS0 0.972146
capital capital NCFS000 0.372549
de de SPS00 0.999919
Formosa formosa NP00000 1
se se P00CN000 0.465602
iban ir VMII3P0 1
sumando sumar VMG0000 0.579997
organizaciones organización NCFP000 1
sociales social AQ0CP0 0.9375
algunos alguno DI0MP0 0.476562
partidos partido NCMP000 0.928571
pol pol NCMS000 0.861706
ticos ticos AQ0MP0 0.671839
y y CC 0.999812
gente gente NCFS000 1
a a SPS00 0.99585
pie pie NCMS000 1
Los los NP00000 1
autos auto NCMP000 1
y y CC 0.999812
muchos mucho DI0MP0 0.541667
ciclomotores ciclomotor NCMP000 1
tocaban tocar VMII3P0 1
sus su DP3CP0 0.998462
bocinas bocina NCFP000 0.973486
en en SPS00 1
se se PP3CN000 0.0687957
a a SPS00 1
el el DA0MS0 1
de de SPS00 0.999919
aprobaci aprobaci RG 0.751648
n n NCFS000 1
Esto esto NP00000 1
es ser VSIP3S0 1
hist hist NCMS000 1
rico rico AQ0MS0 0.95
Hermanos hermanos NP00000 1
de de SPS00 0.999919
todo todo DI0MS0 0.559816
el el DA0MS0 1
pa pa NCFS000 0.740689
s segundo NCMN000 0.622321
vinieron venir VMIS3P0 1
a a SPS00 0.99585
abrazar abrazar VMN0000 1
nos nos PP1CP000 1
y y CC 0.999812
juntos junto AQ0MP0 1
denunciamos denunciar VMIP1P0 0.649998
la el DA0FS0 0.972146
violaci violaci AQ0CS0 0.0199855
n n NCFS000 1
de de SPS00 0.999919
derechos derecho NCMP000 0.9
de de SPS00 1
el el DA0MS0 1
gobernador gobernador NCMS000 0.64273
Gildo_Insfr gildo_insfr NP00000 1
n n NCFS000 1
y y CC 0.999812
de de SPS00 1
el el DA0MS0 1
gobierno gobierno NCMS000 0.9
nacional nacional AQ0CS0 1
Juntos juntos NP00000 1
gritamos gritar VMIP1P0 0.649991
basta bastar VMIP3S0 0.916667
de de SPS00 0.999919
atropellos atropello NCMP000 1
Juntos juntos NP00000 1
luchamos luchar VMIP1P0 0.65
juntos junto AQ0MP0 1
estamos estar VAIP1P0 1
de de SPS00 0.999919
pie pie NCMS000 1
areng areng NCMS000 0.833333
Israel_Alegre israel_alegre NP00000 1
hist hist NCMS000 1
rico rico AQ0MS0 0.95
dirigente dirigente AQ0CS0 0.75
de de SPS00 1
el el DA0MS0 1
barrio barrio NCMS000 1
Nam_Qom_Roxana_Vilches_de_el_Pueblo_Ranqulche_de_La_Pampa nam_qom_roxana_vilches_de_el_pueblo_ranqulche_de_la_pampa NP00000 1
explic explic RG 0.5
que que CS 0.4375
la el DA0FS0 0.972146
cumbre cumbre NCFS000 1
sirvi sirvi VMIS1S0 1
para para SPS00 0.998507
evaluar evaluar VMN0000 1
la el DA0FS0 0.972146
situaci situaci AQ0CS0 0.0199855
n n NCFS000 1
a a SPS00 0.99585
nivel nivel NCMS000 1
nacional nacional AQ0CS0 1
donde donde PR000000 0.963542
en en SPS00 1
todos todo DI0MP0 0.622419
los el DA0MP0 0.97623
territorios territorio NCMP000 1
es ser VSIP3S0 1
clara claro AQ0FS0 0.928571
la el DA0FS0 0.972146
violaci violaci RG 0.751648
n n NCFS000 1
de de SPS00 0.999919
los el DA0MP0 0.97623
derechos derecho NCMP000 0.9
de de SPS00 0.999919
los el DA0MP0 0.97623
pueblos pueblo NCMP000 1
ind ind AQ0CN0 0.357839
genas genas NCCP000 1
El el NP00000 1
mismo mismo AQ0MS0 0.961905
Estado estado NP00000 1
que que PR0CN000 0.5625
aprueba aprobar VMIP3S0 0.994868
las el DA0FP0 0.97051
leyes ley NCFP000 1
luego luego RG 0.983871
las el DA0FP0 0.97051
viola viola NCFS000 0.813611
y y CC 0.999812
avanza avanzar VMIP3S0 0.875
sobre sobre SPS00 0.994203
nuestros nuestro DP1MPP 0.854167
territorios territorio NCMP000 1
y y CC 0.999812
nuestras nuestro DP1FPP 0.972222
vidas vida NCFP000 1
La la NP00000 1
marcha marchar VMIP3S0 0.025641
recorri recorri RG 0.83337
tres 3 Z 1
kil kil AQ0CS0 0.768581
metros metro NCMP000 1
el el DA0MS0 1
sol sol NCMS000 1
fuerte fuerte AQ0CS0 0.892857
se se P00CN000 0.465602
hizo hacer VMIS3S0 1
sentir sentir VMN0000 0.944444
pero pero CC 0.998821
se se P00CN000 0.465602
mantuvieron mantener VMIS3P0 1
los el DA0MP0 0.97623
c c NCFS000 1
nticos nticos AQ0MP0 0.874837
por por SPS00 1
territorio territorio NCMS000 1
y y CC 0.999812
los el DA0MP0 0.97623
gritos grito NCMP000 1
de de SPS00 0.999919
lucha lucha NCFS000 0.880952
de de SPS00 0.999919
los el DA0MP0 0.97623
distintos distinto AQ0MP0 1
pueblos pueblo NCMP000 1
en en SPS00 1
idioma idioma NCMS000 1
ancestral ancestral AQ0CS0 1
A a NP00000 1
las el DA0FP0 0.97051
12 12 Z 1
se se P00CN000 0.465602
lleg lleg NCMS000 0.714133
hasta hasta SPS00 0.955172
la el DA0FS0 0.972146
Casa_de_Gobierno_de_Formosa casa_de_gobierno_de_formosa NP00000 1
un uno DI0MS0 0.986987
edificio edificio NCMS000 1
de de SPS00 0.999919
diez 10 Z 1
pisos piso NCMP000 1
vidriado vidriar VMP00SM 0.511833
en en SPS00 1
una uno DI0FS0 0.951241
amplia amplio AQ0FS0 1
esquina esquina NCFS000 0.904762
y y CC 0.999812
vallado vallar VMP00SM 0.691748
con con SPS00 1
numerosa numeroso AQ0FS0 1
custodia custodia NCFS000 0.125
policial policial AQ0CS0 1
Cuando cuando NP00000 1
los el DA0MP0 0.97623
marchantes marchante NCCP000 1
llegaron llegar VMIS3P0 1
hasta hasta SPS00 0.955172
el el DA0MS0 1
lugar lugar NCMS000 1
se se P00CN000 0.465602
hizo hacer VMIS3S0 1
un uno DI0MS0 0.986987
silencio silencio NCMS000 0.928571
extra extra AQ0CS0 0.357298
o o CC 0.998845
sab sab NCMS000 0.63631
an an NCFS000 1
que que PR0CN000 0.5625
estaban estar VAII3P0 1
frente_a frente_a SPS00 1
la el DA0FS0 0.972146
sede sede NCFS000 0.8125
de de SPS00 1
el el DA0MS0 1
gobernador gobernador NCMS000 0.64273
desde desde SPS00 1
hace hacer VMIP3S0 1
casi casi RG 1
20 20 Z 1
a a SPS00 0.99585
os os PP2CP000 0.722222
Gildo_Insfr gildo_insfr NP00000 1
n n NCFS000 1
y y CC 0.999812
el el DA0MS0 1
primer 1 AO0MS0 1
grito grito NCMS000 0.833333
provino provenir VMIS3S0 1
de de SPS00 0.999919
una uno DI0FS0 0.951241
mujer mujer NCFS000 0.959459
Asesino_De asesino_de NP00000 1
inmediato inmediato AQ0MS0 1
todos todo DI0MP0 0.622419
los el DA0MP0 0.97623
marchantes marchante NCCP000 1
gritaron gritar VMIS3P0 1
con con SPS00 1
fuerza fuerza NCFS000 0.968254
Asesino_Asesino_Asesino_El asesino_asesino_asesino_el NP00000 1
grito grito NCMS000 0.833333
se se P00CN000 0.465602
mantuvo mantener VMIS3S0 1
durante durante SPS00 1
dos_minutos TM_min:2 Zu 1
pero pero CC 0.998821
pareci pareci RG 0.751648
eterno eterno AQ0MS0 1
Se se NP00000 1
respiraba respirar VMII3S0 0.65
emoci emoci RG 0.751648
n n NCFS000 1
Sobrevinieron sobrevinieron NP00000 1
aplausos aplauso NCMP000 1
Y y NP00000 1
otro otro DI0MS0 0.61215
grito grito NCMS000 0.833333
que que PR0CN000 0.5625
unific unific RG 0.5
a a SPS00 0.99585
todos todo DI0MP0 0.622419
Territorio territorio NP00000 1
robado robar VMP00SM 1
ser ser VSN0000 0.93883
recuperado recuperar VMP00SM 1
Documentos_El documentos_el NP00000 1
documento documento NCMS000 0.973494
escrito escribir VMP00SM 0.958333
por por SPS00 1
los el DA0MP0 0.97623
cuatro 4 Z 1
pueblos pueblo NCMP000 1
ind ind AQ0CN0 0.357839
genas genas NCCP000 1
de de SPS00 0.999919
Formosa formosa NP00000 1
reclama reclamar VMIP3S0 0.833333
que que CS 0.4375
se se P00CN000 0.465602
cumpla cumplir VMSP3S0 0.57856
el el DA0MS0 1
relevamiento relevamiento NCMS000 1
territorial territorial AQ0CS0 1
que que PR0CN000 0.5625
estipula estipular VMIP3S0 0.994868
la el DA0FS0 0.972146
Ley_Nacional ley_nacional NP00000 1
26 26 Z 1
160 160 Z 1
exige exigir VMIP3S0 0.875
que que CS 0.4375
haya haber VMSP3S0 0.235714
un uno DI0MS0 0.986987
di dar VMIS1S0 0.833333
logo logo NCMS000 1
sincero sincero AQ0MS0 0.864891
de de SPS00 1
el el DA0MS0 1
Gobierno gobierno NP00000 1
para para SPS00 0.998507
resolver resolver VMN0000 1
los el DA0MP0 0.97623
urgentes urgente AQ0CP0 1
problemas problema NCMP000 1
de de SPS00 0.999919
salud salud NCFS000 1
educaci educaci RG 0.751648
n n NCFS000 1
y y CC 0.999812
agua agua NCCS000 0.973333
insta instar VMIP3S0 0.994868
a a SPS00 0.99585
que que CS 0.4375
se se P00CN000 0.465602
cumplan cumplir VMSP3P0 0.901253
los el DA0MP0 0.97623
derechos derecho NCMP000 0.9
ind ind AQ0CN0 0.357839
genas genas NCCP000 1
y y CC 0.999812
exige exigir VMIP3S0 0.875
el el DA0MS0 1
fin fin NCMS000 1
de de SPS00 0.999919
la el DA0FS0 0.972146
violencia violencia NCFS000 1
contra contra SPS00 0.976316
las el DA0FP0 0.97051
comunidades comunidad NCFP000 1
que que PR0CN000 0.5625
luchan luchar VMIP3P0 1
El el NP00000 1
escrito escribir VMP00SM 0.958333
para para SPS00 0.998507
la el DA0FS0 0.972146
Presidenta presidenta NP00000 1
aporta aportar VMIP3S0 0.833333
pruebas prueba NCFP000 0.9
concretas concreto AQ0FP0 0.75
en en SPS00 1
base base NCCS000 0.955882
a a SPS00 0.99585
informaci informaci RG 0.751648
n n NCFS000 1
oficial oficial AQ0CS0 0.916667
de de SPS00 1
el el DA0MS0 1
Instituto_Nacional_de_Asuntos_Ind instituto_nacional_de_asuntos_ind NP00000 1
genas genas NCCP000 1
y y CC 0.999812
la el DA0FS0 0.972146
Auditor auditor NP00000 1
a a SPS00 0.99585
General_de_la_Naci general_de_la_naci NP00000 1
n n NCFS000 1
sobre sobre SPS00 0.994203
el el DA0MS0 1
incumplimiento incumplimiento NCMS000 1
de de SPS00 0.999919
la el DA0FS0 0.972146
Ley ley NP00000 1
26160 26160 Z 1
Da_cuenta da_cuenta NP00000 1
de de SPS00 0.999919
que que PR0CN000 0.5625
se se P00CN000 0.465602
gast gast NCMS000 1
el el DA0MS0 1
76_por_ciento 76/100 Zp 1
de de SPS00 1
el el DA0MS0 1
presupuesto presupuesto NCMS000 0.666667
y y CC 0.999812
s segundo NCMN000 0.622321
lo lo PP3CNA00 0.271163
se se P00CN000 0.465602
relevaron relevar VMIS3P0 1
el el DA0MS0 1
24_por_ciento 24/100 Zp 1
de de SPS00 0.999919
las el DA0FP0 0.97051
comunidades comunidad NCFP000 1
Cuestiona cuestiona NP00000 1
la el DA0FS0 0.972146
reforma reforma NCFS000 0.866667
de de SPS00 1
el el DA0MS0 1
C c NP00000 1
digo decir VMIP1S0 1
Civil civil NP00000 1
donde donde PR000000 0.963542
remarcan remarcar VMIP3P0 1
que que CS 0.4375
no no RN 0.99778
hubo haber VMIS3S0 0.95
participaci participaci RG 0.751648
n n NCFS000 1
ind ind AQ0CN0 0.357839
gena gena AQ0FS0 0.426806
seg segundo NCMN000 1
n n NCFS000 1
establece establecer VMIP3S0 0.833333
la el DA0FS0 0.972146
ley ley NCFS000 1
y y CC 0.999812
exigen exigir VMIP3P0 1
una uno DI0FS0 0.951241
ley ley NCFS000 1
especial especial AQ0CS0 1
para para SPS00 0.998507
tratar tratar VMN0000 1
el el DA0MS0 1
articulado articulado NCMS000 0.308273
referido referir VMP00SM 1
a a SPS00 0.99585
pueblos pueblo NCMP000 1
ind ind AQ0CN0 0.357839
genas genas NCCP000 1
Por por NP00000 1
sobre sobre SPS00 0.994203
todo todo DI0MS0 0.559816
el el DA0MS0 1
documento documento NCMS000 0.973494
cuestiona cuestionar VMIP3S0 0.833333
a a SPS00 1
el el DA0MS0 1
modelo modelo NCCS000 0.973684
extractivo extractivo AQ0MS0 1
de de SPS00 0.999919
agronegocios agronegocios NCMP000 1
petr petr AQ0CS0 0.0829965
leo leo NCCN000 0.25
y y CC 0.999812
megaminer megaminer VMN0000 1
a a SPS00 0.99585
Deja deja NP00000 1
claro claro RG 0.490741
que que CS 0.4375
ese ese DD0MS0 0.98125
modelo modelo NCCS000 0.973684
atenta atento AQ0FS0 0.666667
contra contra SPS00 0.976316
la el DA0FS0 0.972146
vida vida NCFS000 1
ind ind AQ0CN0 0.357839
gena gena NCFS000 0.487826
y y CC 0.999812
cuestiona cuestionar VMM02S0 0.166667
a a SPS00 1
el el DA0MS0 1
Gobierno_Nacional gobierno_nacional NP00000 1
por por SPS00 1
impulsar impulsar VMN0000 1
lo lo PP3CNA00 0.5 lo PP3MSA00 0.5
en en SPS00 1
alianza alianza NCFS000 1
con con SPS00 1
las el DA0FP0 0.97051
corporaciones corporación NCFP000 1
El el NP00000 1
martes [M:??/??/??:??.??:??] W 1
a a SPS00 0.99585
la el DA0FS0 0.972146
noche noche NCFS000 1
a a SPS00 0.99585
ltimo ltimo RG 1
momento momento NCMS000 1
se se P00CN000 0.465602
agreg agreg NCMS000 0.714133
un uno DI0MS0 0.986987
p p NCFS000 0.5
rrafo rrafo NCMS000 1
donde donde PR000000 0.963542
cuestiona cuestionar VMIP3S0 0.833333
que que CS 0.4375
la el DA0FS0 0.972146
jefa jefe NCFS000 1
de de SPS00 0.999919
fiscales fiscal NCCP000 0.25
Alejandra_Gils_Carb alejandra_gils_carb NP00000 1
haya haber VASP1S0 0.378571
dictaminado dictaminar VMP00SM 1
a_favor_de a_favor_de SPS00 1
la el DA0FS0 0.972146
petrolera petrolero NCFS000 0.64273
estadounidense estadounidense AQ0CS0 0.833333
Chevron chevron NP00000 1
para para SPS00 0.998507
levantar levantar VMN0000 1
un uno DI0MS0 0.986987
embargo embargo NCMS000 0.973496
de de SPS00 0.999919
19 19 Z 1
000_millones_de_d TM_d:0 Zu 1
lares lar NCMP000 1
que que PR0CN000 0.5625
pesa pesar VMIP3S0 0.777778
sobre sobre SPS00 0.994203
la el DA0FS0 0.972146
multinacional multinacional NCFS000 0.34273
por por SPS00 1
contaminaci contaminaci RG 0.751648
n n NCFS000 1
en en SPS00 1
Ecuador_Tambi ecuador_tambi NP00000 1
n n NCFS000 1
cuestiona cuestionar VMIP3S0 0.833333
a a SPS00 0.99585
la el DA0FS0 0.972146
Corte_Suprema_de_Justicia_de_la_Naci corte_suprema_de_justicia_de_la_naci NP00000 1
n n NCFS000 1
que que CS 0.4375
el el DA0MS0 1
martes [M:??/??/??:??.??:??] W 1
fall fall AQ0CS0 0.587402
a_favor_de a_favor_de SPS00 1
la el DA0FS0 0.972146
petrolera petrolero NCFS000 0.64273
Chevron_En chevron_en NP00000 1
el el DA0MS0 1
debate debate NCMS000 0.416667
de de SPS00 0.999919
plenario plenario NCMS000 0.642577
se se P00CN000 0.465602
hizo hacer VMIS3S0 1
hincapi hincapi AQ0MS0 1
en en SPS00 1
la el DA0FS0 0.972146
alianza alianza NCFS000 1
de de SPS00 1
el el DA0MS0 1
Gobierno_Nacional gobierno_nacional NP00000 1
mediante mediante SPS00 0.944444
YPF ypf NP00000 1
con con SPS00 1
Chevron_La chevron_la NP00000 1
multinacional multinacional AQ0CS0 0.65727
petrolera petrolero AQ0FS0 0.35727
contamin contamin NCMS000 0.499936
y y CC 0.999812
provoc provoc NC00000 0.538029
muertes muerte NCFP000 1
en en SPS00 1
hermanos hermano NCMP000 1
ind ind AQ0CN0 0.357839
genas genas NCCP000 1
de de SPS00 0.999919
Ecuador ecuador NP00000 1
est est NCMS000 1
comprobado comprobar VMP00SM 1
por por SPS00 1
la el DA0FS0 0.972146
Justicia justicia NP00000 1
de de SPS00 0.999919
ese ese DD0MS0 0.98125
pa pa NCFS000 0.740689
s segundo NCMN000 0.622321
y y CC 0.999812
ac ac NCFS000 1
se se P00CN000 0.465602
la lo PP3FSA00 0.0277626
recibe recibir VMIP3S0 0.833333
con con SPS00 1
brazos brazo NCMP000 1
abiertos abrir VMP00PM 1
Es es NP00000 1
la el DA0FS0 0.972146
alianza alianza NCFS000 1
de de SPS00 1
el el DA0MS0 1
Gobierno gobierno NP00000 1
con con SPS00 1
las el DA0FP0 0.97051
corporaciones corporación NCFP000 1
afirm afirm NCMS000 0.700265
Jorge_Nahuel_de_la_Confederaci jorge_nahuel_de_la_confederaci NP00000 1
n n NCFS000 1
Mapuche_de_Neuqu mapuche_de_neuqu NP00000 1
n n NCFS000 1
El el NP00000 1
documento documento NCMS000 0.973494
final final AQ0CS0 0.148148
ser ser VSN0000 0.93883
le le PP3CSD00 1
do do NCMS000 1
hoy hoy RG 0.877358
en en SPS00 1
conferencia conferencia NCFS000 0.666667
de de SPS00 0.999919
presa presa NCFS000 0.875
a a SPS00 0.99585
las el DA0FP0 0.97051
17 17 Z 1
frente_a frente_a SPS00 1
Casa_Rosada_Participar casa_rosada_participar NP00000 1
n n NCFS000 1
delegados delegado NCMP000 0.75
ind ind AQ0CN0 0.357839
genas genas NCCP000 1
de de SPS00 0.999919
la el DA0FS0 0.972146
Cumbre cumbre NP00000 1
organismos organismo NCMP000 1
de de SPS00 0.999919
derechos derecho NCMP000 0.9
humanos humano AQ0MP0 0.681818
y y CC 0.999812
se se P00CN000 0.465602
solicit solicit NCMN000 1
tener tener VMN0000 1
una uno DI0FS0 0.951241
entrevista entrevista NCFS000 0.75
con con SPS00 1
la el DA0FS0 0.972146
Presidenta_Discursos_Arriba_de presidenta_discursos_arriba_de NP00000 1
una uno DI0FS0 0.951241
camioneta camioneta NCFS000 1
abri abri RG 0.83337
el el DA0MS0 1
discurso discurso NCMS000 0.75
Argentina_Paz_Quiroga argentina_paz_quiroga NP00000 1
gu gu NCMS000 0.774439
a a SPS00 0.99585
espiritual espiritual AQ0CS0 1
de de SPS00 1
el el DA0MS0 1
Pueblo_Warpe_de_San_Juan_Primero pueblo_warpe_de_san_juan_primero NP00000 1
hablo hablar VMIP1S0 1
en en SPS00 1
idioma idioma NCMS000 1
ancestral ancestral AQ0CS0 1
luego luego RG 0.983871
tradujo traducir VMIS3S0 1
Muchos muchos NP00000 1
creen creer VMIP3P0 0.866667
que que CS 0.4375
no no RN 0.99778
existimos existir VMIP1P0 0.65
hacen hacer VMIP3P0 1
como como CS 0.998579
que que CS 0.4375
no no RN 0.99778
estamos estar VAIP1P0 1
pero pero CC 0.998821
somos ser VSIP1P0 1
ac ac NCFS000 1
estamos estar VAIP1P0 1
y y CC 0.999812
estamos estar VAIP1P0 1
de de SPS00 0.999919
pie pie NCMS000 1
Sobrevinieron sobrevinieron NP00000 1
aplausos aplauso NCMP000 1
Record record NP00000 1
que que CS 0.4375
el el DA0MS0 1
Consejo_Plurinacional_Ind consejo_plurinacional_ind NP00000 1
gena gena VMIP3S0 0.0853688
naci naci RG 0.751648
en en SPS00 1
v v NCFS000 1
speras speras VMIP2S0 1
de de SPS00 1
el el DA0MS0 1
Bicentenario bicentenario NP00000 1
de de SPS00 0.999919
2010 2010 Z 1
Y y NP00000 1
marcharon marchar VMIS3P0 1
miles mil NCMP000 1
a a SPS00 0.99585
Plaza plaza NP00000 1
de de SPS00 0.999919
Mayo [??:??/5/??:??.??:??] W 1
Somos_el_Consejo_Plurinacional somos_el_consejo_plurinacional NP00000 1
somos ser VSIP1P0 1
los el DA0MP0 0.97623
que que PR0CN000 0.5625
estamos estar VAIP1P0 1
de de SPS00 0.999919
pie pie NCMS000 1
no no RN 0.99778
somos ser VSIP1P0 1
los el DA0MP0 0.97623
que que PR0CN000 0.5625
bajaron bajar VMIS3P0 1
nosotros nosotros PP1MP000 1
no no RN 0.99778
vendemos vender VMIP1P0 0.933684
nuestra nuestro DP1FSP 0.892857
dignidad dignidad NCFS000 1
de de SPS00 0.999919
pueblos pueblo NCMP000 1
ind ind AQ0CN0 0.357839
genas genas NCCP000 1
grit grit NCMN000 1
la el DA0FS0 0.972146
dirigente dirigente AQ0CS0 0.75
Warpe warpe NP00000 1
y y CC 0.999812
contest contest NCMS000 1
en en SPS00 1
forma forma NCFS000 0.960317
explicita explicitar VMIP3S0 0.994868
la el DA0FS0 0.972146
denuncia denuncia NCFS000 0.333333
de de SPS00 0.999919
los el DA0MP0 0.97623
ltimos ltimos AQ0MP0 0.143025
d d NCFS000 1
as as NCMS000 1
de de SPS00 0.999919
supuestas suponer VMP00PF 1
organizaciones organización NCFP000 1
ind ind AQ0CN0 0.357839
genas genas NCCP000 1
que que PR0CN000 0.5625
cuestionan cuestionar VMIP3P0 1
la el DA0FS0 0.972146
Cumbre_de_Formosa_A cumbre_de_formosa_a NP00000 1
los el DA0MP0 0.97623
largo largo AQ0MS0 0.458333
de de SPS00 0.999919
los el DA0MP0 0.97623
dos_d TM_d:2 Zu 1
as as NCMS000 1
todos todo DI0MP0 0.622419
los el DA0MP0 0.97623
dirigentes dirigente NCCP000 0.75
originarios originario AQ0MP0 1
desmintieron desmentir VMIS3P0 1
que que CS 0.4375
se se P00CN000 0.465602
trate tratar VMSP1S0 0.47619
de de SPS00 0.999919
300 300 Z 1
comunidades comunidad NCFP000 1
y y CC 0.999812
afirmaron afirmar VMIS3P0 1
que que CS 0.4375
el el DA0MS0 1
descontento descontento NCMS000 0.387584
proviene provenir VMIP3S0 1
de de SPS00 0.999919
la el DA0FS0 0.972146
Tupac_Amaru_de_Milagro_Sala tupac_amaru_de_milagro_sala NP00000 1
que que PR0CN000 0.5625
apoy apoy VMIP1S0 0.151506
la el DA0FS0 0.972146
marcha marcha NCFS000 0.948718
de de SPS00 1
el el DA0MS0 1
Bicentenario bicentenario NP00000 1
pero pero CC 0.998821
luego luego RG 0.983871
cuando cuando CS 0.983796
las el DA0FP0 0.97051
respuestas respuesta NCFP000 1
de de SPS00 0.999919
la el DA0FS0 0.972146
Presidenta presidenta NP00000 1
no no RN 0.99778
llegaron llegar VMIS3P0 1
y y CC 0.999812
las el DA0FP0 0.97051
cr cr NCMS000 1
ticas ticas AQ0FP0 0.760898
ind ind AQ0CN0 0.357839
genas genas NCCP000 1
se se P00CN000 0.465602
hicieron hacer VMIS3P0 1
m m NCFS000 0.5
s segundo NCMN000 0.622321
duras duro AQ0FP0 0.875
dej dej NCMS000 0.692259
el el DA0MS0 1
Consejo_Plurinacional_Nos consejo_plurinacional_nos NP00000 1
quieren querer VMIP3P0 1
desterrar desterrar VMN0000 1
de de SPS00 0.999919
nuestros nuestro DP1MPP 0.854167
territorios territorio NCMP000 1
Las las NP00000 1
multinacionales multinacional AQ0CP0 0.65727
tienen tener VMIP3P0 1
el el DA0MS0 1
apoyo apoyo NCMS000 0.928571
de de SPS00 0.999919
los el DA0MP0 0.97623
gobernadores gobernador NCMP000 0.542782
que que PR0CN000 0.5625
se se P00CN000 0.465602
dicen decir VMIP3P0 1
parte parte NCFS000 0.497967
de de SPS00 0.999919
un uno DI0MS0 0.986987
gobierno gobierno NCMS000 0.9
nacional nacional AQ0CS0 1
y y CC 0.999812
popular popular AQ0CS0 1
pero pero CC 0.998821
son ser VSIP3P0 0.986772
gobernadores gobernador AQ0MP0 0.457218
de de SPS00 0.999919
las el DA0FP0 0.97051
multinacionales multinacional AQ0CP0 0.65727
afirm afirm NCMS000 0.700265
Argentina argentina NP00000 1
y y CC 0.999812
cerr cerr VMN0000 0.633986
su su DP3CS0 1
discurso discurso NCMS000 0.75
Cinco 5 Z 0.98
siglos siglo NCMP000 1
resistiendo resistir VMG0000 1
estamos estar VAIP1P0 1
de de SPS00 0.999919
pie pie NCMS000 1
seguiremos seguir VMIF1P0 1
luchando luchar VMG0000 1
sembrando sembrar VMG0000 1
vida vida NCFS000 1
F f NP00000 1
lix lix NCMN000 0.545207
D d NP00000 1
az az NCFS000 1
autoridad autoridad NCFS000 1
de de SPS00 0.999919
la el DA0FS0 0.972146
comunidad comunidad NCFS000 1
qom qom NCMS000 0.500053
Potae_Napocna_Navogoh_La_Primavera potae_napocna_navogoh_la_primavera NP00000 1
era ser VSII1S0 0.490859
una uno DI0FS0 0.951241
de de SPS00 0.999919
las el DA0FP0 0.97051
voces voz NCFP000 1
m m NCFS000 0.5
s segundo NCMN000 0.622321
esperadas esperar VMP00PF 1
Comenz comenz NP00000 1
hablando hablar VMG0000 1
en en SPS00 1
idioma idioma NCMS000 1
qom qom NCMS000 0.500053
Y y NP00000 1
luego luego RG 0.983871
explic explic RG 0.5
Es es NP00000 1
un_d TM_d:1 Zu 1
a a SPS00 0.99585
hist hist NCMS000 1
rico rico AQ0MS0 0.95
esta este DD0FS0 0.982143
Cumbre cumbre NP00000 1
y y CC 0.999812
esta este DD0FS0 0.982143
marcha marcha NCFS000 0.948718
es ser VSIP3S0 1
hist hist NCMS000 1
rica rico AQ0FS0 0.75
Nosotros nosotros NP00000 1
queremos querer VMIP1P0 1
dialogar dialogar VMN0000 1
pero pero CC 0.998821
miren mirar VMSP3P0 0.901254
lo el DA0NS0 0.457393
que que PR0CN000 0.5625
hace hacer VMIP3S0 1
el el DA0MS0 1
gobernador gobernador NCMS000 0.64273
Insfr insfr NP00000 1
n n NCFS000 1
nos nos PP1CP000 0.933333
pone poner VMIP3S0 1
vallas valla NCFP000 0.973497
y y CC 0.999812
nos nos PP1CP000 0.933333
pone poner VMIP3S0 1
a a SPS00 0.99585
la el DA0FS0 0.972146
polic polic NCFS000 1
a a SPS00 0.99585
como como CS 0.998579
el el DA0MS0 1
23_de_noviembre_de_2010 [??:23/11/2010:??.??:??] W 1
cuando cuando CS 0.983796
nos nos PP1CP000 0.933333
reprimi reprimi VMIS1S0 0.0691907
mat mat NCMS000 1
a a SPS00 1
el el DA0MS0 1
hermano hermano NCMS000 0.954545
Roberto_L roberto_l NP00000 1
pez pez NCMS000 0.649732
nos nos PP1CP000 0.933333
quem quem NCMS000 1
casas casa NCFP000 0.958333
y y CC 0.999812
DNI dni NP00000 1
nos nos PP1CP000 0.933333
humill humill AQ0CS0 0.587402
Y y NP00000 1
resumi resumi VMIS1S0 0.0691907
lo lo PP3CNA00 0.271163
que que CS 0.4375
sobrevol sobrevol NCMS000 0.861706
durante durante SPS00 1
tres_d TM_d:3 Zu 1
as as NCMS000 1
en en SPS00 1
la el DA0FS0 0.972146
Cumbre_No cumbre_no NP00000 1
somos ser VSIP1P0 1
opositores opositor AQ0MP0 0.357313
no no RN 0.99778
somos ser VSIP1P0 1
oficialistas oficialista AQ0CP0 0.442956
queremos querer VMIP1P0 1
manejar manejar VMN0000 1
nuestros nuestro DP1MPP 0.854167
territorios territorio NCMP000 1
No no NP00000 1
somos ser VSIP1P0 1
dirigentes dirigente NCCP000 0.75
con con SPS00 1
sueldos sueldo NCMP000 1
no no RN 0.99778
somos ser VSIP1P0 1
pol pol NCMS000 0.861706
ticos ticos AQ0MP0 0.671839
queremos querer VMIP1P0 1
trabajar trabajar VMN0000 1
nuestros nuestro DP1MPP 0.854167
territorios territorio NCMP000 1
para para SPS00 0.998507
la el DA0FS0 0.972146
vida vida NCFS000 1
Y y NP00000 1
remat remat NCMS000 1
Qu qu NP00000 1
triste triste AQ0CS0 1
ser ser VSN0000 0.93883
t t NCFS000 1
tere tere VMIP3S0 0.899995
de de SPS00 0.999919
un uno DI0MS0 0.986987
poder poder NCMS000 0.711538
econ econ NCMS000 1
mico mico NCMS000 1
Que que NP00000 1
triste triste AQ0CS0 1
no no RN 0.99778
tener tener VMN0000 1
la el DA0FS0 0.972146
libertad libertad NCFS000 0.978261
de de SPS00 0.999919
los el DA0MP0 0.97623
ind ind AQ0CN0 0.357839
genas genas NCCP000 1
F f NP00000 1
lix lix AQ0CN0 0.181736
cuestion cuestion VMIS3P0 0.923476
a a SPS00 0.99585
los el DA0MP0 0.97623
medios medio NCMP000 0.95
de de SPS00 0.999919
comunicaci comunicaci RG 0.751648
n n NCFS000 1
que que PR0CN000 0.5625
tergiversan tergiversar VMIP3P0 1
la el DA0FS0 0.972146
lucha lucha NCFS000 0.880952
ind ind AQ0CN0 0.357839
gena gena AQ0FS0 0.426806
apunt apunt NCMS000 0.607342
a a SPS00 0.99585
los el DA0MP0 0.97623
pol pol NCMS000 0.861706
ticos ticos AQ0MP0 0.671839
que que PR0CN000 0.5625
prometen prometer VMIP3P0 1
pero pero CC 0.998821
siempre siempre RG 1
enga enga VMSP3S0 0.87504
an an NCFS000 1
y y CC 0.999812
se se P00CN000 0.465602
pregunt pregunt NCMS000 0.607342
por por SPS00 1
qu qu NCMS000 0.774439
los el DA0MP0 0.97623
gobernantes gobernante NCCP000 0.916667
no no RN 0.99778
quieren querer VMIP3P0 1
dialogar dialogar VMN0000 1
con con SPS00 1
los el DA0MP0 0.97623
pueblos pueblo NCMP000 1
ind ind AQ0CN0 0.357839
genas genas NCCP000 1
No no NP00000 1
somos ser VSIP1P0 1
usurpadores usurpador AQ0MP0 0.391066
no no RN 0.99778
somos ser VSIP1P0 1
corruptos corrupto AQ0MP0 1
por por SPS00 1
qu qu NCMS000 0.774439
no no RN 0.99778
nos nos PP1CP000 0.933333
reciben recibir VMIP3P0 1
El_Estado el_estado NP00000 1
no no RN 0.99778
valora valorar VMIP3S0 0.994868
nuestra nuestro DP1FSP 0.892857
vida vida NCFS000 1
no no RN 0.99778
tenemos tener VMIP1P0 1
valor valor NCMS000 1
para para SPS00 0.998507
ellos ellos PP3MP000 1
s segundo NCMN000 0.622321
lo lo PP3CNA00 0.271163
quieren querer VMIP3P0 1
el el DA0MS0 1
dinero dinero NCMS000 1
acus acu NCFP000 1
D d NP00000 1
az az NCFS000 1
record record AQ0CN0 0.5
el el DA0MS0 1
incumplimiento incumplimiento NCMS000 1
de de SPS00 0.999919
la el DA0FS0 0.972146
Ley ley NP00000 1
26160 26160 Z 1
y y CC 0.999812
lament lament NCMS000 0.607342
que que PR0CN000 0.5625
ya ya RG 0.996988
no no RN 0.99778
est est NCMS000 1
presente presente AQ0CS0 0.197917
la el DA0FS0 0.972146
organizaci organizaci RG 0.751648
n n NCFS000 1
Tupac_Amaru tupac_amaru NP00000 1
que que PR0CN000 0.5625
tanto tanto RG 0.857895
apoy apoy RG 0.727286
con con SPS00 1
dinero dinero NCMS000 1
para para SPS00 0.998507
la el DA0FS0 0.972146
marcha marcha NCFS000 0.948718
de de SPS00 0.999919
2010 2010 Z 1
Reconoci reconoci NP00000 1
que que CS 0.4375
es ser VSIP3S0 1
una uno DI0FS0 0.951241
lucha lucha NCFS000 0.880952
desigual desigual AQ0CS0 1
y y CC 0.999812
cont cont NCMS000 0.607342
que que CS 0.4375
muchos mucho DI0MP0 0.541667
hermanos hermano NCMP000 1
no no RN 0.99778
pudieron poder VMIS3P0 1
venir venir VMN0000 1
por por SPS00 1
falta falta NCFS000 0.693182
de de SPS00 0.999919
dinero dinero NCMS000 1
para para SPS00 0.998507
pasajes pasaje NCMP000 1
Remarc remarc NP00000 1
la el DA0FS0 0.972146
capacidad capacidad NCFS000 1
de de SPS00 0.999919
organizaci organizaci RG 0.751648
n n NCFS000 1
de de SPS00 1
el el DA0MS0 1
Consejo_Plurinacional consejo_plurinacional NP00000 1
advirti advirti NCMS000 1
que que CS 0.4375
seguir seguir VMN0000 1
n n NCFS000 1
luchando luchar VMG0000 1
hasta hasta SPS00 0.955172
que que CS 0.4375
se se P00CN000 0.465602
cumplan cumplir VMSP3P0 0.901253
los el DA0MP0 0.97623
derechos derecho NCMP000 0.9
de de SPS00 0.999919
todos todo DI0MP0 0.622419
los el DA0MP0 0.97623
pueblos pueblo NCMP000 1
ind ind AQ0CN0 0.357839
genas genas NCCP000 1
e y CC 0.973684
inform inform NCMS000 0.700265
que que PR0CN000 0.5625
el el DA0MS0 1
Consejo_Plurinacional consejo_plurinacional NP00000 1
lo el DA0NS0 0.457393
hab hab NCMS000 0.63631
a a SPS00 0.99585
designado designar VMP00SM 1
como como CS 0.998579
representante representante NCCS000 0.75
de de SPS00 0.999919
los el DA0MP0 0.97623
pueblos pueblo NCMP000 1
ind ind AQ0CN0 0.357839
genas genas NCCP000 1
de de SPS00 1
el el DA0MS0 1
pa pa NCFS000 0.740689
s segundo NCMN000 0.622321
Agradezco agradezco NP00000 1
esa ese DD0FS0 0.978261
confianza confianza NCFS000 1
La la NP00000 1
confianza confianza NCFS000 1
no no RN 0.99778
se se P00CN000 0.465602
compra comprar VMIP3S0 0.416667
ni ni CC 0.995935
se se P00CN000 0.465602
vende vender VMIP3S0 0.6
se se P00CN000 0.465602
gana ganar VMIP3S0 0.583333
con con SPS00 1
la el DA0FS0 0.972146
lucha lucha NCFS000 0.880952
La la NP00000 1
militancia militancia NCFS000 1
no no RN 0.99778
se se P00CN000 0.465602
paga pagar VMIP3S0 0.333333
se se P00CN000 0.465602
vive vivir VMIP3S0 0.96875
se se P00CN000 0.465602
comparte compartir VMIP3S0 0.150894
Esta_Cumbre esta_cumbre NP00000 1
y y CC 0.999812
esta este DD0FS0 0.982143
marcha marcha NCFS000 0.948718
es ser VSIP3S0 1
un uno DI0MS0 0.986987
inicio inicio NCMS000 0.75
un uno DI0MS0 0.986987
puntapi puntapi AQ0MS0 1
de de SPS00 0.999919
la el DA0FS0 0.972146
Argentina argentina NP00000 1
plurinacional plurinacional AQ0CS0 1
que que PR0CN000 0.5625
queremos querer VMIP1P0 1
Haga haga NP00000 1
click click NCMS000 0.50012
aqu aqu NCMS000 0.774439
para para SPS00 0.998507
recibir recibir VMN0000 1
gratis gratis RG 0.75
Argenpress argenpress NP00000 1
en en SPS00 1
su su DP3CS0 1
correo correo NCMS000 0.735623
electr electr AQ0CS0 0.0829965
nico no NCMS00D 0.522084

