Trabajadores trabajador NCMP000 0.904762
de de SPS00 0.999919
la el DA0FS0 0.972146
televisi televisi RG 1
n n NCFS000 1
p p NCFS000 0.5
blica blica AQ0FS0 1
griega griego AQ0FS0 0.75
siguen seguir VMIP3P0 1
encierro encierro NCMS000 0.75
y y CC 0.999812
emisiones emisión NCFP000 1
Minutos minutos NP00000 1
antes_de antes_de SPS00 1
la el DA0FS0 0.972146
medianoche [??:??/??/??:00.00:am] W 1
de de SPS00 0.999919
hoy hoy RG 0.877358
los el DA0MP0 0.97623
tres 3 Z 1
canales canal NCMP000 1
de de SPS00 0.999919
la el DA0FS0 0.972146
Radio_Televisi radio_televisi NP00000 1
n n NCFS000 1
de de SPS00 0.999919
Grecia_ERT grecia_ert NP00000 1
quedaron quedar VMIS3P0 1
sin sin SPS00 1
se se PP3CN000 0.0687957
a a SPS00 1
el el DA0MS0 1
por por SPS00 1
orden orden NCMS000 0.6
gubernamental gubernamental AQ0CS0 1
sin sin SPS00 1
embargo embargo NCMS000 0.973496
periodistas periodista NCCP000 1
y y CC 0.999812
t t NCFS000 1
cnicos cnicos AQ0MP0 0.500309
iniciaron iniciar VMIS3P0 1
un uno DI0MS0 0.986987
encierro encierro NCMS000 0.75
indefinido indefinido AQ0MS0 0.357319
con con SPS00 1
el el DA0MS0 1
fin fin NCMS000 1
de de SPS00 0.999919
seguir seguir VMN0000 1
emitiendo emitir VMG0000 1
Los los NP00000 1
trabajadores trabajador NCMP000 0.928571
de de SPS00 1
el el DA0MS0 1
grupo grupo NCMS000 1
audiovisual audiovisual AQ0CS0 0.65727
no no RN 0.99778
estuvieron estar VAIS3P0 1
solos solo AQ0MP0 0.75
miles mil NCMP000 1
de de SPS00 0.999919
personas persona NCFP000 0.983871
mantuvieron mantener VMIS3P0 1
la el DA0FS0 0.972146
vigilia vigilia NCFS000 1
durante durante SPS00 1
toda todo DI0FS0 0.975806
la el DA0FS0 0.972146
noche noche NCFS000 1
y y CC 0.999812
madrugada madrugada NCFS000 0.75
mientras mientras CS 0.881579
se se P00CN000 0.465602
transmit transmit NCMN000 1
an an NCFS000 1
a a SPS00 0.99585
trav trav AQ0CS0 0.0433699
s segundo NCMN000 0.622321
de de SPS00 0.999919
una uno DI0FS0 0.951241
p p NCFS000 0.5
gina gina VMIP3S0 0.333217
de de SPS00 0.999919
internet internet NCFS000 1
mensajes mensaje NCMP000 1
de de SPS00 0.999919
apoyo apoyo NCMS000 0.928571
y y CC 0.999812
entrevistas entrevista NCFP000 0.666667
a a SPS00 0.99585
destacadas destacar VMP00PF 1
figuras figura NCFP000 0.75
p p NCFS000 0.5
blicas blicas AQ0FP0 1
que que PR0CN000 0.5625
criticaron criticar VMIS3P0 1
la el DA0FS0 0.972146
decisi decisi RG 1
n n NCFS000 1
de de SPS00 1
el el DA0MS0 1
Ejecutivo_A_medida_que ejecutivo_a_medida_que NP00000 1
pasan pasar VMIP3P0 1
las el DA0FP0 0.97051
horas hora NCFP000 1
se se P00CN000 0.465602
empieza empezar VMIP3S0 0.9
a a SPS00 0.99585
saber saber VMN0000 0.880952
que que CS 0.4375
el el DA0MS0 1
cierre cierre NCMS000 0.899603
de de SPS00 0.999919
ERT ert NP00000 1
y y CC 0.999812
el el DA0MS0 1
despido despido NCMS000 0.674007
de de SPS00 0.999919
sus su DP3CP0 0.998462
dos_mil_700 2700 Z 1
empleados empleado NCMP000 0.7
es ser VSIP3S0 1
la el DA0FS0 0.972146
respuesta respuesta NCFS000 1
de de SPS00 0.999919
Atenas atenas NP00000 1
a a SPS00 0.99585
la el DA0FS0 0.972146
exigencia exigencia NCFS000 1
de de SPS00 0.999919
los el DA0MP0 0.97623
acreederos acreederos NCMP000 0.666533
internacionales internacional AQ0CP0 0.928571
de de SPS00 0.999919
reducir reducir VMN0000 1
costes coste NCMP000 1
adem adem NCMS000 1
s segundo NCMN000 0.622321
de de SPS00 0.999919
un uno DI0MS0 0.986987
intento intento NCMS000 0.9
para para SPS00 0.998507
tratar tratar VMN0000 1
de de SPS00 0.999919
ocultar ocultar VMN0000 1
el el DA0MS0 1
estrepitoso estrepitoso AQ0MS0 1
fracaso fracaso NCMS000 0.833333
de de SPS00 1
el el DA0MS0 1
plan plan NCMS000 1
de de SPS00 0.999919
privatizaciones privatización NCFP000 1
Seg seg NP00000 1
n n NCFS000 1
fuentes fuente NCFP000 1
de de SPS00 1
el el DA0MS0 1
Pasok_Movimiento_Socialista_Panhel pasok_movimiento_socialista_panhel NP00000 1
nico nico AQ0MS0 0.470565
citadas citar VMP00PF 1
por por SPS00 1
el el DA0MS0 1
diario diario NCMS000 0.5
Eleftherotypia eleftherotypia NP00000 1
el el DA0MS0 1
gobierno gobierno NCMS000 0.9
present present NCMS000 0.607342
el el DA0MS0 1
cierre cierre NCMS000 0.899603
de de SPS00 0.999919
ERT ert NP00000 1
como como CS 0.998579
una uno DI0FS0 0.951241
medida medida NCFS000 0.863636
necesaria necesario AQ0FS0 1
para para SPS00 0.998507
garantizar garantizar VMN0000 1
la el DA0FS0 0.972146
entrega entrega NCFS000 0.266667
de de SPS00 1
el el DA0MS0 1
pr pr NCMS000 0.224371
ximo ximo AQ0MS0 0.937453
y y CC 0.999812
vital vital AQ0CS0 1
tramo tramo NCMS000 0.973363
de de SPS00 1
el el DA0MS0 1
pr pr NCMS000 0.224371
stamo stamo VMIP1S0 0.555481
financiero financiero AQ0MS0 0.75
que que CS 0.4375
la el DA0FS0 0.972146
delegaci delegaci AQ0CS0 0.0199855
n n NCFS000 1
de de SPS00 0.999919
los el DA0MP0 0.97623
acreedores acreedor NCMP000 0.64271
presente presente AQ0CS0 0.197917
en en SPS00 1
la el DA0FS0 0.972146
capital capital NCFS000 0.372549
debe deber VMIP3S0 0.974359
valorar valorar VMN0000 1
durante durante SPS00 1
esta este DD0FS0 0.982143
semana semana NCFS000 1
Felicitaciones felicitaciones NP00000 1
a a SPS00 1
el el DA0MS0 1
gobierno gobierno NCMS000 0.9
griego griego AQ0MS0 0.50722
dijo decir VMIS3S0 1
el el DA0MS0 1
presentador presentador NCMS000 0.342874
de de SPS00 0.999919
noticias noticia NCFP000 0.9375
Antonis_Alafogiorgos antonis_alafogiorgos NP00000 1
antes_de antes_de SPS00 1
que que PR0CN000 0.5625
finalizaran finalizar VMSI3P0 1
la el DA0FS0 0.972146
emisi emisi RG 1
n n NCFS000 1
en en SPS00 1
directo directo AQ0MS0 0.9
de de SPS00 1
el el DA0MS0 1
primer 1 AO0MS0 1
canal canal NCMS000 1
de de SPS00 0.999919
la el DA0FS0 0.972146
ERT ert NP00000 1
este este PD0MS000 0.0330789
es ser VSIP3S0 1
un uno DI0MS0 0.986987
golpe golpe NCMS000 1
a a SPS00 0.99585
la el DA0FS0 0.972146
democracia democracia NCFS000 1
Por por NP00000 1
su su DP3CS0 1
parte parte NCFS000 0.497967
el el DA0MS0 1
l l NCFS000 0.639398
der der VMN0000 0.630215
de de SPS00 1
el el DA0MS0 1
principal principal AQ0CS0 0.9375
partido partido NCMS000 0.886364
opositor opositor AQ0MS0 0.357288
Syriza_Alexis_Tsipras syriza_alexis_tsipras NP00000 1
declar declar VMN0000 1
que que CS 0.4375
la el DA0FS0 0.972146
medida medida NCFS000 0.863636
era ser VSII1S0 0.490859
un uno DI0MS0 0.986987
golpe golpe NCMS000 1
de de SPS00 0.999919
Estado estado NP00000 1
dirigido dirigir VMP00SM 1
no no RN 0.99778
solo solo RG 0.0555556
contra contra SPS00 0.976316
los el DA0MP0 0.97623
empleados empleado NCMP000 0.7
de de SPS00 0.999919
ERT ert NP00000 1
sino sino CC 0.981707
tambi tambi AQ0CN0 1
n n NCFS000 1
contra contra SPS00 0.976316
el el DA0MS0 1
pueblo pueblo NCMS000 0.978261
griego griego AQ0MS0 0.50722
que que PR0CN000 0.5625
paga pagar VMIP3S0 0.333333
por por SPS00 1
una uno DI0FS0 0.951241
radiodifusi radiodifusi RG 1
n n NCFS000 1
p p NCFS000 0.5
blica blica AQ0FS0 1
y y CC 0.999812
tienen tener VMIP3P0 1
derecho derecho NCMS000 0.884615
a a SPS00 0.99585
una uno DI0FS0 0.951241
informaci informaci AQ0CS0 0.0199855
n n NCFS000 1
objetiva objetivo AQ0FS0 0.841237
El el NP00000 1
sindicato sindicato NCMS000 1
de de SPS00 0.999919
ERT ert NP00000 1
emiti emiti NCMS000 1
un uno DI0MS0 0.986987
comunicado comunicado NCMS000 0.345763
en en SPS00 1
el el DA0MS0 1
que que PR0CN000 0.5625
culpaba culpar VMII3S0 0.649997
a a SPS00 0.99585
los el DA0MP0 0.97623
prestamistas prestamista NCCP000 0.342887
de de SPS00 0.999919
exigir exigir VMN0000 1
despidos despido NCMP000 1
en en SPS00 1
la el DA0FS0 0.972146
administraci administraci AQ0CS0 0.0199855
n n NCFS000 1
p p NCFS000 0.5
blica blica AQ0FS0 1
y y CC 0.999812
a a SPS00 1
el el DA0MS0 1
gobierno gobierno NCMS000 0.9
de de SPS00 0.999919
estar estar VAN0000 1
dispuesto disponer VMP00SM 1
a a SPS00 0.99585
sacrificar sacrificar VMN0000 1
la el DA0FS0 0.972146
corporaci corporaci AQ0CS0 0.0199855
n n NCFS000 1
de de SPS00 0.999919
radiodifusi radiodifusi RG 1
n n NCFS000 1
p p NCFS000 0.5
blica blica AQ0FS0 1
para para SPS00 0.998507
cumplir cumplir VMN0000 1
con con SPS00 1
las el DA0FP0 0.97051
exigencias exigencia NCFP000 1
externas externo AQ0FP0 0.557178
La_Uni la_uni NP00000 1
n n NCFS000 1
Europea_de_Radiodifusi europea_de_radiodifusi NP00000 1
n n NCFS000 1
una uno DI0FS0 0.951241
alianza alianza NCFS000 1
de de SPS00 0.999919
organizaciones organización NCFP000 1
de de SPS00 0.999919
medios medio NCMP000 0.95
de de SPS00 0.999919
comunicaci comunicaci RG 0.751648
n n NCFS000 1
p p NCFS000 0.5
blicos blicos AQ0MP0 1
expres expres NCMP000 0.667094
su su DP3CS0 1
profunda profundo AQ0FS0 0.666667
consternaci consternaci NCMS000 0.0996348
n n NCFS000 1
y y CC 0.999812
la el DA0FS0 0.972146
Federaci federaci NP00000 1
n n NCFS000 1
Internacional_de_Periodistas internacional_de_periodistas NP00000 1
en en SPS00 1
Europa europa NP00000 1
tambi tambi AQ0CN0 1
n n NCFS000 1
conden conden VMIP3P0 0.666887
en en SPS00 1
rgicamente rgicamente RG 1
la el DA0FS0 0.972146
medida medida NCFS000 0.863636
calific calific RG 0.5
ndola ndola AQ0FS0 0.542343
de de SPS00 0.999919
golpe golpe NCMS000 1
a a SPS00 0.99585
la el DA0FS0 0.972146
democracia democracia NCFS000 1
a a SPS00 1
el el DA0MS0 1
pluralismo pluralismo NCMS000 1
informativo informativo AQ0MS0 0.875
y y CC 0.999812
a a SPS00 0.99585
los el DA0MP0 0.97623
trabajadores trabajador NCMP000 0.928571
El_Sindicato_de_Periodistas_de_Atenas el_sindicato_de_periodistas_de_atenas NP00000 1
convoc convoc NC00000 0.538029
a a SPS00 0.99585
una uno DI0FS0 0.951241
huelga huelga NCFS000 0.916667
en en SPS00 1
los el DA0MP0 0.97623
medios medio NCMP000 0.95
de de SPS00 0.999919
comunicaci comunicaci RG 0.751648
n n NCFS000 1
de de SPS00 0.999919
48_horas TM_h:48 Zu 1
a_partir_de a_partir_de SPS00 1
las el DA0FP0 0.97051
06 6 Z 1
00 0 Z 1
de de SPS00 0.999919
hoy hoy RG 0.877358
como como CS 0.998579
protesta protesta NCFS000 0.916667
por por SPS00 1
el el DA0MS0 1
decreto decreto NCMS000 0.973497
gubernamental gubernamental AQ0CS0 1
Con con NP00000 1
el el DA0MS0 1
cierre cierre NCMS000 0.899603
de de SPS00 0.999919
ERT ert NP00000 1
la el DA0FS0 0.972146
austeridad austeridad NCFS000 1
se se P00CN000 0.465602
cobra cobrar VMIP3S0 0.161856
la el DA0FS0 0.972146
primera 1 AO0FS0 0.987179
v v NCFS000 1
ctima ctima NCFS000 1
entre entre SPS00 0.995223
los el DA0MP0 0.97623
medios medio NCMP000 0.95
p p NCFS000 0.5
blicos blicos AQ0MP0 1
de de SPS00 0.999919
radiodifusi radiodifusi RG 1
n n NCFS000 1
de de SPS00 0.999919
los el DA0MP0 0.97623
pa pa NCFS000 0.740689
ses ses AQ0CP0 0.068278
europeos europeo NCMP000 0.5
bajo bajo SPS00 0.866071
control control NCMS000 1
de de SPS00 0.999919
la el DA0FS0 0.972146
troika troika NCFS000 1
que que PR0CN000 0.5625
integran integrar VMIP3P0 1
la el DA0FS0 0.972146
Comisi comisi NP00000 1
n n NCFS000 1
Europea_el_Banco_Central_Europeo europea_el_banco_central_europeo NP00000 1
y y CC 0.999812
el el DA0MS0 1
Fondo_Monetario_Internacional_Haga fondo_monetario_internacional_haga NP00000 1
click click NCMS000 0.50012
aqu aqu NCMS000 0.774439
para para SPS00 0.998507
recibir recibir VMN0000 1
gratis gratis RG 0.75
Argenpress argenpress NP00000 1
en en SPS00 1
su su DP3CS0 1
correo correo NCMS000 0.735623
electr electr AQ0CS0 0.0829965
nico no NCMS00D 0.522084

