Una uno DI0FS0 0.951241
huelga huelga NCFS000 0.916667
de de SPS00 1
el el DA0MS0 1
personal personal NCMS000 0.289474
deja dejar VMIP3S0 0.952381
en en SPS00 1
tierra tierra NCFS000 1
casi casi RG 1
todos todo DI0MP0 0.622419
los el DA0MP0 0.97623
vuelos vuelo NCMP000 1
de de SPS00 0.999919
Lufthansa_La lufthansa_la NP00000 1
mayor mayor AQ0CS0 0.989796
aerol aerol NCMS000 1
nea nea AQ0FS0 0.499863
alemana alemán AQ0FS0 0.833333
Lufthansa lufthansa NP00000 1
cancel cancel NCMS000 1
hoy hoy RG 0.877358
1 1 Z 1
688 688 Z 1
de de SPS00 0.999919
los el DA0MP0 0.97623
1 1 Z 1
720 720 Z 1
vuelos vuelo NCMP000 1
previstos prever VMP00PM 1
debido_a debido_a SPS00 1
una uno DI0FS0 0.951241
huelga huelga NCFS000 0.916667
de de SPS00 0.999919
advertencia advertencia NCFS000 1
convocada convocar VMP00SF 1
por por SPS00 1
el el DA0MS0 1
personal personal NCMS000 0.289474
de de SPS00 0.999919
tierra tierra NCFS000 1
seg segundo NCMN000 1
n n NCFS000 1
un uno DI0MS0 0.986987
comunicado comunicado NCMS000 0.345763
de de SPS00 0.999919
la el DA0FS0 0.972146
propia propio AQ0FS0 1
compa compa VMSP3S0 1
a a SPS00 0.99585
La la NP00000 1
jornada jornada NCFS000 1
de de SPS00 0.999919
paro paro NCMS000 0.904762
afecta afectar VMIP3S0 0.777778
pr pr VMN0000 0.633986
cticamente cticamente RG 1
a a SPS00 0.99585
todas todo DI0FP0 0.945312
las el DA0FP0 0.97051
rutas ruta NCFP000 1
nacionales nacional AQ0CP0 1
y y CC 0.999812
europeas europeo AQ0FP0 0.833333
incluidos incluir VMP00PM 1
40 40 Z 1
vuelos vuelo NCMP000 1
a a SPS00 0.99585
Rusia rusia NP00000 1
as as NCMS000 1
como como CS 0.998579
a a SPS00 0.99585
varias varios DI0FP0 0.939394
rutas ruta NCFP000 1
intercontinentales intercontinental AQ0CP0 1
y y CC 0.999812
a a SPS00 0.99585
todos todo DI0MP0 0.622419
los el DA0MP0 0.97623
aeropuertos aeropuerto NCMP000 1
principales principal AQ0CP0 0.875
de de SPS00 0.999919
Alemania alemania NP00000 1
entre entre SPS00 0.995223
ellos ellos PP3MP000 1
Francfort_Hamburgo_M francfort_hamburgo_m NP00000 1
nich nich AQ0CN0 1
Dusseldorf dusseldorf NP00000 1
y y CC 0.999812
Berl berl NP00000 1
n n NCFS000 1
El el NP00000 1
sindicato sindicato NCMS000 1
de de SPS00 1
el el DA0MS0 1
sector sector NCMS000 1
servicios servicio NCMP000 1
Ver ver NP00000 1
di dar VMIS1S0 0.833333
convocante convocante AQ0CS0 0.657243
de de SPS00 1
el el DA0MS0 1
acto acto NCMS000 1
anunci anunci RG 0.751648
la el DA0FS0 0.972146
huelga huelga NCFS000 0.916667
el el DA0MS0 1
pasado_viernes [V:??/??/??:??.??:??] W 1
explicando explicar VMG0000 1
que que CS 0.4375
su su DP3CS0 1
objetivo objetivo NCMS000 0.761905
ser ser VSN0000 0.93883
exigir exigir VMN0000 1
el el DA0MS0 1
aumento aumento NCMS000 0.916667
de de SPS00 1
el el DA0MS0 1
salario salario NCMS000 0.9375
de de SPS00 1
el el DA0MS0 1
5 5 Z 1
2 2 Z 1
para para SPS00 0.998507
33 33 Z 1
000 0 Z 1
empleados empleado NCMP000 0.7
de de SPS00 0.999919
Lufthansa_Ver lufthansa_ver NP00000 1
di dar VMIS1S0 0.833333
ya ya RG 0.996988
celebr celebr VMN0000 0.633986
una uno DI0FS0 0.951241
huelga huelga NCFS000 0.916667
similar similar AQ0CS0 1
el el DA0MS0 1
mes mes NCMS000 1
pasado pasar VMP00SM 0.647727
aunque aunque CC 1
en en SPS00 1
aquella aquel DD0FS0 0.948276
ocasi ocasi RG 1
n n NCFS000 1
la el DA0FS0 0.972146
protesta protesta NCFS000 0.916667
dur dur NCMS000 0.75005
solo solo AQ0MS0 0.930556
siete_horas TM_h:7 Zu 1
de de SPS00 0.999919
las el DA0FP0 0.97051
05 5 Z 1
00 0 Z 1
a a SPS00 0.99585
las el DA0FP0 0.97051
12 12 Z 1
00_hora TM_h:0 Zu 1
local local NCMS000 0.5
Como como NP00000 1
resultado resultado NCMS000 0.807692
la lo PP3FSA00 0.0277626
compa compa VMSP3S0 1
a a SPS00 0.99585
a a SPS00 0.99585
rea reo NCFS000 0.592721
tuvo tener VMIS3S0 1
que que CS 0.4375
cancelar cancelar VMN0000 1
casi casi RG 1
700 700 Z 1
vuelos vuelo NCMP000 1
El el NP00000 1
mayor mayor AQ0CS0 0.989796
paro paro NCMS000 0.904762
de de SPS00 1
el el DA0MS0 1
personal personal NCMS000 0.289474
de de SPS00 0.999919
Lufthansa lufthansa NP00000 1
de de SPS00 0.999919
los el DA0MP0 0.97623
ltimos ltimos AQ0MP0 0.143025
tiempos tiempo NCMP000 1
tuvo_lugar tener_lugar VMIS3S0 1
hace hacer VMIP3S0 1
medio medio RG 0.261538
a a SPS00 0.99585
o o CC 0.998845
y y CC 0.999812
fue ser VSIS3S0 0.932292
secundado secundar VMP00SM 1
por por SPS00 1
los el DA0MP0 0.97623
auxiliares auxiliar NCCP000 0.3
de de SPS00 0.999919
vuelo vuelo NCMS000 0.916667
La la NP00000 1
huelga huelga NCFS000 0.916667
que que PR0CN000 0.5625
se se P00CN000 0.465602
prolong prolong NCMS000 0.833333
durante durante SPS00 1
varios varios DI0MP0 0.883333
d d NCFS000 1
as as NCMS000 1
oblig oblig NCMS000 0.714133
a a SPS00 0.99585
cancelar cancelar VMN0000 1
miles mil NCMP000 1
de de SPS00 0.999919
vuelos vuelo NCMP000 1
y y CC 0.999812
caus caus NCMN000 0.916428
p p NCFS000 0.5
rdidas rdidas NCFP000 0.749922
millonarias millonario AQ0FP0 0.65727
Haga haga NP00000 1
click click NCMS000 0.50012
aqu aqu NCMS000 0.774439
para para SPS00 0.998507
recibir recibir VMN0000 1
gratis gratis RG 0.75
Argenpress argenpress NP00000 1
en en SPS00 1
su su DP3CS0 1
correo correo NCMS000 0.735623
electr electr AQ0CS0 0.0829965
nico no NCMS00D 0.522084

