Est est NP00000 1
s segundo NCMN000 0.622321
usando usar VMG0000 1
un uno DI0MS0 0.986987
Navegador navegador NP00000 1
desactualizado desactualizar VMP00SM 1
Por_favor por_favor NP00000 1
actual actual AQ0CS0 1
zalo zalo NCMS000 0.888886
a a SPS00 0.99585
una uno DI0FS0 0.951241
versi versi RG 1
n n NCFS000 1
m m NCFS000 0.5
s segundo NCMN000 0.622321
moderna moderno AQ0FS0 0.916667
y y CC 0.999812
podr podr AQ0CS0 0.0829965
s segundo NCMN000 0.622321
ver ver VMN0000 0.987179
este este DD0MS0 0.956743
y y CC 0.999812
otros otro DI0MP0 0.56875
sitios sitio NCMP000 1
como como CS 0.998579
realmente realmente RG 1
fueron ser VSIS3P0 0.796296
pensados pensar VMP00PM 1
X x NP00000 1
17 17 Z 1
Comentarios_En comentarios_en NP00000 1
agosto_de_2006 [??:??/8/2006:??.??:??] W 1
el el DA0MS0 1
entonces entonces RG 0.97619
subsecretario subsecretario NCMS000 1
de de SPS00 0.999919
Interior_Felipe_Harboe interior_felipe_harboe NP00000 1
recibi recibi AQ0CN0 1
una uno DI0FS0 0.951241
auditor auditor NCMS000 1
a a SPS00 0.99585
que que PR0CN000 0.5625
revelaba revelar VMII3S0 0.65
los el DA0MP0 0.97623
vicios vicio NCMP000 1
de de SPS00 0.999919
funcionamientos funcionamiento NCMP000 1
de de SPS00 1
el el DA0MS0 1
programa programa NCMS000 0.866667
de de SPS00 0.999919
exonerados exonerar VMP00PM 1
pol pol NCMS000 0.861706
ticos ticos AQ0MP0 0.671839
que que PR0CN000 0.5625
afectaban afectar VMII3P0 1
la el DA0FS0 0.972146
confiabilidad confiabilidad NCFS000 1
de de SPS00 0.999919
la el DA0FS0 0.972146
informaci informaci AQ0CS0 0.0199855
n n NCFS000 1
y y CC 0.999812
la el DA0FS0 0.972146
toma toma NCFS000 0.433333
de de SPS00 0.999919
decisiones decisión NCFP000 1
frente_a frente_a SPS00 1
un uno DI0MS0 0.986987
requerimiento requerimiento NCMS000 1
Desde_el_Gobierno desde_el_gobierno NP00000 1
se se P00CN000 0.465602
ha haber VAIP3S0 0.998141
afirmado afirmar VMP00SM 0.75
que que CS 0.4375
este este DD0MS0 0.956743
texto texto NCMS000 1
nunca nunca RG 1
fue ser VSIS3S0 0.932292
considerado considerar VMP00SM 1
para para SPS00 0.998507
establecer establecer VMN0000 1
correcciones corrección NCFP000 1
a a SPS00 1
el el DA0MS0 1
programa programa NCMS000 0.866667
Sin sin NP00000 1
embargo embargar VMIP1S0 0.0265036
documentos documento NCMP000 1
a a SPS00 0.99585
los el DA0MP0 0.97623
que que PR0CN000 0.5625
tuvo tener VMIS3S0 1
acceso acceso NCMS000 1
The_Clinic_Online the_clinic_online NP00000 1
demuestran demostrar VMIP3P0 1
que que CS 0.4375
Marta_Joinant marta_joinant NP00000 1
la el DA0FS0 0.972146
militante militante NCCS000 0.625
PS ps NP00000 1
a_cargo_de a_cargo_de SPS00 1
la el DA0FS0 0.972146
calificaci calificaci AQ0CS0 0.0199855
n n NCFS000 1
de de SPS00 0.999919
exonerados exonerar VMP00PM 1
s segundo NCMN000 0.622321
respondi respondi VMIS1S0 1
en en SPS00 1
junio_de_2007 [??:??/6/2007:??.??:??] W 1
a a SPS00 0.99585
las el DA0FP0 0.97051
recomendaciones recomendación NCFP000 1
realizadas realizar VMP00PF 1
para para SPS00 0.998507
mejorar mejorar VMN0000 1
el el DA0MS0 1
programa programa NCMS000 0.866667
En en NP00000 1
el el DA0MS0 1
a a NCFS000 0.00415028
o o CC 0.998845
2006 2006 Z 1
se se P00CN000 0.465602
hizo hacer VMIS3S0 1
una uno DI0FS0 0.951241
auditor auditor NCMS000 1
a a SPS00 0.99585
a a SPS00 0.99585
este este DD0MS0 0.956743
programa programa NCMS000 0.866667
el el DA0MS0 1
de de SPS00 0.999919
exonerados exonerar VMP00PM 1
que que CS 0.4375
fue ser VSIS3S0 0.932292
brutal brutal AQ0CS0 1
todo todo DI0MS0 0.559816
mal mal NCMS000 0.492063
hecho hacer VMP00SM 0.618421
Una uno DI0FS0 0.951241
auditor auditor NCMS000 1
a a SPS00 0.99585
de de SPS00 1
el el DA0MS0 1
propio propio AQ0MS0 0.98
subsecretario subsecretario NCMS000 1
de de SPS00 1
el el DA0MS0 1
Interior_Cuando interior_cuando NP00000 1
se se P00CN000 0.465602
empez empez NCMS000 1
a a SPS00 0.99585
ver ver VMN0000 0.987179
que que CS 0.4375
este este DD0MS0 0.956743
programa programa NCMS000 0.866667
efectivamente efectivamente RG 1
estaba estar VAII1S0 0.5
funcionando funcionar VMG0000 1
muy muy RG 1
mal mal NCMS000 0.492063
y y CC 0.999812
puedo poder VMIP1S0 1
dejar dejar VMN0000 1
les le PP3CPD00 1
el el DA0MS0 1
informe informe NCMS000 0.185057
de de SPS00 0.999919
contralor contralor NCMS000 1
a a SPS00 0.99585
interno interno AQ0MS0 0.777778
el el DA0MS0 1
entonces entonces RG 0.97619
subsecretario subsecretario NCMS000 1
Felipe_Harboe felipe_harboe NP00000 1
le le PP3CSD00 1
pidi pidi VMIS1S0 1
a a SPS00 0.99585
la el DA0FS0 0.972146
encargada encargado NCFS000 0.75
de de SPS00 0.999919
este este DD0MS0 0.956743
programa programa NCMS000 0.866667
Marta_Joinant marta_joinant NP00000 1
tres 3 Z 1
veces vez NCFP000 1
que que PR0CN000 0.5625
contestara contestar VMSI3S0 0.65
Era era NP00000 1
el el DA0MS0 1
superior superior AQ0CS0 0.964286
Ella ella NP00000 1
no no RN 0.99778
contest contest NCMS000 1
nunca nunca RG 1
Se se NP00000 1
dio dar VMIS3S0 1
el el DA0MS0 1
lujo lujo NCMS000 1
de de SPS00 0.999919
no no RN 0.99778
contestar contestar VMN0000 1
le le PP3CSD00 1
a a SPS00 1
el el DA0MS0 1
subsecretario subsecretario NCMS000 1
asever asever VMN0000 1
el el DA0MS0 1
domingo [G:??/??/??:??.??:??] W 1
en en SPS00 1
Tolerancia_Cero tolerancia_cero NP00000 1
la el DA0FS0 0.972146
ministra ministro NCFS000 1
de de SPS00 0.999919
Trabajo_Evelyn_Matthei trabajo_evelyn_matthei NP00000 1
en en SPS00 1
una uno DI0FS0 0.951241
afirmaci afirmaci RG 0.751648
n n NCFS000 1
que que CS 0.4375
seg segundo NCMN000 1
n n NCFS000 1
documentos documento NCMP000 1
recopilados recopilar VMP00PM 1
por por SPS00 1
este este DD0MS0 0.956743
medio medio NCMS000 0.261538
carece carecer VMIP3S0 0.875
de de SPS00 0.999919
veracidad veracidad NCFS000 1
Matthei matthei NP00000 1
hizo hacer VMIS3S0 1
alusi alusi RG 1
n n NCFS000 1
a a SPS00 1
el el DA0MS0 1
memor memor NCMS000 1
ndum ndum NCMS000 0.833338
reservado reservar VMP00SM 0.75
n n NCFS000 1
mero mero AQ0MS0 0.777778
Q37 Q37 Z 1
que que PR0CN000 0.5625
el el DA0MS0 1
jefe jefe NCMS000 1
de de SPS00 0.999919
unidad unidad NCFS000 1
de de SPS00 0.999919
auditor auditor NCMS000 1
a a SPS00 0.99585
interna interno AQ0FS0 0.75
de de SPS00 1
el el DA0MS0 1
ministerio ministerio NCMS000 1
de de SPS00 0.999919
Interior_Hugo_Adolfo_Tapia_Romero interior_hugo_adolfo_tapia_romero NP00000 1
remiti remiti NCMS000 1
en en SPS00 1
agosto_de_2006 [??:??/8/2006:??.??:??] W 1
a a SPS00 0.99585
Harboe harboe NP00000 1
y y CC 0.999812
que que PR0CN000 0.5625
conten conten VMIP3P0 0.333715
a a SPS00 0.99585
el el DA0MS0 1
Informe_de_Auditor informe_de_auditor NP00000 1
a a SPS00 0.99585
n n NCFS000 1
mero mero AQ0MS0 0.777778
11 11 Z 1
respecto_de respecto_de SPS00 1
el el DA0MS0 1
programa programa NCMS000 0.866667
de de SPS00 0.999919
exonerados exonerar VMP00PM 1
pol pol NCMS000 0.861706
ticos ticos AQ0MP0 0.671839
que que PR0CN000 0.5625
en en SPS00 1
ese ese DD0MS0 0.98125
momento momento NCMS000 1
estaba estar VAII1S0 0.5
a_cargo_de a_cargo_de SPS00 1
Joignant joignant NP00000 1
militante militante NCCS000 0.625
de de SPS00 1
el el DA0MS0 1
partido partido NCMS000 0.886364
socialista socialista AQ0CS0 0.875
quien quien PR0CS000 1
en en SPS00 1
la el DA0FS0 0.972146
actualidad actualidad NCFS000 1
se se P00CN000 0.465602
encuentra encontrar VMIP3S0 0.972222
afectada afectar VMP00SF 0.656028
por por SPS00 1
un uno DI0MS0 0.986987
agresivo agresivo AQ0MS0 1
c c NCFS000 1
ncer ncer VMN0000 0.666836
Pero pero NP00000 1
a_diferencia_de a_diferencia_de SPS00 1
lo el DA0NS0 0.457393
que que PR0CN000 0.5625
afirma afirmar VMIP3S0 0.916667
Matthei matthei NP00000 1
en en SPS00 1
sus su DP3CP0 0.998462
declaraciones declaración NCFP000 1
Joinant joinant NP00000 1
seg segundo NCMN000 1
n n NCFS000 1
documentos documento NCMP000 1
a a SPS00 0.99585
los el DA0MP0 0.97623
que que PR0CN000 0.5625
tuvo tener VMIS3S0 1
acceso acceso NCMS000 1
The_Clinic_Online the_clinic_online NP00000 1
s segundo NCMN000 0.622321
respondi respondi VMIS1S0 1
a a SPS00 0.99585
todos todo DI0MP0 0.622419
los el DA0MP0 0.97623
puntos punto NCMP000 1
cuestionados cuestionar VMP00PM 1
en en SPS00 1
la el DA0FS0 0.972146
auditor auditor NCMS000 1
a a SPS00 0.99585
interna interno AQ0FS0 0.75
a a SPS00 0.99585
trav trav AQ0CS0 0.0433699
s segundo NCMN000 0.622321
de de SPS00 1
el el DA0MS0 1
oficio oficio NCMS000 0.9375
reservado reservar VMP00SM 0.75
n n NCFS000 1
mero mero AQ0MS0 0.777778
205 205 Z 1
de de SPS00 1
el el DA0MS0 1
22_de_junio_de_2007 [??:22/6/2007:??.??:??] W 1
que que PR0CN000 0.5625
consta constar VMIP3S0 0.833333
en en SPS00 1
los el DA0MP0 0.97623
expedientes expediente NCMP000 0.75
de de SPS00 1
el el DA0MS0 1
ministerio ministerio NCMS000 1
de de SPS00 0.999919
Interior interior NP00000 1
pero pero CC 0.998821
que que CS 0.4375
el el DA0MS0 1
Ejecutivo ejecutivo NP00000 1
ha haber VAIP3S0 0.998141
omitido omitir VMP00SM 1
a a SPS00 1
el el DA0MS0 1
acusar acusar VMN0000 1
p p NCFS000 0.5
blicamente blicamente RG 1
que que CS 0.4375
no no RN 0.99778
hubo haber VMIS3S0 0.95
respuesta respuesta NCFS000 1
alguna alguno DI0FS0 0.893939
a a SPS00 0.99585
los el DA0MP0 0.97623
requerimientos requerimiento NCMP000 1
de de SPS00 0.999919
mejorar mejorar VMN0000 1
los el DA0MP0 0.97623
mecanismos mecanismo NCMP000 1
de de SPS00 0.999919
control control NCMS000 1
de de SPS00 1
el el DA0MS0 1
programa programa NCMS000 0.866667
de de SPS00 0.999919
exonerados exonerar VMP00PM 1
El el NP00000 1
caso caso NCMS000 0.990741
que que PR0CN000 0.5625
ha haber VAIP3S0 0.998141
marcado marcar VMP00SM 1
la el DA0FS0 0.972146
campa campar VMIP3S0 0.994867
a a SPS00 0.99585
electoral electoral AQ0CS0 1
explot explot NCMS000 1
luego_de luego_de SPS00 1
que que CS 0.4375
Contralor contralor NP00000 1
a a SPS00 0.99585
identific identific NCMN000 0.5
a_cerca_de a_cerca_de SPS00 1
3_mil 3000 Z 1
personas persona NCFP000 0.983871
que que PR0CN000 0.5625
recibieron recibir VMIS3P0 1
beneficios beneficio NCMP000 1
previsionales previsional AQ0CP0 1
en_calidad_de en_calidad_de SPS00 1
exonerados exonerar VMP00PM 1
sin_contar_con sin_contar_con SPS00 1
antecedentes antecedente NCMP000 0.25
para para SPS00 0.998507
ello ello PD0NS000 1
y y CC 0.999812
objet objet NCMS000 1
las el DA0FP0 0.97051
pensiones pensión NCFP000 0.75
a a SPS00 0.99585
otros otro DI0MP0 0.56875
5 5 Z 1
917 917 Z 1
beneficiarios beneficiario NCMP000 0.64273
de de SPS00 0.999919
quienes quien PR0CP000 1
no no RN 0.99778
se se P00CN000 0.465602
duda dudar VMIP3S0 0.291667
su su DP3CS0 1
calidad calidad NCFS000 1
de de SPS00 0.999919
exonerados exonerar VMP00PM 1
pero pero CC 0.998821
s segundo NCMN000 0.622321
de de SPS00 0.999919
que que CS 0.4375
cuenten contar VMSP3P0 0.75
con con SPS00 1
los el DA0MP0 0.97623
requisitos requisito NCMP000 0.833333
para para SPS00 0.998507
el el DA0MS0 1
pago pago NCMS000 0.973439
fiscal fiscal AQ0CS0 0.657263
La la NP00000 1
vocera vocero NCFS000 1
de de SPS00 0.999919
Gobierno_Cecilia_P gobierno_cecilia_p NP00000 1
rez rez NCFS000 1
acus acu NCFP000 1
que que PR0CN000 0.5625
hubo haber VMIS3S0 0.95
una_m LN_m:1 Zu 1
quina quina NCFS000 1
instalada instalar VMP00SF 1
para para SPS00 0.998507
defraudar defraudar VMN0000 1
a a SPS00 1
el el DA0MS0 1
Fisco fisco NP00000 1
a_pesar_de a_pesar_de SPS00 1
que que PR0CN000 0.5625
el el DA0MS0 1
Consejo_de_Defensa_de_el_Estado consejo_de_defensa_de_el_estado NP00000 1
encargado encargar VMP00SM 0.5
de de SPS00 0.999919
velar velar VMN0000 0.5
por por SPS00 1
los el DA0MP0 0.97623
intereses interés NCMP000 0.916667
de de SPS00 1
el el DA0MS0 1
Estado estado NP00000 1
a a SPS00 0.99585
n n NCFS000 1
no no RN 0.99778
determina determinar VMIP3S0 0.75
si si CS 0.997706
presentar presentar VMN0000 1
alguna alguno DI0FS0 0.893939
querella querella NCFS000 0.846945
LA_AUDITOR_A_La la_auditor_a_la NP00000 1
auditor auditor NCMS000 1
a a SPS00 0.99585
interna interno NCFS000 0.0833333
de de SPS00 0.999919
2006 2006 Z 1
que que PR0CN000 0.5625
mencion mencion VMIS3P0 0.923476
Matthei matthei NP00000 1
en en SPS00 1
Tolerancia_Cero tolerancia_cero NP00000 1
revelaba revelar VMII3S0 0.65
falencias falencias NCFP000 1
en en SPS00 1
los el DA0MP0 0.97623
procedimientos procedimiento NCMP000 1
de de SPS00 0.999919
control control NCMS000 1
con con SPS00 1
el el DA0MS0 1
que que PR0CN000 0.5625
se se P00CN000 0.465602
calificaba calificar VMII3S0 0.65
como como CS 0.998579
beneficiarios beneficiario NCMP000 0.64273
de de SPS00 0.999919
pensi pensi RG 1
n n NCFS000 1
a a SPS00 0.99585
quienes quien PR0CP000 1
fueron ser VSIS3P0 0.796296
despedidos despedir VMP00PM 1
en en SPS00 1
dictadura dictadura NCFS000 1
por por SPS00 1
raz raz AQ0CS0 0.500309
n n NCFS000 1
de de SPS00 0.999919
su su DP3CS0 1
filiaci filiaci AQ0CS0 0.0199855
n n NCFS000 1
pol pol NCMS000 0.861706
tica tica AQ0FS0 0.595788
Se se NP00000 1
estimaba estimar VMII3S0 0.65
por_ejemplo por_ejemplo RG 1
que que CS 0.4375
las el DA0FP0 0.97051
m m NCFS000 0.5
ltiples ltiples AQ0CP0 1
tareas tarea NCFP000 1
de de SPS00 0.999919
los el DA0MP0 0.97623
funcionarios funcionario NCMP000 1
dificultaban dificultar VMII3P0 1
la el DA0FS0 0.972146
correcta correcto AQ0FS0 1
verificaci verificaci NCMS000 0.0996348
n n NCFS000 1
de de SPS00 0.999919
la el DA0FS0 0.972146
informaci informaci AQ0CS0 0.0199855
n n NCFS000 1
entre entre SPS00 0.995223
otros otro DI0MP0 0.56875
aspectos aspecto NCMP000 1
El el NP00000 1
objetivo objetivo NCMS000 0.761905
de de SPS00 1
el el DA0MS0 1
control control NCMS000 1
que que PR0CN000 0.5625
especific especific RG 0.5
Tapia tapia NP00000 1
en en SPS00 1
el el DA0MS0 1
memo memo NCMS000 0.557008
de de SPS00 0.999919
agosto_de_2006 [??:??/8/2006:??.??:??] W 1
era ser VSII1S0 0.490859
verificar verificar VMN0000 1
que que CS 0.4375
el el DA0MS0 1
proceso proceso NCMS000 0.973684
y y CC 0.999812
los el DA0MP0 0.97623
subprocesos subproceso NCMP000 1
de de SPS00 1
el el DA0MS0 1
programa programa NCMS000 0.866667
de de SPS00 0.999919
Exonerado_Pol exonerado_pol NP00000 1
tico tico AQ0MS0 0.806828
de de SPS00 1
el el DA0MS0 1
ministerio ministerio NCMS000 1
de de SPS00 0.999919
Interior interior NP00000 1
cuenta contar VMIP3S0 0.219697
con con SPS00 1
los el DA0MP0 0.97623
procedimientos procedimiento NCMP000 1
administrativos administrativo AQ0MP0 0.65715
y y CC 0.999812
de de SPS00 0.999919
control control NCMS000 1
suficientes suficiente AQ0CP0 1
para para SPS00 0.998507
asegurar asegurar VMN0000 1
el el DA0MS0 1
cumplimiento cumplimiento NCMS000 1
de de SPS00 0.999919
los el DA0MP0 0.97623
objetivos objetivo NCMP000 0.875
de de SPS00 1
el el DA0MS0 1
Programa_de_Exonerados programa_de_exonerados NP00000 1
pol pol NCMS000 0.861706
ticos ticos AQ0MP0 0.671839
sobre sobre SPS00 0.994203
la el DA0FS0 0.972146
base base NCCS000 0.955882
de de SPS00 0.999919
la el DA0FS0 0.972146
normativa normativa NCFS000 0.48752
vigente vigente AQ0CS0 1
Ley_N ley_n NP00000 1
mero merar VMIP1S0 0.111111
19 19 Z 1
234 234 Z 1
En en NP00000 1
el el DA0MS0 1
texto texto NCMS000 1
de de SPS00 0.999919
15 15 Z 1
p p NCFS000 0.5
ginas ginas NCFP000 1
se se P00CN000 0.465602
sostiene sostener VMIP3S0 1
que que CS 0.4375
en en SPS00 1
los el DA0MP0 0.97623
procesos proceso NCMP000 1
de de SPS00 0.999919
precalificaci precalificaci RG 0.751648
n n NCFS000 1
y y CC 0.999812
calificaci calificaci RG 0.751648
n n NCFS000 1
se se P00CN000 0.465602
presenta presentar VMIP3S0 0.954545
la el DA0FS0 0.972146
inexistencia inexistencia NCFS000 1
de de SPS00 0.999919
criterios criterio NCMP000 1
y y CC 0.999812
procedimientos procedimiento NCMP000 1
formalizados formalizar VMP00PM 1
para para SPS00 0.998507
el el DA0MS0 1
an an NCFS000 1
lisis lisis NCFN000 1
y y CC 0.999812
la el DA0FS0 0.972146
precalificaci precalificaci AQ0CS0 0.0199855
n n NCFS000 1
de de SPS00 0.999919
solicitudes solicitud NCFP000 1
de de SPS00 0.999919
exonerados exonerar VMP00PM 1
pol pol NCMS000 0.861706
ticos ticos AQ0MP0 0.671839
En en NP00000 1
lo el DA0NS0 0.457393
espec espec NC00000 0.538029
fico fico AQ0MS0 0.466938
para para SPS00 0.998507
evitar evitar VMN0000 1
el el DA0MS0 1
estudio estudio NCMS000 0.954545
de de SPS00 0.999919
expedientes expediente NCMP000 0.75
incompletos incompleto AQ0MP0 1
la el DA0FS0 0.972146
reiteraci reiteraci RG 0.751648
n n NCFS000 1
la el DA0FS0 0.972146
no no RN 0.99778
detecci detecci VMIS1S0 0.0691907
n n NCFS000 1
de de SPS00 0.999919
errores error NCMP000 1
la el DA0FS0 0.972146
derivaci derivaci AQ0CS0 0.0199855
n n NCFS000 1
de de SPS00 0.999919
solicitudes solicitud NCFP000 1
a a SPS00 0.99585
archivo archivo NCMS000 0.25
sin sin SPS00 1
resultado resultado NCMS000 0.807692
y y CC 0.999812
las el DA0FP0 0.97051
demoras demora NCFP000 0.97349
en en SPS00 1
las el DA0FP0 0.97051
respuestas respuesta NCFP000 1
a a SPS00 0.99585
usuarios usuario NCMP000 0.642663
u o CC 0.944444
otras otro DI0FP0 0.731481
instancias instancia NCFP000 1
institucionales institucional AQ0CP0 1
claves clave NCFP000 0.333333
En_paralelo en_paralelo NP00000 1
se se P00CN000 0.465602
establece establecer VMIP3S0 0.833333
la el DA0FS0 0.972146
carencia carencia NCFS000 1
o o CC 0.998845
ausencia ausencia NCFS000 1
de de SPS00 0.999919
documentos documento NCMP000 1
soportantes soportantes AQ0CP0 1
en en SPS00 1
las el DA0FP0 0.97051
carpetas carpeta NCFP000 1
que que PR0CN000 0.5625
permiten permitir VMIP3P0 1
la el DA0FS0 0.972146
calificaci calificaci AQ0CS0 0.0199855
n n NCFS000 1
de de SPS00 0.999919
las el DA0FP0 0.97051
empresas empresa NCFP000 1
En en NP00000 1
muchos mucho PI0MP000 0.458333
de de SPS00 0.999919
los el DA0MP0 0.97623
casos caso NCMP000 1
la el DA0FS0 0.972146
documentaci documentaci AQ0CS0 0.0199855
n n NCFS000 1
respaldatoria respaldatoria AQ0FS0 0.832834
no no RN 0.99778
fue ser VSIS3S0 0.932292
habida haber VMP00SF 1
trat trat NCMS000 1
ndose ndose VMSI3S0 0.317009
en en SPS00 1
algunos alguno PI0MP000 0.523438
de de SPS00 0.999919
ellos ellos PP3MP000 1
de de SPS00 0.999919
certificados certificado NCMP000 0.308233
de de SPS00 0.999919
autoridad autoridad NCFS000 1
De de NP00000 1
una uno DI0FS0 0.951241
muestra muestra NCFS000 0.259259
de de SPS00 0.999919
3 3 Z 1
es ser VSIP3S0 1
posible posible AQ0CS0 1
colegir colegir VMN0000 1
lo el DA0NS0 0.457393
siguiente siguiente AQ0CS0 1
el el DA0MS0 1
29 29 Z 1
de de SPS00 0.999919
las el DA0FP0 0.97051
carpetas carpeta NCFP000 1
contienen contener VMIP3P0 1
fichas ficha NCFP000 0.973497
sin sin SPS00 1
documentaci documentaci RG 0.751648
n n NCFS000 1
respaldatoria respaldatoria AQ0FS0 0.832834
y y CC 0.999812
el el DA0MS0 1
9 9 Z 1
de de SPS00 0.999919
las el DA0FP0 0.97051
carpetas carpeta NCFP000 1
corresponden corresponder VMIP3P0 1
a a SPS00 0.99585
certificados certificado NCMP000 0.308233
de de SPS00 0.999919
autoridad autoridad NCFS000 1
no no RN 0.99778
habidos haber VMP00PM 1
Adem adem NP00000 1
s segundo NCMN000 0.622321
se se P00CN000 0.465602
consigna consignar VMIP3S0 0.666667
que que CS 0.4375
existe existir VMIP3S0 0.966667
una uno DI0FS0 0.951241
ineficiente ineficiente AQ0CS0 1
estructura estructura NCFS000 0.944444
org org NCMS000 0.714133
nica nica AQ0FS0 0.730709
carecterizada carecterizada VMP00SF 1
producto producto NCMS000 0.916667
de de SPS00 0.999919
que que CS 0.4375
el el DA0MS0 1
personal personal NCMS000 0.289474
de de SPS00 0.999919
atenci atenci RG 0.751648
n n NCFS000 1
a a SPS00 1
el el DA0MS0 1
p p NCFS000 0.5
blico blico AQ0MS0 0.400224
desempe desempe VMIP3S0 1
a a SPS00 0.99585
m m NCFS000 0.5
ltiples ltiples AQ0CP0 1
funciones función NCFP000 0.916667
recepciona recepcionar VMIP3S0 0.994868
documentaci documentaci RG 0.751648
n n NCFS000 1
atiende atender VMIP3S0 0.75
a a SPS00 0.99585
clientes cliente NCCP000 1
externos externo AQ0MP0 0.65719
personas persona NCFP000 0.983871
naturales natural AQ0CP0 0.9
y y CC 0.999812
jur jur NCMS000 0.75005
dicas dica NCFP000 1
y y CC 0.999812
el el DA0MS0 1
organigrama organigrama NCMS000 1
actual actual AQ0CS0 1
no no RN 0.99778
representa representar VMIP3S0 0.928571
la el DA0FS0 0.972146
estructura estructura NCFS000 0.944444
funcional funcional AQ0CS0 1
de de SPS00 1
el el DA0MS0 1
Programa programa NP00000 1
de de SPS00 0.999919
exonerados exonerar VMP00PM 1
pol pol NCMS000 0.861706
ticos ticos AQ0MP0 0.671839
lo el DA0NS0 0.457393
que que PR0CN000 0.5625
provoca provocar VMIP3S0 0.875
descoordinaci descoordinaci RG 0.751648
n n NCFS000 1
interna interno AQ0FS0 0.75
p p NCFS000 0.5
rdida rdida VMP00SF 0.61536
de de SPS00 0.999919
atribuciones atribución NCFP000 1
e y CC 0.973684
indefinici indefinici RG 0.751648
n n NCFS000 1
de de SPS00 0.999919
responsabilidades responsabilidad NCFP000 1
Tambi tambi NP00000 1
n n NCFS000 1
se se P00CN000 0.465602
establece establecer VMIP3S0 0.833333
que que CS 0.4375
est est NCMS000 1
en en SPS00 1
riesgo riesgo NCMS000 1
la el DA0FS0 0.972146
seguridad seguridad NCFS000 1
y y CC 0.999812
el el DA0MS0 1
debido deber VMP00SM 1
resguardo resguardo NCMS000 0.75
de de SPS00 0.999919
la el DA0FS0 0.972146
documentaci documentaci AQ0CS0 0.0199855
n n NCFS000 1
institucional institucional AQ0CS0 1
Respecto_de respecto_de NP00000 1
la el DA0FS0 0.972146
informaci informaci AQ0CS0 0.0199855
n n NCFS000 1
recalca recalcar VMIP3S0 0.75
que que CS 0.4375
la el DA0FS0 0.972146
base base NCCS000 0.955882
de de SPS00 0.999919
datos dato NCMP000 1
que que PR0CN000 0.5625
contiene contener VMIP3S0 1
informaci informaci RG 0.751648
n n NCFS000 1
para para SPS00 0.998507
el el DA0MS0 1
proceso proceso NCMS000 0.973684
de de SPS00 0.999919
an an NCFS000 1
lisis lisis NCFN000 1
y y CC 0.999812
calificaci calificaci RG 0.751648
n n NCFS000 1
no no RN 0.99778
se se P00CN000 0.465602
encuentra encontrar VMIP3S0 0.972222
actualizada actualizar VMP00SF 1
lo el DA0NS0 0.457393
que que PR0CN000 0.5625
afecta afectar VMIP3S0 0.777778
la el DA0FS0 0.972146
confiabilidad confiabilidad NCFS000 1
de de SPS00 0.999919
la el DA0FS0 0.972146
informaci informaci AQ0CS0 0.0199855
n n NCFS000 1
y y CC 0.999812
la el DA0FS0 0.972146
toma toma NCFS000 0.433333
de de SPS00 0.999919
decisiones decisión NCFP000 1
frente_a frente_a SPS00 1
un uno DI0MS0 0.986987
requerimiento requerimiento NCMS000 1
Asimismo asimismo NP00000 1
limita limitar VMIP3S0 0.75
la el DA0FS0 0.972146
oportunidad oportunidad NCFS000 1
de de SPS00 0.999919
respuesta respuesta NCFS000 1
a a SPS00 1
el el DA0MS0 1
usuario usuario NCMS000 0.75
El el NP00000 1
2_de_octubre_de_2006 [??:2/10/2006:??.??:??] W 1
Harboe harboe NP00000 1
envi envi VMIS1S0 1
un uno DI0MS0 0.986987
memorandum memorandum NCMS000 0.833338
reservado reservar VMP00SM 0.75
n n NCFS000 1
mero mero AQ0MS0 0.777778
508 508 Z 1
a a SPS00 0.99585
Joignant joignant NP00000 1
donde donde PR000000 0.963542
expresa expresar VMIP3S0 0.777778
que que CS 0.4375
junto_con junto_con SPS00 1
saludar saludar VMN0000 1
le le PP3CSD00 1
por_medio_de por_medio_de SPS00 1
el el DA0MS0 1
presente presente NCMS000 0.635417
remito remitir VMIP1S0 1
a a SPS00 0.99585
Ud ud NP00000 1
el el DA0MS0 1
informe informe NCMS000 0.185057
de de SPS00 0.999919
Auditor auditor NP00000 1
a a SPS00 0.99585
interna interno AQ0FS0 0.75
n n NCFS000 1
mero mero AQ0MS0 0.777778
11_de_junio_de_2006 [??:11/6/2006:??.??:??] W 1
referente referente AQ0CS0 0.75
a a SPS00 1
el el DA0MS0 1
trabajo trabajo NCMS000 0.940476
de de SPS00 0.999919
vuestro vuestro DP2MSP 0.861538
programa programa NCMS000 0.866667
Lo lo NP00000 1
anterior anterior AQ0CS0 1
con con SPS00 1
el el DA0MS0 1
objetivo objetivo NCMS000 0.761905
de de SPS00 0.999919
que que CS 0.4375
se se P00CN000 0.465602
adopten adoptar VMSP3P0 0.901254
a a SPS00 0.99585
la el DA0FS0 0.972146
brevedad brevedad NCFS000 1
las el DA0FP0 0.97051
medidas medida NCFP000 0.944444
necesarias necesario AQ0FP0 1
para para SPS00 0.998507
regularizar regularizar VMN0000 1
las el DA0FP0 0.97051
observaciones observación NCFP000 1
en en SPS00 1
l l NCFS000 0.639398
plantedas plantedas NCFP000 0.857172
Harboe harboe NP00000 1
y y CC 0.999812
en en SPS00 1
esto este PD0NS000 1
Matthei matthei NP00000 1
s segundo NCMN000 0.622321
tiene tener VMIP3S0 1
raz raz AQ0CS0 0.500309
n n NCFS000 1
no no RN 0.99778
obtuvo obtener VMIS3S0 1
respuesta respuesta NCFS000 1
inmediata inmediato AQ0FS0 1
e y CC 0.973684
insisti insisti NCMS000 1
mediante mediante SPS00 0.944444
un uno DI0MS0 0.986987
oficio oficio NCMS000 0.9375
reservado reservar VMP00SM 0.75
el el DA0MS0 1
12_de_junio_de_2007 [??:12/6/2007:??.??:??] W 1
a a SPS00 1
el el DA0MS0 1
que que PR0CN000 0.5625
agreg agreg RG 0.14318
un uno DI0MS0 0.986987
segundo 2 AO0MS0 0.742424
p p NCFS000 0.5
rrafo rrafo NCMS000 1
Hago hago NP00000 1
presente presentar VMSP1S0 0.0729167
a a SPS00 0.99585
Ud ud NP00000 1
que que CS 0.4375
es ser VSIP3S0 1
de de SPS00 0.999919
su su DP3CS0 1
responsabilidad responsabilidad NCFS000 1
la el DA0FS0 0.972146
respuesta respuesta NCFS000 1
oportuna oportuno AQ0FS0 1
a a SPS00 0.99585
la el DA0FS0 0.972146
informaci informaci NCMS000 0.0996348
n n NCFS000 1
solicitada solicitar VMP00SF 1
En en NP00000 1
ese ese DD0MS0 0.98125
momento momento NCMS000 1
Joinant joinant NP00000 1
respondi respondi VMIS1S0 1
Con con NP00000 1
fecha fecha NCFS000 0.892857
22_de_junio_de_2007 [??:22/6/2007:??.??:??] W 1
se se P00CN000 0.465602
ala ala NCFS000 0.961441
Como_Ud como_ud NP00000 1
puede poder VMIP3S0 0.995614
apreciar apreciar VMN0000 1
no no RN 0.99778
hubo haber VMIS3S0 0.95
incumplimiento incumplimiento NCMS000 1
de de SPS00 1
el el DA0MS0 1
plazo plazo NCMS000 1
porque porque CS 1
no no RN 0.99778
se se P00CN000 0.465602
me me PP1CS000 0.889706
solicit solicit NCMN000 1
respuesta respuesta NCFS000 1
escrita escribir VMP00SF 1
ni ni CC 0.995935
se se P00CN000 0.465602
fij fij NCMS000 0.692259
plazo plazo NCMS000 1
a a SPS00 0.99585
las el DA0FP0 0.97051
recomendaciones recomendación NCFP000 1
realizadas realizar VMP00PF 1
por por SPS00 1
la el DA0FS0 0.972146
Auditor auditor NP00000 1
a a SPS00 0.99585
Interna interna NP00000 1
tras tras SPS00 1
lo el DA0NS0 0.457393
cual cual PR0CS000 0.9
agreg agreg RG 0.14318
que que CS 0.4375
desde desde SPS00 1
octubre_de_2006 [??:??/10/2006:??.??:??] W 1
se se P00CN000 0.465602
ha haber VAIP3S0 0.998141
destinado destinar VMP00SM 1
personal personal AQ0CS0 0.710526
espec espec NC00000 0.538029
fico fico AQ0MS0 0.466938
para para SPS00 0.998507
cada cada DI0CS0 1
funci funci AQ0CS0 0.0199855
n n NCFS000 1
a a SPS00 0.99585
realizar realizar VMN0000 1
en en SPS00 1
la el DA0FS0 0.972146
oficina oficina NCFS000 1
de de SPS00 1
el el DA0MS0 1
programa programa NCMS000 0.866667
y y CC 0.999812
asever asever VMN0000 1
que que CS 0.4375
se se P00CN000 0.465602
hab hab NCMS000 0.63631
a a SPS00 0.99585
iniciado iniciado NCMS000 0.25
la el DA0FS0 0.972146
recopilaci recopilaci AQ0CS0 0.0199855
n n NCFS000 1
de de SPS00 0.999919
antecedentes antecedente NCMP000 0.25
faltantes faltante AQ0CP0 1
de de SPS00 0.999919
las el DA0FP0 0.97051
empresas empresa NCFP000 1
que que PR0CN000 0.5625
fueron ser VSIS3P0 0.796296
intervenidas intervenir VMP00PF 1
Adem adem NP00000 1
s segundo NCMN000 0.622321
se se P00CN000 0.465602
plantea plantear VMIP3S0 0.994868
que que CS 0.4375
se se P00CN000 0.465602
elabor elabor NCFS000 1
un uno DI0MS0 0.986987
manual manual NCMS000 0.833333
de de SPS00 0.999919
procedimientos procedimiento NCMP000 1
con con SPS00 1
los el DA0MP0 0.97623
criterios criterio NCMP000 1
usados usar VMP00PM 1
hist hist NCMS000 1
ricamente ricamente RG 1
en en SPS00 1
la el DA0FS0 0.972146
calificaci calificaci AQ0CS0 0.0199855
n n NCFS000 1
de de SPS00 0.999919
empresas empresa NCFP000 1
e y CC 0.973684
instituciones institución NCFP000 1
que que PR0CN000 0.5625
origin origin RG 0.388954
el el DA0MS0 1
listado listado NCMS000 0.513816
de de SPS00 0.999919
empresas empresa NCFP000 1
calificadas calificar VMP00PF 1
desde desde SPS00 1
1994 1994 Z 1
el el DA0MS0 1
cual cual PR0CS000 0.9
se se P00CN000 0.465602
fue ir VMIS3S0 0.0677083
actualizando actualizar VMG0000 1
en en SPS00 1
la el DA0FS0 0.972146
medida medida NCFS000 0.863636
que que PR0CN000 0.5625
se se P00CN000 0.465602
reunieron reunir VMIS3P0 1
los el DA0MP0 0.97623
antecedentes antecedente NCMP000 0.25
que que PR0CN000 0.5625
permitieron permitir VMIS3P0 1
la el DA0FS0 0.972146
incorporaci incorporaci AQ0CS0 0.0199855
n n NCFS000 1
de de SPS00 0.999919
nuevas nuevo AQ0FP0 0.961538
empresas empresa NCFP000 1
o o CC 0.998845
modificaciones modificación NCFP000 1
en en SPS00 1
los el DA0MP0 0.97623
plazos plazo NCMP000 1
consignados consignar VMP00PM 1
de de SPS00 0.999919
intervenci intervenci RG 0.751648
n n NCFS000 1
de de SPS00 0.999919
empresas empresa NCFP000 1
privadas privar VMP00PF 0.80908
o o CC 0.998845
empresas empresa NCFP000 1
de de SPS00 0.999919
propiedad propiedad NCFS000 1
estatal estatal AQ0CS0 1
Con con NP00000 1
todo todo PI0MS000 0.430982
en en SPS00 1
noviembre [??:??/11/??:??.??:??] W 1
de de SPS00 0.999919
ese ese DD0MS0 0.98125
mismo mismo AQ0MS0 0.961905
a a SPS00 0.99585
o o CC 0.998845
el el DA0MS0 1
jefe jefe NCMS000 1
de de SPS00 0.999919
gabinete gabinete NCMS000 1
de de SPS00 1
el el DA0MS0 1
subsecretario subsecretario NCMS000 1
de de SPS00 0.999919
Interior interior NP00000 1
le le PP3CSD00 1
remiti remiti NCMS000 1
otro otro DI0MS0 0.61215
oficio oficio NCMS000 0.9375
a a SPS00 0.99585
Joinant joinant NP00000 1
pero pero CC 0.998821
no no RN 0.99778
como como CS 0.998579
remarca remarcar VMIP3S0 0.994868
Matthei matthei NP00000 1
porque porque CS 1
no no RN 0.99778
haya haber VASP1S0 0.378571
respondido responder VMP00SM 1
a a SPS00 0.99585
los el DA0MP0 0.97623
requerimientos requerimiento NCMP000 1
sino sino CC 0.981707
porque porque CS 1
el el DA0MS0 1
texto texto NCMS000 1
que que PR0CN000 0.5625
envi envi VMIS1S0 1
a a SPS00 0.99585
Harboe harboe NP00000 1
deb deb NCMS000 0.63631
a a SPS00 0.99585
ser ser VSN0000 0.93883
remitido remitir VMP00SM 0.691767
junto_a junto_a SPS00 1
otros otro DI0MP0 0.56875
antecedentes antecedente NCMP000 0.25
a a SPS00 1
el el DA0MS0 1
jefe jefe NCMS000 1
de de SPS00 0.999919
auditor auditor NCMS000 1
a a SPS00 0.99585
interna interno AQ0FS0 0.75
A a NP00000 1
continuaci continuaci RG 0.751648
n n NCFS000 1
los el DA0MP0 0.97623
documentos documento NCMP000 1
Se se NP00000 1
demor demor NCFS000 0.649976
un uno DI0MS0 0.986987
poquiiiiiiito poquiiiiiiito NCMS000 0.607495
no no RN 0.99778
m m NCFS000 0.5
s segundo NCMN000 0.622321
total total AQ0CS0 0.944444
que que CS 0.4375
1 1 Z 1
a a SPS00 0.99585
os os PP2CP000 0.722222
para para SPS00 0.998507
alargar alargar VMN0000 1
el el DA0MS0 1
choreo choreo NCMS000 1
pasa pasar VMIP3S0 0.964286
piola piola NCFS000 0.813611
En_todo_caso en_todo_caso NP00000 1
que que CS 0.4375
el el DA0MS0 1
the the NCFS000 0.509017
c c NCFS000 1
nico nico AQ0MS0 0.470565
est est NCMS000 1
tratando tratar VMG0000 1
de de SPS00 0.999919
tapar tapar VMN0000 1
este este DD0MS0 0.956743
choreo choreo NCMS000 1
hace hacer VMIP3S0 1
m m NCFS000 0.5
s segundo NCMN000 0.622321
plausible plausible AQ0CS0 1
el el DA0MS0 1
creer creer VMN0000 1
que que CS 0.4375
es ser VSIP3S0 1
verdad verdad NCFS000 1
que que CS 0.4375
NUNCA nunca NP00000 1
se se P00CN000 0.465602
hicieron_cargo hacer_cargo VMIS3P0 1
Ah ah NP00000 1
seguro seguro AQ0MS0 0.564103
que que PR0CN000 0.5625
porque porque CS 1
respondieron responder VMIS3P0 1
una uno DI0FS0 0.951241
carilla carilla NCFS000 0.342804
toda todo DI0FS0 0.975806
cagona cagón NCFS000 0.642716
los lo PP3MPA00 0.023584
quita quitar VMIP3S0 0.85
de de SPS00 0.999919
responsabilidad responsabilidad NCFS000 1
en en SPS00 1
esta este DD0FS0 0.982143
compra compra NCFS000 0.541667
de de SPS00 0.999919
votos voto NCMP000 1
seguuuuuuuro seguuuuuuuro AQ0MS0 0.573923
Catapilco_MeadoJun catapilco_meadojun NP00000 1
13 13 Z 1
Esto esto NP00000 1
es ser VSIP3S0 1
s segundo NCMN000 0.622321
lo lo PP3CNA00 0.271163
un uno DI0MS0 0.986987
ejemplo ejemplo NCMS000 1
En en NP00000 1
realidad realidad NCFS000 1
TODA toda NP00000 1
la el DA0FS0 0.972146
acci acci AQ0CS0 0.0199855
n n NCFS000 1
antipol antipol NCMS000 0.861706
tica tica AQ0FS0 0.595788
de de SPS00 0.999919
la el DA0FS0 0.972146
derecha derecha NCFS000 0.735294
se se P00CN000 0.465602
basa basar VMIP3S0 0.666667
en en SPS00 1
la el DA0FS0 0.972146
gigantesca gigantesco AQ0FS0 1
mentira mentira NCFS000 1
de de SPS00 0.999919
que que PR0CN000 0.5625
gobiernan gobernar VMIP3P0 1
para para SPS00 0.998507
todos todo DI0MP0 0.622419
Cuando cuando NP00000 1
en en SPS00 1
realidad realidad NCFS000 1
son ser VSIP3P0 0.986772
unos uno DI0MP0 0.879032
megaladrones megaladrón NCMP000 0.53008
que que PR0CN000 0.5625
aligeraron aligerar VMIS3P0 1
durante durante SPS00 1
su su DP3CS0 1
anterior anterior AQ0CS0 1
robierno robierno NCMS000 1
en en SPS00 1
m m NCFS000 0.5
s segundo NCMN000 0.622321
de de SPS00 0.999919
US us NP00000 1
20 20 Z 1
000 0 Z 1
000 0 Z 1
000 0 Z 1
a a SPS00 1
el el DA0MS0 1
Estado_Unos estado_unos NP00000 1
asesinos asesino AQ0MP0 0.125
que que PR0CN000 0.5625
todav todav VMIP3S0 0.0552772
a a SPS00 0.99585
no no RN 0.99778
terminan terminar VMIP3P0 1
de de SPS00 0.999919
limpiar limpiar VMN0000 1
se se PP3CN000 1
las el DA0FP0 0.97051
manos mano NCFP000 1
de de SPS00 0.999919
la el DA0FS0 0.972146
sangre sangre NCFS000 0.931818
que que PR0CN000 0.5625
derramaron derramar VMIS3P0 1
en en SPS00 1
su su DP3CS0 1
anterior anterior AQ0CS0 1
robierno robierno NCMS000 1
y y CC 0.999812
ya ya RG 0.996988
est est NCMS000 1
planificando planificar VMG0000 1
un uno DI0MS0 0.986987
nuevo nuevo AQ0MS0 1
golpe golpe NCMS000 1
de de SPS00 0.999919
Estado_Upeliento_Y estado_upeliento_y NP00000 1
qu qu NCMS000 0.774439
Jun jun NP00000 1
13 13 Z 1
esta este DD0FS0 0.982143
vieja viejo AQ0FS0 0.875
adem adem NCMS000 1
s segundo NCMN000 0.622321
de de SPS00 0.999919
hist hist NCMS000 1
rica rico AQ0FS0 0.75
est est NCMS000 1
pida pedir VMSP1S0 0.444444
y y CC 0.999812
fea feo AQ0FS0 1
tambi tambi AQ0CN0 1
n n NCFS000 1
es ser VSIP3S0 1
mentirosa mentiroso AQ0FS0 0.64218
CATRI_CATRIJun catri_catrijun NP00000 1
13 13 Z 1
Vea vea NP00000 1
do do NCMS000 1
a a SPS00 0.99585
se se P00CN000 0.465602
ora orar VMIP3S0 0.539623
Mathei mathei NP00000 1
es ser VSIP3S0 1
ud ud NCFS000 1
una uno DI0FS0 0.951241
persona persona NCFS000 0.960784
bien bien RG 0.898039
bien bien RG 0.898039
verraca verraca NCFS000 1
hermana hermano NCFS000 0.888889
de de SPS00 0.999919
pato pato NCMS000 1
fernandezJun fernandezjun RG 1
13 13 Z 1
Es es NP00000 1
fidedigna fidedigno AQ0FS0 1
la el DA0FS0 0.972146
informaci informaci RG 0.751648
n n NCFS000 1
la el DA0FS0 0.972146
informaci informaci AQ0CS0 0.0199855
n n NCFS000 1
obtenida obtener VMP00SF 1
por por SPS00 1
Ivonne_Toro_Cualquiera ivonne_toro_cualquiera NP00000 1
de de SPS00 0.999919
nosotros nosotros PP1MP000 1
podria podria NCFS000 1
obtenrela obtenrela NCFS000 0.808501
por por SPS00 1
transparencia transparencia NCFS000 1
NO no NP00000 1
es ser VSIP3S0 1
que que CS 0.4375
desconfie desconfie NCFS000 0.599968
de de SPS00 1
el el DA0MS0 1
trabajo trabajo NCMS000 0.940476
de de SPS00 0.999919
Ivonne_Toro ivonne_toro NP00000 1
pero pero CC 0.998821
si si CS 0.997706
desconfio desconfio NCMS000 1
de de SPS00 1
el el DA0MS0 1
documento documento NCMS000 0.973494
tan tan RG 1
oportuno oportuno AQ0MS0 1
y y CC 0.999812
su su DP3CS0 1
contenido contenido NCMS000 0.916667
CATRI_CATRIJun catri_catrijun NP00000 1
13 13 Z 1
mas mas CC 0.75
r r NCFS000 0.638487
pido pedir VMIP1S0 1
se se P00CN000 0.465602
pilla pillar VMIP3S0 0.220099
a a SPS00 0.99585
un uno DI0MS0 0.986987
mentiroso mentiroso NCMS000 0.354296
que que PR0CN000 0.5625
a a SPS00 0.99585
un uno DI0MS0 0.986987
ladron ladron NCMS000 0.0141937
Marcia_JeanetteJun marcia_jeanettejun NP00000 1
13 13 Z 1
no no RN 0.99778
se se P00CN000 0.465602
haga hacer VMSP1S0 0.444444
el el DA0MS0 1
de de SPS00 0.999919
las el DA0FP0 0.97051
chacras chacra NCFP000 1
ni ni CC 0.995935
venga vengar VMM02S0 0.194444
con con SPS00 1
cuentos cuento NCMP000 1
ni ni CC 0.995935
peras pera NCFP000 1
chinas chino AQ0FP0 0.380366
su su DP3CS0 1
hermanita hermano NCFS00D 1
de de SPS00 1
el el DA0MS0 1
a a NCFS000 0.00415028
o o CC 0.998845
usted usted PP2CS00P 1
es ser VSIP3S0 1
el el DA0MS0 1
que que PR0CN000 0.5625
inspira inspirar VMIP3S0 0.75
m m NCFS000 0.5
s segundo NCMN000 0.622321
desconfianza desconfianza NCFS000 1
a_el_tenor_de al_tenor_de SPS00 1
sus su DP3CP0 0.998462
intervenciones intervención NCFP000 1
que que CS 0.4375
de de SPS00 0.999919
graciosas gracioso NCFP000 0.34273
nada nada PI0CS000 0.846667
y y CC 0.999812
de de SPS00 0.999919
particulares particular NCCP000 0.25
todo todo PI0MS000 0.430982
deje dejar VMSP1S0 0.3125
su su DP3CS0 1
culo culo NCMS000 1
en en SPS00 1
casa casa NCFS000 0.971264
o o CC 0.998845
comp comp NCMS000 1
rtalo rtalo AQ0MS0 0.111114
con con SPS00 1
quien quien PR0CS000 1
desee desear VMSP3S0 0.623437
pero pero CC 0.998821
all all NCFN000 1
y y CC 0.999812
si si CS 0.997706
fuera ser VSSI1S0 0.343972
por por SPS00 1
desclasificar desclasificar VMN0000 1
shuuuu shuuuu NCMS000 0.774439
m m NCFS000 0.5
s segundo NCMN000 0.622321
mejorss mejorss NC00000 0.5
su su DP3CS0 1
oscuro oscuro AQ0MS0 1
objeto objeto NCMS000 0.95
de de SPS00 1
el el DA0MS0 1
deseo deseo NCMS000 0.5
l l NCFS000 0.639398
ase asir VMIP3S0 0.578847
Alianza alianza NP00000 1
le le PP3CSD00 1
tiene tener VMIP3S0 1
el el DA0MS0 1
medio medio NCMS000 0.261538
forado forado VMP00SM 0.727357
usted usted PP2CS00P 1
sabe saber VMIP3S0 0.983333
d d NCFS000 1
nde nde VMIP3S0 0.89855
c c NCFS000 1
chonderoxxxJun chonderoxxxjun RG 1
13 13 Z 1
ya ya RG 0.996988
no no RN 0.99778
hay haber VMIP3S0 1
a a SPS00 0.99585
qui qui NCMS000 1
n n NCFS000 1
creer creer VMN0000 1
le le PP3CSD00 1
a a SPS00 0.99585
la el DA0FS0 0.972146
nazi nazi NCCS000 0.25
nadie nadie PI0CS000 1
le le PP3CSD00 1
cree creer VMIP3S0 0.911111
eso ese PD0NS000 1
est est NCMS000 1
claro claro AQ0MS0 0.453704
a a SPS00 0.99585
the the NCFS000 0.509017
clinic clinic RG 0.5
hasta hasta SPS00 0.955172
por por SPS00 1
ah ah I 1
no no RN 0.99778
m m NCFS000 0.5
s segundo NCMN000 0.622321
a a SPS00 0.99585
harboe harboe NCMS000 1
nada nada RG 0.135556
chucha ch NCFS00X 0.923079
estamos estar VAIP1P0 1
en en SPS00 1
una uno DI0FS0 0.951241
severa severo AQ0FS0 1
crisis crisis NCFN000 1
de de SPS00 0.999919
confianza confianza NCFS000 1
miro mirar VMIP1S0 1
hacia hacia SPS00 1
a a SPS00 1
el el DA0MS0 1
lado lado NCMS000 1
y y CC 0.999812
el el DA0MS0 1
wn wn NCFS000 0.321497
que que PR0CN000 0.5625
est est NCMS000 1
me me PP1CS000 0.889706
quiere querer VMIP3S0 0.982759
cagar cagar VMN0000 1
mi mi DP1CSS 0.995536
vecino vecino NCMS000 0.75
mi mi DP1CSS 0.995536
mujer mujer NCFS000 0.959459
etc etcétera Fs 1
Lina_WhiskyJun lina_whiskyjun NP00000 1
13 13 Z 1
MORALEJA_NO_HAY_QUE_LIMPIARSE_LA_BOCA_ANTES_DE_COMER_VOMITAR_PESTILENCIA_HACIA_ARRIBA_PORQUE_TE_CAER_EN_LA_CARA_O_LIMPIARSE_EL_CORTA_CHURRO_ANTES_DE_SENTARSE_EN_EL_VENTILADOR_LA_VERDADERA_M_QUINARIA_PARA_DESINFORMAR_ES_MATTHEI_EL_GOBIERNO_Y_QUIENES_LO_COMPONEN_PARA_CREAR_UN_FALSO_CONCEPTO_DE_LOS_EXONERADOS_Y_COMO_FUNCION_EL_PROCESO_LA_VIEJA_ORDINARIA_EL_PAYASO_EL_MINISTRO_CHANCHADWICK_LA_HOCICONA_P_REZ_CAMELLO_HASB_N_LONGUEIRA_ALLAMAND_Y_TODO_EL_ZOOL_GICO_DE_LA_Lina_WhiskyJun moraleja_no_hay_que_limpiarse_la_boca_antes_de_comer_vomitar_pestilencia_hacia_arriba_porque_te_caer_en_la_cara_o_limpiarse_el_corta_churro_antes_de_sentarse_en_el_ventilador_la_verdadera_m_quinaria_para_desinformar_es_matthei_el_gobierno_y_quienes_lo_componen_para_crear_un_falso_concepto_de_los_exonerados_y_como_funcion_el_proceso_la_vieja_ordinaria_el_payaso_el_ministro_chanchadwick_la_hocicona_p_rez_camello_hasb_n_longueira_allamand_y_todo_el_zool_gico_de_la_lina_whiskyjun NP00000 1
13 13 Z 1
Y_TODO_EL_ZOOL_GICO_DE_LA_ALIANZA_VALEN_CALLAMPA_James_BondJun y_todo_el_zool_gico_de_la_alianza_valen_callampa_james_bondjun NP00000 1
13 13 Z 1
Se se NP00000 1
le le PP3CSD00 1
suma sumar VMIP3S0 0.228571
ha haber VAIP3S0 0.998141
esta este DD0FS0 0.982143
vieja viejo NCFS000 0.125
loca loco AQ0FS0 0.833333
cochina cochino NCFS000 1
tarada tarar VMP00SF 0.541753
y y CC 0.999812
concha concha NCFS000 1
de de SPS00 0.999919
su su DP3CS0 1
madre madre NCFS000 1
el el DA0MS0 1
atributo atributo NCMS000 1
de de SPS00 0.999919
mentirosa mentiroso NCFS000 0.35782
MUERTEALCATOLICISMOJun muertealcatolicismojun NP00000 1
13 13 Z 1
The_Clinic the_clinic NP00000 1
lo el DA0NS0 0.457393
nico no NCMS00D 0.522084
que que PR0CN000 0.5625
hacen hacer VMIP3P0 1
con con SPS00 1
este este DD0MS0 0.956743
papelito papel NCMS00D 1
es ser VSIP3S0 1
empeorar empeorar VMN0000 1
este este DD0MS0 0.956743
zapato zapato NCMS000 1
Chino chino NP00000 1
en en SPS00 1
que que PR0CN000 0.5625
se se P00CN000 0.465602
meti meti NCMS000 1
la el DA0FS0 0.972146
Concerta concerta NP00000 1
no no RN 0.99778
sean ser VSSP3P0 0.958333
tontos tonto AQ0MP0 0.357313
si si CS 0.997706
esto este PD0NS000 1
ya ya RG 0.996988
no no RN 0.99778
tiene tener VMIP3S0 1
marcha marcha NCFS000 0.948718
atr atr VMN0000 0.633986
s segundo NCMN000 0.622321
est est NCMS000 1
n n NCFS000 1
con con SPS00 1
la el DA0FS0 0.972146
mierda mierda NCFS000 1
hasta hasta SPS00 0.955172
el el DA0MS0 1
cuello cuello NCMS000 1
y y CC 0.999812
lo el DA0NS0 0.457393
nico no NCMS00D 0.522084
que que PR0CN000 0.5625
hace hacer VMIP3S0 1
ese ese DD0MS0 0.98125
papel papel NCMS000 1
es ser VSIP3S0 1
aumentar aumentar VMN0000 1
la el DA0FS0 0.972146
cantidad cantidad NCFS000 1
de de SPS00 0.999919
preguntas pregunta NCFP000 0.833333
en_cuanto_a en_cuanto_a SPS00 1
por por SPS00 1
qu qu NCMS000 0.774439
no no RN 0.99778
se se P00CN000 0.465602
intervino intervenir VMIS3S0 1
esta este DD0FS0 0.982143
situaci situaci AQ0CS0 0.0199855
n n NCFS000 1
a a SPS00 0.99585
tiempo tiempo NCMS000 1
dejen dejar VMSP3P0 0.75
de de SPS00 0.999919
dar dar VMN0000 1
lastima lastimar VMIP3S0 0.994868
si si CS 0.997706
a_fin_de a_fin_de SPS00 1
cuenta cuenta NCFS000 0.765152
las el DA0FP0 0.97051
Cabezas cabezas NP00000 1
van ir VMIP3P0 1
a a SPS00 0.99585
rodar rodar VMN0000 1
igual igual RG 0.266667
independiente independiente AQ0CS0 1
de de SPS00 0.999919
las el DA0FP0 0.97051
cortinas cortina NCFP000 1
de de SPS00 0.999919
humo humo NCMS000 1
que que PR0CN000 0.5625
extiendan extender VMSP3P0 0.901254
Deber deber NP00000 1
an an NCFS000 1
ser ser VSN0000 0.93883
un uno DI0MS0 0.986987
poco poco RG 0.54065
mas mas CC 0.75
consientes consentir VMIP2S0 1
y y CC 0.999812
Marcia_JeanetteJun marcia_jeanettejun NP00000 1
13 13 Z 1
a'erss a'erss NC00000 0.5
catolicismo catolicismo NCMS000 1
usted usted PP2CS00P 1
acaba acabar VMIP3S0 0.966667
de de SPS00 0.999919
salir salir VMN0000 1
de de SPS00 0.999919
las el DA0FP0 0.97051
catacumbas catacumba NCFP000 1
que que PR0CN000 0.5625
est est NCMS000 1
tan tan RG 1
perd perd AQ0CN0 0.333323
o o CC 0.998845
en en SPS00 1
este este DD0MS0 0.956743
mundo mundo NCMS000 1
que que PR0CN000 0.5625
abandon abandon NCMS000 1
hace hacer VMIP3S0 1
muuuuusho muuuuusho RG 0.397569
cambia cambiar VMIP3S0 0.9
la el DA0FS0 0.972146
historia historia NCFS000 1
y y CC 0.999812
pone poner VMIP3S0 1
el el DA0MS0 1
mundo mundo NCMS000 1
a a SPS00 1
el el DA0MS0 1
resve resve NCFS000 0.192647
el el DA0MS0 1
suyo suyo PX3MS0C0 0.5
obvio obvio AQ0MS0 0.875
los el DA0MP0 0.97623
q q NCFN000 0.5
la lo PP3FSA00 0.0277626
tienen tener VMIP3P0 1
m m NCFS000 0.5
s segundo NCMN000 0.622321
arriba_de arriba_de SPS00 1
el el DA0MS0 1
cogote cogote NCMS000 1
no no RN 0.99778
se se P00CN000 0.465602
haga hacer VMSP1S0 0.444444
el el DA0MS0 1
leso leso AQ0MS0 1
medio medio NCMS000 0.261538
medio medio AQ0MS0 0.312821
ser ser VSN0000 0.93883
pero pero CC 0.998821
shuuuuuuu shuuuuuuu NCMS000 0.774439
si si CS 0.997706
yia yia NCFS000 0.817093
a a SPS00 0.99585
la el DA0FS0 0.972146
loca loco NCFS000 0.166667
de de SPS00 0.999919
patio patio NCMS000 1
la lo PP3FSA00 0.0277626
van ir VMIP3P0 1
a a SPS00 0.99585
declarar declarar VMN0000 1
interdicta interdictar VMIP3S0 0.994868
y y CC 0.999812
a a SPS00 0.99585
la el DA0FS0 0.972146
nana nana NCFS000 1
la lo PP3FSA00 0.0277626
tienen tener VMIP3P0 1
a a SPS00 0.99585
medio medio AQ0MS0 0.312821
sueldo sueldo NCMS000 0.875
pa pa NCFS000 0.740689
q q NCFN000 0.5
no no RN 0.99778
se se P00CN000 0.465602
barsee barsee VMIP3S0 1
la el DA0FS0 0.972146
barz barz NCFS000 0.620205
a a SPS00 0.99585
jaja jaja NCFS000 0.648545
PelusaJun pelusajun NP00000 1
13 13 Z 1
Me me NP00000 1
parece parecer VMIP3S0 0.9875
excelente excelente AQ0CS0 1
que que CS 0.4375
el el DA0MS0 1
The_Clinic the_clinic NP00000 1
tome tomar VMSP1S0 0.466667
una uno DI0FS0 0.951241
linea linear VMIP3S0 0.994868
mas mas NCMS000 0.25
cercana cercano AQ0FS0 1
a a SPS00 0.99585
Ciper ciper NP00000 1
que que CS 0.4375
a a SPS00 0.99585
la el DA0FS0 0.972146
softporno softporno AQ0CN0 1
que que PR0CN000 0.5625
tanto tanto RG 0.857895
gusta gustar VMIP3S0 0.928571
a a SPS00 0.99585
los el DA0MP0 0.97623
Udientos_Legionarios_de_Cristo udientos_legionarios_de_cristo NP00000 1
y y CC 0.999812
Opus_Dei_En_cuanto_a opus_dei_en_cuanto_a NP00000 1
la el DA0FS0 0.972146
loca loco NCFS000 0.166667
de de SPS00 0.999919
patio patio NCMS000 1
ordinaria ordinario AQ0FS0 0.65727
y y CC 0.999812
facha facha NCCS000 1
que que PR0CN000 0.5625
quieres querer VMIP2S0 1
que que CS 0.4375
te te PP2CS000 0.933962
diga decir VMSP1S0 0.416667
tan tan RG 1
inoperante inoperante AQ0CS0 1
como como CS 0.998579
su su DP3CS0 1
Jefe jefe NP00000 1
valeskolinaJun valeskolinajun RG 1
13 13 Z 1
los el DA0MP0 0.97623
reptlianooooooooooooooooooooooooooos reptlianooooooooooooooooooooooooooos NCMP000 0.585027
que que PR0CN000 0.5625
gente gente NCFS000 1
mas mas CC 0.75
oscura oscuro AQ0FS0 1
PAULAJun paulajun NP00000 1
13 13 Z 1
Tendr tendr NP00000 1
a a SPS00 0.99585
que que CS 0.4375
pedir pedir VMN0000 1
perd perd AQ0CN0 0.333323
n n NCFS000 1
a a SPS00 1
el el DA0MS0 1
pa pa NCFS000 0.740689
s segundo NCMN000 0.622321
como como CS 0.998579
lo lo PP3CNA00 0.271163
hizo hacer VMIS3S0 1
responsablemente responsablemente RG 1
Fernando fernando NP00000 1
pausen pausar VMSP3P0 0.901254
por por SPS00 1
confiar confiar VMN0000 1
en en SPS00 1
unos uno DI0MP0 0.879032
datos dato NCMP000 1
que que PR0CN000 0.5625
no no RN 0.99778
eran ser VSII3P0 0.963415
certeros certero AQ0MP0 1
con con SPS00 1
los el DA0MP0 0.97623
cuales cual PR0CP000 1
urde urdir VMIP3S0 0.994868
un uno DI0MS0 0.986987
plan plan NCMS000 1
para para SPS00 0.998507
cambiar cambiar VMN0000 1
la el DA0FS0 0.972146
historia historia NCFS000 1
paniraJun panirajun RG 1
13 13 Z 1
Bueno bueno NP00000 1
queda quedar VMIP3S0 0.885417
claro claro RG 0.490741
que que CS 0.4375
esta este DD0FS0 0.982143
rusia rusia NCFS000 1
por_mucho_que por_mucho_que CS 1
se se P00CN000 0.465602
crea creer VMSP1S0 0.366667
top top NCMS000 1
model model NC00000 0.333333
es ser VSIP3S0 1
una uno DI0FS0 0.951241
ORDINARIA_Y_MENBTIROSA_Deber ordinaria_y_menbtirosa_deber NP00000 1
a a SPS00 0.99585
pedir pedir VMN0000 1
perdon perdon NCMS000 1
a_el_igual_que al_igual_que CS 1
el el DA0MS0 1
GORILA_UBILLA gorila_ubilla NP00000 1
ya ya RG 0.996988
le le PP3CSD00 1
llegara llegar VMSI3S0 0.65
su su DP3CS0 1
turno turno NCMS000 0.9
por por SPS00 1
fraude fraude NCMS000 1
de de SPS00 0.999919
sobreprecios sobreprecio NCMP000 1
el el DA0MS0 1
que que PR0CN000 0.5625
a a SPS00 0.99585
hierro hierro NCMS000 0.928571
mata matar VMIP3S0 0.833333
a a SPS00 0.99585
hierro hierro NCMS000 0.928571
muere morir VMIP3S0 0.916667
por por SPS00 1
todo todo DI0MS0 0.559816
EL_MONTAJE_ABSURDO_Y_TORPE_PERO_MUY_PREPOTENTE_DE_TODA_ESTA_CALA_A_DE_FACISTAS_Ver el_montaje_absurdo_y_torpe_pero_muy_prepotente_de_toda_esta_cala_a_de_facistas_ver NP00000 1
m m NCFS000 0.5
s segundo NCMN000 0.622321
comentarios comentario NCMP000 1
Para para NP00000 1
comentar comentar VMN0000 1
necesitas necesitar VMIP2S0 1
estar estar VAN0000 1
logueado logueado VMP00SM 0.50035
Ingresa ingresa NP00000 1
con con SPS00 1
Enter enter NP00000 1
your your NCMS000 1
WordPress wordpress NP00000 1
com cometro NCMN000 0.65
blog blog NCMS000 0.714133
URL url NP00000 1
http http NCMS000 1
// // Fz 1
wordpress wordpress NC00000 1
com cometro NCMN000 0.65
Proceed_Le proceed_le NP00000 1
digo decir VMIP1S0 1
a a SPS00 1
el el DA0MS0 1
rector rector NCMS000 0.64273
que que PR0CN000 0.5625
no no RN 0.99778
confunda confundir VMSP3S0 0.548445
las el DA0FP0 0.97051
cosas cosa NCFP000 0.986842
una uno DI0FS0 0.951241
es ser VSIP3S0 1
autonom autonom NCMS000 0.500053
a a SPS00 0.99585
universitaria universitario NCFS000 0.166667
y y CC 0.999812
otra otro PI0FS000 0.198864
es ser VSIP3S0 1
pretender pretender VMN0000 1
que que CS 0.4375
la el DA0FS0 0.972146
universidad universidad NCFS000 1
sea ser VSSP1S0 0.485714
santuario santuario NCMS000 1
de de SPS00 0.999919
delincuentes delincuente NCCP000 0.833333

