Est est NP00000 1
s segundo NCMN000 0.622321
usando usar VMG0000 1
un uno DI0MS0 0.986987
Navegador navegador NP00000 1
desactualizado desactualizar VMP00SM 1
Por_favor por_favor NP00000 1
actual actual AQ0CS0 1
zalo zalo NCMS000 0.888886
a a SPS00 0.99585
una uno DI0FS0 0.951241
versi versi RG 1
n n NCFS000 1
m m NCFS000 0.5
s segundo NCMN000 0.622321
moderna moderno AQ0FS0 0.916667
y y CC 0.999812
podr podr AQ0CS0 0.0829965
s segundo NCMN000 0.622321
ver ver VMN0000 0.987179
este este DD0MS0 0.956743
y y CC 0.999812
otros otro DI0MP0 0.56875
sitios sitio NCMP000 1
como como CS 0.998579
realmente realmente RG 1
fueron ser VSIS3P0 0.796296
pensados pensar VMP00PM 1
X x NP00000 1
2 2 Z 1
Comentarios_Esta comentarios_esta NP00000 1
ma ma VMIP3S0 0.109986
ana ana NCFS000 1
el el DA0MS0 1
candidato candidato NCMS000 1
a a SPS00 0.99585
senador senador NCMS000 1
RN_por_Santiago_Oriente_Manuel_Jos_Ossand rn_por_santiago_oriente_manuel_jos_ossand NP00000 1
n n NCFS000 1
sostuvo sostener VMIS3S0 1
en en SPS00 1
Radio_Cooperativa radio_cooperativa NP00000 1
que que CS 0.4375
el el DA0MS0 1
centro centro NCMS000 0.966667
social social AQ0CS0 0.977273
no no RN 0.99778
existe existir VMIP3S0 0.966667
repasando repasar VMG0000 1
a a SPS00 0.99585
la el DA0FS0 0.972146
UDI udi NP00000 1
porque porque CS 1
seg segundo NCMN000 1
n n NCFS000 1
Ossand ossand NP00000 1
n n NCFS000 1
es ser VSIP3S0 1
solo solo AQ0MS0 0.930556
un uno DI0MS0 0.986987
slogan eslogan NCMS000 1
de de SPS00 0.999919
campa campar VMIP3S0 0.994867
a a SPS00 0.99585
El el NP00000 1
ex ex AQ0CN0 0.25
alcalde alcalde NCMS000 1
de de SPS00 0.999919
Puente_Alto puente_alto NP00000 1
dijo decir VMIS3S0 1
que que CS 0.4375
luego_de luego_de SPS00 1
el el DA0MS0 1
debate debate NCMS000 0.416667
presidencial presidencial AQ0CS0 1
de de SPS00 0.999919
los el DA0MP0 0.97623
candidatos candidato NCMP000 1
de de SPS00 0.999919
la el DA0FS0 0.972146
derecha derecho AQ0FS0 0.264706
qued qued NCFS000 0.643721
con con SPS00 1
un uno DI0MS0 0.986987
sabor sabor NCMS000 1
amargo amargo AQ0MS0 0.777778
porque porque CS 1
creo crear VMIP1S0 0.5
que que CS 0.4375
se se P00CN000 0.465602
notaron notar VMIS3P0 1
poco poco RG 0.54065
las el DA0FP0 0.97051
diferencias diferencia NCFP000 0.928571
y y CC 0.999812
eso ese PD0NS000 1
hace hacer VMIP3S0 1
perder perder VMN0000 1
un uno DI0MS0 0.986987
poco poco PI0MS000 0.333333
el el DA0MS0 1
sentido sentido NCMS000 0.948276
de de SPS00 0.999919
las el DA0FP0 0.97051
primarias primario AQ0FP0 1
Fue fue NP00000 1
un uno DI0MS0 0.986987
debate debate NCMS000 0.416667
m m NCFS000 0.5
s segundo NCMN000 0.622321
estrat estrat NCMS000 1
gico gico AQ0MS0 1
que que PR0CN000 0.5625
de de SPS00 0.999919
contenido contenido NCMS000 0.916667
Siempre siempre NP00000 1
en en SPS00 1
Cooperativa_Ossand cooperativa_ossand NP00000 1
n n NCFS000 1
repas repas VMSP2S0 0.333122
a a SPS00 1
el el DA0MS0 1
candidati candidati NCMS000 1
UDI udi NP00000 1
manifestando manifestar VMG0000 1
que que CS 0.4375
Pablo_Longueira pablo_longueira NP00000 1
habla hablar VMIP3S0 0.880952
de de SPS00 1
el el DA0MS0 1
centro centro NCMS000 0.966667
social social AQ0CS0 0.977273
que que PR0CN000 0.5625
claramente claramente RG 1
es ser VSIP3S0 1
un uno DI0MS0 0.986987
slogan eslogan NCMS000 1
de de SPS00 0.999919
campa campar VMIP3S0 0.994867
a a SPS00 0.99585
un uno DI0MS0 0.986987
slogan eslogan NCMS000 1
marketero marketero AQ0MS0 0.599919
ideado idear VMP00SM 1
por por SPS00 1
l l NCFS000 0.639398
y y CC 0.999812
Joaqu joaqu NP00000 1
n n NCFS000 1
Lav lav NP00000 1
n n NCFS000 1
Pero pero NP00000 1
est est NCMS000 1
claro claro AQ0MS0 0.453704
que que CS 0.4375
el el DA0MS0 1
centro centro NCMS000 0.966667
social social AQ0CS0 0.977273
no no RN 0.99778
existe existir VMIP3S0 0.966667
lo el DA0NS0 0.457393
que que PR0CN000 0.5625
existen existir VMIP3P0 1
son ser VSIP3P0 0.986772
los el DA0MP0 0.97623
problemas problema NCMP000 1
sociales social AQ0CP0 0.9375
y y CC 0.999812
que que PR0CN000 0.5625
hay haber VMIP3S0 1
que que CS 0.4375
enfrentar enfrentar VMN0000 1
os os PP2CP000 1
entre entre SPS00 0.995223
todos todo PI0MP000 0.374631
y y CC 0.999812
no no RN 0.99778
hay haber VMIP3S0 1
un uno DI0MS0 0.986987
due due NCMS000 0.439656
o o CC 0.998845
de de SPS00 0.999919
esos ese DD0MP0 0.961538
problemas problema NCMP000 1
La la NP00000 1
gran gran AQ0CS0 1
diferencia diferencia NCFS000 0.738095
que que PR0CN000 0.5625
puede poder VMIP3S0 0.995614
haber haber VMN0000 0.244444
es ser VSIP3S0 1
el el DA0MS0 1
miedo miedo NCMS000 1
a a SPS00 0.99585
los el DA0MP0 0.97623
cambios cambio NCMP000 1
de de SPS00 0.999919
la el DA0FS0 0.972146
UDI_Cuando udi_cuando NP00000 1
se se P00CN000 0.465602
toca tocar VMIP3S0 0.666667
el el DA0MS0 1
tema tema NCMS000 0.953125
de de SPS00 0.999919
las el DA0FP0 0.97051
isapres isapres NCMP000 0.667094
Longueira longueira NP00000 1
se se P00CN000 0.465602
corre correr VMIP3S0 0.916667
no no RN 0.99778
lo lo PP3CNA00 0.271163
toca tocar VMIP3S0 0.666667
en en SPS00 1
profundidad profundidad NCFS000 1
mientras_que mientras_que CS 1
Allamand allamand NP00000 1
fue ser VSIS3S0 0.932292
duro duro AQ0MS0 0.925926
y y CC 0.999812
dijo decir VMIS3S0 1
que que CS 0.4375
est est NCMS000 1
dispuesto disponer VMP00SM 1
a a SPS00 0.99585
revisar revisar VMN0000 1
lo lo PP3CNA00 0.5 lo PP3MSA00 0.5
sentenci sentenci RG 0.751648
el el DA0MS0 1
ex ex AQ0CN0 0.25
edil edil NCMS000 1
de de SPS00 0.999919
la el DA0FS0 0.972146
comuna comuna NCFS000 1
m m NCFS000 0.5
s segundo NCMN000 0.622321
poblada poblar VMP00SF 1
de de SPS00 1
el el DA0MS0 1
pa pa NCFS000 0.740689
s segundo NCMN000 0.622321
Manuel_Jos_Ossand manuel_jos_ossand NP00000 1
n n NCFS000 1
cuando cuando CS 0.983796
ande andar VMSP3S0 0.623206
en en SPS00 1
moto moto NCFS000 1
ponga poner VMM03S0 1
se se PP3CN000 1
casco casco NCMS000 0.75
no no RN 0.99778
vaya ir VMSP1S0 0.22
a a SPS00 0.99585
ser ser VSN0000 0.93883
que que CS 0.4375
por por SPS00 1
esas ese DD0FP0 0.961538
cosas cosa NCFP000 0.986842
de de SPS00 0.999919
la el DA0FS0 0.972146
vida vida NCFS000 1
se se P00CN000 0.465602
pierda perder VMSP1S0 0.166667
uno uno PI0MS000 0.964744
de de SPS00 0.999919
los el DA0MP0 0.97623
pocos poco DI0MP0 0.583333
Rn rn NP00000 1
con con SPS00 1
algo algo PI0CS000 0.896341
de de SPS00 0.999919
cerebro cerebro NCMS000 1
PelusaJun pelusajun NP00000 1
17 17 Z 1
El el NP00000 1
centro centro NCMS000 0.966667
social social AQ0CS0 0.977273
fue ser VSIS3S0 0.932292
planteado plantear VMP00SM 1
por por SPS00 1
el el DA0MS0 1
III_Reich iii_reich NP00000 1
y y CC 0.999812
Mussolini mussolini NP00000 1
en en SPS00 1
la el DA0FS0 0.972146
Segunda_Guerra_Mundial segunda_guerra_mundial NP00000 1
es ser VSIP3S0 1
un uno DI0MS0 0.986987
planteamiento planteamiento NCMS000 1
de de SPS00 1
el el DA0MS0 1
nazismo nazismo NCMS000 1
y y CC 0.999812
fascismo fascismo NCMS000 1
As as NP00000 1
que que CS 0.4375
no no RN 0.99778
es ser VSIP3S0 1
un uno DI0MS0 0.986987
nuevo nuevo AQ0MS0 1
descubrimiento descubrimiento NCMS000 1
de de SPS00 0.999919
la el DA0FS0 0.972146
UDI_Para udi_para NP00000 1
comentar comentar VMN0000 1
necesitas necesitar VMIP2S0 1
estar estar VAN0000 1
logueado logueado VMP00SM 0.50035
Ingresa ingresa NP00000 1
con con SPS00 1
Enter enter NP00000 1
your your NCMS000 1
WordPress wordpress NP00000 1
com cometro NCMN000 0.65
blog blog NCMS000 0.714133
URL url NP00000 1
http http NCMS000 1
// // Fz 1
wordpress wordpress NC00000 1
com cometro NCMN000 0.65
Proceed_Le proceed_le NP00000 1
digo decir VMIP1S0 1
a a SPS00 1
el el DA0MS0 1
rector rector NCMS000 0.64273
que que PR0CN000 0.5625
no no RN 0.99778
confunda confundir VMSP3S0 0.548445
las el DA0FP0 0.97051
cosas cosa NCFP000 0.986842
una uno DI0FS0 0.951241
es ser VSIP3S0 1
autonom autonom NCMS000 0.500053
a a SPS00 0.99585
universitaria universitario NCFS000 0.166667
y y CC 0.999812
otra otro PI0FS000 0.198864
es ser VSIP3S0 1
pretender pretender VMN0000 1
que que CS 0.4375
la el DA0FS0 0.972146
universidad universidad NCFS000 1
sea ser VSSP1S0 0.485714
santuario santuario NCMS000 1
de de SPS00 0.999919
delincuentes delincuente NCCP000 0.833333

