Est est NP00000 1
s segundo NCMN000 0.622321
usando usar VMG0000 1
un uno DI0MS0 0.986987
Navegador navegador NP00000 1
desactualizado desactualizar VMP00SM 1
Por_favor por_favor NP00000 1
actual actual AQ0CS0 1
zalo zalo NCMS000 0.888886
a a SPS00 0.99585
una uno DI0FS0 0.951241
versi versi RG 1
n n NCFS000 1
m m NCFS000 0.5
s segundo NCMN000 0.622321
moderna moderno AQ0FS0 0.916667
y y CC 0.999812
podr podr AQ0CS0 0.0829965
s segundo NCMN000 0.622321
ver ver VMN0000 0.987179
este este DD0MS0 0.956743
y y CC 0.999812
otros otro DI0MP0 0.56875
sitios sitio NCMP000 1
como como CS 0.998579
realmente realmente RG 1
fueron ser VSIS3P0 0.796296
pensados pensar VMP00PM 1
X x NP00000 1
15 15 Z 1
Comentarios_Patricio_Melero comentarios_patricio_melero NP00000 1
presidente presidente NCMS000 1
de de SPS00 0.999919
la el DA0FS0 0.972146
UDI udi NP00000 1
tambi tambi AQ0CN0 1
n n NCFS000 1
se se P00CN000 0.465602
refiri refiri RG 0.83337
a a SPS00 1
el el DA0MS0 1
anuncio anuncio NCMS000 0.75
de de SPS00 1
el el DA0MS0 1
regreso regreso NCMS000 0.75
de de SPS00 0.999919
Michelle_Bachelet michelle_bachelet NP00000 1
y y CC 0.999812
su su DP3CS0 1
renuncia renuncia NCFS000 0.777778
a a SPS00 0.99585
la el DA0FS0 0.972146
ONU_Mujer onu_mujer NP00000 1
organismo organismo NCMS000 1
donde donde PR000000 0.963542
estuvo estar VAIS3S0 1
los el DA0MP0 0.97623
ltimos ltimos VMIP1P0 0.856975
tres 3 Z 1
a a SPS00 0.99585
os o NCFP000 0.222222
Melero melero NP00000 1
consider consider VMN0000 0.630215
que que CS 0.4375
es ser VSIP3S0 1
un uno DI0MS0 0.986987
hecho hecho NCMS000 0.381579
positivo positivo AQ0MS0 0.875
para para SPS00 0.998507
nuestro nuestro DP1MSP 0.933333
sistema sistema NCMS000 1
democr democr NCMS000 1
tico tico AQ0MS0 0.806828
y y CC 0.999812
agreg agreg NCMS000 0.714133
que que PR0CN000 0.5625
se se P00CN000 0.465602
pone poner VMIP3S0 1
fin fin NCMS000 1
a a SPS00 0.99585
una uno DI0FS0 0.951241
bien bien NCMS000 0.0980392
dise dise NCFS000 0.99146
ada adir VMSP3S0 0.6231
estrategia estrategia NCFS000 1
de de SPS00 1
el el DA0MS0 1
silencio silencio NCMS000 0.928571
durante durante SPS00 1
tres 3 Z 1
a a SPS00 0.99585
os os PP2CP000 0.722222
Adem adem NP00000 1
s segundo NCMN000 0.622321
consider consider VMN0000 0.630215
que que CS 0.4375
la el DA0FS0 0.972146
primera 1 AO0FS0 0.987179
grandecisi grandecisi RG 1
n n NCFS000 1
de de SPS00 0.999919
la el DA0FS0 0.972146
ex ex AQ0CN0 0.25
presidente presidente NCMS000 1
ser ser VSN0000 0.93883
si si CS 0.997706
har har VMN0000 1
primarias primario AQ0FP0 1
o o CC 0.998845
si si CS 0.997706
se se P00CN000 0.465602
impondr impondr VMN0000 0.633986
Bachelet bachelet NP00000 1
simplemente simplemente RG 1
por por SPS00 1
su su DP3CS0 1
peso peso NCMS000 0.958333
pol pol NCMS000 0.861706
tico tico AQ0MS0 0.806828
Aprovech aprovech NP00000 1
adem adem NCMS000 1
s segundo NCMN000 0.622321
de de SPS00 0.999919
tirar tirar VMN0000 1
le le PP3CSD00 1
flores flor NCFP000 1
a a SPS00 1
el el DA0MS0 1
Gobierno_de_Pi gobierno_de_pi NP00000 1
era ser VSII1S0 0.490859
y y CC 0.999812
dijo decir VMIS3S0 1
que que CS 0.4375
Bachelet bachelet NP00000 1
va ir VMIP3S0 1
a a SPS00 0.99585
encontrar encontrar VMN0000 1
un uno DI0MS0 0.986987
pa pa NCFS000 0.740689
s segundo NCMN000 0.622321
muy muy RG 1
distinto distinto AQ0MS0 1
de de SPS00 1
el el DA0MS0 1
que que PR0CN000 0.5625
dej dej NCMS000 0.692259
Es es NP00000 1
bueno bueno AQ0MS0 0.453125
que que PR0CN000 0.5625
los el DA0MP0 0.97623
chilenos chileno NCMP000 0.25
puedan poder VMSP3P0 0.928571
comparar comparar VMN0000 1
que que CS 0.4375
las el DA0FP0 0.97051
propuestas propuesta NCFP000 0.75
que que CS 0.4375
har har VMN0000 1
n n NCFS000 1
a a SPS00 0.99585
futuro futuro NCMS000 0.944444
seg segundo NCMN000 1
n n NCFS000 1
dijo decir VMIS3S0 1
a a SPS00 0.99585
CNN_Chile_A_pesar_de cnn_chile_a_pesar_de NP00000 1
su su DP3CS0 1
valoraci valoraci AQ0CS0 0.0199855
n n NCFS000 1
de de SPS00 1
el el DA0MS0 1
regreso regreso NCMS000 0.75
de de SPS00 0.999919
Bachelet_Melero bachelet_melero NP00000 1
advirti advirti NCMS000 1
sobre sobre SPS00 0.994203
los el DA0MP0 0.97623
posibles posible AQ0CP0 1
obst obst NCMS000 1
culos culo NCMP000 1
que que CS 0.4375
enfrentar enfrentar VMN0000 1
a a SPS00 0.99585
la el DA0FS0 0.972146
ex ex AQ0CN0 0.25
presidente presidente NCMS000 1
a a SPS00 1
el el DA0MS0 1
regresar regresar VMN0000 1
a a SPS00 0.99585
Chile_El chile_el NP00000 1
principal principal AQ0CS0 0.9375
problema problema NCMS000 1
es ser VSIP3S0 1
el el DA0MS0 1
verdadero verdadero AQ0MS0 1
lastre lastre NCMS000 0.918697
que que PR0CN000 0.5625
van ir VMIP3P0 1
a a SPS00 0.99585
significar significar VMN0000 1
los el DA0MP0 0.97623
partidos partido NCMP000 0.928571
pol pol NCMS000 0.861706
ticos ticos AQ0MP0 0.671839
de de SPS00 0.999919
la el DA0FS0 0.972146
concertacion concertacion NCMS000 0.0665581
y y CC 0.999812
el el DA0MS0 1
PC pc NP00000 1
que que CS 0.4375
la lo PP3FSA00 0.0277626
acompa acompa VMSP3S0 1
a a SPS00 0.99585
para para SPS00 0.998507
Bachelet_Sobre bachelet_sobre NP00000 1
todo todo PI0MS000 0.430982
dijo decir VMIS3S0 1
Melero melero NP00000 1
por por SPS00 1
las el DA0FP0 0.97051
diferencias diferencia NCFP000 0.928571
pol pol NCMS000 0.861706
ticas ticas AQ0FP0 0.760898
que que PR0CN000 0.5625
hay haber VMIP3S0 1
entre entre SPS00 0.995223
los el DA0MP0 0.97623
integrantes integrante NCCP000 0.64267
de de SPS00 0.999919
la el DA0FS0 0.972146
coalici coalici AQ0CS0 0.0199855
n n NCFS000 1
opositora opositor AQ0FS0 0.357397
Escoba escoba NP00000 1
pypoMar pypomar VMN0000 1
15 15 Z 1
Aqui aqui NP00000 1
los el DA0MP0 0.97623
unicos unicos AQ0MP0 0.886159
lastres lastre NCMP000 0.995681
para para SPS00 0.998507
la el DA0FS0 0.972146
democracia democracia NCFS000 1
en_cuanto_a en_cuanto_a SPS00 1
partidos partido NCMP000 0.928571
politocos politocos AQ0MP0 0.50055
son ser VSIP3P0 0.986772
la el DA0FS0 0.972146
UDI udi NP00000 1
y y CC 0.999812
RN_Si rn_si NP00000 1
gracias_a gracias_a SPS00 1
este este DD0MS0 0.956743
lastre lastre NCMS000 0.918697
es ser VSIP3S0 1
que que CS 0.4375
hoy hoy RG 0.877358
el el DA0MS0 1
chileno chileno NCMS000 0.627687
a a SPS00 0.99585
pata pata NCFS000 0.5
pel pel NCMS000 1
solo solo AQ0MS0 0.930556
cosecha cosecha NCFS000 0.786967
deudas deuda NCFP000 1
deudas deuda NCFP000 1
y y CC 0.999812
mas mas CC 0.75
deudas deuda NCFP000 1
para para SPS00 0.998507
poder poder VMN0000 0.288462
acceder acceder VMN0000 1
a a SPS00 0.99585
las el DA0FP0 0.97051
bondades bondad NCFP000 1
que que PR0CN000 0.5625
le le PP3CSD00 1
ofrece ofrecer VMIP3S0 0.9
el el DA0MS0 1
mercado mercado NCMS000 0.9
y y CC 0.999812
hoy hoy RG 0.877358
el el DA0MS0 1
modelo modelo NCCS000 0.973684
funciona funcionar VMIP3S0 0.75
en en SPS00 1
un uno DI0MS0 0.986987
90 90 Z 1
gracias_a gracias_a SPS00 1
el el DA0MS0 1
endeudamiento endeudamiento NCMS000 1
de de SPS00 0.999919
los el DA0MP0 0.97623
chilenos chileno NCMP000 0.25
y y CC 0.999812
el el DA0MS0 1
otro otro DI0MS0 0.61215
10 10 Z 1
se se P00CN000 0.465602
debe deber VMIP3S0 0.974359
a a SPS00 0.99585
la el DA0FS0 0.972146
buena bueno AQ0FS0 1
gestion gestion VMIS3P0 0.923476
de de SPS00 0.999919
los el DA0MP0 0.97623
gobiernos gobierno NCMP000 1
La_UDI la_udi NP00000 1
y y CC 0.999812
RN rn NP00000 1
no no RN 0.99778
solo solo RG 0.0555556
son ser VSIP3P0 0.986772
lastres lastre NCMP000 0.995681
pa pa VMIP3S0 0.12964
la el DA0FS0 0.972146
democracia democracia NCFS000 1
sino_que sino_que CC 1
son ser VSIP3P0 0.986772
partidos partido NCMP000 0.928571
que que PR0CN000 0.5625
mantienen mantener VMIP3P0 1
SECUESTRADA secuestrada NP00000 1
a a SPS00 0.99585
la el DA0FS0 0.972146
democracia democracia NCFS000 1
LESTORMar lestormar NP00000 1
15 15 Z 1
Ma ma NP00000 1
ana ana NCFS000 1
les le PP3CPD00 1
cuento contar VMIP1S0 0.4375
chiquillos chiquillo NCMP000 0.75
como como CS 0.998579
me me PP1CS000 0.889706
fue ir VMIS3S0 0.0677083
en en SPS00 1
los el DA0MP0 0.97623
camaros camaros NCMP000 0.538656
de de SPS00 0.999919
Punta_Peuco_Zas punta_peuco_zas NP00000 1
pypoMar pypomar VMN0000 1
15 15 Z 1
con con SPS00 1
su su DP3CS0 1
trilogia trilogia NCFS000 1
divina divino AQ0FS0 1
a a SPS00 0.99585
saber saber VMN0000 0.880952
constitucion constitucion VMIS3P0 0.923476
binominal binominal AQ0CS0 1
y y CC 0.999812
modelo modelo NCCS000 0.973684
neoliberal neoliberal AQ0CS0 0.616364
Secuestrada secuestrada NP00000 1
porque porque CS 1
para para SPS00 0.998507
cambiar cambiar VMN0000 1
tan tan RG 1
solo solo AQ0MS0 0.930556
una uno DI0FS0 0.951241
de de SPS00 0.999919
ellas ellos PP3FP000 1
ustedes usted PP2CP00P 1
DEMONIACAMENTE demoniacamente NP00000 1
exigen exigir VMIP3P0 1
un uno DI0MS0 0.986987
75 75 Z 1
de de SPS00 0.999919
los el DA0MP0 0.97623
votos voto NCMP000 1
de de SPS00 0.999919
diputados diputado NCMP000 0.875
y y CC 0.999812
un uno DI0MS0 0.986987
75 75 Z 1
de de SPS00 0.999919
votos voto NCMP000 1
de de SPS00 0.999919
senadores senador NCMP000 1
y y CC 0.999812
para para SPS00 0.998507
que que CS 0.4375
esto este PD0NS000 1
nunca nunca RG 1
ocurra ocurrir VMSP1S0 0.466667
inventaron inventar VMIS3P0 1
el el DA0MS0 1
BINOMINAL_COMO_ENTE_SECUESTRADOR binominal_como_ente_secuestrador NP00000 1
porque porque CS 1
este este PD0MS000 0.0330789
permite permitir VMIP3S0 0.966667
que que CS 0.4375
si si CS 0.997706
no no RN 0.99778
hay haber VMIP3S0 1
doblaje doblaje NCMS000 1
vayan ir VMSP3P0 0.875
eligiendo elegir VMG0000 1
uno uno PI0MS000 0.964744
y y CC 0.999812
uno uno PI0MS000 0.964744
Asi asi NP00000 1
en en SPS00 1
una uno DI0FS0 0.951241
senatorial senatorial AQ0CS0 1
el el DA0MS0 1
chico chico NCMS000 0.9
saldivar saldivar VMN0000 1
le le PP3CSD00 1
gano ganar VMIP1S0 1
a a SPS00 0.99585
ricardo ricardo NCMS000 0.500443
lagos lago NCMP000 1
compa compa VMSP3S0 1
ero erar VMIP1S0 1
de de SPS00 0.999919
lista lista NCFS000 0.125
por por SPS00 1
4_mil 4000 Z 1
votos voto NCMP000 1
quien quien PR0CS000 1
salio salio AQ0MS0 0.457245
segundo segundo NCMS000 0.242424
y y CC 0.999812
el el DA0MS0 1
idolo idolo NCMS000 1
pypoMar pypomar VMN0000 1
15 15 Z 1
de de SPS00 0.999919
la el DA0FS0 0.972146
derecha derecha NCFS000 0.735294
de de SPS00 0.999919
la el DA0FS0 0.972146
otra otro PI0FS000 0.198864
lista listar VMIP3S0 0.125
el el DA0MS0 1
jaime jaime AQ0CS0 0.666673
guzman guzman NCMS000 0.121183
salio salio AQ0MS0 0.457245
tercero tercero NCMS000 0.1
y y CC 0.999812
aun aun RG 0.84375
cuando cuando CS 0.983796
lagos lago NCMP000 1
le le PP3CSD00 1
vol vol NCMS000 0.861706
la el DA0FS0 0.972146
raya raya NCFS000 0.583333
a a SPS00 1
el el DA0MS0 1
guzman guzman NCMS000 0.121183
por por SPS00 1
de de SPS00 0.999919
180_mil 180000 Z 1
votos voto NCMP000 1
salio salio AQ0MS0 0.457245
elegido elegir VMP00SM 0.75
saldivar saldivar VMN0000 1
por por SPS00 1
la el DA0FS0 0.972146
concerta concerta NCFS000 0.381783
y y CC 0.999812
guzman guzman VMIP3P0 0.81821
por por SPS00 1
la el DA0FS0 0.972146
alianza alianza NCFS000 1
y y CC 0.999812
asi asi NCMS000 1
el el DA0MS0 1
binominal binominal AQ0CS0 1
va ir VMIP3S0 1
logrando lograr VMG0000 1
que que CS 0.4375
cada cada DI0CS0 1
coalicion coalicion NCMS000 0.0665581
elija elegir VMSP3S0 0.623412
uno uno PI0MS000 0.964744
y y CC 0.999812
uno uno PI0MS000 0.964744
y y CC 0.999812
eso ese PD0NS000 1
significa significar VMIP3S0 0.958333
50 50 Z 1
y y CC 0.999812
50 50 Z 1
salvo salvo SPS00 0.933333
si si CS 0.997706
hay haber VMIP3S0 1
doblaje doblaje NCMS000 1
y y CC 0.999812
en en SPS00 1
esa ese DD0FS0 0.978261
oportunidad oportunidad NCFS000 1
la el DA0FS0 0.972146
lista lista NCFS000 0.125
de de SPS00 0.999919
la el DA0FS0 0.972146
concerta concerta NCFS000 0.381783
no no RN 0.99778
dobl dobl NCMS000 0.279395
a a SPS00 0.99585
lista lista NCFS000 0.125
de de SPS00 0.999919
la el DA0FS0 0.972146
alianza alianza NCFS000 1
y y CC 0.999812
por por SPS00 1
eso ese PD0NS000 1
no no RN 0.99778
sali sali AQ0CS0 0.5
el el DA0MS0 1
lagos lago NCMP000 1
elegido elegir VMP00SM 0.75
Como como NP00000 1
este este DD0MS0 0.956743
doblaje doblaje NCMS000 1
se se P00CN000 0.465602
dar dar VMN0000 1
en en SPS00 1
muy muy RG 1
pocos poco DI0MP0 0.583333
casos caso NCMP000 1
y y CC 0.999812
se se P00CN000 0.465602
da dar VMIP3S0 0.983871
para para SPS00 0.998507
ambos ambos DI0MP0 0.361111
lados lado NCMP000 1
es ser VSIP3S0 1
que que CS 0.4375
pypoMar pypomar VMN0000 1
15 15 Z 1
este este DD0MS0 0.956743
doblaje doblaje NCMS000 1
pierde perder VMIP3S0 0.875
relevancia relevancia NCFS000 1
y y CC 0.999812
asi asi NCMS000 1
lo el DA0NS0 0.457393
que que PR0CN000 0.5625
siempre siempre RG 1
se se P00CN000 0.465602
mantendr mantendr VMN0000 0.633986
ser ser VSN0000 0.93883
que que CS 0.4375
el el DA0MS0 1
que que PR0CN000 0.5625
gane ganar VMSP1S0 0.444444
siempres siempres AQ0CP0 0.168205
est est NCMS000 1
cercano cercano AQ0MS0 1
a a SPS00 1
el el DA0MS0 1
50 50 Z 1
y y CC 0.999812
nunca nunca RG 1
nadie nadie PI0CS000 1
tendr tendr VMN0000 0.633986
entonces entonces RG 0.97619
el el DA0MS0 1
75 75 Z 1
para para SPS00 0.998507
cambiar cambiar VMN0000 1
la el DA0FS0 0.972146
constitucion constitucion NCMS000 0.0665581
el el DA0MS0 1
binominal binominal AQ0CS0 1
y y CC 0.999812
el el DA0MS0 1
modelo modelo NCCS000 0.973684
economico economico AQ0MS0 0.499958
y y CC 0.999812
como como CS 0.998579
esto este PD0NS000 1
ser ser VSN0000 0.93883
asi asi NCMS000 1
por por SPS00 1
los el DA0MP0 0.97623
siglos siglo NCMP000 1
de de SPS00 0.999919
los el DA0MP0 0.97623
siglos siglo NCMP000 1
es ser VSIP3S0 1
que que CS 0.4375
la el DA0FS0 0.972146
UDI udi NP00000 1
y y CC 0.999812
RN rn NP00000 1
mantienen mantener VMIP3P0 1
secuestrada secuestrar VMP00SF 1
a a SPS00 0.99585
la el DA0FS0 0.972146
democracia democracia NCFS000 1
sin sin SPS00 1
que que CS 0.4375
nada nada PI0CS000 0.846667
cambie cambiar VMSP3S0 0.623428
porque porque CS 1
el el DA0MS0 1
ideologo ideologo NCMS000 0.777796
de de SPS00 0.999919
esto este PD0NS000 1
ALTAMENTE_DEMONIACO altamente_demoniaco NP00000 1
fue ser VSIS3S0 0.932292
el el DA0MS0 1
tal tal DD0CS0 0.741379
j j NCFS000 1
guzman guzman VMIP3P0 0.81821
fundador fundador NCMS000 0.75
de de SPS00 0.999919
la el DA0FS0 0.972146
UDI_Asi udi_asi NP00000 1
que que CS 0.4375
hoy hoy RG 0.877358
los el DA0MP0 0.97623
lastres lastre NCMP000 0.995681
verdaderos verdadero AQ0MP0 1
estan estan VMIP3P0 1
en en SPS00 1
los el DA0MP0 0.97623
partidos partido NCMP000 0.928571
de de SPS00 0.999919
pypoMar pypomar VMN0000 1
15 15 Z 1
derecha derecha NCFS000 0.735294
Cuando cuando NP00000 1
el el DA0MS0 1
pueblo pueblo NCMS000 0.978261
gueon gueon VMIS3P0 0.923476
se se P00CN000 0.465602
de de SPS00 0.999919
cuenta cuenta NCFS000 0.765152
de de SPS00 0.999919
esta este DD0FS0 0.982143
realidad realidad NCFS000 1
y y CC 0.999812
que que CS 0.4375
cuando cuando CS 0.983796
se se P00CN000 0.465602
habla hablar VMIP3S0 0.880952
de de SPS00 0.999919
cambiar cambiar VMN0000 1
el el DA0MS0 1
binominal binominal AQ0CS0 1
el el DA0MS0 1
modelo modelo NCCS000 0.973684
o o CC 0.998845
la el DA0FS0 0.972146
constitucion constitucion VMIS3P0 0.923476
es ser VSIP3S0 1
una uno DI0FS0 0.951241
SOBERANA_MENTIRA soberana_mentira NP00000 1
porque porque CS 1
nunca nunca RG 1
estaran estaran VMSI3P0 0.769069
los el DA0MP0 0.97623
votos voto NCMP000 1
para para SPS00 0.998507
juntar juntar VMN0000 1
el el DA0MS0 1
75 75 Z 1
que que PR0CN000 0.5625
la lo PP3FSA00 0.0277626
constitucion constitucion VMIS3P0 0.923476
exige exigir VMIP3S0 0.875
para para SPS00 0.998507
ello ello PD0NS000 1
Por por NP00000 1
eso ese PD0NS000 1
es ser VSIP3S0 1
que que CS 0.4375
a a SPS00 1
el el DA0MS0 1
estar estar VAN0000 1
en en SPS00 1
un uno DI0MS0 0.986987
callejon callejon NCMS000 0.0665581
sin sin SPS00 1
salida salida NCFS000 0.8125
por por SPS00 1
este este DD0MS0 0.956743
secuestro secuestro NCMS000 0.9
a a SPS00 0.99585
la el DA0FS0 0.972146
democracia democracia NCFS000 1
es ser VSIP3S0 1
que que CS 0.4375
les le PP3CPD00 1
guste gustar VMSP3S0 0.623433
o o CC 0.998845
no no RN 0.99778
la lo PP3FSA00 0.0277626
unica unica VMIP3S0 1
salida salida NCFS000 0.8125
ES_UNA_ASAMBLEA_CONSTITUYENTE es_una_asamblea_constituyente NP00000 1
no no RN 0.99778
porque porque CS 1
el el DA0MS0 1
pueblo pueblo NCMS000 0.978261
lo lo PP3CNA00 0.271163
quiera querer VMSP1S0 0.416667
sino_que sino_que CC 1
porque porque CS 1
el el DA0MS0 1
binominal binominal AQ0CS0 1
y y CC 0.999812
la el DA0FS0 0.972146
constitucion constitucion NCMS000 0.0665581
que que PR0CN000 0.5625
se se P00CN000 0.465602
dio dar VMIS3S0 1
la el DA0FS0 0.972146
derecha derecha NCFS000 0.735294
pypoMar pypomar VMN0000 1
15 15 Z 1
como como CS 0.998579
traje traje NCMS000 0.75
a a SPS00 0.99585
la el DA0FS0 0.972146
medida medida NCFS000 0.863636
con con SPS00 1
pinochet pinochet NCMS000 1
a a SPS00 0.99585
la el DA0FS0 0.972146
cabeza cabeza NCFS000 1
asi asi NCMS000 1
lo lo PP3CNA00 0.271163
exijen exijen VMSP3P0 1
Asi asi NP00000 1
que que CS 0.4375
salir salir VMN0000 1
a a SPS00 0.99585
las el DA0FP0 0.97051
calles calle NCFP000 0.954545
a a SPS00 0.99585
exigir exigir VMN0000 1
que que CS 0.4375
se se P00CN000 0.465602
cambie cambiar VMSP3S0 0.623428
el el DA0MS0 1
binominal binominal AQ0CS0 1
es ser VSIP3S0 1
tiempo tiempo NCMS000 1
perdido perder VMP00SM 0.961538
porque porque CS 1
la el DA0FS0 0.972146
UDI udi NP00000 1
jams jams NCMP000 1
se se P00CN000 0.465602
pondr pondr VMN0000 0.633986
con con SPS00 1
los el DA0MP0 0.97623
votos voto NCMP000 1
y y CC 0.999812
eso ese PD0NS000 1
asegura asegurar VMIP3S0 0.875
que que CS 0.4375
nunca nunca RG 1
se se P00CN000 0.465602
reuna reunir VMSP3S0 0.623086
ese ese DD0MS0 0.98125
75 75 Z 1
que que PR0CN000 0.5625
se se P00CN000 0.465602
necesita necesitar VMIP3S0 0.95
asi asi NCMS000 1
que que PR0CN000 0.5625
no no RN 0.99778
mas mas CC 0.75
calle calle NCFS000 0.96875
solo solo AQ0MS0 0.930556
asamblea asamblea NCFS000 1
constituyente constituyente AQ0CS0 0.589091
y y CC 0.999812
punto punto NCMS000 1
MUERA_EL_CAMBIO_Y_EL_INEPTO_Marco_AntonioMar muera_el_cambio_y_el_inepto_marco_antoniomar NP00000 1
16 16 Z 1
Muy muy NP00000 1
de_acuerdo_con de_acuerdo_con SPS00 1
Pypo pypo NP00000 1
lo el DA0NS0 0.457393
dem dem NCMS000 1
s segundo NCMN000 0.622321
es ser VSIP3S0 1
paja paja NCFS000 1
molida moler VMP00SF 1
por por SPS00 1
ah ah I 1
se se P00CN000 0.465602
tiene tener VMIP3S0 1
que que CS 0.4375
partir partir VMN0000 1
CristolocoMar cristolocomar NP00000 1
16 16 Z 1
Juuuuaaaaajajajajajaja juuuuaaaaajajajajajaja NP00000 1
se se P00CN000 0.465602
necesitan necesitar VMIP3P0 1
urgente urgente AQ0CS0 1
Ingenieros_Hidraulicos_Tecnicos_Farmaceuticos ingenieros_hidraulicos_tecnicos_farmaceuticos NP00000 1
trapeadores trapeadores NCMP000 1
controladores controlador AQ0MP0 0.357297
de de SPS00 0.999919
pestes peste NCFP000 1
pintores pintor AQ0MP0 0.166667
Solicitar solicitar NP00000 1
entrevista entrevista NCFS000 0.75
en en SPS00 1
Casa_de_la_Moneda casa_de_la_moneda NP00000 1
s segundo NCMN000 0.622321
/ / Fh 1
n n NCFS000 1
Requisito requisito NP00000 1
traer traer VMN0000 1
mascarillas mascarilla NCFP000 1
y y CC 0.999812
alcohol alcohol NCMS000 1
desinfectante desinfectante AQ0CS0 0.65727
no no RN 0.99778
para para SPS00 0.998507
beber beber VMN0000 1
buena bueno AQ0FS0 1
paga paga NCFS000 0.583333
PelusaMar pelusamar NP00000 1
16 16 Z 1
Desde desde NP00000 1
hace hacer VMIP3S0 1
40 40 Z 1
a a SPS00 0.99585
os os PP2CP000 0.722222
el el DA0MS0 1
nico nico AQ0MS0 0.470565
lastre lastre NCMS000 0.918697
que que PR0CN000 0.5625
veo ver VMIP1S0 1
es ser VSIP3S0 1
la el DA0FS0 0.972146
Derecha derecha NP00000 1
y y CC 0.999812
su su DP3CS0 1
Alianza alianza NP00000 1
con con SPS00 1
sus su DP3CP0 0.998462
amarres amarre NCMP000 0.994903
de de SPS00 0.999919
la el DA0FS0 0.972146
Dictadura_A dictadura_a NP00000 1
dar dar VMN0000 1
le le PP3CSD00 1
la el DA0FS0 0.972146
PLR plr NP00000 1
a a SPS00 0.99585
todos todo DI0MP0 0.622419
esos ese DD0MP0 0.961538
z z NCFS000 1
nganos nganos NCMP000 1
y y CC 0.999812
transfugas transfugas NCFP000 1
en en SPS00 1
las el DA0FP0 0.97051
pr pr NCMS000 0.224371
ximas ximas AQ0FP0 0.856883
elecciones elección NCFP000 1
lectorMar lectormar VMN0000 1
16 16 Z 1
Que que NP00000 1
bueno bueno AQ0MS0 0.453125
que que PR0CN000 0.5625
no no RN 0.99778
le le PP3CSD00 1
guste gustar VMSP3S0 0.623433
a a SPS00 0.99585
Melero melero NP00000 1
eso ese PD0NS000 1
qiuiere qiuiere VMIP3S0 1
decir decir VMN0000 0.987805
que que CS 0.4375
vamos ir VMIP1P0 0.633333
bien bien RG 0.898039
RobinjudMar robinjudmar NP00000 1
16 16 Z 1
La_Derecha la_derecha NP00000 1
ya ya RG 0.996988
esta este DD0FS0 0.982143
Presintiendo_la_Tremenda_Pata presintiendo_la_tremenda_pata NP00000 1
' ' Fe 1
en en SPS00 1
La_Raja la_raja NP00000 1
que que PR0CN000 0.5625
le le PP3CSD00 1
va ir VMIP3S0 1
a a SPS00 0.99585
dar dar VMN0000 1
El_Pueblo_Chileno el_pueblo_chileno NP00000 1
a a SPS00 0.99585
esta este DD0FS0 0.982143
manga manga NCFS000 0.846471
de de SPS00 0.999919
Ladronesy_Cuenteros ladronesy_cuenteros NP00000 1
pitosMar pitosmar VMN0000 0.777917
16 16 Z 1
manotazos manotazo NCMP000 1
de de SPS00 0.999919
ahogado ahogado NCMS000 0.60804
ALIANZACACAMar alianzacacamar NP00000 1
16 16 Z 1
LAS_RATAS_PREPARANDO_EL_ABORDAJE_LAS_VACAS_DE_LA_ALIANZA_COMO_ES_NORMAL_SE_AHOGAN_POR_EL_CORTA_CHURROS_Y_EL_VERDADERO_LASTRE_SER_N_TODOS_LOS_ROBOS_MONTAJES_Y_AMARRES_A_LOS_QUE_EST_N_ACOSTUMBRADOS_A_QUE_DEJEN_YA_QUE_LOS_DE_LA_DICTADURA_LOS_CREARON_ELLOS_SON_LOS_VERDADEROS_ENEMIGOS_DE_EL_PUEBLO_Y_LOS_TRABAJADORES_EL_QUE_VOTA_POR_ELLOS_ES_UN_EST_PIDO_CON_RECA_DA_SALUDINES_Ver las_ratas_preparando_el_abordaje_las_vacas_de_la_alianza_como_es_normal_se_ahogan_por_el_corta_churros_y_el_verdadero_lastre_ser_n_todos_los_robos_montajes_y_amarres_a_los_que_est_n_acostumbrados_a_que_dejen_ya_que_los_de_la_dictadura_los_crearon_ellos_son_los_verdaderos_enemigos_de_el_pueblo_y_los_trabajadores_el_que_vota_por_ellos_es_un_est_pido_con_reca_da_saludines_ver NP00000 1
m m NCFS000 0.5
s segundo NCMN000 0.622321
comentarios comentario NCMP000 1
Para para NP00000 1
comentar comentar VMN0000 1
necesitas necesitar VMIP2S0 1
estar estar VAN0000 1
logueado logueado VMP00SM 0.50035
Ingresa ingresa NP00000 1
con con SPS00 1
Enter enter NP00000 1
your your NCMS000 1
WordPress wordpress NP00000 1
com cometro NCMN000 0.65
blog blog NCMS000 0.714133
URL url NP00000 1
http http NCMS000 1
// // Fz 1
wordpress wordpress NC00000 1
com cometro NCMN000 0.65
Proceed_Puede proceed_puede NP00000 1
haber haber VMN0000 0.244444
grandes grande AQ0CP0 0.95
empresarios empresario NCMP000 1
pero pero CC 0.998821
de de SPS00 0.999919
f f NCFS000 1
tbol tbol NCMS000 1
saben saber VMIP3P0 1
poco poco RG 0.54065

