Est est NP00000 1
s segundo NCMN000 0.622321
usando usar VMG0000 1
un uno DI0MS0 0.986987
Navegador navegador NP00000 1
desactualizado desactualizar VMP00SM 1
Por_favor por_favor NP00000 1
actual actual AQ0CS0 1
zalo zalo NCMS000 0.888886
a a SPS00 0.99585
una uno DI0FS0 0.951241
versi versi RG 1
n n NCFS000 1
m m NCFS000 0.5
s segundo NCMN000 0.622321
moderna moderno AQ0FS0 0.916667
y y CC 0.999812
podr podr AQ0CS0 0.0829965
s segundo NCMN000 0.622321
ver ver VMN0000 0.987179
este este DD0MS0 0.956743
y y CC 0.999812
otros otro DI0MP0 0.56875
sitios sitio NCMP000 1
como como CS 0.998579
realmente realmente RG 1
fueron ser VSIS3P0 0.796296
pensados pensar VMP00PM 1
X x NP00000 1
19 19 Z 1
Comentarios_Los comentarios_los NP00000 1
presidenciables presidenciable AQ0CP0 1
de de SPS00 1
el el DA0MS0 1
Pacto_Nueva_Mayor pacto_nueva_mayor NP00000 1
a a SPS00 0.99585
Michelle_Bachelet_PS_Jos_Antonio_G michelle_bachelet_ps_jos_antonio_g NP00000 1
mez mez NCFS000 0.749889
PRSD_Claudio_Orrego_DC prsd_claudio_orrego_dc NP00000 1
y y CC 0.999812
Andr andr NP00000 1
s segundo NCMN000 0.622321
Velasco_IND velasco_ind NP00000 1
participar participar VMN0000 1
n n NCFS000 1
esta este DD0FS0 0.982143
noche noche NCFS000 1
en en SPS00 1
su su DP3CS0 1
ltimo ltimo RG 1
debate debate NCMS000 0.416667
televisivo televisivo AQ0MS0 1
antes_de antes_de SPS00 1
competir competir VMN0000 1
en en SPS00 1
primarias primario AQ0FP0 1
el el DA0MS0 1
30_de_junio [??:30/6/??:??.??:??] W 1
En en NP00000 1
el el DA0MS0 1
encuentro encuentro NCMS000 0.5625
habr habr VMN0000 0.633986
primero primero RG 0.373333
un uno DI0MS0 0.986987
bloque bloque NCMS000 0.625
con con SPS00 1
preguntas pregunta NCFP000 0.833333
iguales igual AQ0CP0 0.777778
para para SPS00 0.998507
todos todo DI0MP0 0.622419
los el DA0MP0 0.97623
candidatos candidato NCMP000 1
luego luego RG 0.983871
preguntas pregunta NCFP000 0.833333
personalizadas personalizar VMP00PF 1
y y CC 0.999812
posteriormente posteriormente RG 1
un uno DI0MS0 0.986987
bloque bloque NCMS000 0.625
de de SPS00 0.999919
descargos descargo NCMP000 1
Los los NP00000 1
presidenciables presidenciable AQ0CP0 1
podr podr VMN0000 0.633986
n n NCFS000 1
interpelar interpelar VMN0000 1
se se PP3CN000 1
entre entre SPS00 0.995223
ellos ellos PP3MP000 1
Los los NP00000 1
presidenciables presidenciable AQ0CP0 1
de de SPS00 1
el el DA0MS0 1
Pacto_Nueva_Mayor pacto_nueva_mayor NP00000 1
a a SPS00 0.99585
Michelle_Bachelet_PS_Jos_Antonio_G michelle_bachelet_ps_jos_antonio_g NP00000 1
mez mez NCFS000 0.749889
PRSD_Claudio_Orrego_DC prsd_claudio_orrego_dc NP00000 1
y y CC 0.999812
Andr andr NP00000 1
s segundo NCMN000 0.622321
Velasco_IND velasco_ind NP00000 1
participar participar VMN0000 1
n n NCFS000 1
la el DA0FS0 0.972146
noche noche NCFS000 1
de de SPS00 0.999919
este este DD0MS0 0.956743
domingo [G:??/??/??:??.??:??] W 1
en en SPS00 1
su su DP3CS0 1
ltimo ltimo RG 1
debate debate NCMS000 0.416667
televisivo televisivo AQ0MS0 1
antes_de antes_de SPS00 1
competir competir VMN0000 1
en en SPS00 1
primarias primario AQ0FP0 1
el el DA0MS0 1
30_de_junio [??:30/6/??:??.??:??] W 1
El el NP00000 1
periodista periodista NCCS000 1
Mauricio_Bustamante mauricio_bustamante NP00000 1
moderar moderar VMN0000 1
Decisi decisi NP00000 1
n n NCFS000 1
2013 2013 Z 1
programa programa NCMS000 0.866667
que que PR0CN000 0.5625
se se P00CN000 0.465602
dividir dividir VMN0000 1
en en SPS00 1
tres 3 Z 1
bloques bloque NCMP000 0.995706
Seg seg NP00000 1
n n NCFS000 1
inform inform NCMS000 0.700265
TVN tvn NP00000 1
canal canal NCMS000 1
que que PR0CN000 0.5625
transmitir transmitir VMN0000 1
el el DA0MS0 1
encuentro encuentro NCMS000 0.5625
en en SPS00 1
el el DA0MS0 1
primero 1 AO0MS0 0.613333
cada cada DI0CS0 1
precandidato precandidato NCMS000 1
contestar contestar VMN0000 1
un uno DI0MS0 0.986987
set set NCMS000 1
de de SPS00 0.999919
cuatro 4 Z 1
preguntas pregunta NCFP000 0.833333
todas todo DI0FP0 0.945312
iguales igual NCMP000 0.111111
para para SPS00 0.998507
ellos ellos PP3MP000 1
con con SPS00 1
el el DA0MS0 1
fin fin NCMS000 1
de de SPS00 0.999919
conocer conocer VMN0000 1
sus su DP3CP0 0.998462
diferencias diferencia NCFP000 0.928571
y y CC 0.999812
/ / Fh 1
o o CC 0.998845
coincidencias coincidencia NCFP000 1
en en SPS00 1
los el DA0MP0 0.97623
temas tema NCMP000 0.625
planteados plantear VMP00PM 1
y y CC 0.999812
el el DA0MS0 1
moderador moderador NCMS000 0.592725
podr podr AQ0CS0 0.0829965
hacer hacer VMN0000 1
las el DA0FP0 0.97051
contra contra SPS00 0.976316
preguntas pregunta NCFP000 0.833333
que que PR0CN000 0.5625
estime estimar VMSP3S0 0.473475
pertinentes pertinente AQ0CP0 1
Adem adem NP00000 1
s segundo NCMN000 0.622321
si si CS 0.997706
quien quien PR0CS000 1
est est NCMS000 1
haciendo_uso hacer_uso VMIP1S0 0.353444
de de SPS00 0.999919
la el DA0FS0 0.972146
palabra palabra NCFS000 1
interpela interpelar VMIP3S0 0.994868
a a SPS00 0.99585
otro otro DI0MS0 0.61215
aspirante aspirante NCCS000 0.342734
a a SPS00 0.99585
La_Moneda la_moneda NP00000 1
en en SPS00 1
su su DP3CS0 1
presentaci presentaci AQ0CS0 0.0199855
n n NCFS000 1
ste ste VMIP3S0 0.430364
tendr tendr VMN0000 0.633986
la el DA0FS0 0.972146
opci opci AQ0CS0 0.0199855
n n NCFS000 1
de de SPS00 0.999919
contestar contestar VMN0000 1
En en NP00000 1
la el DA0FS0 0.972146
segunda 2 AO0FS0 0.958333
parte parte NCFS000 0.497967
de de SPS00 1
el el DA0MS0 1
programa programa NCMS000 0.866667
Bustamante bustamante NP00000 1
har har VMN0000 1
dos 2 Z 0.988722
preguntas pregunta NCFP000 0.833333
personalizadas personalizar VMP00PF 1
a a SPS00 0.99585
cada cada DI0CS0 1
candidato candidato NCMS000 1
A a NP00000 1
el el DA0MS0 1
t t NCFS000 1
rmino rmino NCMS000 1
de de SPS00 0.999919
cada cada DI0CS0 1
pregunta pregunta NCFS000 0.555556
sus su DP3CP0 0.998462
contendores contendores NCMP000 1
tendr tendr VMN0000 0.633986
la el DA0FS0 0.972146
posibilidad posibilidad NCFS000 1
de de SPS00 0.999919
comentar comentar VMN0000 1
su su DP3CS0 1
respuesta respuesta NCFS000 1
y y CC 0.999812
quien quien PR0CS000 1
fue ser VSIS3S0 0.932292
interpelado interpelar VMP00SM 1
podr podr VMN0000 0.633986
cerrar cerrar VMN0000 1
con con SPS00 1
una uno DI0FS0 0.951241
exposici exposici AQ0CS0 0.0199855
n n NCFS000 1
final final NCFS000 0.425926
En en NP00000 1
el el DA0MS0 1
ltimo ltimo RG 1
bloque bloque NCMS000 0.625
de de SPS00 1
el el DA0MS0 1
debate debate NCMS000 0.416667
los el DA0MP0 0.97623
candidatos candidato NCMP000 1
tendr tendr AQ0CS0 0.0829965
n n NCFS000 1
un_minuto TM_min:1 Zu 1
de de SPS00 0.999919
libre libre AQ0CS0 0.917647
disposici disposici NCMS000 0.0996348
n n NCFS000 1
para para SPS00 0.998507
exponer exponer VMN0000 1
sus su DP3CP0 0.998462
ideas idea NCFP000 0.939394
y y CC 0.999812
dar dar VMN0000 1
sus su DP3CP0 0.998462
razones razón NCFP000 0.966667
de de SPS00 0.999919
por por SPS00 1
qu qu NCMS000 0.774439
los el DA0MP0 0.97623
electores elector NCMP000 0.642718
deben deber VMIP3P0 1
elegir elegir VMN0000 1
lo lo PP3CNA00 0.5 lo PP3MSA00 0.5
Y y NP00000 1
la el DA0FS0 0.972146
exiliada exiliado NCFS000 0.400533
mentirosa mentiroso AQ0FS0 0.64218
madre madre NCFS000 1
de de SPS00 0.999919
3 3 Z 1
guachos guacho AQ0MP0 1
atea ateo NCFS000 0.64273
ordinaria ordinario AQ0FS0 0.65727
incapaz incapaz AQ0CS0 1
us us NCMN000 0.916428
la el DA0FS0 0.972146
bandera bandera NCFS000 1
de de SPS00 0.999919
los el DA0MP0 0.97623
maricas marica NCMP000 0.166667
y y CC 0.999812
aprovecha aprovechar VMM02S0 0.25
de de SPS00 0.999919
promover promover VMN0000 1
a a SPS00 0.99585
los el DA0MP0 0.97623
fletos fletos NCMP000 0.500225
J_J_J_J_Inicie j_j_j_j_inicie NP00000 1
sesi sesi RG 1
n n NCFS000 1
para para SPS00 0.998507
responder responder VMN0000 1
VIVA_EL_TATA_EL_ORIGINAL_MUY_IMITADO_JAM_S_IGUALADOJun viva_el_tata_el_original_muy_imitado_jam_s_igualadojun NP00000 1
23 23 Z 1
Aunque aunque NP00000 1
la el DA0FS0 0.972146
exiliada exiliado NCFS000 0.400533
mentirosa mentiroso AQ0FS0 0.64218
ser ser VSN0000 0.93883
a a SPS00 0.99585
de de SPS00 0.999919
beneficio beneficio NCMS000 0.833333
para para SPS00 0.998507
MI mi NP00000 1
2do 2do Z 1
PA_S pa_s NP00000 1
porque porque CS 1
es ser VSIP3S0 1
f f NCFS000 1
cil cil AQ0CS0 1
de de SPS00 0.999919
manipular manipular VMN0000 1
sebavidalJun sebavidaljun RG 1
23 23 Z 1
ahora ahora RG 1
est est NCMS000 1
comentando comentar VMG0000 1
en en SPS00 1
the the NCFS000 0.509017
clinic clinic RG 0.5
la el DA0FS0 0.972146
nieta nieto NCFS000 1
de de SPS00 0.999919
Edwards_Catapilco_MeadoJun edwards_catapilco_meadojun NP00000 1
23 23 Z 1
Seg seg NP00000 1
n n NCFS000 1
El_Merculo el_merculo NP00000 1
67 67 Z 1
6 6 Z 1
de de SPS00 0.999919
los el DA0MP0 0.97623
votantes votante NCCP000 0.342817
cree creer VMIP3S0 0.911111
necesario necesario AQ0MS0 1
realizar realizar VMN0000 1
una uno DI0FS0 0.951241
reforma reforma NCFS000 0.866667
tributaria tributario AQ0FS0 1
para para SPS00 0.998507
financiar financiar VMN0000 1
la el DA0FS0 0.972146
reforma reforma NCFS000 0.866667
educacional educacional AQ0CS0 1
Ergo_Michellita_Amorosa ergo_michellita_amorosa NP00000 1
sale salir VMIP3S0 0.788462
elegida elegir VMP00SF 0.75
lejos lejos RG 1
en en SPS00 1
primera 1 AO0FS0 0.987179
vuelta vuelta NCFS000 0.954545
Ahora ahora NP00000 1
lo el DA0NS0 0.457393
importante importante AQ0CS0 1
es ser VSIP3S0 1
ir ir VMN0000 1
a a SPS00 0.99585
votar votar VMN0000 1
en en SPS00 1
masa masa NCFS000 1
en en SPS00 1
las el DA0FP0 0.97051
primarias primario AQ0FP0 1
el el DA0MS0 1
pr pr NCMS000 0.224371
ximo ximo AQ0MS0 0.937453
domingo [G:??/??/??:??.??:??] W 1
Y y NP00000 1
a a SPS00 0.99585
sacar sacar VMN0000 1
a a SPS00 0.99585
correazo correazo NCMS000 1
limpio limpio AQ0MS0 0.974389
en en SPS00 1
el el DA0MS0 1
poto poto NCMS000 1
a a SPS00 0.99585
esos ese DD0MP0 0.961538
cabros cabros AQ0MP0 1
chicos chico NCMP000 0.96875
vagos vago AQ0MP0 0.35731
que que PR0CN000 0.5625
tienen tener VMIP3P0 1
tomados tomar VMP00PM 1
locales local NCMP000 0.75
de de SPS00 0.999919
votaci votaci RG 0.751648
n n NCFS000 1
Inicie inicie NP00000 1
sesi sesi RG 1
n n NCFS000 1
para para SPS00 0.998507
responder responder VMN0000 1
Mama_de_CatapilcoJun mama_de_catapilcojun NP00000 1
23 23 Z 1
Bien bien NP00000 1
dicho decir VMP00SM 0.958333
hijo hijo NCMS000 1
hay haber VMIP3S0 1
que que CS 0.4375
sacar sacar VMN0000 1
a a SPS00 0.99585
los el DA0MP0 0.97623
estudiantes estudiante NCCP000 0.875
a a SPS00 0.99585
puro puro AQ0MS0 0.791667
rebencazo rebencazo NCMS000 1
dar dar VMN0000 1
le le PP3CSD00 1
fuerte fuerte AQ0CS0 0.892857
hasta hasta SPS00 0.955172
que que PR0CN000 0.5625
les le PP3CPD00 1
duela doler VMSP3S0 0.182609
pura puro AQ0FS0 1
disciplina disciplina NCFS000 0.833333
para para SPS00 0.998507
estos este DD0MP0 0.990566
cabecitas cabeza NCFP00D 0.370402
negras negro AQ0FP0 0.833333
que que PR0CN000 0.5625
se se P00CN000 0.465602
creen creer VMIP3P0 0.866667
No no NP00000 1
voy ir VMIP1S0 1
a a SPS00 0.99585
aceptar aceptar VMN0000 1
que que CS 0.4375
una uno DI0FS0 0.951241
manga manga NCFS000 0.846471
de de SPS00 0.999919
atorrantes atorrantes NCCP000 1
ponga poner VMSP1S0 0.484848
en en SPS00 1
riesgo riesgo NCMS000 1
la el DA0FS0 0.972146
elecci elecci AQ0CS0 0.0199855
n n NCFS000 1
de de SPS00 0.999919
la el DA0FS0 0.972146
sra sra NCFS000 0.55396
Michelita michelita NP00000 1
que que PR0CN000 0.5625
le le PP3CSD00 1
prometi prometi NCMS000 1
a a SPS00 0.99585
mi mi DP1CSS 0.995536
hijito hijo NCMS00D 1
recuperar recuperar VMN0000 1
su su DP3CS0 1
grado grado NCMS000 0.964286
10 10 Z 1
en en SPS00 1
SERNAM_Fuerza sernam_fuerza NP00000 1
sra sra NCFS000 0.55396
Michelita_Mi michelita_mi NP00000 1
querido querer VMP00SM 0.928571
hijito hijo NCMS00D 1
es ser VSIP3S0 1
Anti anti NP00000 1
movimiento movimiento NCMS000 1
estudiantil estudiantil AQ0CS0 1
a_mucha_honra a_mucha_honra RG 1
Catapilco_MeadoJun catapilco_meadojun NP00000 1
23 23 Z 1
Mam_de_Catapilco mam_de_catapilco NP00000 1
o o CC 0.998845
Quique_Espinozas quique_espinozas NP00000 1
te te PP2CS000 0.933962
gust gust NCMS000 1
lo lo PP3CNA00 0.271163
de de SPS00 0.999919
los el DA0MP0 0.97623
correazos correazo NCMP000 1
en en SPS00 1
las el DA0FP0 0.97051
nalgas nalga NCFP000 1
sodomita sodomita AQ0CS0 0.35733
y y CC 0.999812
masoquista masoquista AQ0CS0 0.65727
m m NCFS000 0.5
s segundo NCMN000 0.622321
encima encima RG 0.925926
el el DA0MS0 1
culeado culear VMP00SM 1
RAJun rajun NP00000 1
23 23 Z 1
he haber VAIP1S0 0.984848
ah ah I 1
las el DA0FP0 0.97051
palabras palabra NCFP000 1
sabias sabio AQ0FP0 0.657101
y y CC 0.999812
perfumadas perfumar VMP00PF 1
QUE_NO_RESISTEN_NI_UN_PAR_DE_SEGUNDOS que_no_resisten_ni_un_par_de_segundos NP00000 1
de de SPS00 0.999919
viva vivo AQ0FS0 0.84
la el DA0FS0 0.972146
caca caca NCFS000 1
ChaTATArra chatatarra NP00000 1
te te PP2CS000 0.933962
gusta gustar VMIP3S0 0.928571
la el DA0FS0 0.972146
weaita weaita NCFS000 0.313996
ah ah I 1
pa pa NCFS000 0.740689
mi mi DP1CSS 0.995536
que que CS 0.4375
soy ser VSIP1S0 1
MAsoiquista masoiquista NP00000 1
enfermo enfermo NCMS000 0.583333
de de SPS00 0.999919
mierda mierda NCFS000 1
no no RN 0.99778
ser ser VSN0000 0.93883
moreira moreira NCFS000 0.28586
Inicie inicie NP00000 1
sesi sesi RG 1
n n NCFS000 1
para para SPS00 0.998507
responder responder VMN0000 1
RAJun rajun NP00000 1
23 23 Z 1
he haber VAIP1S0 0.984848
ah ah I 1
las el DA0FP0 0.97051
palabras palabra NCFP000 1
sabias sabio AQ0FP0 0.657101
y y CC 0.999812
perfumadas perfumar VMP00PF 1
QUE_NO_RESISTEN_NI_UN_PAR_DE_SEGUNDOS que_no_resisten_ni_un_par_de_segundos NP00000 1
de de SPS00 0.999919
viva vivo AQ0FS0 0.84
la el DA0FS0 0.972146
caca caca NCFS000 1
ChaTATArra chatatarra NP00000 1
te te PP2CS000 0.933962
gusta gustar VMIP3S0 0.928571
la el DA0FS0 0.972146
weaita weaita NCFS000 0.313996
ah ah I 1
pa pa NCFS000 0.740689
mi mi DP1CSS 0.995536
que que CS 0.4375
soy ser VSIP1S0 1
MAsoiquista masoiquista NP00000 1
enfermo enfermo NCMS000 0.583333
de de SPS00 0.999919
mierda mierda NCFS000 1
no no RN 0.99778
ser ser VSN0000 0.93883
moreira moreira NCFS000 0.28586
y y CC 0.999812
voh voh I 1
meado mear VMP00SM 0.691725
sab sab NCMS000 0.63631
as as NCMS000 1
que que CS 0.4375
tu tu DP2CSS 1
hijo hijo NCMS000 1
FUMA_MARIGUANAAAAAAA_Inicie fuma_mariguanaaaaaaa_inicie NP00000 1
sesi sesi RG 1
n n NCFS000 1
para para SPS00 0.998507
responder responder VMN0000 1
D_CabreraJun d_cabrerajun NP00000 1
23 23 Z 1
Otra otra NP00000 1
vez vez NCFS000 1
la el DA0FS0 0.972146
misma mismo AQ0FS0 0.916667
pel pel NCMS000 1
cula cula NCFS000 0.914228
Que que NP00000 1
ya ya RG 0.996988
no no RN 0.99778
han haber VAIP3P0 1
dado dar VMP00SM 0.972222
mucho mucho RG 0.699275
los el DA0MP0 0.97623
cuatro 4 Z 1
fant fant NCMS000 0.607342
sticos sticos AQ0MP0 0.699977
como como CS 0.998579
para para SPS00 0.998507
volver volver VMN0000 1
la lo PP3FSA00 1
a a SPS00 0.99585
ver ver VMN0000 0.987179
El el NP00000 1
cabeza cabeza NCFS000 1
de de SPS00 0.999919
piedra piedra NCFS000 1
de de SPS00 0.999919
G g NP00000 1
mez mez NCFS000 0.749889
El_Orrego el_orrego NP00000 1
y y CC 0.999812
sus su DP3CP0 0.998462
el el DA0MS0 1
sticos sticos AQ0MP0 0.699977
principios principio NCMP000 1
morales moral AQ0CP0 0.777778
El_Velasco el_velasco NP00000 1
manos mano NCFP000 1
de de SPS00 0.999919
fuego fuego NCMS000 1
que que PR0CN000 0.5625
quem quem NCMS000 1
las el DA0FP0 0.97051
posibilidades posibilidad NCFP000 1
de de SPS00 0.999919
crecimiento crecimiento NCMS000 1
cuando cuando CS 0.983796
fue ser VSIS3S0 0.932292
ministro ministro NCMS000 1
dejando dejar VMG0000 1
con con SPS00 1
un_d TM_d:1 Zu 1
ficit ficit NCMN000 1
de de SPS00 1
el el DA0MS0 1
3 3 Z 1
de de SPS00 0.999919
la el DA0FS0 0.972146
cuenta cuenta NCFS000 0.765152
corriente corriente AQ0CS0 0.375
nacional nacional AQ0CS0 1
Y_la_Bachelet y_la_bachelet NP00000 1
la el DA0FS0 0.972146
mujer mujer NCFS000 0.959459
invisible invisible AQ0CS0 1
para para SPS00 0.998507
Chile chile NP00000 1
durante durante SPS00 1
su su DP3CS0 1
estad estar VAM02P0 1
a a SPS00 0.99585
en en SPS00 1
la el DA0FS0 0.972146
ONU onu NP00000 1
y y CC 0.999812
con con SPS00 1
su su DP3CS0 1
programa programa NCMS000 0.866667
de de SPS00 0.999919
gobierno gobierno NCMS000 0.9
invisible invisible AQ0CS0 1
improvisado improvisar VMP00SM 1
y y CC 0.999812
con con SPS00 1
una uno DI0FS0 0.951241
posici posici AQ0CS0 0.0199855
n n NCFS000 1
Inicie inicie NP00000 1
sesi sesi RG 1
n n NCFS000 1
para para SPS00 0.998507
responder responder VMN0000 1
D_CabreraJun d_cabrerajun NP00000 1
23 23 Z 1
et et NCMS000 0.818202
rea reo AQ0FS0 0.407279
ante ante SPS00 0.990566
temas tema NCMP000 0.625
como como CS 0.998579
la el DA0FS0 0.972146
asamblea asamblea NCFS000 1
constituyente constituyente AQ0CS0 0.589091
y y CC 0.999812
otros otro DI0MP0 0.56875
Espero espero NP00000 1
que que CS 0.4375
Silver_Bustamante_Surfer silver_bustamante_surfer NP00000 1
los lo PP3MPA00 0.023584
haga hacer VMSP1S0 0.444444
transpirar transpirar VMN0000 1
Aunque aunque NP00000 1
no no RN 0.99778
lo lo PP3CNA00 0.271163
creo crear VMIP1S0 0.5
En en NP00000 1
fin fin NCMS000 1
a a SPS00 0.99585
repetir repetir VMN0000 1
se se PP3CN000 1
esta este DD0FS0 0.982143
mala malo AQ0FS0 0.95
pel pel NCMS000 1
cula cula NCFS000 0.914228
de de SPS00 0.999919
fantas fantas NCFP000 1
as as NCMS000 1
y y CC 0.999812
quimeras quimera NCFP000 1
bendiciones bendición NCFP000 1
Marcia_JeanetteJun marcia_jeanettejun NP00000 1
23 23 Z 1
Estoy estoy NP00000 1
haciendo hacer VMG0000 0.958333
un uno DI0MS0 0.986987
Ppt ppt NP00000 1
sobre sobre SPS00 0.994203
Mayo [??:??/5/??:??.??:??] W 1
68 68 Z 1
hay haber VMIP3S0 1
slogans eslogan NCMP000 1
que que PR0CN000 0.5625
calzan calzar VMIP3P0 1
pollo pollo NCMS000 1
para para SPS00 0.998507
ti ti PP2CSO00 1
de de SPS00 0.999919
pura puro AQ0FS0 1
buena bueno AQ0FS0 1
onda onda NCFS000 1
que que PR0CN000 0.5625
soi soi VMIS1S0 0.0691907
con con SPS00 1
los el DA0MP0 0.97623
Fermons fermons NP00000 1
la el DA0FS0 0.972146
t t NCFS000 1
l l NCFS000 0.639398
Ouvrons ouvrons NP00000 1
les le PP3CPD00 1
yeux yeux NCMN000 0.545207
Mai mai NP00000 1
1968 1968 Z 1
D_CabreraJun d_cabrerajun NP00000 1
23 23 Z 1
Eso eso NP00000 1
mismo mismo AQ0MS0 0.961905
le le PP3CSD00 1
dir dir NCFS000 0.638487
a a SPS00 0.99585
a a SPS00 0.99585
usted usted PP2CS00P 1
Ouvrons ouvrons NP00000 1
les le PP3CPD00 1
yeux yeux NCMN000 0.545207
con con SPS00 1
su su DP3CS0 1
candidata candidato NCFS000 1
de de SPS00 0.999919
cart cart NCMS000 1
n n NCFS000 1
bendiciones bendición NCFP000 1
Marcia_JeanetteJun marcia_jeanettejun NP00000 1
23 23 Z 1
eres ser VSIP2S0 0.904762
t t NCFS000 1
el el DA0MS0 1
q q NCFN000 0.5
te te PP2CS000 0.933962
quejas quejar VMIP2S0 0.0265136
como como CS 0.998579
ni ni CC 0.995935
ita ita AQ0FS0 0.186009
no no RN 0.99778
yioooo yioooo NCMS000 1
D_BOUTONNEZ_VOTRE_CERVEAU_AUSSI_SOUVENT_QUE_VOTRE_BRAGUETTE_Mai d_boutonnez_votre_cerveau_aussi_souvent_que_votre_braguette_mai NP00000 1
1968 1968 Z 1
hahahahahaha hahahahahaha NCFS000 0.731024
te te PP2CS000 0.933962
lo lo PP3CNA00 0.271163
env env VMIP3S0 0.0552772
an an NCFS000 1
los el DA0MP0 0.97623
estudiantes estudiante NCCP000 0.875
D_CabreraJun d_cabrerajun NP00000 1
23 23 Z 1
Si si NP00000 1
yo yo PP1CSN00 1
me me PP1CS000 0.889706
quejo quejar VMIP1S0 0.0265059
como como CS 0.998579
ni ni CC 0.995935
ita ita VMIP3S0 0.30231
como como CS 0.998579
dice decir VMIP3S0 1
usted usted PP2CS00P 1
se se P00CN000 0.465602
expresa expresar VMIP3S0 0.777778
y y CC 0.999812
act act NCMS000 0.607342
a a SPS00 0.99585
como como CS 0.998579
una uno DI0FS0 0.951241
Prostituiertes_Seine_Prinzipien prostituiertes_seine_prinzipien NP00000 1
fallen fallir VMIP3P0 0.633685
Sie sie NP00000 1
leicht leicht NCMS000 0.607342
wie wie NCFS000 0.599968
ihre ihre NCMS000 0.343284
Hosen hosen NP00000 1
herunter herunter VMN0000 0.267067
bendiciones bendición NCFP000 1
Marcia_JeanetteJun marcia_jeanettejun NP00000 1
23 23 Z 1
Plus plus NP00000 1
je je NCMS000 0.852603
fais fais AQ0CS0 0.0464843
l'amour l'amour NCMS000 1
plus plus NCMS000 1
j'ai j'ai NCMS000 1
envie envie NCFS000 0.599968
de de SPS00 0.999919
faire faire NCMS000 1
la el DA0FS0 0.972146
r r NCFS000 0.638487
volution volution VMIS3P0 0.923476
Plus plus NP00000 1
je je VMIS1S0 0.0736796
fais fais NCFN000 0.511327
la el DA0FS0 0.972146
r r NCFS000 0.638487
volution volution VMIS3P0 0.923476
plus plus NCMS000 1
j'ai j'ai NCMS000 1
envie envie NCFS000 0.599968
de de SPS00 0.999919
faire faire NCMS000 1
l'amour l'amour NCMS000 1
Mai mai NP00000 1
1968 1968 Z 1
ahora ahora RG 1
traduce traducir VMIP3S0 0.833333
bien bien RG 0.898039
porque porque CS 1
si si CS 0.997706
para para SPS00 0.998507
ti ti PP2CSO00 1
so so SPS00 0.833333
es ser VSIP3S0 1
ser ser VSN0000 0.93883
so so SPS00 0.833333
con con SPS00 1
lo el DA0NS0 0.457393
que que PR0CN000 0.5625
tu tu DP2CSS 1
am ametro NCMN000 0.645622
te te PP2CS000 0.933962
educ educ NC00000 0.538029
mira mirar VMIP3S0 0.266667
este este DD0MS0 0.956743
dedito dedo NCMS00D 1
es ser VSIP3S0 1
el el DA0MS0 1
de de SPS00 1
el el DA0MS0 1
coraz coraz AQ0CS0 0.500309
n n NCFS000 1
y y CC 0.999812
est est NCMS000 1
paradito parar VMP00SM 0.691767
pa'rriba pa'rriba RG 0.933289
pypoJun pypojun RG 1
23 23 Z 1
CHILE_EXIJE_REFORMA_TRIBUTARIA chile_exije_reforma_tributaria NP00000 1
porque porque CS 1
los el DA0MP0 0.97623
empresarios empresario NCMP000 1
las el DA0FP0 0.97051
utilidades utilidad NCFP000 1
de de SPS00 1
el el DA0MS0 1
FUT fut NP00000 1
no no RN 0.99778
las lo PP3FPA00 0.0291584
reeinvierten reeinvierten VMIP3P0 1
en en SPS00 1
chile chile NCMS000 1
que que PR0CN000 0.5625
era ser VSII1S0 0.490859
la el DA0FS0 0.972146
idea idea NCFS000 0.974138
original original AQ0CS0 0.9
Empresarios empresarios NP00000 1
como como CS 0.998579
falabella falabella AQ0FS0 1
ripley ripley NCFS000 1
y y CC 0.999812
otros otro PI0MP000 0.43125
se se P00CN000 0.465602
van ir VMIP3P0 1
de de SPS00 0.999919
chile chile NCMS000 1
porque porque CS 1
ellos ellos PP3MP000 1
NO_QUIEREN no_quieren NP00000 1
pagar pagar VMN0000 1
la el DA0FS0 0.972146
tasa tasa NCFS000 0.765137
miserable miserable AQ0CS0 0.833333
de de SPS00 1
el el DA0MS0 1
20 20 Z 1
que que PR0CN000 0.5625
se se P00CN000 0.465602
les le PP3CPD00 1
cobra cobrar VMIP3S0 0.161856
en en SPS00 1
este este DD0MS0 0.956743
pais pais NCFN000 0.511327
Ellos ellos NP00000 1
se se P00CN000 0.465602
van ir VMIP3P0 1
a a SPS00 0.99585
paises paises AQ0CP0 1
que que PR0CN000 0.5625
les le PP3CPD00 1
cobran cobrar VMIP3P0 1
entre entre SPS00 0.995223
el el DA0MS0 1
30 30 Z 1
y y CC 0.999812
40 40 Z 1
que que PR0CN000 0.5625
son ser VSIP3P0 0.986772
las el DA0FP0 0.97051
tasas tasa NCFP000 0.973497
por por SPS00 1
IMPUESTO_PRIMERA_CATEGORIA_de_AMERICA_LATINA_El impuesto_primera_categoria_de_america_latina_el NP00000 1
unico unico VMIP1S0 1
pais pais NCFN000 0.511327
gueon gueon VMIS3P0 0.923476
que que CS 0.4375
cobra cobrar VMIP3S0 0.161856
una uno DI0FS0 0.951241
tasa tasa NCFS000 0.765137
miserable miserable AQ0CS0 0.833333
es ser VSIP3S0 1
chile chile NCMS000 1
porque porque CS 1
la el DA0FS0 0.972146
MINORIA minoria NP00000 1
o_sea o_sea CC 1
la el DA0FS0 0.972146
derecha derecha NCFS000 0.735294
echa echar VMIP3S0 0.875
Inicie inicie NP00000 1
sesi sesi RG 1
n n NCFS000 1
para para SPS00 0.998507
responder responder VMN0000 1
pypoJun pypojun RG 1
23 23 Z 1
cuco cuco NCMS000 0.687461
de de SPS00 0.999919
que que CS 0.4375
si si CS 0.997706
les le PP3CPD00 1
suben subir VMIP3P0 1
los el DA0MP0 0.97623
impuestos impuesto NCMP000 0.833333
estos este DD0MP0 0.990566
chiquillos chiquillo NCMP000 0.75
se se P00CN000 0.465602
van ir VMIP3P0 1
a a SPS00 0.99585
ir ir VMN0000 1
La la NP00000 1
misma mismo AQ0FS0 0.916667
wea wea NCFS000 0.60001
de de SPS00 0.999919
cuco cuco NCMS000 0.687461
que que PR0CN000 0.5625
con con SPS00 1
las el DA0FP0 0.97051
mineras minero NCFP000 0.642669
donde donde PR000000 0.963542
en en SPS00 1
el el DA0MS0 1
resto resto NCMS000 0.961538
de de SPS00 1
el el DA0MS0 1
mundo mundo NCMS000 1
se se P00CN000 0.465602
les le PP3CPD00 1
cobra cobrar VMIP3S0 0.161856
entre entre SPS00 0.995223
el el DA0MS0 1
impuesto impuesto NCMS000 0.5
de de SPS00 0.999919
primera 1 AO0FS0 0.987179
categoria categoria NCFS000 0.896396
mas mas CC 0.75
el el DA0MS0 1
royalty royalty NCMS000 1
alrededor_de alrededor_de SPS00 1
el el DA0MS0 1
50 50 Z 1
en en SPS00 1
chile chile NCMS000 1
solo solo AQ0MS0 0.930556
se se P00CN000 0.465602
cobra cobrar VMIP3S0 0.161856
un uno DI0MS0 0.986987
9 9 Z 1
de de SPS00 0.999919
royalty royalty NCMS000 1
y y CC 0.999812
siguen seguir VMIP3P0 1
libres libre AQ0CP0 0.916667
de de SPS00 0.999919
impuesto impuesto NCMS000 0.5
hasta hasta SPS00 0.955172
el el DA0MS0 1
2 2 Z 1
020 20 Z 1
A_donde a_donde NP00000 1
cresta cresta NCFS000 1
se se P00CN000 0.465602
van ir VMIP3P0 1
a a SPS00 0.99585
ir ir VMN0000 1
los el DA0MP0 0.97623
mineros minero NCMP000 0.75
si si CS 0.997706
para para SPS00 0.998507
donde donde PR000000 0.963542
emigren emigrar VMSP3P0 0.901254
pagaran pagar VMSI3P0 1
el el DA0MS0 1
50 50 Z 1
y y CC 0.999812
mas mas NCMS000 0.25
en en SPS00 1
impuestos impuesto NCMP000 0.833333
Ningun ningun NP00000 1
pais pais NCFN000 0.511327
regala regalar VMIP3S0 0.150796
sus su DP3CP0 0.998462
riquezas riqueza NCFP000 1
SOLO_CHILE solo_chile NP00000 1
y y CC 0.999812
porque porque CS 1
porque porque CS 1
otra otro DI0FS0 0.801136
vez vez NCFS000 1
la el DA0FS0 0.972146
MINORIA minoria NP00000 1
o_sea o_sea CC 1
la el DA0FS0 0.972146
derecha derecha NCFS000 0.735294
Inicie inicie NP00000 1
sesi sesi RG 1
n n NCFS000 1
para para SPS00 0.998507
responder responder VMN0000 1
pypoJun pypojun RG 1
23 23 Z 1
prefiere preferir VMIP3S0 0.833333
REGALAR_LA_PLATA_DE_CHILE regalar_la_plata_de_chile NP00000 1
a a SPS00 0.99585
los el DA0MP0 0.97623
extranjeros extranjero AQ0MP0 0.833333
y y CC 0.999812
no no RN 0.99778
quiere querer VMIP3S0 0.982759
gastar gastar VMN0000 1
la el DA0FS0 0.972146
plata plata NCFS000 1
educando educando AQ0MS0 0.22871
GRATIS_TAMBIEN_A_LOS_HIJOS_DE_LOS_RICOS_Educar gratis_tambien_a_los_hijos_de_los_ricos_educar NP00000 1
a a SPS00 0.99585
los el DA0MP0 0.97623
hijos hijo NCMP000 1
de de SPS00 0.999919
los el DA0MP0 0.97623
ricos rico NCMP000 0.5625
significa significar VMIP3S0 0.958333
gastar gastar VMN0000 1
50 50 Z 1
SACOS_DE_COBRE_A_EL_DIA_Eso sacos_de_cobre_a_el_dia_eso NP00000 1
defiende defender VMIP3S0 0.875
la el DA0FS0 0.972146
derecha derecha NCFS000 0.735294
50 50 Z 1
sacos saco NCMP000 1
de de SPS00 0.999919
cobre cobre NCMS000 0.8125
a a SPS00 1
el el DA0MS0 1
dia dia NCFS000 1
y y CC 0.999812
en en SPS00 1
cambio cambio NCMS000 0.97619
prefiere preferir VMIP3S0 0.833333
REGALAR_MILLONES_DE_SACOS_DE_COBRE_A_EL_DIA_A_LOS_EMPRESARIOS_EXTRANJEROS regalar_millones_de_sacos_de_cobre_a_el_dia_a_los_empresarios_extranjeros NP00000 1
por por SPS00 1
tener tener VMN0000 1
los lo PP3MPA00 1
libre libre AQ0CS0 0.917647
de de SPS00 0.999919
impuestos impuesto NCMP000 0.833333
hasta hasta SPS00 0.955172
el el DA0MS0 1
2 2 Z 1
020 20 Z 1
MUERA_EL_CAMBIO_Y_EL_INEPTO_Inicie muera_el_cambio_y_el_inepto_inicie NP00000 1
sesi sesi RG 1
n n NCFS000 1
para para SPS00 0.998507
responder responder VMN0000 1
EdgardoJun edgardojun NP00000 1
23 23 Z 1
Y_Feo y_feo NP00000 1
qu qu NCMS000 0.774439
pas pas NCFP000 0.954559
con con SPS00 1
el el DA0MS0 1
articulo articular VMIP1S0 1
de de SPS00 0.999919
Pe pe NP00000 1
a a SPS00 0.99585
en en SPS00 1
el el DA0MS0 1
Mercurio_Te mercurio_te NP00000 1
das_cuenta dar_cuenta VMIP2S0 1
lo el DA0NS0 0.457393
cornetero cornetero NCMS000 0.333417
que que PR0CN000 0.5625
son ser VSIP3P0 0.986772
en en SPS00 1
este este DD0MS0 0.956743
santuario santuario NCMS000 1
de de SPS00 0.999919
LA_FABRICA_DE_POBRES_LA_BACHELE_No la_fabrica_de_pobres_la_bachele_no NP00000 1
le le PP3CSD00 1
creas crear VMIP2S0 0.75
tanto tanto RG 0.857895
a a SPS00 0.99585
tu tu DP2CSS 1
dola dola AQ0FS0 0.542343
gil gil NCMS000 1
si si CS 0.997706
aunque aunque CC 1
salga salir VMSP1S0 0.416667
seguir seguir VMN0000 1
s segundo NCMN000 0.622321
siendo ser VSG0000 1
esclavo esclavo AQ0MS0 0.65721
pfff pfff NCMS000 0.666649
Inicie inicie NP00000 1
sesi sesi RG 1
n n NCFS000 1
para para SPS00 0.998507
responder responder VMN0000 1
Ver ver NP00000 1
m m NCFS000 0.5
s segundo NCMN000 0.622321
comentarios comentario NCMP000 1
Para para NP00000 1
comentar comentar VMN0000 1
necesitas necesitar VMIP2S0 1
estar estar VAN0000 1
logueado logueado VMP00SM 0.50035
Ingresa ingresa NP00000 1
con con SPS00 1
Enter enter NP00000 1
your your NCMS000 1
WordPress wordpress NP00000 1
com cometro NCMN000 0.65
blog blog NCMS000 0.714133
URL url NP00000 1
http http NCMS000 1
// // Fz 1
wordpress wordpress NC00000 1
com cometro NCMN000 0.65
Proceed_Le proceed_le NP00000 1
digo decir VMIP1S0 1
a a SPS00 1
el el DA0MS0 1
rector rector NCMS000 0.64273
que que PR0CN000 0.5625
no no RN 0.99778
confunda confundir VMSP3S0 0.548445
las el DA0FP0 0.97051
cosas cosa NCFP000 0.986842
una uno DI0FS0 0.951241
es ser VSIP3S0 1
autonom autonom NCMS000 0.500053
a a SPS00 0.99585
universitaria universitario NCFS000 0.166667
y y CC 0.999812
otra otro PI0FS000 0.198864
es ser VSIP3S0 1
pretender pretender VMN0000 1
que que CS 0.4375
la el DA0FS0 0.972146
universidad universidad NCFS000 1
sea ser VSSP1S0 0.485714
santuario santuario NCMS000 1
de de SPS00 0.999919
delincuentes delincuente NCCP000 0.833333

