Est est NP00000 1
s segundo NCMN000 0.622321
usando usar VMG0000 1
un uno DI0MS0 0.986987
Navegador navegador NP00000 1
desactualizado desactualizar VMP00SM 1
Por_favor por_favor NP00000 1
actual actual AQ0CS0 1
zalo zalo NCMS000 0.888886
a a SPS00 0.99585
una uno DI0FS0 0.951241
versi versi RG 1
n n NCFS000 1
m m NCFS000 0.5
s segundo NCMN000 0.622321
moderna moderno AQ0FS0 0.916667
y y CC 0.999812
podr podr AQ0CS0 0.0829965
s segundo NCMN000 0.622321
ver ver VMN0000 0.987179
este este DD0MS0 0.956743
y y CC 0.999812
otros otro DI0MP0 0.56875
sitios sitio NCMP000 1
como como CS 0.998579
realmente realmente RG 1
fueron ser VSIS3P0 0.796296
pensados pensar VMP00PM 1
X x NP00000 1
0 0 Z 1
Comentarios_Foto comentarios_foto NP00000 1
canal2temuco_cl VL_cl:0 Zu 1
El el NP00000 1
ministerio ministerio NCMS000 1
de de SPS00 0.999919
Cultura cultura NP00000 1
anunci anunci RG 0.751648
a a SPS00 0.99585
trav trav AQ0CS0 0.0433699
s segundo NCMN000 0.622321
de de SPS00 0.999919
un uno DI0MS0 0.986987
comunicado comunicado NCMS000 0.345763
que que PR0CN000 0.5625
el el DA0MS0 1
ministro ministro NCMS000 1
de de SPS00 1
el el DA0MS0 1
ramo ramo NCMS000 1
Roberto_Ampuero roberto_ampuero NP00000 1
acept acept NCMS000 0.607342
la el DA0FS0 0.972146
renuncia renuncia NCFS000 0.777778
de de SPS00 1
el el DA0MS0 1
Director_Regional_de_la_Araucan director_regional_de_la_araucan NP00000 1
a a SPS00 0.99585
Benjam benjam NP00000 1
n n NCFS000 1
Vogel vogel NP00000 1
quien quien PR0CS000 1
justific justific RG 0.5
la el DA0FS0 0.972146
violaci violaci AQ0CS0 0.0199855
n n NCFS000 1
de de SPS00 0.999919
derechos derecho NCMP000 0.9
humanos humano AQ0MP0 0.681818
durante durante SPS00 1
la el DA0FS0 0.972146
dictadura dictadura NCFS000 1
El_Consejo_Nacional_de_la_Cultura el_consejo_nacional_de_la_cultura NP00000 1
y y CC 0.999812
las el DA0FP0 0.97051
Artes artes NP00000 1
comunica comunicar VMIP3S0 0.875
que que CS 0.4375
el el DA0MS0 1
Ministro_de_Cultura_Roberto_Ampuero ministro_de_cultura_roberto_ampuero NP00000 1
ha haber VAIP3S0 0.998141
aceptado aceptar VMP00SM 1
la el DA0FS0 0.972146
renuncia renuncia NCFS000 0.777778
a_el_cargo_de al_cargo_de SPS00 1
Director_Regional_de_la_Regi director_regional_de_la_regi NP00000 1
n n NCFS000 1
de de SPS00 0.999919
la el DA0FS0 0.972146
Araucan araucan NP00000 1
a a SPS00 0.99585
presentada presentar VMP00SF 1
por por SPS00 1
el el DA0MS0 1
se se P00CN000 0.465602
or or NCMS000 0.655771
Benjam benjam NP00000 1
n n NCFS000 1
Vogel vogel NP00000 1
parte parte NCFS000 0.497967
diciendo decir VMG0000 1
el el DA0MS0 1
informe informe NCMS000 0.185057
de de SPS00 1
el el DA0MS0 1
ministerio ministerio NCMS000 1
Esto esto NP00000 1
en_consecuencia en_consecuencia RG 1
a a SPS00 0.99585
que que CS 0.4375
los el DA0MP0 0.97623
dichos dicho NCMP000 0.25
expresados expresar VMP00PM 1
por por SPS00 1
el el DA0MS0 1
se se P00CN000 0.465602
or or NCMS000 0.655771
Vogel vogel NP00000 1
en en SPS00 1
un_medio 1/2 Zp 1
de de SPS00 0.999919
comunicaci comunicaci RG 0.751648
n n NCFS000 1
relacionados relacionar VMP00PM 1
a a SPS00 1
el el DA0MS0 1
apoyo apoyo NCMS000 0.928571
de de SPS00 0.999919
16 16 Z 1
efectivos efectivo NCMP000 0.54266
en en SPS00 1
retiro retiro NCMS000 0.75
de de SPS00 0.999919
la el DA0FS0 0.972146
FACh fach NP00000 1
procesados procesar VMP00PM 0.691743
por por SPS00 1
violaciones violación NCFP000 1
a a SPS00 0.99585
los el DA0MP0 0.97623
derechos derecho NCMP000 0.9
humanos humano AQ0MP0 0.681818
no no RN 0.99778
representan representar VMIP3P0 1
el el DA0MS0 1
esp esp NCMS000 1
ritu ritu NCMS000 1
de de SPS00 1
el el DA0MS0 1
gobierno gobierno NCMS000 0.9
de de SPS00 1
el el DA0MS0 1
Presidente_Sebasti presidente_sebasti NP00000 1
n n NCFS000 1
Pi pi NP00000 1
era ser VSII1S0 0.490859
agrega agregar VMIP3S0 0.994861
Vogel vogel NP00000 1
escribi escribi AQ0CN0 1
una uno DI0FS0 0.951241
carta carta NCFS000 1
de de SPS00 0.999919
respaldo respaldo NCMS000 0.75
a a SPS00 0.99585
los el DA0MP0 0.97623
16 16 Z 1
efectivos efectivo NCMP000 0.54266
en en SPS00 1
retiro retiro NCMS000 0.75
de de SPS00 0.999919
la el DA0FS0 0.972146
FACh fach NP00000 1
que que CS 0.4375
est est NCMS000 1
n n NCFS000 1
siendo ser VSG0000 1
procesados procesado NCMP000 0.308257
por por SPS00 1
violaciones violación NCFP000 1
a a SPS00 0.99585
los el DA0MP0 0.97623
derechos derecho NCMP000 0.9
humanos humano AQ0MP0 0.681818
y y CC 0.999812
a a SPS00 0.99585
quienes quien PR0CP000 1
atendi atendi VMIS1S0 1
personalmente personalmente RG 1
como como CS 0.998579
Odont odont NP00000 1
logo logo NCMS000 1
Militar_A militar_a NP00000 1
el el DA0MS0 1
borde borde NCMS000 0.733333
de de SPS00 0.999919
la el DA0FS0 0.972146
guerra guerra NCFS000 1
civil civil AQ0CS0 0.95
era ser VSII1S0 0.490859
imposible imposible AQ0CS0 0.977273
que que CS 0.4375
no no RN 0.99778
hubiera haber VMSI3S0 0.157233
violaciones violación NCFP000 1
de de SPS00 0.999919
los el DA0MP0 0.97623
Derechos_Humanos derechos_humanos NP00000 1
dijo decir VMIS3S0 1
Para para NP00000 1
comentar comentar VMN0000 1
necesitas necesitar VMIP2S0 1
estar estar VAN0000 1
logueado logueado VMP00SM 0.50035
Ingresa ingresa NP00000 1
con con SPS00 1
Enter enter NP00000 1
your your NCMS000 1
WordPress wordpress NP00000 1
com cometro NCMN000 0.65
blog blog NCMS000 0.714133
URL url NP00000 1
http http NCMS000 1
// // Fz 1
wordpress wordpress NC00000 1
com cometro NCMN000 0.65
Proceed_Le proceed_le NP00000 1
digo decir VMIP1S0 1
a a SPS00 1
el el DA0MS0 1
rector rector NCMS000 0.64273
que que PR0CN000 0.5625
no no RN 0.99778
confunda confundir VMSP3S0 0.548445
las el DA0FP0 0.97051
cosas cosa NCFP000 0.986842
una uno DI0FS0 0.951241
es ser VSIP3S0 1
autonom autonom NCMS000 0.500053
a a SPS00 0.99585
universitaria universitario NCFS000 0.166667
y y CC 0.999812
otra otro PI0FS000 0.198864
es ser VSIP3S0 1
pretender pretender VMN0000 1
que que CS 0.4375
la el DA0FS0 0.972146
universidad universidad NCFS000 1
sea ser VSSP1S0 0.485714
santuario santuario NCMS000 1
de de SPS00 0.999919
delincuentes delincuente NCCP000 0.833333

