 Estás usando un Navegador desactualizado. Por favor, actualízalo a una  versión más moderna y podrás ver este y otros sitios como realmente fueron pensados. [X]
    15
                    Comentarios
                
Vía Prensa Opal
          Siempre lúcida Gladys!, se extraña...
                     



            
                                Catapilco MeadoMar, 07
            
           Falso de falsedad absoluta el título de este artípoto. Fue el embajador que se arrancó  con los tarros. Lagos JAMÁS ha apoyado golpe de Estado alguno.
                     



            
                                Felipe33Mar, 07
            
           Catapilco deja de defender a chantas viejo, el embajador no se manda solo y la canciller era la alvear cuyo partido siempre fue opositor a Chavez. Es como decir que la concerta y Frei no se la jugaron por traer de vuelta a pinocho de londres.
                     





            
                                ramonMar, 07
            
           Querida y recordada compañera: lamentablemente siempre esperamos algo, algo, una pizca de conciencia política del sr Lagos y posteriormente de los otros gobiernos de la concertación. Esa esperanza venía de lo que considerabamos sería una reacción conciente de todos estos monigotes que tambien sufrieron( ¿?) el golpe de estado. Con esa reacción del sr lagos como presidente demostró cabalmente lo que representaba para él un gobierno progresista como el del comandante Chávez. El sr...
                     



            
                                ramonMar, 07
            
           lagos fué y es un monigote de los que manejan nuestro Chile y de los que manejan el mundo. No fué vergonzoso, compañera, para ellos, ya que sólo indicaba una manera de ser normal para estos entes.
                     



            
                                javieraMar, 07
            
           Y el berraco de lagos hoy en una entrevista que dio a a ADN la Radio lo idolatra y afirma los siguiente. Hugo Chavez se ha ganado un lugar en la Historia. Lagos es de lo peor.
                     



            
                                Marcia JeanetteMar, 07
            
           Mujer extraordinaria, los que se llevan el respeto hasta de los adversarios es porque fueron dos veces ejemplo de consecuencia... mañana la recordaremos en el día de la mujer, su retrato está en el local al lado del de Recabarren, Lafferte, Allende, Neruda, Víctor Jara y la célula de la Juventud se llama  Michel Nash !!!
                     



            
                                Catapilco MeadoMar, 07
            
           Mais oui
                     





            
                                ConcertaMierdaMar, 07
            
           jjajjaa y pensar que ayer se conmemoró el glorioso funeral de esta vieja asquerosa fea y vendida. Nadie se acordó :D
                     



            
                                SOY DE LA LEGUAMar, 07
            
           Gladys fue simplemente una mujer extraordinaria una gran luchadora social. Lagos un neoliberalista mas.
                     



            
                                Felipe33Mar, 07
            
           Idola la tía Gladys, hoy no hay nadie en Chile como ella.
                     



            
                                SOY DE LA LEGUAMar, 07
            
           El neofacho de la UDI Sr Arenas debe estar feliz que , el SIMIO , como lo califico Arenas , después que chavez ganara las elecciones, ahora este muerto.
                     



            
                                SOY DE LA LEGUAMar, 07
            
           Lagos, aliado de la derecha chilena que permitió las políticas neoliberales con vaselina, aprovechándose para ello de la herencia de un revolucionario cabal como Salvador Allende y la unidad popular so pretexto de la concertación, concertación de la burguesía chilena para lavarle la cara a una oprobiosa dictadura como la de Pinochet, apoyada siempre por los Yanquis.
                     



            
                                SOY DE LA LEGUAMar, 07
            
           JAJAJAJ El socialista Lago$$$$$$$$ hablando de democracia dijo que ésta “se profundizaba día a día y para funcionar los gobiernos debían entregarle a la sociedad lo que estaba pidiendo”… Porque entonces no lo hizo como chavez? la Gran Misión Vivienda Venezuela, que consistió en entregarle casa a los que menos tienen de manera prioritaria, o la de otorgarle a los adultos su pensión, o la de otorgarle a las adolescentes embarazadas ayudas y puntos de apoyo . En este sentido,...
                     



            
                                SOY DE LA LEGUAMar, 07
            
           el criterio de sociedad que tiene este GRAN “socialista” chileno Lagos$$$$$$$$ se circunscribe a la alta sociedad, es decir, a la derecha más rancia que exige cambios, cambios en contra del pueblo y la democracia para establecer la dictadura capitalista.
                     

		

	Ver más comentarios

               
                    Para comentar necesitas estar logueado. Ingresa con:
                    
                    	
				
							
										
														Enter your WordPress.com blog URL
		
			http://.wordpress.com 
			Proceed
		
	“Puede haber grandes empresarios, pero de fútbol saben poco”
