The ngrama is: 1      Training with: 71      classify with: 62
sigma: -10      aciertos: 31
 pos: 0  -  neg: 0
sigma: -9.800000e+00      aciertos: 31
 pos: 0  -  neg: 0
sigma: -9.600000e+00      aciertos: 31
 pos: 0  -  neg: 0
sigma: -9.400000e+00      aciertos: 31
 pos: 0  -  neg: 0
sigma: -9.200000e+00      aciertos: 31
 pos: 0  -  neg: 0
sigma: -9      aciertos: 31
 pos: 0  -  neg: 0
sigma: -8.800000e+00      aciertos: 31
 pos: 0  -  neg: 0
sigma: -8.600000e+00      aciertos: 31
 pos: 0  -  neg: 0
sigma: -8.400000e+00      aciertos: 31
 pos: 0  -  neg: 0
sigma: -8.200000e+00      aciertos: 31
 pos: 0  -  neg: 0
sigma: -8      aciertos: 31
 pos: 0  -  neg: 0
sigma: -7.800000e+00      aciertos: 31
 pos: 0  -  neg: 0
sigma: -7.600000e+00      aciertos: 31
 pos: 0  -  neg: 0
sigma: -7.400000e+00      aciertos: 31
 pos: 0  -  neg: 0
sigma: -7.200000e+00      aciertos: 31
 pos: 0  -  neg: 0
sigma: -7      aciertos: 31
 pos: 0  -  neg: 0
sigma: -6.800000e+00      aciertos: 31
 pos: 0  -  neg: 0
