The ngrama is: 3      Training with: 102      classify with: 62      Grupo A: 21      Grupo B: 41
sigma: 1.700000e+00      aciertos: 35
 pos: 5  -  neg: 30
sigma: 1.701000e+00      aciertos: 35
 pos: 5  -  neg: 30
sigma: 1.702000e+00      aciertos: 35
 pos: 5  -  neg: 30
sigma: 1.703000e+00      aciertos: 35
 pos: 5  -  neg: 30
sigma: 1.704000e+00      aciertos: 35
 pos: 5  -  neg: 30
sigma: 1.705000e+00      aciertos: 35
 pos: 5  -  neg: 30
sigma: 1.706000e+00      aciertos: 35
 pos: 5  -  neg: 30
sigma: 1.707000e+00      aciertos: 35
 pos: 5  -  neg: 30
sigma: 1.708000e+00      aciertos: 34
 pos: 5  -  neg: 29
sigma: 1.709000e+00      aciertos: 35
 pos: 6  -  neg: 29
sigma: 1.710000e+00      aciertos: 35
 pos: 6  -  neg: 29
sigma: 1.711000e+00      aciertos: 35
 pos: 6  -  neg: 29
sigma: 1.712000e+00      aciertos: 35
 pos: 6  -  neg: 29
sigma: 1.713000e+00      aciertos: 35
 pos: 6  -  neg: 29
sigma: 1.714000e+00      aciertos: 35
 pos: 6  -  neg: 29
sigma: 1.715000e+00      aciertos: 35
 pos: 6  -  neg: 29
sigma: 1.716000e+00      aciertos: 35
 pos: 6  -  neg: 29
sigma: 1.717000e+00      aciertos: 35
 pos: 6  -  neg: 29
sigma: 1.718000e+00      aciertos: 35
 pos: 6  -  neg: 29
sigma: 1.719000e+00      aciertos: 35
 pos: 6  -  neg: 29
sigma: 1.720000e+00      aciertos: 35
 pos: 6  -  neg: 29
sigma: 1.721000e+00      aciertos: 35
 pos: 6  -  neg: 29
sigma: 1.722000e+00      aciertos: 35
 pos: 6  -  neg: 29
sigma: 1.723000e+00      aciertos: 35
 pos: 6  -  neg: 29
sigma: 1.724000e+00      aciertos: 35
 pos: 6  -  neg: 29
sigma: 1.725000e+00      aciertos: 34
 pos: 6  -  neg: 28
sigma: 1.726000e+00      aciertos: 34
 pos: 6  -  neg: 28
sigma: 1.727000e+00      aciertos: 34
 pos: 6  -  neg: 28
sigma: 1.728000e+00      aciertos: 34
 pos: 6  -  neg: 28
sigma: 1.729000e+00      aciertos: 34
 pos: 6  -  neg: 28
sigma: 1.730000e+00      aciertos: 34
 pos: 6  -  neg: 28
sigma: 1.731000e+00      aciertos: 34
 pos: 6  -  neg: 28
sigma: 1.732000e+00      aciertos: 34
 pos: 6  -  neg: 28
sigma: 1.733000e+00      aciertos: 34
 pos: 6  -  neg: 28
sigma: 1.734000e+00      aciertos: 34
 pos: 6  -  neg: 28
sigma: 1.735000e+00      aciertos: 34
 pos: 6  -  neg: 28
sigma: 1.736000e+00      aciertos: 34
 pos: 6  -  neg: 28
sigma: 1.737000e+00      aciertos: 34
 pos: 6  -  neg: 28
sigma: 1.738000e+00      aciertos: 34
 pos: 6  -  neg: 28
sigma: 1.739000e+00      aciertos: 33
 pos: 6  -  neg: 27
sigma: 1.740000e+00      aciertos: 33
 pos: 6  -  neg: 27
sigma: 1.741000e+00      aciertos: 33
 pos: 6  -  neg: 27
sigma: 1.742000e+00      aciertos: 33
 pos: 6  -  neg: 27
sigma: 1.743000e+00      aciertos: 32
 pos: 6  -  neg: 26
sigma: 1.744000e+00      aciertos: 32
 pos: 6  -  neg: 26
sigma: 1.745000e+00      aciertos: 32
 pos: 6  -  neg: 26
sigma: 1.746000e+00      aciertos: 32
 pos: 6  -  neg: 26
sigma: 1.747000e+00      aciertos: 32
 pos: 6  -  neg: 26
sigma: 1.748000e+00      aciertos: 32
 pos: 6  -  neg: 26
sigma: 1.749000e+00      aciertos: 32
 pos: 6  -  neg: 26
sigma: 1.750000e+00      aciertos: 32
 pos: 6  -  neg: 26
sigma: 1.751000e+00      aciertos: 32
 pos: 7  -  neg: 25
sigma: 1.752000e+00      aciertos: 32
 pos: 7  -  neg: 25
sigma: 1.753000e+00      aciertos: 32
 pos: 7  -  neg: 25
sigma: 1.754000e+00      aciertos: 32
 pos: 7  -  neg: 25
sigma: 1.755000e+00      aciertos: 32
 pos: 7  -  neg: 25
sigma: 1.756000e+00      aciertos: 32
 pos: 7  -  neg: 25
sigma: 1.757000e+00      aciertos: 32
 pos: 7  -  neg: 25
sigma: 1.758000e+00      aciertos: 32
 pos: 7  -  neg: 25
sigma: 1.759000e+00      aciertos: 32
 pos: 7  -  neg: 25
sigma: 1.760000e+00      aciertos: 32
 pos: 7  -  neg: 25
sigma: 1.761000e+00      aciertos: 32
 pos: 7  -  neg: 25
sigma: 1.762000e+00      aciertos: 33
 pos: 8  -  neg: 25
sigma: 1.763000e+00      aciertos: 33
 pos: 8  -  neg: 25
sigma: 1.764000e+00      aciertos: 33
 pos: 8  -  neg: 25
sigma: 1.765000e+00      aciertos: 32
 pos: 8  -  neg: 24
sigma: 1.766000e+00      aciertos: 32
 pos: 8  -  neg: 24
sigma: 1.767000e+00      aciertos: 32
 pos: 8  -  neg: 24
sigma: 1.768000e+00      aciertos: 32
 pos: 8  -  neg: 24
sigma: 1.769000e+00      aciertos: 32
 pos: 8  -  neg: 24
sigma: 1.770000e+00      aciertos: 33
 pos: 9  -  neg: 24
sigma: 1.771000e+00      aciertos: 33
 pos: 9  -  neg: 24
sigma: 1.772000e+00      aciertos: 33
 pos: 9  -  neg: 24
sigma: 1.773000e+00      aciertos: 33
 pos: 9  -  neg: 24
sigma: 1.774000e+00      aciertos: 33
 pos: 9  -  neg: 24
sigma: 1.775000e+00      aciertos: 33
 pos: 9  -  neg: 24
sigma: 1.776000e+00      aciertos: 33
 pos: 9  -  neg: 24
sigma: 1.777000e+00      aciertos: 33
 pos: 9  -  neg: 24
sigma: 1.778000e+00      aciertos: 33
 pos: 9  -  neg: 24
sigma: 1.779000e+00      aciertos: 33
 pos: 9  -  neg: 24
sigma: 1.780000e+00      aciertos: 33
 pos: 9  -  neg: 24
sigma: 1.781000e+00      aciertos: 33
 pos: 9  -  neg: 24
sigma: 1.782000e+00      aciertos: 33
 pos: 9  -  neg: 24
sigma: 1.783000e+00      aciertos: 33
 pos: 9  -  neg: 24
sigma: 1.784000e+00      aciertos: 33
 pos: 9  -  neg: 24
sigma: 1.785000e+00      aciertos: 33
 pos: 9  -  neg: 24
sigma: 1.786000e+00      aciertos: 34
 pos: 10  -  neg: 24
sigma: 1.787000e+00      aciertos: 34
 pos: 10  -  neg: 24
sigma: 1.788000e+00      aciertos: 34
 pos: 10  -  neg: 24
sigma: 1.789000e+00      aciertos: 34
 pos: 10  -  neg: 24
sigma: 1.790000e+00      aciertos: 34
 pos: 10  -  neg: 24
sigma: 1.791000e+00      aciertos: 34
 pos: 10  -  neg: 24
sigma: 1.792000e+00      aciertos: 34
 pos: 10  -  neg: 24
sigma: 1.793000e+00      aciertos: 34
 pos: 10  -  neg: 24
sigma: 1.794000e+00      aciertos: 34
 pos: 10  -  neg: 24
sigma: 1.795000e+00      aciertos: 34
 pos: 10  -  neg: 24
sigma: 1.796000e+00      aciertos: 34
 pos: 10  -  neg: 24
sigma: 1.797000e+00      aciertos: 34
 pos: 10  -  neg: 24
sigma: 1.798000e+00      aciertos: 34
 pos: 10  -  neg: 24
sigma: 1.799000e+00      aciertos: 34
 pos: 10  -  neg: 24
sigma: 1.800000e+00      aciertos: 34
 pos: 10  -  neg: 24
sigma: 1.801000e+00      aciertos: 34
 pos: 10  -  neg: 24
sigma: 1.802000e+00      aciertos: 34
 pos: 10  -  neg: 24
sigma: 1.803000e+00      aciertos: 34
 pos: 10  -  neg: 24
sigma: 1.804000e+00      aciertos: 34
 pos: 10  -  neg: 24
sigma: 1.805000e+00      aciertos: 33
 pos: 10  -  neg: 23
sigma: 1.806000e+00      aciertos: 33
 pos: 10  -  neg: 23
sigma: 1.807000e+00      aciertos: 33
 pos: 10  -  neg: 23
sigma: 1.808000e+00      aciertos: 33
 pos: 10  -  neg: 23
sigma: 1.809000e+00      aciertos: 33
 pos: 10  -  neg: 23
sigma: 1.810000e+00      aciertos: 33
 pos: 10  -  neg: 23
sigma: 1.811000e+00      aciertos: 33
 pos: 10  -  neg: 23
sigma: 1.812000e+00      aciertos: 32
 pos: 10  -  neg: 22
sigma: 1.813000e+00      aciertos: 32
 pos: 10  -  neg: 22
sigma: 1.814000e+00      aciertos: 32
 pos: 10  -  neg: 22
sigma: 1.815000e+00      aciertos: 32
 pos: 10  -  neg: 22
sigma: 1.816000e+00      aciertos: 32
 pos: 10  -  neg: 22
sigma: 1.817000e+00      aciertos: 32
 pos: 10  -  neg: 22
sigma: 1.818000e+00      aciertos: 32
 pos: 10  -  neg: 22
sigma: 1.819000e+00      aciertos: 32
 pos: 10  -  neg: 22
sigma: 1.820000e+00      aciertos: 32
 pos: 10  -  neg: 22
sigma: 1.821000e+00      aciertos: 32
 pos: 10  -  neg: 22
sigma: 1.822000e+00      aciertos: 31
 pos: 10  -  neg: 21
sigma: 1.823000e+00      aciertos: 31
 pos: 10  -  neg: 21
sigma: 1.824000e+00      aciertos: 31
 pos: 10  -  neg: 21
sigma: 1.825000e+00      aciertos: 31
 pos: 10  -  neg: 21
sigma: 1.826000e+00      aciertos: 31
 pos: 10  -  neg: 21
sigma: 1.827000e+00      aciertos: 31
 pos: 10  -  neg: 21
sigma: 1.828000e+00      aciertos: 31
 pos: 10  -  neg: 21
sigma: 1.829000e+00      aciertos: 31
 pos: 10  -  neg: 21
sigma: 1.830000e+00      aciertos: 31
 pos: 10  -  neg: 21
sigma: 1.831000e+00      aciertos: 31
 pos: 10  -  neg: 21
sigma: 1.832000e+00      aciertos: 31
 pos: 10  -  neg: 21
sigma: 1.833000e+00      aciertos: 31
 pos: 10  -  neg: 21
sigma: 1.834000e+00      aciertos: 31
 pos: 10  -  neg: 21
sigma: 1.835000e+00      aciertos: 31
 pos: 10  -  neg: 21
sigma: 1.836000e+00      aciertos: 31
 pos: 10  -  neg: 21
sigma: 1.837000e+00      aciertos: 31
 pos: 10  -  neg: 21
sigma: 1.838000e+00      aciertos: 31
 pos: 10  -  neg: 21
sigma: 1.839000e+00      aciertos: 31
 pos: 10  -  neg: 21
sigma: 1.840000e+00      aciertos: 31
 pos: 10  -  neg: 21
sigma: 1.841000e+00      aciertos: 31
 pos: 10  -  neg: 21
sigma: 1.842000e+00      aciertos: 31
 pos: 10  -  neg: 21
sigma: 1.843000e+00      aciertos: 31
 pos: 10  -  neg: 21
sigma: 1.844000e+00      aciertos: 31
 pos: 10  -  neg: 21
sigma: 1.845000e+00      aciertos: 31
 pos: 10  -  neg: 21
sigma: 1.846000e+00      aciertos: 31
 pos: 10  -  neg: 21
sigma: 1.847000e+00      aciertos: 31
 pos: 10  -  neg: 21
sigma: 1.848000e+00      aciertos: 31
 pos: 10  -  neg: 21
sigma: 1.849000e+00      aciertos: 31
 pos: 10  -  neg: 21
sigma: 1.850000e+00      aciertos: 31
 pos: 10  -  neg: 21
sigma: 1.851000e+00      aciertos: 31
 pos: 10  -  neg: 21
sigma: 1.852000e+00      aciertos: 31
 pos: 10  -  neg: 21
sigma: 1.853000e+00      aciertos: 31
 pos: 10  -  neg: 21
sigma: 1.854000e+00      aciertos: 31
 pos: 10  -  neg: 21
sigma: 1.855000e+00      aciertos: 31
 pos: 10  -  neg: 21
sigma: 1.856000e+00      aciertos: 31
 pos: 10  -  neg: 21
sigma: 1.857000e+00      aciertos: 31
 pos: 10  -  neg: 21
sigma: 1.858000e+00      aciertos: 31
 pos: 10  -  neg: 21
sigma: 1.859000e+00      aciertos: 31
 pos: 10  -  neg: 21
sigma: 1.860000e+00      aciertos: 31
 pos: 10  -  neg: 21
sigma: 1.861000e+00      aciertos: 31
 pos: 10  -  neg: 21
sigma: 1.862000e+00      aciertos: 31
 pos: 10  -  neg: 21
sigma: 1.863000e+00      aciertos: 31
 pos: 10  -  neg: 21
sigma: 1.864000e+00      aciertos: 31
 pos: 10  -  neg: 21
sigma: 1.865000e+00      aciertos: 31
 pos: 10  -  neg: 21
sigma: 1.866000e+00      aciertos: 31
 pos: 10  -  neg: 21
sigma: 1.867000e+00      aciertos: 31
 pos: 10  -  neg: 21
sigma: 1.868000e+00      aciertos: 31
 pos: 10  -  neg: 21
sigma: 1.869000e+00      aciertos: 31
 pos: 10  -  neg: 21
sigma: 1.870000e+00      aciertos: 31
 pos: 10  -  neg: 21
sigma: 1.871000e+00      aciertos: 31
 pos: 10  -  neg: 21
sigma: 1.872000e+00      aciertos: 31
 pos: 10  -  neg: 21
sigma: 1.873000e+00      aciertos: 31
 pos: 10  -  neg: 21
sigma: 1.874000e+00      aciertos: 31
 pos: 10  -  neg: 21
sigma: 1.875000e+00      aciertos: 31
 pos: 10  -  neg: 21
sigma: 1.876000e+00      aciertos: 30
 pos: 10  -  neg: 20
sigma: 1.877000e+00      aciertos: 29
 pos: 10  -  neg: 19
sigma: 1.878000e+00      aciertos: 29
 pos: 10  -  neg: 19
sigma: 1.879000e+00      aciertos: 29
 pos: 10  -  neg: 19
sigma: 1.880000e+00      aciertos: 29
 pos: 10  -  neg: 19
sigma: 1.881000e+00      aciertos: 29
 pos: 10  -  neg: 19
sigma: 1.882000e+00      aciertos: 29
 pos: 10  -  neg: 19
sigma: 1.883000e+00      aciertos: 29
 pos: 10  -  neg: 19
sigma: 1.884000e+00      aciertos: 29
 pos: 10  -  neg: 19
sigma: 1.885000e+00      aciertos: 29
 pos: 10  -  neg: 19
sigma: 1.886000e+00      aciertos: 29
 pos: 10  -  neg: 19
sigma: 1.887000e+00      aciertos: 29
 pos: 10  -  neg: 19
sigma: 1.888000e+00      aciertos: 29
 pos: 10  -  neg: 19
sigma: 1.889000e+00      aciertos: 29
 pos: 10  -  neg: 19
sigma: 1.890000e+00      aciertos: 29
 pos: 10  -  neg: 19
sigma: 1.891000e+00      aciertos: 29
 pos: 10  -  neg: 19
sigma: 1.892000e+00      aciertos: 29
 pos: 10  -  neg: 19
sigma: 1.893000e+00      aciertos: 29
 pos: 10  -  neg: 19
sigma: 1.894000e+00      aciertos: 29
 pos: 10  -  neg: 19
sigma: 1.895000e+00      aciertos: 29
 pos: 10  -  neg: 19
sigma: 1.896000e+00      aciertos: 29
 pos: 10  -  neg: 19
sigma: 1.897000e+00      aciertos: 29
 pos: 10  -  neg: 19
sigma: 1.898000e+00      aciertos: 29
 pos: 10  -  neg: 19
sigma: 1.899000e+00      aciertos: 29
 pos: 10  -  neg: 19
sigma: 1.900000e+00      aciertos: 29
 pos: 10  -  neg: 19
sigma: 1.901000e+00      aciertos: 29
 pos: 10  -  neg: 19
sigma: 1.902000e+00      aciertos: 29
 pos: 10  -  neg: 19
sigma: 1.903000e+00      aciertos: 29
 pos: 10  -  neg: 19
sigma: 1.904000e+00      aciertos: 29
 pos: 10  -  neg: 19
sigma: 1.905000e+00      aciertos: 29
 pos: 10  -  neg: 19
sigma: 1.906000e+00      aciertos: 29
 pos: 10  -  neg: 19
sigma: 1.907000e+00      aciertos: 29
 pos: 10  -  neg: 19
sigma: 1.908000e+00      aciertos: 29
 pos: 10  -  neg: 19
sigma: 1.909000e+00      aciertos: 29
 pos: 10  -  neg: 19
sigma: 1.910000e+00      aciertos: 29
 pos: 10  -  neg: 19
sigma: 1.911000e+00      aciertos: 29
 pos: 10  -  neg: 19
sigma: 1.912000e+00      aciertos: 28
 pos: 10  -  neg: 18
sigma: 1.913000e+00      aciertos: 28
 pos: 10  -  neg: 18
sigma: 1.914000e+00      aciertos: 28
 pos: 10  -  neg: 18
sigma: 1.915000e+00      aciertos: 28
 pos: 10  -  neg: 18
sigma: 1.916000e+00      aciertos: 28
 pos: 10  -  neg: 18
sigma: 1.917000e+00      aciertos: 28
 pos: 10  -  neg: 18
sigma: 1.918000e+00      aciertos: 28
 pos: 10  -  neg: 18
sigma: 1.919000e+00      aciertos: 28
 pos: 10  -  neg: 18
sigma: 1.920000e+00      aciertos: 28
 pos: 10  -  neg: 18
sigma: 1.921000e+00      aciertos: 28
 pos: 10  -  neg: 18
sigma: 1.922000e+00      aciertos: 28
 pos: 10  -  neg: 18
sigma: 1.923000e+00      aciertos: 28
 pos: 10  -  neg: 18
sigma: 1.924000e+00      aciertos: 28
 pos: 10  -  neg: 18
sigma: 1.925000e+00      aciertos: 28
 pos: 10  -  neg: 18
sigma: 1.926000e+00      aciertos: 28
 pos: 10  -  neg: 18
sigma: 1.927000e+00      aciertos: 28
 pos: 10  -  neg: 18
sigma: 1.928000e+00      aciertos: 28
 pos: 10  -  neg: 18
sigma: 1.929000e+00      aciertos: 28
 pos: 10  -  neg: 18
sigma: 1.930000e+00      aciertos: 28
 pos: 10  -  neg: 18
sigma: 1.931000e+00      aciertos: 28
 pos: 10  -  neg: 18
sigma: 1.932000e+00      aciertos: 28
 pos: 10  -  neg: 18
sigma: 1.933000e+00      aciertos: 28
 pos: 10  -  neg: 18
sigma: 1.934000e+00      aciertos: 28
 pos: 10  -  neg: 18
sigma: 1.935000e+00      aciertos: 28
 pos: 10  -  neg: 18
sigma: 1.936000e+00      aciertos: 28
 pos: 10  -  neg: 18
sigma: 1.937000e+00      aciertos: 28
 pos: 10  -  neg: 18
sigma: 1.938000e+00      aciertos: 28
 pos: 10  -  neg: 18
sigma: 1.939000e+00      aciertos: 28
 pos: 10  -  neg: 18
sigma: 1.940000e+00      aciertos: 28
 pos: 10  -  neg: 18
sigma: 1.941000e+00      aciertos: 28
 pos: 10  -  neg: 18
sigma: 1.942000e+00      aciertos: 28
 pos: 10  -  neg: 18
sigma: 1.943000e+00      aciertos: 28
 pos: 10  -  neg: 18
sigma: 1.944000e+00      aciertos: 28
 pos: 10  -  neg: 18
sigma: 1.945000e+00      aciertos: 28
 pos: 10  -  neg: 18
sigma: 1.946000e+00      aciertos: 28
 pos: 10  -  neg: 18
sigma: 1.947000e+00      aciertos: 28
 pos: 10  -  neg: 18
sigma: 1.948000e+00      aciertos: 28
 pos: 10  -  neg: 18
sigma: 1.949000e+00      aciertos: 28
 pos: 10  -  neg: 18
sigma: 1.950000e+00      aciertos: 28
 pos: 10  -  neg: 18
sigma: 1.951000e+00      aciertos: 28
 pos: 10  -  neg: 18
sigma: 1.952000e+00      aciertos: 28
 pos: 10  -  neg: 18
sigma: 1.953000e+00      aciertos: 28
 pos: 10  -  neg: 18
sigma: 1.954000e+00      aciertos: 28
 pos: 10  -  neg: 18
sigma: 1.955000e+00      aciertos: 28
 pos: 10  -  neg: 18
sigma: 1.956000e+00      aciertos: 28
 pos: 10  -  neg: 18
sigma: 1.957000e+00      aciertos: 28
 pos: 10  -  neg: 18
sigma: 1.958000e+00      aciertos: 28
 pos: 10  -  neg: 18
sigma: 1.959000e+00      aciertos: 28
 pos: 10  -  neg: 18
sigma: 1.960000e+00      aciertos: 28
 pos: 10  -  neg: 18
sigma: 1.961000e+00      aciertos: 28
 pos: 10  -  neg: 18
sigma: 1.962000e+00      aciertos: 28
 pos: 10  -  neg: 18
sigma: 1.963000e+00      aciertos: 28
 pos: 10  -  neg: 18
sigma: 1.964000e+00      aciertos: 28
 pos: 10  -  neg: 18
sigma: 1.965000e+00      aciertos: 28
 pos: 10  -  neg: 18
sigma: 1.966000e+00      aciertos: 28
 pos: 10  -  neg: 18
sigma: 1.967000e+00      aciertos: 28
 pos: 10  -  neg: 18
sigma: 1.968000e+00      aciertos: 28
 pos: 10  -  neg: 18
sigma: 1.969000e+00      aciertos: 28
 pos: 10  -  neg: 18
sigma: 1.970000e+00      aciertos: 28
 pos: 10  -  neg: 18
sigma: 1.971000e+00      aciertos: 28
 pos: 10  -  neg: 18
sigma: 1.972000e+00      aciertos: 28
 pos: 10  -  neg: 18
sigma: 1.973000e+00      aciertos: 28
 pos: 10  -  neg: 18
sigma: 1.974000e+00      aciertos: 28
 pos: 10  -  neg: 18
sigma: 1.975000e+00      aciertos: 28
 pos: 10  -  neg: 18
sigma: 1.976000e+00      aciertos: 28
 pos: 10  -  neg: 18
sigma: 1.977000e+00      aciertos: 28
 pos: 10  -  neg: 18
sigma: 1.978000e+00      aciertos: 28
 pos: 10  -  neg: 18
sigma: 1.979000e+00      aciertos: 28
 pos: 10  -  neg: 18
sigma: 1.980000e+00      aciertos: 28
 pos: 10  -  neg: 18
sigma: 1.981000e+00      aciertos: 28
 pos: 10  -  neg: 18
sigma: 1.982000e+00      aciertos: 28
 pos: 10  -  neg: 18
sigma: 1.983000e+00      aciertos: 28
 pos: 10  -  neg: 18
sigma: 1.984000e+00      aciertos: 28
 pos: 10  -  neg: 18
sigma: 1.985000e+00      aciertos: 28
 pos: 10  -  neg: 18
sigma: 1.986000e+00      aciertos: 28
 pos: 10  -  neg: 18
sigma: 1.987000e+00      aciertos: 28
 pos: 10  -  neg: 18
sigma: 1.988000e+00      aciertos: 28
 pos: 10  -  neg: 18
sigma: 1.989000e+00      aciertos: 28
 pos: 10  -  neg: 18
sigma: 1.990000e+00      aciertos: 28
 pos: 10  -  neg: 18
sigma: 1.991000e+00      aciertos: 28
 pos: 10  -  neg: 18
sigma: 1.992000e+00      aciertos: 28
 pos: 10  -  neg: 18
sigma: 1.993000e+00      aciertos: 27
 pos: 10  -  neg: 17
sigma: 1.994000e+00      aciertos: 27
 pos: 10  -  neg: 17
sigma: 1.995000e+00      aciertos: 27
 pos: 10  -  neg: 17
sigma: 1.996000e+00      aciertos: 27
 pos: 10  -  neg: 17
sigma: 1.997000e+00      aciertos: 27
 pos: 10  -  neg: 17
sigma: 1.998000e+00      aciertos: 27
 pos: 10  -  neg: 17
sigma: 1.999000e+00      aciertos: 27
 pos: 10  -  neg: 17
sigma: 2      aciertos: 27
 pos: 10  -  neg: 17
sigma: 2.001000e+00      aciertos: 27
 pos: 10  -  neg: 17
sigma: 2.002000e+00      aciertos: 27
 pos: 10  -  neg: 17
sigma: 2.003000e+00      aciertos: 27
 pos: 10  -  neg: 17
sigma: 2.004000e+00      aciertos: 27
 pos: 10  -  neg: 17
sigma: 2.005000e+00      aciertos: 27
 pos: 10  -  neg: 17
sigma: 2.006000e+00      aciertos: 27
 pos: 10  -  neg: 17
sigma: 2.007000e+00      aciertos: 27
 pos: 10  -  neg: 17
sigma: 2.008000e+00      aciertos: 27
 pos: 10  -  neg: 17
sigma: 2.009000e+00      aciertos: 27
 pos: 10  -  neg: 17
sigma: 2.010000e+00      aciertos: 27
 pos: 10  -  neg: 17
sigma: 2.011000e+00      aciertos: 27
 pos: 10  -  neg: 17
sigma: 2.012000e+00      aciertos: 27
 pos: 10  -  neg: 17
sigma: 2.013000e+00      aciertos: 28
 pos: 11  -  neg: 17
sigma: 2.014000e+00      aciertos: 28
 pos: 11  -  neg: 17
sigma: 2.015000e+00      aciertos: 28
 pos: 11  -  neg: 17
sigma: 2.016000e+00      aciertos: 28
 pos: 11  -  neg: 17
sigma: 2.017000e+00      aciertos: 28
 pos: 11  -  neg: 17
sigma: 2.018000e+00      aciertos: 28
 pos: 11  -  neg: 17
sigma: 2.019000e+00      aciertos: 28
 pos: 11  -  neg: 17
sigma: 2.020000e+00      aciertos: 28
 pos: 12  -  neg: 16
sigma: 2.021000e+00      aciertos: 28
 pos: 12  -  neg: 16
sigma: 2.022000e+00      aciertos: 28
 pos: 12  -  neg: 16
sigma: 2.023000e+00      aciertos: 28
 pos: 12  -  neg: 16
sigma: 2.024000e+00      aciertos: 28
 pos: 12  -  neg: 16
sigma: 2.025000e+00      aciertos: 28
 pos: 12  -  neg: 16
sigma: 2.026000e+00      aciertos: 28
 pos: 12  -  neg: 16
sigma: 2.027000e+00      aciertos: 28
 pos: 12  -  neg: 16
sigma: 2.028000e+00      aciertos: 28
 pos: 12  -  neg: 16
sigma: 2.029000e+00      aciertos: 28
 pos: 12  -  neg: 16
sigma: 2.030000e+00      aciertos: 28
 pos: 12  -  neg: 16
sigma: 2.031000e+00      aciertos: 28
 pos: 12  -  neg: 16
sigma: 2.032000e+00      aciertos: 28
 pos: 12  -  neg: 16
sigma: 2.033000e+00      aciertos: 28
 pos: 12  -  neg: 16
sigma: 2.034000e+00      aciertos: 28
 pos: 12  -  neg: 16
sigma: 2.035000e+00      aciertos: 28
 pos: 12  -  neg: 16
sigma: 2.036000e+00      aciertos: 28
 pos: 12  -  neg: 16
sigma: 2.037000e+00      aciertos: 28
 pos: 12  -  neg: 16
sigma: 2.038000e+00      aciertos: 28
 pos: 12  -  neg: 16
sigma: 2.039000e+00      aciertos: 28
 pos: 12  -  neg: 16
sigma: 2.040000e+00      aciertos: 28
 pos: 12  -  neg: 16
sigma: 2.041000e+00      aciertos: 28
 pos: 12  -  neg: 16
sigma: 2.042000e+00      aciertos: 28
 pos: 12  -  neg: 16
sigma: 2.043000e+00      aciertos: 28
 pos: 12  -  neg: 16
sigma: 2.044000e+00      aciertos: 28
 pos: 12  -  neg: 16
sigma: 2.045000e+00      aciertos: 28
 pos: 12  -  neg: 16
sigma: 2.046000e+00      aciertos: 28
 pos: 12  -  neg: 16
sigma: 2.047000e+00      aciertos: 28
 pos: 12  -  neg: 16
sigma: 2.048000e+00      aciertos: 28
 pos: 12  -  neg: 16
sigma: 2.049000e+00      aciertos: 28
 pos: 12  -  neg: 16
sigma: 2.050000e+00      aciertos: 28
 pos: 12  -  neg: 16
sigma: 2.051000e+00      aciertos: 28
 pos: 12  -  neg: 16
sigma: 2.052000e+00      aciertos: 28
 pos: 12  -  neg: 16
sigma: 2.053000e+00      aciertos: 28
 pos: 12  -  neg: 16
sigma: 2.054000e+00      aciertos: 28
 pos: 12  -  neg: 16
sigma: 2.055000e+00      aciertos: 28
 pos: 12  -  neg: 16
sigma: 2.056000e+00      aciertos: 27
 pos: 12  -  neg: 15
sigma: 2.057000e+00      aciertos: 26
 pos: 12  -  neg: 14
sigma: 2.058000e+00      aciertos: 26
 pos: 12  -  neg: 14
sigma: 2.059000e+00      aciertos: 25
 pos: 12  -  neg: 13
sigma: 2.060000e+00      aciertos: 25
 pos: 12  -  neg: 13
sigma: 2.061000e+00      aciertos: 24
 pos: 12  -  neg: 12
sigma: 2.062000e+00      aciertos: 24
 pos: 12  -  neg: 12
sigma: 2.063000e+00      aciertos: 24
 pos: 12  -  neg: 12
sigma: 2.064000e+00      aciertos: 24
 pos: 12  -  neg: 12
sigma: 2.065000e+00      aciertos: 24
 pos: 12  -  neg: 12
sigma: 2.066000e+00      aciertos: 24
 pos: 12  -  neg: 12
sigma: 2.067000e+00      aciertos: 24
 pos: 12  -  neg: 12
sigma: 2.068000e+00      aciertos: 24
 pos: 12  -  neg: 12
sigma: 2.069000e+00      aciertos: 24
 pos: 12  -  neg: 12
sigma: 2.070000e+00      aciertos: 24
 pos: 12  -  neg: 12
sigma: 2.071000e+00      aciertos: 25
 pos: 13  -  neg: 12
sigma: 2.072000e+00      aciertos: 25
 pos: 13  -  neg: 12
sigma: 2.073000e+00      aciertos: 25
 pos: 13  -  neg: 12
sigma: 2.074000e+00      aciertos: 25
 pos: 13  -  neg: 12
sigma: 2.075000e+00      aciertos: 25
 pos: 13  -  neg: 12
sigma: 2.076000e+00      aciertos: 24
 pos: 13  -  neg: 11
sigma: 2.077000e+00      aciertos: 23
 pos: 13  -  neg: 10
sigma: 2.078000e+00      aciertos: 23
 pos: 13  -  neg: 10
sigma: 2.079000e+00      aciertos: 23
 pos: 13  -  neg: 10
sigma: 2.080000e+00      aciertos: 23
 pos: 13  -  neg: 10
sigma: 2.081000e+00      aciertos: 23
 pos: 13  -  neg: 10
sigma: 2.082000e+00      aciertos: 23
 pos: 13  -  neg: 10
sigma: 2.083000e+00      aciertos: 23
 pos: 13  -  neg: 10
sigma: 2.084000e+00      aciertos: 23
 pos: 13  -  neg: 10
sigma: 2.085000e+00      aciertos: 23
 pos: 13  -  neg: 10
sigma: 2.086000e+00      aciertos: 23
 pos: 13  -  neg: 10
sigma: 2.087000e+00      aciertos: 23
 pos: 13  -  neg: 10
sigma: 2.088000e+00      aciertos: 23
 pos: 13  -  neg: 10
sigma: 2.089000e+00      aciertos: 23
 pos: 13  -  neg: 10
sigma: 2.090000e+00      aciertos: 23
 pos: 13  -  neg: 10
sigma: 2.091000e+00      aciertos: 23
 pos: 13  -  neg: 10
sigma: 2.092000e+00      aciertos: 23
 pos: 13  -  neg: 10
sigma: 2.093000e+00      aciertos: 23
 pos: 13  -  neg: 10
sigma: 2.094000e+00      aciertos: 23
 pos: 13  -  neg: 10
sigma: 2.095000e+00      aciertos: 23
 pos: 13  -  neg: 10
sigma: 2.096000e+00      aciertos: 23
 pos: 13  -  neg: 10
sigma: 2.097000e+00      aciertos: 23
 pos: 13  -  neg: 10
sigma: 2.098000e+00      aciertos: 23
 pos: 13  -  neg: 10
sigma: 2.099000e+00      aciertos: 23
 pos: 13  -  neg: 10
sigma: 2.100000e+00      aciertos: 23
 pos: 13  -  neg: 10
sigma: 2.101000e+00      aciertos: 23
 pos: 13  -  neg: 10
sigma: 2.102000e+00      aciertos: 23
 pos: 13  -  neg: 10
sigma: 2.103000e+00      aciertos: 23
 pos: 13  -  neg: 10
sigma: 2.104000e+00      aciertos: 23
 pos: 13  -  neg: 10
sigma: 2.105000e+00      aciertos: 23
 pos: 13  -  neg: 10
sigma: 2.106000e+00      aciertos: 23
 pos: 13  -  neg: 10
sigma: 2.107000e+00      aciertos: 23
 pos: 13  -  neg: 10
sigma: 2.108000e+00      aciertos: 23
 pos: 13  -  neg: 10
sigma: 2.109000e+00      aciertos: 23
 pos: 13  -  neg: 10
sigma: 2.110000e+00      aciertos: 23
 pos: 13  -  neg: 10
sigma: 2.111000e+00      aciertos: 23
 pos: 13  -  neg: 10
sigma: 2.112000e+00      aciertos: 22
 pos: 13  -  neg: 9
sigma: 2.113000e+00      aciertos: 22
 pos: 13  -  neg: 9
sigma: 2.114000e+00      aciertos: 22
 pos: 13  -  neg: 9
sigma: 2.115000e+00      aciertos: 22
 pos: 13  -  neg: 9
sigma: 2.116000e+00      aciertos: 22
 pos: 13  -  neg: 9
sigma: 2.117000e+00      aciertos: 22
 pos: 13  -  neg: 9
sigma: 2.118000e+00      aciertos: 22
 pos: 13  -  neg: 9
sigma: 2.119000e+00      aciertos: 22
 pos: 13  -  neg: 9
sigma: 2.120000e+00      aciertos: 22
 pos: 13  -  neg: 9
sigma: 2.121000e+00      aciertos: 22
 pos: 13  -  neg: 9
sigma: 2.122000e+00      aciertos: 22
 pos: 13  -  neg: 9
sigma: 2.123000e+00      aciertos: 23
 pos: 14  -  neg: 9
sigma: 2.124000e+00      aciertos: 23
 pos: 14  -  neg: 9
sigma: 2.125000e+00      aciertos: 23
 pos: 14  -  neg: 9
sigma: 2.126000e+00      aciertos: 23
 pos: 14  -  neg: 9
sigma: 2.127000e+00      aciertos: 23
 pos: 14  -  neg: 9
sigma: 2.128000e+00      aciertos: 23
 pos: 14  -  neg: 9
sigma: 2.129000e+00      aciertos: 23
 pos: 14  -  neg: 9
sigma: 2.130000e+00      aciertos: 23
 pos: 14  -  neg: 9
sigma: 2.131000e+00      aciertos: 23
 pos: 14  -  neg: 9
sigma: 2.132000e+00      aciertos: 23
 pos: 14  -  neg: 9
sigma: 2.133000e+00      aciertos: 23
 pos: 14  -  neg: 9
sigma: 2.134000e+00      aciertos: 23
 pos: 14  -  neg: 9
sigma: 2.135000e+00      aciertos: 23
 pos: 14  -  neg: 9
sigma: 2.136000e+00      aciertos: 23
 pos: 14  -  neg: 9
sigma: 2.137000e+00      aciertos: 23
 pos: 14  -  neg: 9
sigma: 2.138000e+00      aciertos: 23
 pos: 14  -  neg: 9
sigma: 2.139000e+00      aciertos: 23
 pos: 14  -  neg: 9
sigma: 2.140000e+00      aciertos: 23
 pos: 14  -  neg: 9
sigma: 2.141000e+00      aciertos: 23
 pos: 14  -  neg: 9
sigma: 2.142000e+00      aciertos: 23
 pos: 14  -  neg: 9
sigma: 2.143000e+00      aciertos: 23
 pos: 14  -  neg: 9
sigma: 2.144000e+00      aciertos: 23
 pos: 14  -  neg: 9
sigma: 2.145000e+00      aciertos: 23
 pos: 14  -  neg: 9
sigma: 2.146000e+00      aciertos: 23
 pos: 14  -  neg: 9
sigma: 2.147000e+00      aciertos: 23
 pos: 14  -  neg: 9
sigma: 2.148000e+00      aciertos: 23
 pos: 14  -  neg: 9
sigma: 2.149000e+00      aciertos: 23
 pos: 14  -  neg: 9
sigma: 2.150000e+00      aciertos: 23
 pos: 14  -  neg: 9
sigma: 2.151000e+00      aciertos: 23
 pos: 14  -  neg: 9
sigma: 2.152000e+00      aciertos: 23
 pos: 14  -  neg: 9
sigma: 2.153000e+00      aciertos: 23
 pos: 14  -  neg: 9
sigma: 2.154000e+00      aciertos: 24
 pos: 15  -  neg: 9
sigma: 2.155000e+00      aciertos: 24
 pos: 15  -  neg: 9
sigma: 2.156000e+00      aciertos: 24
 pos: 15  -  neg: 9
sigma: 2.157000e+00      aciertos: 24
 pos: 15  -  neg: 9
sigma: 2.158000e+00      aciertos: 24
 pos: 15  -  neg: 9
sigma: 2.159000e+00      aciertos: 24
 pos: 15  -  neg: 9
sigma: 2.160000e+00      aciertos: 24
 pos: 15  -  neg: 9
sigma: 2.161000e+00      aciertos: 24
 pos: 15  -  neg: 9
sigma: 2.162000e+00      aciertos: 24
 pos: 15  -  neg: 9
sigma: 2.163000e+00      aciertos: 24
 pos: 15  -  neg: 9
sigma: 2.164000e+00      aciertos: 24
 pos: 15  -  neg: 9
sigma: 2.165000e+00      aciertos: 24
 pos: 15  -  neg: 9
sigma: 2.166000e+00      aciertos: 24
 pos: 15  -  neg: 9
sigma: 2.167000e+00      aciertos: 24
 pos: 15  -  neg: 9
sigma: 2.168000e+00      aciertos: 25
 pos: 16  -  neg: 9
sigma: 2.169000e+00      aciertos: 25
 pos: 16  -  neg: 9
sigma: 2.170000e+00      aciertos: 25
 pos: 16  -  neg: 9
sigma: 2.171000e+00      aciertos: 24
 pos: 16  -  neg: 8
sigma: 2.172000e+00      aciertos: 24
 pos: 16  -  neg: 8
sigma: 2.173000e+00      aciertos: 24
 pos: 16  -  neg: 8
sigma: 2.174000e+00      aciertos: 23
 pos: 16  -  neg: 7
sigma: 2.175000e+00      aciertos: 23
 pos: 16  -  neg: 7
sigma: 2.176000e+00      aciertos: 23
 pos: 16  -  neg: 7
sigma: 2.177000e+00      aciertos: 23
 pos: 16  -  neg: 7
sigma: 2.178000e+00      aciertos: 23
 pos: 16  -  neg: 7
sigma: 2.179000e+00      aciertos: 23
 pos: 16  -  neg: 7
sigma: 2.180000e+00      aciertos: 23
 pos: 16  -  neg: 7
sigma: 2.181000e+00      aciertos: 23
 pos: 16  -  neg: 7
sigma: 2.182000e+00      aciertos: 23
 pos: 16  -  neg: 7
sigma: 2.183000e+00      aciertos: 23
 pos: 16  -  neg: 7
sigma: 2.184000e+00      aciertos: 23
 pos: 16  -  neg: 7
sigma: 2.185000e+00      aciertos: 23
 pos: 16  -  neg: 7
sigma: 2.186000e+00      aciertos: 23
 pos: 16  -  neg: 7
sigma: 2.187000e+00      aciertos: 23
 pos: 16  -  neg: 7
sigma: 2.188000e+00      aciertos: 23
 pos: 16  -  neg: 7
sigma: 2.189000e+00      aciertos: 23
 pos: 16  -  neg: 7
sigma: 2.190000e+00      aciertos: 23
 pos: 16  -  neg: 7
sigma: 2.191000e+00      aciertos: 23
 pos: 16  -  neg: 7
sigma: 2.192000e+00      aciertos: 22
 pos: 16  -  neg: 6
sigma: 2.193000e+00      aciertos: 22
 pos: 16  -  neg: 6
sigma: 2.194000e+00      aciertos: 22
 pos: 16  -  neg: 6
sigma: 2.195000e+00      aciertos: 22
 pos: 16  -  neg: 6
sigma: 2.196000e+00      aciertos: 22
 pos: 16  -  neg: 6
sigma: 2.197000e+00      aciertos: 22
 pos: 16  -  neg: 6
sigma: 2.198000e+00      aciertos: 22
 pos: 16  -  neg: 6
sigma: 2.199000e+00      aciertos: 22
 pos: 16  -  neg: 6
sigma: 2.200000e+00      aciertos: 22
 pos: 16  -  neg: 6
sigma: 2.201000e+00      aciertos: 22
 pos: 16  -  neg: 6
sigma: 2.202000e+00      aciertos: 22
 pos: 16  -  neg: 6
sigma: 2.203000e+00      aciertos: 22
 pos: 16  -  neg: 6
sigma: 2.204000e+00      aciertos: 22
 pos: 16  -  neg: 6
sigma: 2.205000e+00      aciertos: 22
 pos: 16  -  neg: 6
sigma: 2.206000e+00      aciertos: 22
 pos: 16  -  neg: 6
sigma: 2.207000e+00      aciertos: 22
 pos: 16  -  neg: 6
sigma: 2.208000e+00      aciertos: 22
 pos: 16  -  neg: 6
sigma: 2.209000e+00      aciertos: 22
 pos: 16  -  neg: 6
sigma: 2.210000e+00      aciertos: 22
 pos: 16  -  neg: 6
sigma: 2.211000e+00      aciertos: 22
 pos: 16  -  neg: 6
sigma: 2.212000e+00      aciertos: 22
 pos: 16  -  neg: 6
sigma: 2.213000e+00      aciertos: 22
 pos: 16  -  neg: 6
sigma: 2.214000e+00      aciertos: 22
 pos: 16  -  neg: 6
sigma: 2.215000e+00      aciertos: 22
 pos: 16  -  neg: 6
sigma: 2.216000e+00      aciertos: 22
 pos: 16  -  neg: 6
sigma: 2.217000e+00      aciertos: 23
 pos: 17  -  neg: 6
sigma: 2.218000e+00      aciertos: 23
 pos: 17  -  neg: 6
sigma: 2.219000e+00      aciertos: 23
 pos: 17  -  neg: 6
sigma: 2.220000e+00      aciertos: 23
 pos: 17  -  neg: 6
sigma: 2.221000e+00      aciertos: 23
 pos: 17  -  neg: 6
sigma: 2.222000e+00      aciertos: 23
 pos: 17  -  neg: 6
sigma: 2.223000e+00      aciertos: 23
 pos: 17  -  neg: 6
sigma: 2.224000e+00      aciertos: 23
 pos: 17  -  neg: 6
sigma: 2.225000e+00      aciertos: 23
 pos: 17  -  neg: 6
sigma: 2.226000e+00      aciertos: 23
 pos: 17  -  neg: 6
sigma: 2.227000e+00      aciertos: 23
 pos: 17  -  neg: 6
sigma: 2.228000e+00      aciertos: 23
 pos: 17  -  neg: 6
sigma: 2.229000e+00      aciertos: 23
 pos: 17  -  neg: 6
sigma: 2.230000e+00      aciertos: 23
 pos: 17  -  neg: 6
sigma: 2.231000e+00      aciertos: 23
 pos: 17  -  neg: 6
sigma: 2.232000e+00      aciertos: 23
 pos: 17  -  neg: 6
sigma: 2.233000e+00      aciertos: 23
 pos: 17  -  neg: 6
sigma: 2.234000e+00      aciertos: 23
 pos: 17  -  neg: 6
sigma: 2.235000e+00      aciertos: 23
 pos: 17  -  neg: 6
sigma: 2.236000e+00      aciertos: 23
 pos: 17  -  neg: 6
sigma: 2.237000e+00      aciertos: 23
 pos: 17  -  neg: 6
sigma: 2.238000e+00      aciertos: 23
 pos: 17  -  neg: 6
sigma: 2.239000e+00      aciertos: 23
 pos: 17  -  neg: 6
sigma: 2.240000e+00      aciertos: 23
 pos: 17  -  neg: 6
sigma: 2.241000e+00      aciertos: 23
 pos: 17  -  neg: 6
sigma: 2.242000e+00      aciertos: 23
 pos: 17  -  neg: 6
sigma: 2.243000e+00      aciertos: 23
 pos: 17  -  neg: 6
sigma: 2.244000e+00      aciertos: 23
 pos: 17  -  neg: 6
sigma: 2.245000e+00      aciertos: 23
 pos: 17  -  neg: 6
sigma: 2.246000e+00      aciertos: 23
 pos: 17  -  neg: 6
sigma: 2.247000e+00      aciertos: 23
 pos: 17  -  neg: 6
sigma: 2.248000e+00      aciertos: 23
 pos: 18  -  neg: 5
sigma: 2.249000e+00      aciertos: 23
 pos: 18  -  neg: 5
sigma: 2.250000e+00      aciertos: 23
 pos: 18  -  neg: 5
sigma: 2.251000e+00      aciertos: 23
 pos: 18  -  neg: 5
sigma: 2.252000e+00      aciertos: 23
 pos: 18  -  neg: 5
sigma: 2.253000e+00      aciertos: 23
 pos: 18  -  neg: 5
sigma: 2.254000e+00      aciertos: 23
 pos: 18  -  neg: 5
sigma: 2.255000e+00      aciertos: 23
 pos: 18  -  neg: 5
sigma: 2.256000e+00      aciertos: 23
 pos: 18  -  neg: 5
sigma: 2.257000e+00      aciertos: 23
 pos: 18  -  neg: 5
sigma: 2.258000e+00      aciertos: 23
 pos: 18  -  neg: 5
sigma: 2.259000e+00      aciertos: 23
 pos: 18  -  neg: 5
sigma: 2.260000e+00      aciertos: 23
 pos: 18  -  neg: 5
sigma: 2.261000e+00      aciertos: 23
 pos: 18  -  neg: 5
sigma: 2.262000e+00      aciertos: 23
 pos: 18  -  neg: 5
sigma: 2.263000e+00      aciertos: 23
 pos: 18  -  neg: 5
sigma: 2.264000e+00      aciertos: 23
 pos: 18  -  neg: 5
sigma: 2.265000e+00      aciertos: 23
 pos: 18  -  neg: 5
sigma: 2.266000e+00      aciertos: 23
 pos: 18  -  neg: 5
sigma: 2.267000e+00      aciertos: 23
 pos: 18  -  neg: 5
sigma: 2.268000e+00      aciertos: 23
 pos: 18  -  neg: 5
sigma: 2.269000e+00      aciertos: 23
 pos: 18  -  neg: 5
sigma: 2.270000e+00      aciertos: 23
 pos: 18  -  neg: 5
sigma: 2.271000e+00      aciertos: 23
 pos: 18  -  neg: 5
sigma: 2.272000e+00      aciertos: 23
 pos: 18  -  neg: 5
sigma: 2.273000e+00      aciertos: 23
 pos: 18  -  neg: 5
sigma: 2.274000e+00      aciertos: 23
 pos: 18  -  neg: 5
sigma: 2.275000e+00      aciertos: 23
 pos: 18  -  neg: 5
sigma: 2.276000e+00      aciertos: 23
 pos: 18  -  neg: 5
sigma: 2.277000e+00      aciertos: 23
 pos: 18  -  neg: 5
sigma: 2.278000e+00      aciertos: 23
 pos: 18  -  neg: 5
sigma: 2.279000e+00      aciertos: 23
 pos: 18  -  neg: 5
sigma: 2.280000e+00      aciertos: 23
 pos: 18  -  neg: 5
sigma: 2.281000e+00      aciertos: 23
 pos: 18  -  neg: 5
sigma: 2.282000e+00      aciertos: 23
 pos: 18  -  neg: 5
sigma: 2.283000e+00      aciertos: 23
 pos: 18  -  neg: 5
sigma: 2.284000e+00      aciertos: 24
 pos: 19  -  neg: 5
sigma: 2.285000e+00      aciertos: 24
 pos: 19  -  neg: 5
sigma: 2.286000e+00      aciertos: 24
 pos: 19  -  neg: 5
sigma: 2.287000e+00      aciertos: 24
 pos: 19  -  neg: 5
sigma: 2.288000e+00      aciertos: 24
 pos: 19  -  neg: 5
sigma: 2.289000e+00      aciertos: 24
 pos: 19  -  neg: 5
sigma: 2.290000e+00      aciertos: 24
 pos: 19  -  neg: 5
sigma: 2.291000e+00      aciertos: 24
 pos: 19  -  neg: 5
sigma: 2.292000e+00      aciertos: 24
 pos: 19  -  neg: 5
sigma: 2.293000e+00      aciertos: 24
 pos: 19  -  neg: 5
sigma: 2.294000e+00      aciertos: 24
 pos: 19  -  neg: 5
sigma: 2.295000e+00      aciertos: 24
 pos: 19  -  neg: 5
sigma: 2.296000e+00      aciertos: 24
 pos: 19  -  neg: 5
sigma: 2.297000e+00      aciertos: 24
 pos: 19  -  neg: 5
sigma: 2.298000e+00      aciertos: 24
 pos: 19  -  neg: 5
sigma: 2.299000e+00      aciertos: 25
 pos: 20  -  neg: 5
sigma: 2.300000e+00      aciertos: 25
 pos: 20  -  neg: 5
