-439.00 76.00 0.18 0.24 0.28 0.25 0.21 0.26 1
-882.00 120.00 0.21 0.15 0.30 0.22 0.17 0.26 1
-745.00 118.00 0.23 0.24 0.25 0.25 0.17 0.30 1
-215.00 76.00 0.22 0.24 0.23 0.26 0.24 0.22 2
-506.00 76.00 0.17 0.25 0.29 0.14 0.20 0.32 1
-414.00 76.00 0.22 0.18 0.26 0.22 0.22 0.26 1
-591.00 118.00 0.20 0.19 0.31 0.22 0.23 0.25 2
-580.00 116.00 0.21 0.23 0.24 0.24 0.25 0.24 1
-595.00 119.00 0.14 0.30 0.23 0.20 0.13 0.30 2
-508.00 77.00 0.25 0.19 0.27 0.25 0.19 0.27 1
-450.00 120.00 0.26 0.22 0.24 0.23 0.19 0.29 2
-454.00 77.00 0.25 0.25 0.26 0.22 0.27 0.21 1
-431.00 119.00 0.24 0.23 0.26 0.22 0.21 0.28 2
-519.00 116.00 0.21 0.17 0.30 0.23 0.22 0.27 2
-519.00 75.00 0.18 0.19 0.30 0.15 0.23 0.27 1
-727.00 118.00 0.25 0.17 0.30 0.24 0.25 0.24 1
-202.00 75.00 0.25 0.24 0.24 0.20 0.24 0.24 2
-346.00 85.00 0.19 0.25 0.24 0.20 0.24 0.26 2
-566.00 75.00 0.19 0.17 0.35 0.14 0.20 0.29 1
-62.00 71.00 0.48 0.34 0.13 0.19 0.16 0.30 2
-286.00 75.00 0.14 0.22 0.29 0.20 0.24 0.24 2
-293.00 76.00 0.17 0.21 0.29 0.18 0.14 0.35 2
-525.00 76.00 0.20 0.24 0.24 0.24 0.22 0.28 2
-173.00 72.00 0.18 0.24 0.28 0.40 0.38 0.13 2
-186.00 76.00 0.26 0.24 0.22 0.23 0.25 0.26 2
-233.00 75.00 0.20 0.20 0.28 0.23 0.20 0.31 2
-499.00 75.00 0.14 0.22 0.29 0.17 0.25 0.32 1
-465.00 120.00 0.25 0.23 0.26 0.20 0.21 0.28 2
-432.00 74.00 0.20 0.20 0.30 0.26 0.26 0.22 1
-872.00 120.00 0.23 0.23 0.25 0.20 0.23 0.27 1
-468.00 116.00 0.21 0.23 0.24 0.22 0.19 0.29 2
-175.00 71.00 0.48 0.34 0.13 0.15 0.22 0.27 2
-448.00 117.00 0.25 0.24 0.21 0.26 0.22 0.25 2
-506.00 76.00 0.16 0.25 0.26 0.22 0.21 0.28 1
-415.00 112.00 0.20 0.24 0.27 0.26 0.23 0.25 2
-194.00 71.00 0.37 0.35 0.17 0.21 0.25 0.24 2
-365.00 74.00 0.20 0.22 0.30 0.24 0.13 0.31 2
-370.00 86.00 0.22 0.24 0.23 0.22 0.24 0.23 2
-314.00 72.00 0.29 0.38 0.14 0.26 0.25 0.24 1
-326.00 76.00 0.19 0.26 0.24 0.16 0.20 0.29 2
-404.00 76.00 0.20 0.24 0.26 0.20 0.23 0.24 2
-363.00 72.00 0.19 0.16 0.30 0.28 0.28 0.26 1
-304.00 75.00 0.19 0.17 0.35 0.17 0.18 0.32 2
-427.00 76.00 0.16 0.24 0.26 0.20 0.24 0.25 1
-601.00 116.00 0.21 0.17 0.30 0.21 0.21 0.27 2
-514.00 85.00 0.17 0.22 0.28 0.16 0.24 0.26 1
-453.00 119.00 0.23 0.24 0.25 0.22 0.23 0.25 2
-518.00 119.00 0.24 0.12 0.30 0.19 0.17 0.31 2
-535.00 114.00 0.15 0.33 0.21 0.24 0.23 0.25 1
-272.00 74.00 0.20 0.22 0.30 0.18 0.27 0.25 2
2.00 67.00 0.37 0.25 0.21 0.35 0.32 0.16 2
-553.00 111.00 0.22 0.23 0.26 0.24 0.21 0.26 1
-372.00 76.00 0.20 0.21 0.29 0.16 0.25 0.26 2
-376.00 118.00 0.25 0.14 0.33 0.23 0.21 0.27 2
-273.00 74.00 0.14 0.19 0.32 0.28 0.31 0.16 2
-509.00 76.00 0.20 0.24 0.26 0.18 0.22 0.29 1
-454.00 119.00 0.23 0.13 0.28 0.24 0.24 0.25 2
-625.00 120.00 0.23 0.14 0.30 0.21 0.21 0.27 2
-596.00 119.00 0.20 0.18 0.30 0.22 0.23 0.27 2
-257.00 76.00 0.20 0.18 0.30 0.24 0.36 0.17 2
-341.00 77.00 0.17 0.22 0.28 0.22 0.27 0.21 2
-740.00 120.00 0.22 0.23 0.28 0.23 0.22 0.28 1
-499.00 118.00 0.21 0.23 0.27 0.23 0.20 0.27 2
-522.00 120.00 0.23 0.19 0.29 0.20 0.23 0.27 2
-236.00 76.00 0.25 0.25 0.24 0.25 0.22 0.24 2
-590.00 115.00 0.22 0.22 0.22 0.23 0.23 0.25 1
-296.00 76.00 0.22 0.22 0.27 0.21 0.24 0.24 2
-359.00 75.00 0.12 0.24 0.28 0.19 0.17 0.35 2
-425.00 76.00 0.18 0.24 0.28 0.20 0.24 0.26 2
0.00 71.00 0.45 0.24 0.17 0.26 0.26 0.22 2
-583.00 118.00 0.21 0.19 0.29 0.23 0.23 0.28 2
-935.00 118.00 0.23 0.15 0.30 0.19 0.19 0.31 1
-369.00 117.00 0.26 0.24 0.22 0.21 0.22 0.27 2
-743.00 118.00 0.22 0.19 0.25 0.18 0.19 0.31 1
-627.00 120.00 0.28 0.24 0.25 0.26 0.23 0.25 1
-643.00 120.00 0.24 0.24 0.25 0.21 0.22 0.27 1
-308.00 119.00 0.26 0.22 0.24 0.24 0.23 0.25 2
-299.00 76.00 0.25 0.22 0.24 0.24 0.24 0.24 2
-401.00 119.00 0.29 0.24 0.22 0.22 0.17 0.29 2
-847.00 120.00 0.19 0.20 0.29 0.22 0.23 0.26 1
-293.00 75.00 0.18 0.17 0.36 0.12 0.23 0.32 2
-683.00 118.00 0.21 0.19 0.29 0.21 0.20 0.29 2
-305.00 76.00 0.18 0.24 0.28 0.33 0.28 0.23 1
-560.00 119.00 0.26 0.22 0.24 0.19 0.18 0.30 2
-336.00 74.00 0.20 0.23 0.30 0.22 0.19 0.32 2
-546.00 120.00 0.22 0.13 0.30 0.23 0.22 0.25 2
-529.00 120.00 0.20 0.16 0.30 0.20 0.23 0.27 2
-449.00 118.00 0.26 0.22 0.24 0.23 0.19 0.29 2
-464.00 119.00 0.26 0.22 0.24 0.20 0.20 0.29 2
-166.00 75.00 0.16 0.18 0.32 0.21 0.31 0.23 2
-891.00 118.00 0.20 0.20 0.29 0.19 0.19 0.31 1
-659.00 120.00 0.31 0.24 0.23 0.28 0.24 0.23 1
-714.00 120.00 0.15 0.11 0.36 0.23 0.23 0.28 2
-478.00 120.00 0.22 0.17 0.26 0.20 0.27 0.22 2
-23.00 72.00 0.24 0.28 0.22 0.36 0.35 0.18 2
-504.00 116.00 0.21 0.20 0.28 0.22 0.21 0.28 2
-684.00 118.00 0.23 0.22 0.27 0.23 0.19 0.29 1
-354.00 76.00 0.22 0.18 0.33 0.20 0.25 0.24 2
-469.00 75.00 0.22 0.23 0.25 0.25 0.15 0.29 1
-334.00 74.00 0.20 0.22 0.30 0.17 0.22 0.28 2
-342.00 76.00 0.22 0.24 0.26 0.20 0.18 0.28 2
-358.00 118.00 0.26 0.21 0.24 0.25 0.17 0.30 2
-368.00 72.00 0.42 0.35 0.13 0.14 0.20 0.32 1
-820.00 120.00 0.20 0.27 0.22 0.20 0.23 0.27 1
-420.00 119.00 0.20 0.20 0.29 0.25 0.23 0.25 2
-473.00 121.00 0.26 0.22 0.24 0.22 0.16 0.25 2
-227.00 75.00 0.24 0.21 0.25 0.29 0.20 0.24 2
-250.00 77.00 0.23 0.25 0.26 0.23 0.34 0.19 2
-498.00 119.00 0.21 0.22 0.27 0.23 0.23 0.26 2
-531.00 120.00 0.20 0.20 0.28 0.23 0.21 0.28 2
-155.00 72.00 0.17 0.22 0.28 0.39 0.42 0.08 2
-182.00 72.00 0.24 0.22 0.24 0.32 0.32 0.21 2
-548.00 119.00 0.23 0.22 0.28 0.19 0.18 0.30 2
-400.00 76.00 0.12 0.24 0.28 0.20 0.23 0.26 2
-126.00 72.00 0.20 0.21 0.30 0.36 0.35 0.18 2
-461.00 77.00 0.25 0.21 0.26 0.17 0.22 0.29 1
-283.00 75.00 0.12 0.28 0.27 0.26 0.28 0.21 2
-397.00 76.00 0.21 0.22 0.28 0.21 0.25 0.24 1
-478.00 76.00 0.30 0.24 0.24 0.16 0.20 0.29 1
-386.00 75.00 0.24 0.25 0.25 0.23 0.27 0.24 1
-309.00 118.00 0.28 0.23 0.26 0.31 0.34 0.15 2
-744.00 120.00 0.24 0.25 0.25 0.20 0.22 0.28 1
-909.00 120.00 0.21 0.24 0.26 0.20 0.21 0.28 1
-132.00 71.00 0.45 0.24 0.17 0.18 0.24 0.28 2
-621.00 120.00 0.22 0.18 0.30 0.18 0.20 0.28 2
-433.00 76.00 0.22 0.21 0.28 0.25 0.23 0.26 1
-324.00 76.00 0.18 0.17 0.36 0.24 0.22 0.24 2
-513.00 118.00 0.20 0.15 0.30 0.20 0.21 0.27 2
-372.00 120.00 0.23 0.22 0.26 0.26 0.23 0.23 2
-247.00 76.00 0.21 0.21 0.29 0.30 0.23 0.24 2
-410.00 76.00 0.22 0.21 0.29 0.30 0.24 0.24 1
-561.00 118.00 0.22 0.19 0.29 0.20 0.23 0.27 2
-229.00 76.00 0.21 0.22 0.29 0.22 0.28 0.24 2
-637.00 85.00 0.22 0.19 0.32 0.19 0.24 0.26 1
-636.00 120.00 0.15 0.39 0.18 0.19 0.20 0.29 1
-706.00 118.00 0.23 0.13 0.28 0.27 0.20 0.27 1
-198.00 67.00 0.17 0.22 0.29 0.33 0.36 0.18 2
-651.00 119.00 0.23 0.23 0.26 0.24 0.24 0.24 1
-413.00 77.00 0.14 0.22 0.29 0.19 0.16 0.30 2
-479.00 120.00 0.20 0.21 0.28 0.22 0.21 0.28 2
-495.00 75.00 0.17 0.21 0.27 0.12 0.27 0.28 1
-367.00 76.00 0.20 0.24 0.25 0.25 0.22 0.24 2
-328.00 74.00 0.12 0.23 0.32 0.20 0.20 0.30 2
-453.00 120.00 0.21 0.22 0.27 0.23 0.22 0.28 2
-492.00 84.00 0.24 0.21 0.25 0.25 0.17 0.26 1
-329.00 77.00 0.18 0.29 0.25 0.25 0.17 0.26 2
-492.00 76.00 0.19 0.18 0.32 0.22 0.24 0.26 1
-468.00 76.00 0.17 0.24 0.25 0.23 0.18 0.28 1
-326.00 74.00 0.34 0.35 0.15 0.21 0.24 0.24 1
-503.00 75.00 0.21 0.23 0.31 0.20 0.20 0.27 1
-341.00 76.00 0.21 0.21 0.29 0.25 0.23 0.26 2
-500.00 75.00 0.12 0.23 0.32 0.18 0.14 0.35 2
-724.00 119.00 0.21 0.18 0.31 0.26 0.19 0.27 1
-684.00 120.00 0.20 0.23 0.27 0.14 0.14 0.34 2
-365.00 114.00 0.24 0.23 0.25 0.25 0.23 0.25 2
-460.00 120.00 0.24 0.22 0.27 0.26 0.23 0.23 2
-438.00 115.00 0.25 0.24 0.21 0.23 0.23 0.25 2
-558.00 120.00 0.24 0.23 0.28 0.27 0.23 0.24 1
-379.00 76.00 0.24 0.22 0.24 0.20 0.24 0.26 2
-468.00 120.00 0.24 0.24 0.25 0.20 0.23 0.27 2
-199.00 71.00 0.48 0.34 0.13 0.18 0.29 0.25 1
-132.00 70.00 0.33 0.29 0.21 0.21 0.26 0.23 2
-470.00 75.00 0.21 0.25 0.27 0.20 0.20 0.28 1
-323.00 76.00 0.20 0.18 0.26 0.30 0.24 0.24 2
-586.00 119.00 0.24 0.23 0.25 0.23 0.15 0.30 2
-443.00 120.00 0.23 0.23 0.26 0.28 0.23 0.23 2
-331.00 76.00 0.18 0.17 0.36 0.16 0.16 0.33 2
-484.00 116.00 0.21 0.17 0.30 0.23 0.22 0.25 2
-255.00 75.00 0.22 0.27 0.21 0.23 0.27 0.24 2
-647.00 119.00 0.24 0.23 0.25 0.20 0.23 0.27 2
-255.00 76.00 0.15 0.23 0.30 0.30 0.28 0.20 2
-770.00 120.00 0.24 0.25 0.25 0.20 0.21 0.28 1
-519.00 85.00 0.20 0.29 0.21 0.17 0.16 0.35 1
-507.00 75.00 0.19 0.25 0.27 0.16 0.20 0.29 1
-494.00 114.00 0.24 0.23 0.25 0.24 0.23 0.25 2
-702.00 118.00 0.21 0.19 0.30 0.23 0.25 0.24 1
-437.00 111.00 0.18 0.26 0.25 0.21 0.23 0.24 2
-466.00 75.00 0.17 0.22 0.29 0.24 0.16 0.28 1
-595.00 118.00 0.27 0.24 0.23 0.24 0.20 0.28 1
-84.00 72.00 0.17 0.22 0.29 0.40 0.22 0.24 2
-426.00 76.00 0.16 0.20 0.30 0.20 0.24 0.26 2
-547.00 112.00 0.20 0.24 0.27 0.25 0.22 0.26 1
-684.00 119.00 0.21 0.22 0.27 0.25 0.23 0.27 1
-487.00 74.00 0.16 0.22 0.30 0.18 0.24 0.28 1
-564.00 120.00 0.20 0.15 0.30 0.23 0.21 0.31 2
-537.00 76.00 0.16 0.21 0.28 0.17 0.16 0.33 1
-371.00 75.00 0.24 0.22 0.24 0.25 0.17 0.27 2
-655.00 116.00 0.21 0.20 0.28 0.20 0.21 0.28 2
-787.00 118.00 0.21 0.19 0.29 0.20 0.21 0.29 1
-425.00 76.00 0.25 0.21 0.25 0.26 0.26 0.22 1
-445.00 78.00 0.19 0.16 0.31 0.14 0.19 0.33 2
-506.00 75.00 0.16 0.18 0.32 0.19 0.24 0.25 1
-346.00 77.00 0.22 0.24 0.26 0.19 0.17 0.32 2
-484.00 76.00 0.17 0.21 0.29 0.22 0.21 0.28 1
-337.00 71.00 0.48 0.34 0.13 0.18 0.16 0.32 1
-305.00 76.00 0.19 0.27 0.21 0.22 0.24 0.29 2
-314.00 76.00 0.18 0.21 0.26 0.23 0.19 0.28 2
-473.00 119.00 0.23 0.23 0.26 0.22 0.18 0.30 2
-125.00 71.00 0.48 0.34 0.13 0.18 0.16 0.32 2
-828.00 120.00 0.23 0.23 0.26 0.23 0.23 0.25 1
-320.00 75.00 0.40 0.25 0.19 0.21 0.22 0.28 1
-711.00 122.00 0.25 0.23 0.26 0.20 0.20 0.31 1
-372.00 84.00 0.21 0.20 0.28 0.18 0.20 0.31 2
-363.00 76.00 0.18 0.24 0.28 0.20 0.20 0.28 2
-353.00 72.00 0.16 0.20 0.30 0.40 0.22 0.24 1
-807.00 121.00 0.24 0.20 0.29 0.20 0.21 0.28 1
-523.00 118.00 0.25 0.14 0.33 0.23 0.23 0.25 2
-619.00 118.00 0.24 0.23 0.25 0.20 0.21 0.28 2
-341.00 76.00 0.20 0.21 0.29 0.16 0.22 0.29 2
-294.00 76.00 0.24 0.29 0.20 0.14 0.22 0.29 2
-694.00 77.00 0.18 0.21 0.27 0.18 0.21 0.27 2
-629.00 119.00 0.20 0.13 0.30 0.23 0.23 0.26 2
-659.00 117.00 0.21 0.16 0.30 0.14 0.14 0.34 2
-549.00 75.00 0.19 0.17 0.29 0.12 0.23 0.32 1
-325.00 76.00 0.16 0.18 0.32 0.19 0.23 0.28 2
-317.00 75.00 0.21 0.25 0.27 0.17 0.18 0.32 2
-691.00 119.00 0.26 0.21 0.24 0.23 0.22 0.27 1
-430.00 117.00 0.23 0.22 0.25 0.18 0.23 0.29 2
-522.00 118.00 0.31 0.34 0.15 0.23 0.23 0.25 1
-90.00 72.00 0.20 0.24 0.26 0.40 0.22 0.24 2
-461.00 76.00 0.14 0.22 0.29 0.24 0.22 0.24 1
-808.00 119.00 0.23 0.21 0.31 0.20 0.20 0.29 1
-908.00 120.00 0.21 0.19 0.29 0.21 0.19 0.29 2
-430.00 120.00 0.22 0.13 0.30 0.28 0.24 0.23 2
-701.00 119.00 0.21 0.21 0.28 0.17 0.23 0.28 2
-378.00 121.00 0.26 0.22 0.24 0.24 0.24 0.24 2
-145.00 77.00 0.34 0.37 0.12 0.22 0.22 0.27 2
-672.00 118.00 0.18 0.18 0.31 0.23 0.22 0.25 2
-320.00 120.00 0.26 0.22 0.24 0.23 0.19 0.29 2
-475.00 75.00 0.20 0.19 0.26 0.20 0.19 0.29 1
-459.00 77.00 0.16 0.21 0.28 0.22 0.22 0.27 1
-604.00 119.00 0.29 0.24 0.23 0.29 0.24 0.23 1
-454.00 115.00 0.23 0.23 0.25 0.20 0.23 0.27 2
-543.00 76.00 0.25 0.22 0.23 0.17 0.14 0.34 1
-379.00 77.00 0.18 0.19 0.30 0.17 0.21 0.27 2
-422.00 119.00 0.13 0.33 0.23 0.29 0.24 0.22 2
-485.00 116.00 0.24 0.24 0.23 0.20 0.22 0.28 2
-189.00 74.00 0.24 0.34 0.23 0.28 0.31 0.16 2
-580.00 77.00 0.18 0.21 0.27 0.19 0.21 0.31 1
-572.00 119.00 0.20 0.23 0.27 0.19 0.17 0.31 2
-594.00 119.00 0.29 0.21 0.25 0.29 0.21 0.25 2
-404.00 76.00 0.20 0.20 0.29 0.20 0.21 0.27 2
-491.00 118.00 0.23 0.21 0.31 0.20 0.21 0.27 2
-453.00 76.00 0.22 0.18 0.33 0.30 0.28 0.20 1
-142.00 71.00 0.41 0.37 0.14 0.28 0.28 0.26 1
-794.00 118.00 0.26 0.14 0.32 0.21 0.22 0.27 1
-512.00 119.00 0.21 0.22 0.27 0.21 0.21 0.28 2
-628.00 87.00 0.20 0.24 0.24 0.17 0.16 0.35 1
-362.00 76.00 0.17 0.25 0.29 0.21 0.22 0.28 2
-182.00 75.00 0.24 0.28 0.21 0.29 0.25 0.21 2
-386.00 118.00 0.26 0.21 0.24 0.22 0.19 0.30 2
-315.00 69.00 0.46 0.42 0.09 0.16 0.16 0.34 1
-232.00 76.00 0.26 0.26 0.22 0.17 0.21 0.29 2
-219.00 75.00 0.28 0.29 0.21 0.19 0.22 0.27 2
-553.00 118.00 0.15 0.39 0.18 0.27 0.20 0.27 1
-176.00 77.00 0.26 0.26 0.22 0.20 0.29 0.21 2
-273.00 75.00 0.20 0.21 0.28 0.25 0.15 0.29 2
-879.00 120.00 0.22 0.23 0.26 0.19 0.20 0.29 1
-623.00 120.00 0.23 0.23 0.26 0.18 0.22 0.27 2
-365.00 74.00 0.20 0.22 0.30 0.18 0.21 0.26 2
-595.00 117.00 0.20 0.15 0.31 0.25 0.24 0.24 2
-565.00 120.00 0.21 0.15 0.30 0.27 0.23 0.26 2
-476.00 74.00 0.25 0.21 0.24 0.15 0.23 0.31 1
-281.00 75.00 0.19 0.22 0.27 0.29 0.20 0.24 2
-372.00 77.00 0.20 0.26 0.24 0.18 0.14 0.35 2
-86.00 71.00 0.37 0.35 0.17 0.16 0.22 0.27 2
-525.00 120.00 0.21 0.22 0.27 0.23 0.23 0.26 2
-837.00 119.00 0.21 0.20 0.27 0.19 0.17 0.31 1
0.00 69.00 0.46 0.42 0.09 0.43 0.36 0.11 2
-431.00 119.00 0.23 0.23 0.26 0.23 0.21 0.28 2
-422.00 120.00 0.26 0.23 0.25 0.23 0.23 0.27 2
-528.00 76.00 0.21 0.21 0.29 0.19 0.25 0.23 1
-728.00 121.00 0.15 0.33 0.21 0.23 0.14 0.30 1
-390.00 75.00 0.12 0.27 0.28 0.22 0.21 0.28 2
-344.00 110.00 0.19 0.28 0.25 0.23 0.22 0.27 2
-531.00 119.00 0.19 0.26 0.21 0.21 0.22 0.27 2
-458.00 76.00 0.20 0.18 0.26 0.20 0.29 0.21 1
-377.00 118.00 0.24 0.23 0.25 0.22 0.23 0.26 2
-768.00 116.00 0.21 0.20 0.28 0.23 0.22 0.27 1
-501.00 76.00 0.20 0.18 0.26 0.26 0.24 0.22 1
-510.00 75.00 0.23 0.27 0.25 0.18 0.18 0.33 1
-345.00 76.00 0.17 0.22 0.29 0.20 0.20 0.28 2
-367.00 119.00 0.26 0.21 0.24 0.27 0.23 0.26 2
-475.00 120.00 0.28 0.23 0.26 0.21 0.21 0.27 2
-260.00 76.00 0.18 0.20 0.28 0.19 0.24 0.26 2
-581.00 76.00 0.20 0.24 0.26 0.16 0.20 0.29 1
-664.00 118.00 0.13 0.33 0.23 0.24 0.20 0.28 1
-290.00 76.00 0.19 0.23 0.28 0.21 0.25 0.28 2
-431.00 114.00 0.24 0.23 0.25 0.20 0.20 0.29 2
-300.00 76.00 0.18 0.19 0.30 0.24 0.22 0.24 2
-307.00 74.00 0.20 0.22 0.30 0.21 0.13 0.32 2
-313.00 74.00 0.14 0.19 0.32 0.36 0.36 0.13 2
-314.00 75.00 0.21 0.23 0.25 0.19 0.24 0.25 2
-374.00 75.00 0.14 0.20 0.32 0.21 0.27 0.25 2
-870.00 121.00 0.21 0.14 0.30 0.17 0.23 0.28 1
-499.00 118.00 0.23 0.21 0.27 0.22 0.23 0.28 2
-666.00 119.00 0.26 0.25 0.21 0.26 0.23 0.23 1
-792.00 120.00 0.22 0.23 0.27 0.23 0.21 0.28 1
-758.00 117.00 0.19 0.15 0.32 0.21 0.19 0.30 1
-508.00 120.00 0.22 0.23 0.25 0.24 0.21 0.25 2
-713.00 117.00 0.21 0.26 0.25 0.23 0.23 0.28 1
-426.00 119.00 0.23 0.23 0.25 0.28 0.24 0.23 2
-510.00 118.00 0.28 0.24 0.25 0.22 0.22 0.26 2
-533.00 119.00 0.21 0.18 0.31 0.23 0.21 0.28 2
-439.00 119.00 0.20 0.19 0.29 0.21 0.22 0.27 2
-346.00 76.00 0.18 0.17 0.36 0.21 0.26 0.23 2
-328.00 76.00 0.17 0.22 0.28 0.20 0.24 0.26 2
-306.00 76.00 0.18 0.20 0.28 0.21 0.22 0.25 2
-284.00 75.00 0.21 0.27 0.25 0.17 0.22 0.27 2
-571.00 116.00 0.24 0.22 0.27 0.25 0.24 0.24 1
-446.00 119.00 0.20 0.20 0.29 0.23 0.22 0.27 2
-362.00 118.00 0.24 0.20 0.28 0.24 0.25 0.24 2
-591.00 120.00 0.22 0.14 0.30 0.22 0.23 0.27 2
-461.00 117.00 0.20 0.15 0.31 0.24 0.24 0.24 2
-244.00 72.00 0.14 0.24 0.29 0.39 0.42 0.08 1
-971.00 118.00 0.25 0.24 0.24 0.20 0.17 0.32 1
-462.00 77.00 0.18 0.21 0.27 0.19 0.27 0.21 1
-443.00 117.00 0.24 0.15 0.29 0.27 0.23 0.24 2
-614.00 119.00 0.14 0.30 0.23 0.21 0.18 0.30 2
-382.00 117.00 0.26 0.24 0.22 0.24 0.23 0.24 2
-392.00 119.00 0.28 0.24 0.25 0.23 0.23 0.26 2
-437.00 76.00 0.24 0.22 0.24 0.22 0.22 0.27 1
-498.00 117.00 0.23 0.25 0.22 0.20 0.23 0.27 2
-455.00 75.00 0.21 0.25 0.28 0.24 0.16 0.28 1
-134.00 77.00 0.26 0.30 0.21 0.19 0.26 0.22 2
-279.00 75.00 0.20 0.25 0.27 0.16 0.24 0.26 2
-406.00 76.00 0.18 0.20 0.30 0.24 0.36 0.17 1
-320.00 77.00 0.22 0.23 0.26 0.18 0.20 0.31 2
-376.00 118.00 0.24 0.24 0.25 0.23 0.21 0.26 2
-698.00 119.00 0.19 0.20 0.29 0.23 0.26 0.23 1
-531.00 76.00 0.21 0.20 0.28 0.17 0.16 0.33 1
-607.00 117.00 0.26 0.23 0.23 0.20 0.20 0.29 1
-435.00 119.00 0.24 0.23 0.28 0.29 0.24 0.22 2
-294.00 75.00 0.23 0.27 0.24 0.20 0.22 0.25 2
-354.00 85.00 0.18 0.27 0.25 0.20 0.21 0.27 2
-780.00 123.00 0.19 0.20 0.32 0.19 0.20 0.32 2
-428.00 115.00 0.25 0.23 0.25 0.21 0.23 0.27 2
-254.00 75.00 0.28 0.29 0.21 0.28 0.29 0.21 2
-332.00 119.00 0.29 0.24 0.22 0.20 0.20 0.29 2
-462.00 117.00 0.24 0.17 0.29 0.23 0.20 0.27 2
-463.00 117.00 0.24 0.17 0.29 0.23 0.23 0.26 2
-482.00 119.00 0.14 0.30 0.23 0.23 0.21 0.27 2
-468.00 118.00 0.24 0.22 0.27 0.22 0.23 0.26 2
-367.00 76.00 0.24 0.22 0.24 0.16 0.20 0.30 2
-465.00 118.00 0.21 0.20 0.29 0.23 0.21 0.26 2
-382.00 75.00 0.21 0.23 0.25 0.21 0.25 0.25 1
-990.00 117.00 0.24 0.21 0.22 0.14 0.14 0.34 1
-508.00 76.00 0.18 0.19 0.30 0.21 0.24 0.24 1
-188.00 75.00 0.23 0.28 0.25 0.20 0.18 0.30 2
-282.00 85.00 0.18 0.25 0.26 0.24 0.35 0.18 2
-500.00 75.00 0.24 0.28 0.22 0.27 0.23 0.24 1
-437.00 116.00 0.21 0.20 0.28 0.25 0.24 0.24 2
-390.00 118.00 0.25 0.22 0.28 0.22 0.19 0.30 2
-565.00 118.00 0.23 0.21 0.27 0.21 0.22 0.27 2
-881.00 121.00 0.14 0.32 0.23 0.17 0.23 0.28 1
-288.00 71.00 0.17 0.25 0.29 0.45 0.24 0.17 1
-609.00 112.00 0.20 0.24 0.27 0.22 0.22 0.27 1
-640.00 117.00 0.24 0.15 0.29 0.27 0.23 0.24 1
-251.00 76.00 0.17 0.17 0.36 0.18 0.18 0.33 2
-347.00 70.00 0.33 0.29 0.21 0.20 0.28 0.24 1
-382.00 118.00 0.22 0.19 0.29 0.23 0.23 0.28 2
-362.00 78.00 0.22 0.21 0.26 0.23 0.18 0.29 2
-682.00 120.00 0.25 0.22 0.28 0.22 0.23 0.25 1
-540.00 119.00 0.20 0.14 0.31 0.23 0.22 0.25 2
-233.00 72.00 0.22 0.21 0.26 0.39 0.42 0.08 1
-206.00 75.00 0.17 0.21 0.29 0.20 0.27 0.25 2
-324.00 76.00 0.26 0.24 0.22 0.21 0.25 0.28 2
-278.00 76.00 0.25 0.21 0.24 0.21 0.22 0.28 2
-528.00 75.00 0.19 0.17 0.35 0.23 0.27 0.24 1
-271.00 76.00 0.25 0.24 0.24 0.25 0.23 0.26 2
-116.00 72.00 0.26 0.31 0.17 0.35 0.32 0.16 2
-535.00 121.00 0.24 0.23 0.24 0.17 0.23 0.28 2
-584.00 76.00 0.21 0.20 0.25 0.21 0.20 0.25 1
-888.00 120.00 0.23 0.22 0.27 0.19 0.21 0.29 1
-364.00 76.00 0.14 0.22 0.29 0.22 0.24 0.26 2
-412.00 117.00 0.21 0.16 0.30 0.24 0.23 0.25 2
-421.00 76.00 0.16 0.20 0.30 0.19 0.16 0.30 2
-496.00 76.00 0.22 0.20 0.29 0.17 0.22 0.29 1
-215.00 70.00 0.17 0.16 0.29 0.39 0.29 0.21 2
-522.00 120.00 0.22 0.21 0.28 0.20 0.20 0.31 2
-487.00 75.00 0.12 0.27 0.28 0.24 0.13 0.31 1
-759.00 116.00 0.21 0.20 0.28 0.23 0.21 0.28 1
-427.00 115.00 0.25 0.23 0.25 0.24 0.21 0.25 2
-413.00 119.00 0.23 0.21 0.31 0.23 0.23 0.26 2
-460.00 120.00 0.24 0.25 0.25 0.20 0.22 0.28 2
-312.00 77.00 0.21 0.20 0.28 0.22 0.22 0.27 2
-789.00 118.00 0.23 0.13 0.28 0.19 0.18 0.31 1
-516.00 76.00 0.11 0.22 0.29 0.11 0.22 0.29 2
-992.00 120.00 0.23 0.23 0.26 0.23 0.23 0.26 1
-449.00 114.00 0.24 0.23 0.25 0.27 0.23 0.24 1
-276.00 75.00 0.29 0.25 0.21 0.23 0.19 0.28 2
-719.00 117.00 0.24 0.17 0.29 0.20 0.18 0.30 1
-727.00 120.00 0.19 0.20 0.29 0.24 0.24 0.24 1
-536.00 119.00 0.24 0.23 0.25 0.19 0.17 0.31 2
-295.00 78.00 0.25 0.22 0.27 0.19 0.21 0.31 2
-418.00 77.00 0.21 0.22 0.27 0.20 0.29 0.21 1
-298.00 76.00 0.21 0.18 0.30 0.21 0.26 0.22 2
-494.00 75.00 0.20 0.21 0.29 0.25 0.15 0.29 1
-429.00 118.00 0.26 0.23 0.23 0.20 0.21 0.27 2
-433.00 120.00 0.31 0.24 0.23 0.22 0.23 0.28 2
-253.00 76.00 0.25 0.21 0.24 0.19 0.27 0.21 2
-361.00 76.00 0.21 0.26 0.24 0.18 0.14 0.35 2
-391.00 120.00 0.26 0.22 0.24 0.22 0.21 0.28 2
-563.00 118.00 0.21 0.19 0.30 0.23 0.18 0.29 2
-366.00 83.00 0.24 0.21 0.25 0.23 0.22 0.24 2
-290.00 76.00 0.20 0.21 0.28 0.20 0.21 0.28 2
-416.00 114.00 0.25 0.22 0.24 0.24 0.23 0.25 2
-355.00 121.00 0.26 0.22 0.24 0.24 0.24 0.24 2
-318.00 75.00 0.14 0.20 0.29 0.25 0.27 0.24 2
-910.00 120.00 0.20 0.14 0.31 0.20 0.20 0.29 1
-493.00 112.00 0.20 0.24 0.27 0.26 0.19 0.27 1
-122.00 78.00 0.17 0.19 0.32 0.30 0.24 0.24 2
-245.00 75.00 0.21 0.31 0.23 0.16 0.20 0.29 2
-425.00 119.00 0.24 0.23 0.26 0.23 0.18 0.29 2
-591.00 120.00 0.26 0.24 0.25 0.28 0.24 0.23 1
-552.00 117.00 0.24 0.12 0.30 0.23 0.25 0.22 2
-543.00 120.00 0.23 0.21 0.27 0.26 0.23 0.23 2
-619.00 119.00 0.19 0.20 0.29 0.19 0.17 0.31 2
-427.00 119.00 0.25 0.24 0.24 0.20 0.20 0.29 2
-446.00 120.00 0.23 0.24 0.25 0.26 0.23 0.23 2
-233.00 76.00 0.25 0.22 0.25 0.18 0.20 0.31 2
-407.00 119.00 0.29 0.24 0.22 0.24 0.24 0.24 2
-785.00 118.00 0.22 0.19 0.30 0.23 0.21 0.28 1
-403.00 76.00 0.12 0.24 0.28 0.30 0.24 0.24 1
-782.00 120.00 0.21 0.23 0.26 0.21 0.23 0.26 2
-362.00 70.00 0.33 0.29 0.21 0.17 0.22 0.29 1
-382.00 76.00 0.17 0.21 0.27 0.17 0.16 0.33 2
-524.00 116.00 0.23 0.14 0.30 0.22 0.20 0.28 2
-395.00 76.00 0.15 0.21 0.27 0.20 0.24 0.25 2
-456.00 76.00 0.20 0.20 0.32 0.20 0.20 0.32 1
-395.00 117.00 0.25 0.23 0.21 0.24 0.24 0.25 2
-253.00 76.00 0.20 0.20 0.33 0.24 0.28 0.22 2
-244.00 72.00 0.11 0.22 0.29 0.32 0.32 0.21 2
-356.00 119.00 0.25 0.22 0.24 0.20 0.20 0.29 2
-273.00 74.00 0.18 0.22 0.26 0.35 0.32 0.16 2
-685.00 120.00 0.19 0.26 0.21 0.22 0.23 0.25 1
-279.00 76.00 0.21 0.20 0.25 0.24 0.22 0.24 2
-443.00 119.00 0.22 0.14 0.30 0.29 0.24 0.22 2
-669.00 118.00 0.20 0.16 0.30 0.31 0.34 0.15 1
-360.00 120.00 0.23 0.21 0.31 0.23 0.22 0.27 2
-333.00 85.00 0.25 0.22 0.27 0.28 0.31 0.16 1
-693.00 116.00 0.24 0.24 0.23 0.20 0.21 0.27 1
-652.00 120.00 0.22 0.21 0.28 0.20 0.17 0.32 2
-817.00 117.00 0.19 0.15 0.32 0.23 0.20 0.27 1
-514.00 118.00 0.23 0.20 0.27 0.20 0.20 0.31 2
-519.00 119.00 0.23 0.23 0.28 0.19 0.18 0.30 2
-415.00 74.00 0.22 0.21 0.29 0.24 0.28 0.24 1
-263.00 70.00 0.39 0.29 0.21 0.25 0.23 0.26 1
-75.00 72.00 0.28 0.31 0.16 0.40 0.38 0.13 2
-526.00 119.00 0.23 0.23 0.25 0.19 0.18 0.30 2
-138.00 75.00 0.25 0.21 0.24 0.43 0.36 0.11 2
-425.00 75.00 0.25 0.29 0.25 0.23 0.22 0.27 1
-783.00 119.00 0.24 0.24 0.24 0.23 0.24 0.25 1
-464.00 75.00 0.23 0.20 0.31 0.19 0.19 0.29 1
-158.00 67.00 0.33 0.36 0.18 0.21 0.25 0.27 2
-686.00 120.00 0.28 0.24 0.25 0.18 0.22 0.27 1
-291.00 75.00 0.20 0.18 0.26 0.25 0.15 0.29 2
-387.00 119.00 0.24 0.25 0.25 0.23 0.22 0.25 2
-286.00 75.00 0.15 0.24 0.31 0.22 0.19 0.32 2
-348.00 75.00 0.23 0.24 0.25 0.12 0.27 0.28 2
-196.00 74.00 0.18 0.21 0.28 0.42 0.38 0.11 2
-382.00 76.00 0.20 0.24 0.26 0.23 0.18 0.28 2
-447.00 119.00 0.23 0.23 0.26 0.23 0.20 0.28 2
-250.00 74.00 0.21 0.28 0.20 0.20 0.28 0.27 2
-285.00 76.00 0.20 0.24 0.26 0.20 0.23 0.24 2
-439.00 75.00 0.26 0.26 0.22 0.25 0.15 0.29 2
-532.00 75.00 0.23 0.27 0.25 0.19 0.19 0.30 1
-481.00 78.00 0.20 0.19 0.26 0.23 0.22 0.27 1
-538.00 118.00 0.15 0.39 0.18 0.22 0.23 0.26 1
-488.00 119.00 0.22 0.19 0.25 0.23 0.23 0.26 2
-660.00 117.00 0.21 0.26 0.25 0.26 0.22 0.24 1
-548.00 117.00 0.25 0.24 0.20 0.20 0.17 0.32 2
-246.00 76.00 0.21 0.28 0.20 0.21 0.26 0.23 2
-454.00 118.00 0.27 0.20 0.27 0.22 0.23 0.27 2
-312.00 75.00 0.12 0.28 0.27 0.22 0.24 0.29 2
-450.00 118.00 0.20 0.19 0.30 0.23 0.23 0.28 2
-438.00 118.00 0.24 0.20 0.28 0.24 0.23 0.25 2
-476.00 117.00 0.23 0.25 0.22 0.23 0.22 0.27 2
-550.00 112.00 0.20 0.24 0.27 0.21 0.19 0.30 1
-537.00 120.00 0.14 0.32 0.23 0.22 0.23 0.27 2
-440.00 87.00 0.20 0.23 0.24 0.20 0.23 0.24 2
-523.00 118.00 0.24 0.23 0.25 0.24 0.20 0.28 2
-531.00 77.00 0.17 0.22 0.29 0.18 0.18 0.33 1
-444.00 119.00 0.25 0.23 0.26 0.23 0.23 0.26 2
-580.00 119.00 0.22 0.18 0.31 0.25 0.23 0.25 2
-553.00 118.00 0.21 0.15 0.30 0.22 0.23 0.26 2
-749.00 119.00 0.23 0.23 0.26 0.20 0.21 0.28 1
-397.00 76.00 0.24 0.22 0.24 0.14 0.20 0.29 2
-457.00 74.00 0.18 0.21 0.27 0.23 0.23 0.27 1
-467.00 121.00 0.26 0.22 0.24 0.23 0.24 0.25 2
-389.00 76.00 0.16 0.18 0.32 0.18 0.16 0.32 2
-444.00 120.00 0.14 0.32 0.23 0.24 0.23 0.28 2
-313.00 77.00 0.18 0.16 0.32 0.23 0.34 0.19 2
-573.00 76.00 0.17 0.22 0.28 0.17 0.16 0.35 1
-551.00 119.00 0.23 0.12 0.30 0.21 0.22 0.27 2
-171.00 72.00 0.40 0.35 0.11 0.23 0.20 0.26 2
-371.00 74.00 0.20 0.30 0.26 0.25 0.15 0.29 2
-401.00 77.00 0.18 0.17 0.31 0.23 0.22 0.24 2
-433.00 116.00 0.25 0.22 0.24 0.21 0.20 0.28 2
-501.00 77.00 0.24 0.21 0.25 0.17 0.21 0.27 1
-477.00 119.00 0.22 0.19 0.25 0.24 0.24 0.24 2
-497.00 75.00 0.23 0.21 0.29 0.19 0.19 0.30 1
-343.00 85.00 0.29 0.27 0.19 0.17 0.16 0.35 2
-843.00 120.00 0.21 0.23 0.27 0.23 0.20 0.28 1
-634.00 75.00 0.16 0.20 0.29 0.19 0.19 0.29 1
-671.00 119.00 0.21 0.21 0.28 0.17 0.12 0.35 2
-271.00 77.00 0.17 0.22 0.28 0.21 0.17 0.34 2
-208.00 76.00 0.18 0.22 0.26 0.26 0.25 0.24 2
-319.00 70.00 0.18 0.22 0.28 0.39 0.29 0.21 1
-325.00 76.00 0.21 0.22 0.27 0.20 0.24 0.26 2
-422.00 120.00 0.24 0.24 0.25 0.21 0.22 0.27 2
-442.00 76.00 0.25 0.24 0.24 0.22 0.18 0.27 1
-424.00 119.00 0.21 0.21 0.28 0.23 0.26 0.23 2
-239.00 75.00 0.17 0.22 0.28 0.43 0.36 0.11 1
-430.00 74.00 0.15 0.22 0.27 0.18 0.14 0.35 2
-406.00 112.00 0.28 0.24 0.25 0.20 0.24 0.27 2
-436.00 76.00 0.21 0.22 0.28 0.22 0.27 0.21 1
-721.00 116.00 0.21 0.20 0.28 0.20 0.23 0.27 1
-447.00 118.00 0.24 0.20 0.28 0.23 0.20 0.27 2
-228.00 77.00 0.32 0.24 0.21 0.21 0.21 0.26 2
-324.00 76.00 0.17 0.20 0.30 0.20 0.24 0.26 2
-477.00 76.00 0.22 0.20 0.29 0.25 0.22 0.24 1
-520.00 119.00 0.13 0.33 0.23 0.19 0.17 0.31 2
-409.00 117.00 0.26 0.22 0.24 0.22 0.22 0.22 2
-50.00 70.00 0.41 0.37 0.11 0.28 0.28 0.26 2
-812.00 118.00 0.20 0.19 0.30 0.20 0.20 0.29 1
-769.00 118.00 0.22 0.17 0.26 0.25 0.20 0.25 1
-604.00 119.00 0.23 0.23 0.26 0.18 0.20 0.28 2
-237.00 77.00 0.30 0.23 0.24 0.22 0.22 0.27 2
-316.00 118.00 0.27 0.20 0.27 0.23 0.23 0.25 2
-409.00 76.00 0.20 0.28 0.24 0.27 0.27 0.22 1
-528.00 120.00 0.22 0.23 0.27 0.24 0.24 0.24 2
-768.00 117.00 0.24 0.21 0.22 0.20 0.20 0.29 1
-410.00 75.00 0.15 0.23 0.27 0.25 0.15 0.29 2
-417.00 118.00 0.22 0.19 0.30 0.26 0.23 0.23 2
-764.00 118.00 0.26 0.21 0.25 0.26 0.21 0.25 1
-397.00 119.00 0.26 0.23 0.25 0.23 0.22 0.25 2
-726.00 121.00 0.26 0.22 0.24 0.17 0.12 0.35 2
-587.00 120.00 0.13 0.33 0.23 0.27 0.23 0.26 1
-449.00 120.00 0.23 0.20 0.28 0.18 0.22 0.27 2
-361.00 77.00 0.21 0.16 0.31 0.35 0.38 0.14 1
-408.00 120.00 0.24 0.25 0.25 0.23 0.26 0.23 2
-772.00 118.00 0.20 0.19 0.30 0.25 0.17 0.30 1
-302.00 77.00 0.19 0.20 0.30 0.21 0.26 0.23 2
-354.00 120.00 0.24 0.23 0.24 0.25 0.23 0.25 2
-478.00 76.00 0.24 0.22 0.24 0.24 0.22 0.24 1
-441.00 120.00 0.20 0.23 0.27 0.24 0.24 0.24 2
-410.00 76.00 0.24 0.28 0.22 0.20 0.23 0.26 1
-320.00 72.00 0.14 0.20 0.29 0.40 0.22 0.24 1
-519.00 75.00 0.17 0.22 0.29 0.27 0.23 0.24 1
-249.00 75.00 0.26 0.25 0.22 0.21 0.29 0.23 2
-413.00 77.00 0.20 0.21 0.27 0.18 0.14 0.35 2
-432.00 77.00 0.18 0.29 0.25 0.26 0.25 0.23 1
-415.00 118.00 0.27 0.23 0.24 0.25 0.20 0.25 2
-492.00 120.00 0.15 0.33 0.21 0.22 0.23 0.26 2
-349.00 119.00 0.24 0.23 0.28 0.24 0.25 0.24 2
-460.00 118.00 0.24 0.23 0.28 0.24 0.23 0.25 2
-273.00 76.00 0.24 0.22 0.24 0.22 0.21 0.28 2
-314.00 76.00 0.21 0.28 0.20 0.25 0.17 0.26 2
-737.00 119.00 0.23 0.18 0.29 0.24 0.24 0.24 1
-505.00 76.00 0.18 0.20 0.30 0.20 0.22 0.25 1
-589.00 120.00 0.19 0.21 0.29 0.23 0.22 0.28 2
-527.00 118.00 0.21 0.19 0.30 0.23 0.23 0.26 2
-490.00 119.00 0.23 0.23 0.25 0.23 0.25 0.24 2
-467.00 117.00 0.19 0.15 0.32 0.25 0.23 0.26 2
-295.00 74.00 0.20 0.25 0.27 0.20 0.22 0.30 2
-622.00 74.00 0.16 0.16 0.34 0.14 0.19 0.33 1
-295.00 86.00 0.22 0.16 0.31 0.20 0.24 0.26 2
-555.00 116.00 0.21 0.17 0.30 0.21 0.20 0.29 2
-356.00 76.00 0.21 0.22 0.28 0.16 0.22 0.27 2
-564.00 120.00 0.20 0.28 0.24 0.20 0.22 0.28 2
-411.00 120.00 0.28 0.24 0.25 0.24 0.22 0.25 2
-387.00 75.00 0.32 0.33 0.17 0.12 0.21 0.32 1
-414.00 112.00 0.24 0.17 0.29 0.20 0.24 0.27 2
-477.00 120.00 0.20 0.23 0.27 0.20 0.21 0.28 2
-322.00 77.00 0.16 0.25 0.26 0.18 0.18 0.33 2
-474.00 116.00 0.22 0.19 0.25 0.21 0.20 0.28 2
-424.00 120.00 0.20 0.28 0.24 0.20 0.23 0.27 2
-699.00 116.00 0.21 0.20 0.28 0.23 0.20 0.28 1
-346.00 76.00 0.12 0.24 0.28 0.18 0.25 0.25 2
-620.00 76.00 0.18 0.17 0.36 0.20 0.21 0.29 1
-454.00 75.00 0.18 0.20 0.28 0.20 0.25 0.27 2
-498.00 75.00 0.12 0.23 0.32 0.24 0.22 0.28 1
-487.00 120.00 0.26 0.22 0.24 0.21 0.21 0.27 2
-726.00 120.00 0.23 0.26 0.23 0.25 0.23 0.25 1
-299.00 71.00 0.41 0.35 0.13 0.18 0.25 0.26 1
-783.00 118.00 0.18 0.18 0.31 0.28 0.24 0.23 1
-333.00 76.00 0.17 0.21 0.29 0.18 0.24 0.27 2
-125.00 70.00 0.17 0.21 0.29 0.37 0.24 0.23 2
-642.00 90.00 0.22 0.14 0.31 0.22 0.14 0.31 2
-437.00 117.00 0.26 0.24 0.22 0.23 0.20 0.27 2
-141.00 72.00 0.18 0.24 0.28 0.40 0.38 0.13 2
-658.00 120.00 0.24 0.23 0.28 0.17 0.12 0.35 2
-486.00 76.00 0.22 0.21 0.25 0.22 0.21 0.25 2
-405.00 75.00 0.18 0.22 0.29 0.20 0.19 0.29 2
-422.00 76.00 0.22 0.21 0.26 0.18 0.21 0.26 1
-453.00 119.00 0.29 0.21 0.25 0.20 0.20 0.29 2
-772.00 120.00 0.20 0.23 0.27 0.20 0.23 0.27 2
-549.00 119.00 0.20 0.20 0.29 0.20 0.23 0.27 2
-501.00 76.00 0.21 0.26 0.22 0.24 0.22 0.28 1
-438.00 104.00 0.19 0.22 0.28 0.35 0.20 0.24 1
-641.00 119.00 0.24 0.23 0.28 0.24 0.23 0.25 1
-620.00 119.00 0.20 0.13 0.30 0.24 0.23 0.26 2
-422.00 120.00 0.21 0.15 0.30 0.26 0.23 0.23 2
-418.00 120.00 0.27 0.21 0.23 0.21 0.22 0.27 2
-909.00 120.00 0.20 0.22 0.28 0.23 0.22 0.28 1
-623.00 120.00 0.21 0.15 0.30 0.22 0.14 0.30 2
-502.00 116.00 0.21 0.20 0.28 0.22 0.14 0.30 2
-479.00 74.00 0.20 0.23 0.30 0.22 0.24 0.23 1
-259.00 77.00 0.26 0.26 0.22 0.24 0.36 0.17 2
-752.00 118.00 0.23 0.21 0.27 0.20 0.21 0.27 1
-364.00 76.00 0.16 0.21 0.30 0.18 0.25 0.25 2
-427.00 120.00 0.24 0.23 0.28 0.20 0.27 0.22 2
-476.00 75.00 0.16 0.18 0.30 0.25 0.15 0.29 2
-178.00 75.00 0.23 0.30 0.22 0.24 0.13 0.31 2
-473.00 120.00 0.15 0.39 0.18 0.20 0.22 0.28 2
-625.00 115.00 0.25 0.23 0.25 0.24 0.23 0.26 1
-380.00 76.00 0.20 0.20 0.28 0.19 0.24 0.26 2
-118.00 71.00 0.48 0.34 0.13 0.18 0.20 0.31 2
-892.00 120.00 0.19 0.21 0.29 0.23 0.19 0.29 1
-203.00 74.00 0.20 0.31 0.24 0.22 0.24 0.24 2
-297.00 74.00 0.20 0.20 0.30 0.21 0.22 0.27 2
-798.00 118.00 0.22 0.14 0.30 0.20 0.21 0.27 1
-538.00 76.00 0.18 0.22 0.26 0.20 0.21 0.27 2
-439.00 119.00 0.26 0.22 0.24 0.23 0.23 0.26 2
-469.00 75.00 0.19 0.23 0.25 0.12 0.27 0.28 1
-562.00 111.00 0.22 0.23 0.26 0.22 0.19 0.30 1
-473.00 116.00 0.24 0.24 0.23 0.21 0.22 0.27 2
-489.00 120.00 0.23 0.21 0.31 0.22 0.16 0.25 2
-458.00 118.00 0.25 0.22 0.24 0.19 0.19 0.30 2
-665.00 117.00 0.24 0.21 0.22 0.22 0.14 0.30 2
-417.00 117.00 0.25 0.24 0.21 0.25 0.24 0.24 2
-465.00 75.00 0.16 0.21 0.29 0.22 0.18 0.27 1
-501.00 74.00 0.22 0.23 0.28 0.24 0.28 0.24 1
-625.00 118.00 0.22 0.17 0.29 0.19 0.19 0.31 2
-194.00 75.00 0.26 0.28 0.21 0.21 0.29 0.23 2
-526.00 75.00 0.19 0.27 0.24 0.17 0.16 0.33 1
-537.00 120.00 0.26 0.23 0.25 0.23 0.15 0.30 2
-267.00 76.00 0.27 0.27 0.22 0.17 0.24 0.25 2
-701.00 117.00 0.21 0.14 0.30 0.22 0.22 0.22 1
-551.00 120.00 0.14 0.30 0.23 0.22 0.23 0.27 2
-527.00 116.00 0.21 0.17 0.30 0.23 0.20 0.28 2
-424.00 116.00 0.21 0.20 0.28 0.21 0.21 0.28 2
-468.00 120.00 0.24 0.28 0.23 0.22 0.18 0.30 2
-537.00 118.00 0.22 0.19 0.30 0.23 0.15 0.30 2
-390.00 75.00 0.20 0.24 0.26 0.21 0.29 0.23 2
-495.00 119.00 0.28 0.24 0.23 0.20 0.21 0.29 2
-554.00 120.00 0.19 0.21 0.29 0.23 0.23 0.26 2
-416.00 76.00 0.21 0.21 0.28 0.20 0.24 0.26 1
-556.00 119.00 0.24 0.23 0.26 0.22 0.20 0.28 2
-455.00 75.00 0.18 0.24 0.27 0.25 0.17 0.27 1
-502.00 75.00 0.18 0.20 0.30 0.25 0.15 0.29 1
-273.00 76.00 0.20 0.20 0.28 0.24 0.26 0.24 2
-848.00 116.00 0.21 0.20 0.28 0.23 0.15 0.30 1
-942.00 120.00 0.23 0.22 0.27 0.23 0.22 0.27 1
-273.00 76.00 0.17 0.22 0.28 0.24 0.22 0.28 2
-574.00 85.00 0.19 0.25 0.24 0.19 0.25 0.24 1
-289.00 76.00 0.22 0.21 0.25 0.17 0.22 0.28 2
-500.00 120.00 0.23 0.20 0.28 0.26 0.19 0.27 2
-567.00 116.00 0.21 0.23 0.24 0.24 0.21 0.25 2
-560.00 111.00 0.18 0.26 0.25 0.21 0.20 0.29 1
-343.00 72.00 0.11 0.22 0.29 0.36 0.35 0.18 1
-425.00 118.00 0.31 0.34 0.15 0.22 0.18 0.31 2
-391.00 119.00 0.28 0.24 0.23 0.23 0.21 0.28 2
-787.00 120.00 0.19 0.20 0.29 0.17 0.12 0.35 2
-447.00 76.00 0.18 0.21 0.27 0.30 0.28 0.20 1
-434.00 119.00 0.21 0.22 0.27 0.23 0.22 0.27 2
-427.00 117.00 0.24 0.23 0.28 0.19 0.22 0.29 2
-764.00 118.00 0.24 0.23 0.26 0.22 0.22 0.26 1
-122.00 70.00 0.20 0.19 0.26 0.39 0.29 0.21 2
-725.00 118.00 0.20 0.20 0.29 0.22 0.23 0.25 1
-313.00 75.00 0.20 0.21 0.29 0.23 0.27 0.25 2
-398.00 120.00 0.22 0.22 0.27 0.28 0.24 0.23 2
-141.00 74.00 0.23 0.27 0.25 0.34 0.35 0.15 2
-222.00 67.00 0.37 0.25 0.21 0.20 0.21 0.27 1
-398.00 118.00 0.31 0.34 0.15 0.31 0.34 0.15 2
-555.00 120.00 0.20 0.23 0.27 0.21 0.21 0.27 2
-143.00 67.00 0.20 0.23 0.30 0.37 0.25 0.21 2
-474.00 76.00 0.24 0.20 0.25 0.16 0.20 0.29 1
-383.00 118.00 0.25 0.24 0.24 0.20 0.20 0.31 2
-165.00 67.00 0.33 0.36 0.18 0.19 0.24 0.26 2
-408.00 119.00 0.23 0.21 0.31 0.22 0.18 0.31 2
-430.00 76.00 0.22 0.21 0.28 0.22 0.21 0.28 2
-489.00 76.00 0.18 0.21 0.27 0.22 0.21 0.25 1
-325.00 76.00 0.16 0.18 0.32 0.18 0.25 0.25 2
-308.00 75.00 0.20 0.21 0.31 0.18 0.25 0.25 2
-328.00 77.00 0.21 0.22 0.27 0.21 0.22 0.27 2
-225.00 75.00 0.24 0.22 0.24 0.17 0.25 0.32 2
-743.00 120.00 0.22 0.22 0.28 0.26 0.23 0.23 1
-918.00 119.00 0.23 0.24 0.25 0.23 0.24 0.25 2
-578.00 118.00 0.21 0.20 0.29 0.17 0.23 0.28 2
-747.00 120.00 0.26 0.22 0.24 0.24 0.21 0.25 1
-811.00 117.00 0.19 0.15 0.32 0.23 0.23 0.25 1
-600.00 116.00 0.24 0.24 0.23 0.23 0.25 0.24 1
-204.00 76.00 0.26 0.24 0.22 0.14 0.19 0.33 2
-559.00 75.00 0.20 0.19 0.29 0.21 0.13 0.32 1
-492.00 75.00 0.20 0.24 0.24 0.24 0.16 0.28 1
-781.00 119.00 0.14 0.30 0.23 0.24 0.23 0.26 1
-41.00 72.00 0.20 0.30 0.26 0.40 0.22 0.24 2
-175.00 75.00 0.36 0.36 0.13 0.16 0.25 0.25 2
-226.00 72.00 0.22 0.20 0.29 0.26 0.31 0.17 2
-623.00 119.00 0.21 0.24 0.28 0.24 0.25 0.24 1
-488.00 77.00 0.16 0.25 0.26 0.19 0.16 0.30 2
-617.00 116.00 0.20 0.22 0.26 0.25 0.24 0.24 1
-669.00 116.00 0.21 0.20 0.28 0.22 0.23 0.26 1
-577.00 117.00 0.20 0.15 0.31 0.23 0.23 0.26 2
-337.00 74.00 0.16 0.22 0.30 0.21 0.21 0.29 2
-214.00 75.00 0.17 0.25 0.32 0.26 0.26 0.22 2
-528.00 118.00 0.21 0.19 0.30 0.21 0.24 0.26 2
-503.00 120.00 0.23 0.18 0.31 0.19 0.20 0.29 2
-385.00 119.00 0.21 0.21 0.28 0.27 0.23 0.26 2
-791.00 120.00 0.22 0.19 0.25 0.18 0.22 0.27 1
-410.00 76.00 0.23 0.29 0.24 0.24 0.26 0.24 1
-747.00 118.00 0.22 0.19 0.30 0.23 0.20 0.27 1
-751.00 116.00 0.21 0.21 0.27 0.22 0.20 0.29 1
-324.00 75.00 0.16 0.18 0.32 0.20 0.19 0.29 2
-352.00 75.00 0.20 0.20 0.27 0.23 0.25 0.26 2
-231.00 76.00 0.20 0.24 0.26 0.27 0.27 0.22 2
-355.00 78.00 0.21 0.23 0.31 0.29 0.27 0.19 1
-685.00 117.00 0.19 0.22 0.29 0.25 0.23 0.25 1
-524.00 118.00 0.21 0.19 0.29 0.26 0.23 0.23 2
-192.00 71.00 0.41 0.37 0.14 0.17 0.22 0.27 2
-752.00 117.00 0.21 0.16 0.30 0.22 0.23 0.26 1
-423.00 76.00 0.17 0.17 0.28 0.22 0.16 0.31 2
-390.00 120.00 0.20 0.21 0.29 0.28 0.22 0.24 2
-502.00 118.00 0.20 0.19 0.31 0.23 0.23 0.25 2
-423.00 117.00 0.25 0.24 0.21 0.24 0.23 0.24 2
-365.00 76.00 0.18 0.24 0.28 0.17 0.18 0.32 2
-362.00 118.00 0.24 0.23 0.25 0.24 0.25 0.24 2
-525.00 119.00 0.24 0.12 0.30 0.21 0.22 0.27 2
-459.00 117.00 0.23 0.25 0.22 0.22 0.19 0.29 2
-466.00 77.00 0.23 0.30 0.22 0.23 0.30 0.22 1
-318.00 75.00 0.23 0.21 0.29 0.25 0.15 0.29 2
-733.00 119.00 0.23 0.18 0.29 0.20 0.20 0.31 1
-738.00 116.00 0.22 0.20 0.28 0.25 0.24 0.21 1
-757.00 119.00 0.25 0.22 0.26 0.23 0.22 0.25 1
-614.00 76.00 0.17 0.14 0.34 0.21 0.17 0.34 1
-323.00 71.00 0.45 0.24 0.17 0.23 0.19 0.28 1
-144.00 71.00 0.45 0.24 0.17 0.16 0.20 0.29 2
-208.00 72.00 0.18 0.17 0.32 0.40 0.35 0.11 2
-566.00 75.00 0.18 0.20 0.28 0.19 0.17 0.35 1
-477.00 75.00 0.24 0.28 0.22 0.23 0.27 0.25 1
-217.00 76.00 0.20 0.24 0.26 0.29 0.27 0.19 2
-478.00 116.00 0.21 0.23 0.24 0.29 0.24 0.22 1
-431.00 75.00 0.18 0.25 0.26 0.24 0.16 0.28 1
-318.00 74.00 0.22 0.23 0.28 0.20 0.29 0.21 2
-148.00 72.00 0.12 0.27 0.28 0.40 0.22 0.24 2
-328.00 117.00 0.26 0.23 0.23 0.25 0.17 0.30 2
-503.00 76.00 0.14 0.24 0.29 0.18 0.14 0.35 1
-460.00 76.00 0.20 0.21 0.28 0.20 0.21 0.28 2
-583.00 76.00 0.17 0.16 0.29 0.22 0.28 0.24 1
-350.00 118.00 0.23 0.22 0.26 0.28 0.23 0.23 2
-509.00 119.00 0.24 0.23 0.25 0.23 0.20 0.28 2
-292.00 78.00 0.21 0.23 0.31 0.20 0.23 0.24 2
-714.00 117.00 0.24 0.17 0.29 0.24 0.17 0.29 2
-162.00 75.00 0.35 0.38 0.14 0.21 0.25 0.25 2
-411.00 76.00 0.19 0.26 0.22 0.20 0.24 0.25 2
-966.00 124.00 0.14 0.32 0.23 0.14 0.32 0.23 1
-453.00 120.00 0.26 0.22 0.24 0.21 0.22 0.27 2
-590.00 112.00 0.20 0.24 0.27 0.20 0.15 0.31 1
-762.00 118.00 0.13 0.33 0.23 0.23 0.20 0.27 1
-569.00 77.00 0.22 0.19 0.32 0.17 0.22 0.27 1
-746.00 120.00 0.22 0.22 0.28 0.28 0.24 0.23 1
-841.00 121.00 0.23 0.18 0.31 0.23 0.15 0.30 1
-447.00 85.00 0.16 0.21 0.28 0.20 0.18 0.32 2
-220.00 76.00 0.24 0.22 0.24 0.30 0.23 0.24 2
-303.00 72.00 0.20 0.21 0.31 0.28 0.28 0.26 1
-371.00 72.00 0.18 0.16 0.32 0.28 0.28 0.26 1
-492.00 116.00 0.21 0.21 0.27 0.21 0.22 0.27 2
-521.00 119.00 0.23 0.23 0.26 0.24 0.23 0.26 2
-211.00 76.00 0.24 0.22 0.24 0.22 0.27 0.21 2
-634.00 118.00 0.23 0.12 0.30 0.19 0.18 0.31 2
-350.00 119.00 0.24 0.23 0.28 0.29 0.24 0.22 2
-265.00 76.00 0.18 0.21 0.30 0.21 0.26 0.24 2
-535.00 75.00 0.20 0.21 0.28 0.21 0.31 0.23 1
-778.00 120.00 0.23 0.20 0.27 0.23 0.20 0.27 2
-302.00 76.00 0.17 0.25 0.29 0.23 0.18 0.28 2
-457.00 119.00 0.23 0.23 0.26 0.20 0.20 0.28 2
-264.00 76.00 0.21 0.28 0.20 0.24 0.24 0.24 2
-207.00 72.00 0.32 0.32 0.21 0.17 0.16 0.33 2
-557.00 75.00 0.21 0.27 0.25 0.17 0.22 0.27 1
-195.00 74.00 0.22 0.22 0.28 0.26 0.28 0.21 2
-342.00 119.00 0.29 0.24 0.22 0.24 0.24 0.24 2
-895.00 118.00 0.15 0.11 0.36 0.24 0.20 0.28 2
-711.00 116.00 0.21 0.20 0.28 0.26 0.23 0.25 1
-339.00 110.00 0.19 0.28 0.25 0.25 0.22 0.24 2
-490.00 75.00 0.25 0.17 0.27 0.25 0.17 0.27 1
-198.00 75.00 0.21 0.22 0.27 0.21 0.29 0.23 2
-640.00 119.00 0.28 0.23 0.26 0.22 0.18 0.31 1
-788.00 122.00 0.22 0.16 0.25 0.17 0.12 0.35 2
-536.00 76.00 0.17 0.21 0.29 0.14 0.20 0.29 2
-467.00 120.00 0.24 0.23 0.28 0.20 0.23 0.27 2
-751.00 118.00 0.14 0.32 0.23 0.22 0.19 0.29 1
-289.00 75.00 0.16 0.20 0.32 0.26 0.25 0.22 2
-384.00 76.00 0.24 0.22 0.24 0.24 0.25 0.25 1
-495.00 77.00 0.21 0.29 0.22 0.21 0.22 0.26 1
-454.00 117.00 0.24 0.15 0.29 0.23 0.22 0.28 2
-587.00 117.00 0.23 0.22 0.25 0.18 0.23 0.29 2
-493.00 76.00 0.26 0.21 0.29 0.20 0.25 0.24 1
-840.00 122.00 0.20 0.16 0.34 0.20 0.20 0.31 1
-479.00 75.00 0.20 0.17 0.31 0.22 0.21 0.29 1
-563.00 76.00 0.20 0.18 0.26 0.17 0.24 0.25 1
-527.00 117.00 0.22 0.22 0.22 0.24 0.23 0.24 1
-543.00 119.00 0.28 0.24 0.23 0.19 0.20 0.29 2
-694.00 119.00 0.15 0.11 0.36 0.24 0.23 0.25 2
-436.00 77.00 0.21 0.23 0.27 0.21 0.23 0.27 2
-299.00 75.00 0.19 0.25 0.23 0.25 0.15 0.29 2
-383.00 76.00 0.20 0.20 0.29 0.18 0.20 0.31 2
-402.00 76.00 0.13 0.22 0.30 0.19 0.23 0.25 2
-293.00 75.00 0.25 0.29 0.25 0.19 0.16 0.31 2
-446.00 75.00 0.21 0.21 0.28 0.21 0.25 0.27 1
-482.00 76.00 0.17 0.17 0.28 0.27 0.27 0.21 1
-622.00 119.00 0.23 0.21 0.27 0.22 0.23 0.27 2
-216.00 71.00 0.41 0.37 0.14 0.30 0.24 0.24 1
-524.00 76.00 0.16 0.18 0.32 0.19 0.24 0.26 1
-222.00 75.00 0.40 0.24 0.19 0.21 0.21 0.29 2
-402.00 76.00 0.16 0.21 0.28 0.18 0.22 0.26 2
-211.00 76.00 0.20 0.21 0.29 0.24 0.25 0.24 2
-218.00 76.00 0.26 0.28 0.21 0.26 0.25 0.24 2
-548.00 120.00 0.19 0.21 0.29 0.20 0.27 0.22 2
-370.00 114.00 0.24 0.23 0.25 0.24 0.23 0.25 2
-523.00 120.00 0.19 0.17 0.31 0.26 0.23 0.25 2
-704.00 116.00 0.21 0.20 0.28 0.23 0.23 0.27 1
-681.00 119.00 0.29 0.24 0.20 0.23 0.26 0.23 1
-322.00 71.00 0.41 0.35 0.13 0.21 0.23 0.31 1
-150.00 72.00 0.43 0.36 0.11 0.19 0.23 0.28 2
-678.00 120.00 0.24 0.22 0.24 0.24 0.22 0.24 1
-696.00 119.00 0.25 0.24 0.24 0.28 0.22 0.24 1
-297.00 76.00 0.21 0.22 0.26 0.21 0.24 0.24 2
-421.00 118.00 0.26 0.22 0.25 0.23 0.21 0.26 2
-358.00 75.00 0.12 0.23 0.32 0.18 0.16 0.32 2
-499.00 118.00 0.23 0.14 0.30 0.25 0.20 0.25 2
-115.00 67.00 0.17 0.17 0.36 0.33 0.36 0.18 2
-525.00 77.00 0.21 0.23 0.26 0.17 0.21 0.27 1
-478.00 76.00 0.21 0.23 0.31 0.18 0.24 0.28 1
-764.00 118.00 0.25 0.22 0.24 0.23 0.20 0.27 1
-446.00 75.00 0.23 0.22 0.24 0.25 0.15 0.29 1
-458.00 75.00 0.21 0.22 0.27 0.23 0.20 0.31 1
-577.00 120.00 0.25 0.27 0.22 0.27 0.23 0.26 1
-674.00 118.00 0.26 0.25 0.21 0.21 0.22 0.27 1
-332.00 75.00 0.40 0.25 0.19 0.16 0.25 0.25 1
-291.00 84.00 0.15 0.23 0.30 0.24 0.35 0.18 2
-719.00 119.00 0.22 0.17 0.26 0.21 0.21 0.28 1
-431.00 120.00 0.23 0.22 0.27 0.24 0.23 0.28 2
-498.00 118.00 0.22 0.19 0.30 0.23 0.26 0.23 2
-519.00 118.00 0.22 0.19 0.30 0.23 0.23 0.27 2
-815.00 120.00 0.23 0.23 0.26 0.23 0.26 0.23 1
-391.00 74.00 0.14 0.19 0.32 0.20 0.24 0.26 2
-197.00 75.00 0.23 0.29 0.24 0.23 0.20 0.31 2
-282.00 76.00 0.21 0.22 0.25 0.21 0.18 0.29 2
-281.00 75.00 0.20 0.20 0.28 0.21 0.25 0.27 2
-505.00 120.00 0.23 0.13 0.28 0.26 0.22 0.24 2
-332.00 78.00 0.23 0.29 0.24 0.23 0.29 0.24 2
-538.00 120.00 0.23 0.24 0.25 0.22 0.23 0.27 2
-148.00 76.00 0.24 0.22 0.24 0.33 0.28 0.23 2
-466.00 74.00 0.22 0.18 0.26 0.20 0.22 0.30 1
-392.00 77.00 0.17 0.15 0.33 0.19 0.17 0.32 2
-184.00 75.00 0.23 0.28 0.25 0.23 0.27 0.24 2
-403.00 76.00 0.20 0.21 0.26 0.25 0.23 0.27 1
-222.00 75.00 0.22 0.18 0.26 0.21 0.31 0.23 2
-558.00 120.00 0.22 0.17 0.28 0.20 0.21 0.29 2
-267.00 75.00 0.20 0.29 0.21 0.24 0.16 0.28 2
-552.00 120.00 0.24 0.23 0.25 0.27 0.23 0.26 1
-425.00 119.00 0.22 0.22 0.27 0.23 0.25 0.24 2
-555.00 75.00 0.24 0.13 0.31 0.24 0.16 0.28 1
-907.00 123.00 0.13 0.33 0.23 0.23 0.15 0.30 1
-308.00 77.00 0.18 0.21 0.30 0.23 0.24 0.25 2
-767.00 119.00 0.21 0.15 0.30 0.23 0.20 0.28 1
-550.00 120.00 0.19 0.26 0.21 0.20 0.21 0.27 2
-516.00 118.00 0.14 0.30 0.23 0.25 0.14 0.33 2
-216.00 72.00 0.40 0.35 0.11 0.18 0.16 0.32 2
-406.00 76.00 0.30 0.24 0.24 0.16 0.20 0.29 2
-533.00 120.00 0.23 0.12 0.30 0.20 0.20 0.29 2
-964.00 116.00 0.21 0.20 0.28 0.21 0.20 0.28 2
-406.00 117.00 0.26 0.24 0.22 0.22 0.23 0.27 2
-763.00 119.00 0.24 0.23 0.26 0.23 0.23 0.25 1
-60.00 76.00 0.18 0.24 0.28 0.35 0.38 0.14 2
-400.00 119.00 0.24 0.23 0.24 0.25 0.24 0.24 2
-564.00 120.00 0.31 0.24 0.23 0.24 0.24 0.25 1
-392.00 75.00 0.19 0.17 0.29 0.19 0.19 0.30 2
-687.00 117.00 0.25 0.22 0.24 0.22 0.22 0.22 1
-509.00 75.00 0.18 0.21 0.30 0.25 0.17 0.27 1
-403.00 77.00 0.19 0.25 0.24 0.25 0.23 0.26 1
-456.00 119.00 0.29 0.24 0.20 0.21 0.22 0.27 2
-564.00 119.00 0.21 0.14 0.30 0.21 0.21 0.28 2
-346.00 72.00 0.32 0.32 0.21 0.22 0.22 0.27 1
-425.00 77.00 0.26 0.26 0.22 0.21 0.21 0.26 1
-583.00 119.00 0.21 0.19 0.30 0.23 0.15 0.30 2
-421.00 104.00 0.35 0.20 0.24 0.20 0.23 0.27 1
-569.00 116.00 0.22 0.20 0.28 0.23 0.22 0.27 2
-476.00 116.00 0.21 0.20 0.28 0.21 0.20 0.29 2
-825.00 117.00 0.24 0.21 0.22 0.20 0.21 0.28 1
-645.00 120.00 0.20 0.20 0.29 0.20 0.21 0.28 2
-708.00 87.00 0.21 0.20 0.28 0.19 0.16 0.30 1
-513.00 121.00 0.21 0.24 0.26 0.20 0.20 0.31 2
-246.00 70.00 0.21 0.25 0.25 0.37 0.24 0.23 1
-377.00 120.00 0.20 0.27 0.22 0.22 0.23 0.26 2
-665.00 120.00 0.23 0.13 0.28 0.26 0.22 0.24 1
-386.00 75.00 0.25 0.15 0.29 0.25 0.15 0.29 2
-88.00 72.00 0.28 0.28 0.26 0.23 0.34 0.19 2
-386.00 76.00 0.18 0.22 0.28 0.19 0.22 0.27 2
-356.00 75.00 0.20 0.24 0.26 0.19 0.19 0.29 2
-277.00 76.00 0.24 0.24 0.24 0.20 0.24 0.26 2
-606.00 88.00 0.17 0.16 0.35 0.19 0.16 0.30 2
-550.00 121.00 0.20 0.16 0.30 0.23 0.14 0.30 2
-479.00 118.00 0.23 0.22 0.27 0.19 0.19 0.31 2
-488.00 76.00 0.13 0.18 0.34 0.24 0.25 0.25 1
-385.00 76.00 0.17 0.22 0.28 0.16 0.20 0.29 2
-516.00 119.00 0.21 0.18 0.31 0.22 0.23 0.27 2
-293.00 74.00 0.20 0.22 0.30 0.20 0.20 0.27 2
-281.00 76.00 0.20 0.21 0.30 0.19 0.17 0.32 2
-623.00 118.00 0.31 0.24 0.23 0.19 0.19 0.30 1
-462.00 75.00 0.12 0.27 0.28 0.18 0.20 0.31 1
-416.00 118.00 0.23 0.21 0.27 0.22 0.19 0.30 2
-348.00 75.00 0.17 0.25 0.25 0.22 0.18 0.26 2
-342.00 76.00 0.24 0.24 0.24 0.20 0.24 0.26 2
-418.00 75.00 0.29 0.25 0.21 0.19 0.19 0.29 1
-484.00 117.00 0.19 0.22 0.29 0.23 0.22 0.27 2
-412.00 74.00 0.15 0.23 0.31 0.23 0.34 0.19 1
-455.00 116.00 0.21 0.20 0.28 0.23 0.22 0.25 2
-446.00 119.00 0.23 0.23 0.25 0.23 0.26 0.23 2
-464.00 118.00 0.25 0.22 0.26 0.22 0.22 0.26 2
-738.00 119.00 0.21 0.22 0.27 0.21 0.21 0.28 1
-285.00 75.00 0.19 0.27 0.24 0.20 0.21 0.27 2
-545.00 74.00 0.20 0.21 0.29 0.15 0.22 0.27 1
-552.00 75.00 0.14 0.17 0.33 0.27 0.23 0.24 1
-524.00 118.00 0.20 0.19 0.31 0.23 0.22 0.25 2
-525.00 118.00 0.24 0.23 0.25 0.21 0.21 0.28 2
-482.00 117.00 0.24 0.15 0.29 0.21 0.24 0.28 2
-518.00 118.00 0.23 0.23 0.26 0.19 0.18 0.31 2
-684.00 117.00 0.22 0.22 0.22 0.22 0.23 0.26 1
-274.00 76.00 0.18 0.16 0.32 0.21 0.25 0.28 2
-574.00 119.00 0.26 0.21 0.24 0.26 0.21 0.24 2
-420.00 120.00 0.23 0.21 0.27 0.27 0.23 0.26 2
-263.00 74.00 0.42 0.38 0.11 0.23 0.27 0.24 1
-228.00 75.00 0.19 0.27 0.24 0.27 0.27 0.22 2
-704.00 120.00 0.19 0.26 0.21 0.23 0.21 0.28 1
-636.00 119.00 0.20 0.13 0.30 0.23 0.23 0.26 2
-643.00 120.00 0.24 0.23 0.28 0.23 0.19 0.29 1
-490.00 112.00 0.20 0.24 0.27 0.23 0.21 0.27 2
-728.00 118.00 0.29 0.24 0.22 0.19 0.19 0.31 1
-522.00 75.00 0.17 0.24 0.25 0.19 0.19 0.29 1
-374.00 76.00 0.18 0.21 0.27 0.18 0.24 0.28 2
-596.00 118.00 0.26 0.21 0.25 0.26 0.21 0.25 2
-212.00 72.00 0.28 0.28 0.26 0.28 0.28 0.26 2
-586.00 76.00 0.20 0.20 0.33 0.16 0.22 0.29 1
-143.00 70.00 0.41 0.37 0.11 0.20 0.24 0.26 2
-732.00 119.00 0.24 0.17 0.29 0.23 0.23 0.25 1
-272.00 76.00 0.17 0.20 0.30 0.22 0.24 0.26 2
-552.00 120.00 0.19 0.26 0.21 0.22 0.23 0.28 2
-446.00 77.00 0.19 0.25 0.23 0.20 0.23 0.26 1
-815.00 119.00 0.19 0.20 0.29 0.20 0.20 0.29 1
-200.00 72.00 0.39 0.31 0.15 0.22 0.18 0.27 2
-244.00 74.00 0.23 0.21 0.29 0.20 0.20 0.30 2
-362.00 118.00 0.31 0.34 0.15 0.21 0.18 0.30 2
-206.00 77.00 0.27 0.24 0.21 0.21 0.21 0.26 2
-427.00 118.00 0.24 0.23 0.28 0.25 0.20 0.25 2
-641.00 118.00 0.24 0.22 0.25 0.18 0.19 0.31 2
-467.00 120.00 0.23 0.14 0.30 0.23 0.22 0.27 2
-351.00 75.00 0.16 0.20 0.32 0.20 0.19 0.29 2
-665.00 116.00 0.21 0.20 0.28 0.28 0.28 0.20 1
-502.00 118.00 0.22 0.23 0.26 0.22 0.23 0.26 2
-363.00 76.00 0.14 0.17 0.33 0.22 0.22 0.29 2
-654.00 116.00 0.21 0.20 0.28 0.25 0.24 0.24 1
-540.00 118.00 0.20 0.20 0.29 0.23 0.23 0.25 2
-609.00 76.00 0.20 0.21 0.29 0.19 0.16 0.30 1
-539.00 119.00 0.23 0.23 0.26 0.24 0.25 0.24 2
-503.00 76.00 0.24 0.22 0.24 0.20 0.20 0.28 1
-172.00 72.00 0.23 0.29 0.24 0.28 0.28 0.26 2
-307.00 85.00 0.22 0.19 0.32 0.19 0.24 0.26 2
-420.00 119.00 0.23 0.23 0.26 0.22 0.23 0.25 2
-211.00 74.00 0.20 0.28 0.27 0.30 0.24 0.24 2
-221.00 75.00 0.20 0.24 0.25 0.29 0.20 0.24 2
-461.00 118.00 0.24 0.22 0.24 0.22 0.23 0.26 2
-868.00 120.00 0.22 0.22 0.27 0.23 0.15 0.30 1
-401.00 75.00 0.12 0.23 0.32 0.17 0.24 0.25 2
-257.00 118.00 0.31 0.34 0.15 0.26 0.22 0.24 2
-397.00 75.00 0.21 0.19 0.29 0.12 0.27 0.28 2
-349.00 75.00 0.17 0.22 0.29 0.25 0.17 0.27 2
-500.00 120.00 0.23 0.13 0.28 0.23 0.22 0.25 2
-378.00 76.00 0.17 0.17 0.28 0.17 0.21 0.29 2
-529.00 75.00 0.16 0.21 0.29 0.16 0.20 0.30 1
-372.00 76.00 0.18 0.14 0.35 0.21 0.24 0.24 2
-590.00 119.00 0.20 0.19 0.30 0.18 0.20 0.28 2
-278.00 74.00 0.18 0.17 0.36 0.23 0.23 0.27 2
-41.00 72.00 0.22 0.23 0.28 0.28 0.28 0.26 2
-296.00 116.00 0.24 0.22 0.27 0.28 0.24 0.23 2
-530.00 120.00 0.23 0.21 0.31 0.23 0.21 0.31 2
-566.00 116.00 0.21 0.21 0.27 0.22 0.17 0.29 2
-315.00 75.00 0.21 0.21 0.27 0.25 0.15 0.29 2
-464.00 118.00 0.25 0.23 0.25 0.19 0.19 0.31 2
-443.00 117.00 0.24 0.17 0.29 0.23 0.23 0.26 2
-588.00 118.00 0.20 0.20 0.29 0.19 0.17 0.31 2
-751.00 118.00 0.22 0.23 0.26 0.27 0.20 0.27 1
-407.00 116.00 0.21 0.21 0.27 0.25 0.23 0.25 2
-246.00 74.00 0.20 0.23 0.30 0.19 0.17 0.32 2
-844.00 120.00 0.14 0.32 0.23 0.19 0.21 0.29 1
-426.00 76.00 0.20 0.21 0.26 0.20 0.21 0.26 2
-471.00 76.00 0.20 0.21 0.28 0.20 0.29 0.21 1
-407.00 117.00 0.26 0.24 0.22 0.23 0.23 0.26 2
