EL_CAIRO_AFP_A el_cairo_afp_a NP00000 1
el el DA0MS0 1
menos menos RG 1
82 82 Z 1
personas persona NCFP000 0.983871
resultaron resultar VMIS3P0 1
heridas herida NCFP000 0.416667
en en SPS00 1
El_Cairo el_cairo NP00000 1
este este DD0MS0 0.956743
viernes [V:??/??/??:??.??:??] W 1
en en SPS00 1
los el DA0MP0 0.97623
enfrentamientos enfrentamiento NCMP000 1
protagonizados protagonizar VMP00PM 1
por por SPS00 1
detractores detractor NCMP000 0.833333
y y CC 0.999812
partidarios partidario NCMP000 0.34285
de de SPS00 1
el el DA0MS0 1
presidente presidente NCMS000 1
islamista islamista AQ0CS0 0.657183
Mohamed_Mursi mohamed_mursi NP00000 1
que que PR0CN000 0.5625
se se P00CN000 0.465602
hab hab NCMS000 0.63631
an an NCFS000 1
congregado congregar VMP00SM 1
ante ante SPS00 0.990566
el el DA0MS0 1
Tribunal_Supremo tribunal_supremo NP00000 1
para para SPS00 0.998507
pedir pedir VMN0000 1
una uno DI0FS0 0.951241
reforma reforma NCFS000 0.866667
de de SPS00 1
el el DA0MS0 1
sistema sistema NCMS000 1
judicial judicial AQ0CS0 1
Ambas ambas NP00000 1
partes parte NCFP000 0.495495
se se P00CN000 0.465602
lanzaron lanzar VMIS3P0 1
piedras piedra NCFP000 1
c c NCFS000 1
cteles cteles NCMP000 1
molotov molotov AQ0CS0 0.0433699
y y CC 0.999812
se se P00CN000 0.465602
escucharon escuchar VMIS3P0 1
disparos disparo NCMP000 1
seg segundo NCMN000 1
n n NCFS000 1
un uno DI0MS0 0.986987
periodista periodista NCCS000 1
de de SPS00 0.999919
la el DA0FS0 0.972146
AFP_Esos afp_esos NP00000 1
enfrentamientos enfrentamiento NCMP000 1
que que PR0CN000 0.5625
causaron causar VMIS3P0 1
por_lo_menos por_lo_menos RG 1
82 82 Z 1
heridos herido NCMP000 0.5
seg segundo NCMN000 1
n n NCFS000 1
los el DA0MP0 0.97623
servicios servicio NCMP000 1
de de SPS00 0.999919
rescate rescate NCMS000 0.8587
estallaron estallar VMIS3P0 1
cuando cuando CS 0.983796
los el DA0MP0 0.97623
manifestantes manifestante NCCP000 1
anti anti AQ0CN0 1
Mursi mursi NP00000 1
se se P00CN000 0.465602
dirigieron dirigir VMIS3P0 1
a a SPS00 0.99585
la el DA0FS0 0.972146
Corte_Suprema corte_suprema NP00000 1
donde donde PR000000 0.963542
miles mil NCMP000 1
de de SPS00 0.999919
Hermanos_Musulmanes hermanos_musulmanes NP00000 1
se se P00CN000 0.465602
congregaron congregar VMIS3P0 1
para para SPS00 0.998507
reclamar reclamar VMN0000 1
la el DA0FS0 0.972146
reforma reforma NCFS000 0.866667
de de SPS00 1
el el DA0MS0 1
sistema sistema NCMS000 1
judicial judicial AQ0CS0 1
Mientras mientras NP00000 1
segu segu NCMS000 0.774439
an an NCFS000 1
los el DA0MP0 0.97623
enfrentamientos enfrentamiento NCMP000 1
el el DA0MS0 1
jefe jefe NCMS000 1
de de SPS00 0.999919
los el DA0MP0 0.97623
servicios servicio NCMP000 1
rescate rescate NCMS000 0.8587
Mohammad_Sultan mohammad_sultan NP00000 1
afirm afirm NCMS000 0.700265
que que CS 0.4375
los el DA0MP0 0.97623
choques choque NCMP000 0.995706
causaron causar VMIS3P0 1
82 82 Z 1
heridos herido NCMP000 0.5
Los los NP00000 1
manifestantes manifestante NCCP000 1
quemaron quemar VMIS3P0 1
un uno DI0MS0 0.986987
autob autob NCFS000 1
s segundo NCMN000 0.622321
fletado fletar VMP00SM 1
por por SPS00 1
los el DA0MP0 0.97623
Hermanos_Musulmanes_La hermanos_musulmanes_la NP00000 1
polic polic NCFS000 1
a a SPS00 0.99585
detuvo detener VMIS3S0 1
a a SPS00 0.99585
19 19 Z 1
personas persona NCFP000 0.983871
incluyendo incluir VMG0000 1
tres 3 Z 1
sospechosos sospechoso NCMP000 0.25
de de SPS00 0.999919
quemar quemar VMN0000 1
el el DA0MS0 1
autob autob NCFS000 1
s segundo NCMN000 0.622321
seg segundo NCMN000 1
n n NCFS000 1
un uno DI0MS0 0.986987
domunicado domunicado NCMS000 0.117742
de de SPS00 1
el el DA0MS0 1
Ministerio_de_Interior ministerio_de_interior NP00000 1
Un uno DI0MS0 0.986987
periodista periodista NCCS000 1
de de SPS00 0.999919
la el DA0FS0 0.972146
AFP afp NP00000 1
vio ver VMIS3S0 1
a a SPS00 0.99585
manifestantes manifestante NCCP000 1
junto_a junto_a SPS00 1
un uno DI0MS0 0.986987
puente puente NCMS000 1
tirando tirar VMG0000 1
perdigones perdigón NCMP000 1
contra contra SPS00 0.976316
los el DA0MP0 0.97623
Hermanos_Musulmanes hermanos_musulmanes NP00000 1
de de SPS00 0.999919
los el DA0MP0 0.97623
cuales cual PR0CP000 1
dos 2 Z 0.988722
resultaron resultar VMIS3P0 1
heridos herir VMP00PM 0.5
El el NP00000 1
pueblo pueblo NCMS000 0.978261
quiere querer VMIP3S0 0.982759
un uno DI0MS0 0.986987
saneamiento saneamiento NCMS000 1
de de SPS00 0.999919
la el DA0FS0 0.972146
justicia justicia NCFS000 1
gritaron gritar VMIS3P0 1
miles mil NCMP000 1
de de SPS00 0.999919
partidarios partidario NCMP000 0.34285
de de SPS00 0.999919
Mursi mursi NP00000 1
que que CS 0.4375
tras tras SPS00 1
su su DP3CS0 1
ascenso ascenso NCMS000 1
a a SPS00 1
el el DA0MS0 1
poder poder NCMS000 0.711538
en en SPS00 1
junio [??:??/6/??:??.??:??] W 1
mantiene mantener VMIP3S0 1
tensas tenso AQ0FP0 0.97439
relaciones relación NCFP000 0.944444
con con SPS00 1
el el DA0MS0 1
poder poder NCMS000 0.711538
judicial judicial AQ0CS0 1
Los_Hermanos_Musulmanes los_hermanos_musulmanes NP00000 1
convocaron convocar VMIS3P0 1
esta este DD0FS0 0.982143
manifestaci manifestaci AQ0CS0 0.0199855
n n NCFS000 1
cuando cuando CS 0.983796
el el DA0MS0 1
Parlamento parlamento NP00000 1
dominado dominar VMP00SM 0.691767
por por SPS00 1
los el DA0MP0 0.97623
islamistas islamista NCCP000 0.342887
se se P00CN000 0.465602
dispone disponer VMIP3S0 1
a a SPS00 0.99585
discutir discutir VMN0000 1
enmiendas enmienda NCFP000 0.973497
a a SPS00 0.99585
la el DA0FS0 0.972146
ley ley NCFS000 1
judicial judicial AQ0CS0 1
que que PR0CN000 0.5625
prev prev NCFS000 1
n n NCFS000 1
adelantar adelantar VMN0000 1
la el DA0FS0 0.972146
edad edad NCFS000 1
de de SPS00 0.999919
jubilaci jubilaci RG 0.751648
n n NCFS000 1
de de SPS00 0.999919
los el DA0MP0 0.97623
jueces juez NCCP000 1
de de SPS00 0.999919
los el DA0MP0 0.97623
70 70 Z 1
a a SPS00 0.99585
los el DA0MP0 0.97623
60 60 Z 1
a a SPS00 0.99585
os o NCFP000 0.222222
Jueces jueces NP00000 1
acusaron acusar VMIS3P0 1
a a SPS00 0.99585
los el DA0MP0 0.97623
islamistas islamista NCCP000 0.342887
de de SPS00 0.999919
intentar intentar VMN0000 1
deshacer deshacer VMN0000 1
se se PP3CN000 1
de de SPS00 0.999919
esta este DD0FS0 0.982143
manera manera NCFS000 1
de de SPS00 0.999919
los el DA0MP0 0.97623
magistrados magistrado NCMP000 1
hostiles hostil AQ0CP0 1
El el NP00000 1
mes mes NCMS000 1
pasado pasar VMP00SM 0.647727
un uno DI0MS0 0.986987
tribunal tribunal NCMS000 1
rechaz rechaz AQ0CS0 0.803258
un uno DI0MS0 0.986987
decreto decreto NCMS000 0.973497
de de SPS00 1
el el DA0MS0 1
presidente presidente NCMS000 1
Mursi mursi NP00000 1
que que CS 0.4375
destitu destitu NCMS000 1
a a SPS00 0.99585
a a SPS00 1
el el DA0MS0 1
procurador procurador NCMS000 1
general general AQ0CS0 0.90625
Abdel_Meguid_Mahmud abdel_meguid_mahmud NP00000 1
nombrado nombrar VMP00SM 1
por por SPS00 1
el el DA0MS0 1
ya ya RG 0.996988
depuesto deponer VMP00SM 1
presidente presidente NCMS000 1
Hosni_Mubarak_Esta hosni_mubarak_esta NP00000 1
corte cortar VMSP1S0 0.0285714
acus acu NCFP000 1
a a SPS00 0.99585
Mursi mursi NP00000 1
de de SPS00 0.999919
haber haber VAN0000 1
se se PP3CN000 1
extralimitado extralimitar VMP00SM 1
a a SPS00 1
el el DA0MS0 1
destituir destituir VMN0000 1
a a SPS00 0.99585
Mahmud mahmud NP00000 1
a a SPS00 1
el el DA0MS0 1
que que PR0CN000 0.5625
los el DA0MP0 0.97623
militantes militante NCCP000 0.642613
de de SPS00 0.999919
la el DA0FS0 0.972146
revuelta revuelta NCFS000 0.75
de de SPS00 0.999919
2011 2011 Z 1
acusan acusar VMIP3P0 1
de de SPS00 0.999919
estar estar VAN0000 1
en en SPS00 1
el el DA0MS0 1
origen origen NCMS000 1
de de SPS00 0.999919
la el DA0FS0 0.972146
insuficiencia insuficiencia NCFS000 1
de de SPS00 0.999919
las el DA0FP0 0.97051
pruebas prueba NCFP000 0.9
presentadas presentar VMP00PF 1
por por SPS00 1
la el DA0FS0 0.972146
Fiscal fiscal NP00000 1
a a SPS00 0.99585
en en SPS00 1
los el DA0MP0 0.97623
procesos proceso NCMP000 1
de de SPS00 0.999919
los el DA0MP0 0.97623
responsables responsable NCCP000 0.5
de de SPS00 1
el el DA0MS0 1
r r NCFS000 0.638487
gimen gemir VMIP3P0 1
anterior anterior AQ0CS0 1
200 200 Z 1
oficinas oficina NCFP000 1
en en SPS00 1
150 150 Z 1
pa pa NCFS000 0.740689
ses ses NCMP000 0.727093
Ampliar_Desea ampliar_desea NP00000 1
compartir compartir VMN0000 1
una uno DI0FS0 0.951241
informaci informaci AQ0CS0 0.0199855
n n NCFS000 1
un uno DI0MS0 0.986987
comentario comentario NCMS000 1
Escr escr NP00000 1
banos banos NCMP000 0.509288
a a SPS00 0.99585

