MARSELLA_AFP_El marsella_afp_el NP00000 1
fundador fundador NCMS000 0.75
de de SPS00 0.999919
la el DA0FS0 0.972146
sociedad sociedad NCFS000 1
de de SPS00 0.999919
pr pr VMN0000 0.633986
tesis tesis NCFN000 1
mamarias mamario AQ0FP0 1
PIP pip NP00000 1
juzgado juzgar VMP00SM 0.75
desde desde SPS00 1
el el DA0MS0 1
mi mi DP1CSS 0.995536
rcoles rcoles NCMP000 0.750052
por por SPS00 1
enga enga VMSP3S0 0.87504
o o CC 0.998845
agravado agravar VMP00SM 1
y y CC 0.999812
estafa estafa NCFS000 0.846904
en en SPS00 1
Marsella marsella NP00000 1
sur sur NCMS000 1
de de SPS00 0.999919
Francia_Jean_Claude_Mas francia_jean_claude_mas NP00000 1
afirm afirm NCMS000 0.700265
este este DD0MS0 0.956743
viernes [V:??/??/??:??.??:??] W 1
que que PR0CN000 0.5625
no no RN 0.99778
expuso exponer VMIS3S0 1
a a SPS00 0.99585
riesgo riesgo NCMS000 1
a a SPS00 0.99585
las el DA0FP0 0.97051
miles mil NCMP000 1
de de SPS00 0.999919
mujeres mujer NCFP000 1
afectadas afectar VMP00PF 0.75
No no NP00000 1
les le PP3CPD00 1
he haber VAIP1S0 0.984848
hecho hacer VMP00SM 0.618421
tomar tomar VMN0000 1
riesgos riesgo NCMP000 1
en en SPS00 1
los el DA0MP0 0.97623
a a SPS00 0.99585
os os PP2CP000 0.722222
90 90 Z 1
y y CC 0.999812
2000 2000 Z 1
declar declar VMN0000 1
Mas mas NP00000 1
en en SPS00 1
este este DD0MS0 0.956743
megajuicio megajuicio NCMS000 1
en en SPS00 1
el el DA0MS0 1
que que PR0CN000 0.5625
han haber VAIP3P0 1
interpuesta interponer VMP00SF 1
querella querellar VMM02S0 0.00231023
m m NCFS000 0.5
s segundo NCMN000 0.622321
de de SPS00 0.999919
5 5 Z 1
200 200 Z 1
mujeres mujer NCFP000 1
en en SPS00 1
su su DP3CS0 1
mayor mayor NCCS000 0.0102041
a a SPS00 0.99585
francesas francés NCFP000 0.64273
sobre sobrar VMSP1S0 0.00144928
el el DA0MS0 1
total total NCMS000 0.0555556
de de SPS00 0.999919
300 300 Z 1
000 0 Z 1
mujeres mujer NCFP000 1
en en SPS00 1
todo todo RG 0.00153374
el el DA0MS0 1
mundo mundo NCMS000 1
que que PR0CN000 0.5625
recurrieron recurrir VMIS3P0 1
a a SPS00 0.99585
los lo PP3MPA00 0.023584
implantes implantar VMSP2S0 0.00429448
mamarios mamario AQ0MP0 1
PIP pip NP00000 1
fabricados fabricar VMP00PM 1
con con SPS00 1
un 1 Z 0.0130126
gel gel NCMS000 1
de de SPS00 0.999919
silicona silicona NCFS000 1
impropio impropio AQ0MS0 1
para parir VMSP1S0 0.000298686
tal tal PD0CS000 0.258621
uso usar VMIP1S0 0.05
El el NP00000 1
gel gel NCMS000 1
PIP pip NP00000 1
no no RN 0.99778
estaba estar VAII1S0 0.5
homologado homologar VMP00SM 1
pero pero NCMS000 0.00117925
era ser VSII1S0 0.490859
homologable homologable AQ0CS0 1
a a SPS00 0.99585
adi adecir VMM02S0 0.00513197
Mas_El mas_el NP00000 1
gel gel NCMS000 1
era ser VSII1S0 0.490859
tan tan RG 1
biocompatible biocompatible AQ0CS0 1
como comer VMIP1S0 0.00035524
el el DA0MS0 1
Nusil nusil NP00000 1
el el DA0MS0 1
gel gel NCMS000 1
conforme conformar VMSP1S0 0.0714286
Seg seg NP00000 1
n n NCFS000 1
las lo PP3FPA00 0.0291584
autoridades autoridad NCFP000 1
sanitarias sanitario NCFP000 0.25
franceses francés NCMP000 0.875
una 1 Z 0.0214539
cuarta cuartar VMM02S0 0.0269231
parte partir VMM02S0 0.00203252
de de SPS00 0.999919
las lo PP3FPA00 0.0291584
pr pr VMN0000 0.633986
tesis tesis NCFN000 1
PIP pip NP00000 1
retiradas retirar VMP00PF 0.541795
desde desde SPS00 1
el el DA0MS0 1
inicio iniciar VMIP1S0 0.25
de de SPS00 1
el el DA0MS0 1
esc esc RG 0.0770614
ndalo ndalo NCMS000 1
eran ser VSII3P0 0.963415
defectuosas defectuoso AQ0FP0 1
y y NCFS000 0.000188324
generaban generar VMII3P0 1
reacciones reaccionar VMSP2S0 0.25
irritantes irritante NCCP000 0.642613
inflamatorias inflamatorio AQ0FP0 1
aunque aunque CC 1
sin sin SPS00 1
riesgo riesgo NCMS000 1
suplementario suplementario AQ0MS0 1
demostrado demostrar VMP00SM 1
de de SPS00 0.999919
c c NCFS000 1
ncer ncer VMN0000 0.666836
200 200 Z 1
oficinas oficina NCFP000 1
en en SPS00 1
150 150 Z 1
pa pa VMSP3S0 0.0185173
ses ses NCMP000 0.727093
Ampliar_Desea ampliar_desea NP00000 1
compartir compartir VMN0000 1
una 1 Z 0.0214539
informaci informaci VMIS1S0 0.0691907
n n NCFS000 1
un 1 Z 0.0130126
comentario comentario NCMS000 1
Escr escr NP00000 1
banos banos NCMP000 0.509288
a a SPS00 0.99585

