WASHINGTON_AFP washington_afp NP00000 1
Una uno DI0FS0 0.951241
fuerte fuerte NCMS000 0.107143
explosi explosi RG 1
n n NCFS000 1
en en SPS00 1
una uno DI0FS0 0.951241
planta planta NCFS000 0.866667
de de SPS00 0.999919
fertilizantes fertilizante NCMP000 0.34273
en en SPS00 1
el el DA0MS0 1
poblado poblado NCMS000 0.75
de de SPS00 0.999919
Waco waco NP00000 1
en en SPS00 1
Texas texas NP00000 1
sur sur NCMS000 1
de de SPS00 0.999919
Estados_Unidos estados_unidos NP00000 1
dej dej NCMS000 0.692259
varios varios DI0MP0 0.883333
heridos herido NCMP000 0.5
informaron informar VMIS3P0 1
autoridades autoridad NCFP000 1
mientras mientras CS 0.881579
intensas intenso AQ0FP0 0.97439
llamaradas llamarada NCFP000 1
consum consum NCMS000 0.833338
an an NCFS000 1
edificaciones edificación NCFP000 1
vecinas vecino AQ0FP0 0.75
La la NP00000 1
explosi explosi RG 1
n n NCFS000 1
se se P00CN000 0.465602
registr registr VMN0000 0.633986
en en SPS00 1
la el DA0FS0 0.972146
planta planta NCFS000 0.866667
de de SPS00 0.999919
West_Fertilizer west_fertilizer NP00000 1
inform inform NCMS000 0.700265
telef telef NCMS000 0.500257
nicamente nicamente RG 1
a a SPS00 0.99585
la el DA0FS0 0.972146
AFP afp NP00000 1
el el DA0MS0 1
portavoz portavoz NCCS000 1
de de SPS00 0.999919
los el DA0MP0 0.97623
bomberos bombero NCMP000 1
locales local AQ0CP0 0.25
Don_Yeager_La don_yeager_la NP00000 1
causa causar VMIP3S0 0.179487
a a SPS00 0.99585
n n NCFS000 1
no no RN 0.99778
fue ser VSIS3S0 0.932292
establecida establecer VMP00SF 1
Los los NP00000 1
bomberos bombero NCMP000 1
acudieron acudir VMIS3P0 1
a a SPS00 1
el el DA0MS0 1
lugar lugar NCMS000 1
de de SPS00 0.999919
la el DA0FS0 0.972146
explosi explosi RG 1
n n NCFS000 1
en en SPS00 1
el el DA0MS0 1
poblado poblado NCMS000 0.75
de de SPS00 0.999919
West west NP00000 1
a a SPS00 1
el el DA0MS0 1
norte norte NCMS000 1
de de SPS00 0.999919
Waco waco NP00000 1
donde donde PR000000 0.963542
las el DA0FP0 0.97051
llamas llama NCFP000 0.875
se se P00CN000 0.465602
extendieron extender VMIS3P0 1
a a SPS00 0.99585
edificaciones edificación NCFP000 1
vecinas vecino AQ0FP0 0.75
La la NP00000 1
explosi explosi RG 1
n n NCFS000 1
provoc provoc NC00000 0.538029
el el DA0MS0 1
incendio incendio NCMS000 0.973494
de de SPS00 0.999919
estructuras estructura NCFP000 0.9
adyacentes adyacente AQ0CP0 1
a a SPS00 0.99585
la el DA0FS0 0.972146
f f NCFS000 1
brica brica NCFS000 1
dijo decir VMIS3S0 1
Yeager yeager NP00000 1
Una uno DI0FS0 0.951241
cifra cifra NCFS000 0.799844
no no RN 0.99778
precisada precisar VMP00SF 1
de de SPS00 0.999919
heridos herido NCMP000 0.5
fue ser VSIS3S0 0.932292
trasladada trasladar VMP00SF 1
a a SPS00 0.99585
hospitales hospital NCMP000 1
locales local AQ0CP0 0.25
a a SPS00 0.99585
adi adar VMIS1S0 0.994868
el el DA0MS0 1
portavoz portavoz NCCS000 1
de de SPS00 0.999919
los el DA0MP0 0.97623
bomberos bombero NCMP000 1
La la NP00000 1
explosi explosi RG 1
n n NCFS000 1
ocurre ocurrir VMIP3S0 0.966667
mientras mientras CS 0.881579
Estados_Unidos estados_unidos NP00000 1
se se P00CN000 0.465602
encuentra encontrar VMIP3S0 0.972222
a a SPS00 0.99585
n n NCFS000 1
sacudido sacudir VMP00SM 1
por por SPS00 1
el el DA0MS0 1
atentado atentado NCMS000 0.875
el el DA0MS0 1
lunes [L:??/??/??:??.??:??] W 1
durante durante SPS00 1
la el DA0FS0 0.972146
Marat marat NP00000 1
n n NCFS000 1
de de SPS00 0.999919
Boston boston NP00000 1
que que CS 0.4375
dej dej NCMS000 0.692259
tres 3 Z 1
muertos muerto NCMP000 0.681818
y y CC 0.999812
m m NCFS000 0.5
s segundo NCMN000 0.622321
de de SPS00 0.999919
180 180 Z 1
heridos herido NCMP000 0.5
y y CC 0.999812
por por SPS00 1
las el DA0FP0 0.97051
revelaciones revelación NCFP000 1
de de SPS00 0.999919
que que PR0CN000 0.5625
tres 3 Z 1
cartas carta NCFP000 1
con con SPS00 1
veneno veneno NCMS000 1
de de SPS00 0.999919
ricino ricino NCMS000 1
una uno DI0FS0 0.951241
de de SPS00 0.999919
ellas ellos PP3FP000 1
dirigida dirigir VMP00SF 1
a a SPS00 1
el el DA0MS0 1
presidente presidente NCMS000 1
Barack_Obama barack_obama NP00000 1
fueron ser VSIS3P0 0.796296
interceptadas interceptar VMP00PF 1
y y CC 0.999812
un uno DI0MS0 0.986987
hombre hombre NCMS000 0.95679
sospechoso sospechoso AQ0MS0 0.611232
de de SPS00 0.999919
haber haber VAN0000 1
las lo PP3FPA00 1
enviado enviar VMP00SM 0.638432
fue ser VSIS3S0 0.932292
detenido detener VMP00SM 0.833333
El el NP00000 1
pr pr NCMS000 0.224371
ximo ximo AQ0MS0 0.937453
viernes [V:??/??/??:??.??:??] W 1
se se P00CN000 0.465602
cumplen cumplir VMIP3P0 1
20 20 Z 1
a a SPS00 0.99585
os o NCFP000 0.222222
de de SPS00 0.999919
la el DA0FS0 0.972146
muerte muerte NCFS000 1
de de SPS00 0.999919
m m NCFS000 0.5
s segundo NCMN000 0.622321
de de SPS00 0.999919
80 80 Z 1
personas persona NCFP000 0.983871
en en SPS00 1
Waco waco NP00000 1
como como CS 0.998579
resultado resultado NCMS000 0.807692
de de SPS00 1
el el DA0MS0 1
asalto asalto NCMS000 0.75
de de SPS00 0.999919
las el DA0FP0 0.97051
autoridades autoridad NCFP000 1
contra contra SPS00 0.976316
el el DA0MS0 1
rancho rancho NCMS000 1
de de SPS00 0.999919
la el DA0FS0 0.972146
secta secta NCFS000 1
de de SPS00 0.999919
los el DA0MP0 0.97623
Davidianos davidianos NP00000 1
200 200 Z 1
oficinas oficina NCFP000 1
en en SPS00 1
150 150 Z 1
pa pa NCFS000 0.740689
ses ses NCMP000 0.727093
Ampliar_Desea ampliar_desea NP00000 1
compartir compartir VMN0000 1
una uno DI0FS0 0.951241
informaci informaci AQ0CS0 0.0199855
n n NCFS000 1
un uno DI0MS0 0.986987
comentario comentario NCMS000 1
Escr escr NP00000 1
banos banos NCMP000 0.509288
a a SPS00 0.99585

