PAR_S_AFP_La par_s_afp_la NP00000 1
tensi tensi RG 1
n n NCFS000 1
aumenta aumentar VMIP3S0 0.9
en en SPS00 1
Francia francia NP00000 1
a a SPS00 1
el el DA0MS0 1
acercar acercar VMN0000 1
se se PP3CN000 1
la el DA0FS0 0.972146
fecha fecha NCFS000 0.892857
de de SPS00 0.999919
adopci adopci RG 0.751648
n n NCFS000 1
de de SPS00 0.999919
la el DA0FS0 0.972146
ley ley NCFS000 1
que que PR0CN000 0.5625
autoriza autorizar VMIP3S0 0.75
el el DA0MS0 1
matrimonio matrimonio NCMS000 0.928571
homosexual homosexual AQ0CS0 0.625
lo el DA0NS0 0.457393
que que PR0CN000 0.5625
llev llev VMIP3S0 0.0552772
a a SPS00 1
el el DA0MS0 1
presidente presidente NCMS000 1
de de SPS00 1
el el DA0MS0 1
pa pa NCFS000 0.740689
s segundo NCMN000 0.622321
Fran fran NP00000 1
ois ois NCFN000 0.511327
Hollande hollande NP00000 1
a a SPS00 0.99585
denunciar denunciar VMN0000 1
este este DD0MS0 0.956743
jueves [J:??/??/??:??.??:??] W 1
los el DA0MP0 0.97623
actos acto NCMP000 1
hom hom NCMS000 0.500053
fobos fobos NCMP000 1
y y CC 0.999812
violentos violento AQ0MP0 1
a a SPS00 1
el el DA0MS0 1
d d NCFS000 1
a a SPS00 0.99585
siguiente siguiente AQ0CS0 1
de de SPS00 0.999919
que que CS 0.4375
se se P00CN000 0.465602
registraran registrar VMSI3P0 1
nuevos nuevo AQ0MP0 1
enfrentamientos enfrentamiento NCMP000 1
en en SPS00 1
una uno DI0FS0 0.951241
manifestaci manifestaci AQ0CS0 0.0199855
n n NCFS000 1
y y CC 0.999812
una uno DI0FS0 0.951241
agresi agresi RG 1
n n NCFS000 1
contra contra SPS00 0.976316
un uno DI0MS0 0.986987
bar bar NCMS000 1
gay gay AQ0CS0 0.575166
Hay hay NP00000 1
actos acto NCMP000 1
hom hom NCMS000 0.500053
fobos fobos NCMP000 1
Se se NP00000 1
han haber VAIP3P0 1
cometido cometer VMP00SM 0.166667
actos acto NCMP000 1
violentos violento AQ0MP0 1
dijo decir VMIS3S0 1
Hollande hollande NP00000 1
se se P00CN000 0.465602
alando alando VMG0000 1
que que CS 0.4375
el el DA0MS0 1
derecho derecho NCMS000 0.884615
de de SPS00 0.999919
manifestaci manifestaci RG 0.751648
n n NCFS000 1
no no RN 0.99778
debe deber VMIP3S0 0.974359
degenerar degenerar VMN0000 1
en en SPS00 1
ataques ataque NCMP000 0.928571
a a SPS00 0.99585
los el DA0MP0 0.97623
bienes bien NCMP000 1
p p NCFS000 0.5
blicos blicos AQ0MP0 1
ni ni CC 0.995935
a a SPS00 0.99585
las el DA0FP0 0.97051
personas persona NCFP000 0.983871
El el NP00000 1
presidente presidente NCMS000 1
pidi pidi VMIS1S0 1
que que CS 0.4375
las el DA0FP0 0.97051
manifestaciones manifestación NCFP000 1
se se P00CN000 0.465602
desarrollen desarrollar VMSP3P0 0.901254
pac pac NCMS000 1
ficamente ficamente RG 1
y y CC 0.999812
que que CS 0.4375
no no RN 0.99778
se se P00CN000 0.465602
impida impedir VMSP3S0 0.623435
a a SPS00 0.99585
los el DA0MP0 0.97623
parlamentarios parlamentario AQ0MP0 0.75
hacer hacer VMN0000 1
su su DP3CS0 1
trabajo trabajo NCMS000 0.940476
La_Asamblea_Nacional_C la_asamblea_nacional_c NP00000 1
mara mara NCFS000 0.714265
Baja baja NP00000 1
examina examinar VMIP3S0 0.994868
en en SPS00 1
segunda 2 AO0FS0 0.958333
lectura lectura NCFS000 1
desde desde SPS00 1
el el DA0MS0 1
mi mi DP1CSS 0.995536
rcoles rcoles NCMP000 0.750052
el el DA0MS0 1
proyecto proyecto NCMS000 0.9375
de de SPS00 0.999919
ley ley NCFS000 1
que que PR0CN000 0.5625
autoriza autorizar VMIP3S0 0.75
el el DA0MS0 1
matrimonio matrimonio NCMS000 0.928571
homosexual homosexual AQ0CS0 0.625
cuya cuyo PR0FS000 1
adopci adopci RG 0.751648
n n NCFS000 1
definitiva definitivo AQ0FS0 1
est est NCMS000 1
prevista prever VMP00SF 1
el el DA0MS0 1
pr pr NCMS000 0.224371
ximo ximo AQ0MS0 0.937453
martes [M:??/??/??:??.??:??] W 1
Este este NP00000 1
jueves [J:??/??/??:??.??:??] W 1
la el DA0FS0 0.972146
tensi tensi RG 1
n n NCFS000 1
de de SPS00 0.999919
los el DA0MP0 0.97623
debates debate NCMP000 0.973497
hizo hacer VMIS3S0 1
que que CS 0.4375
se se P00CN000 0.465602
suspendiera suspender VMSI3S0 0.632352
la el DA0FS0 0.972146
sesi sesi RG 1
n n NCFS000 1
cuando cuando CS 0.983796
un uno DI0MS0 0.986987
diputado diputado NCMS000 0.833333
de de SPS00 0.999919
la el DA0FS0 0.972146
derecha derecha NCFS000 0.735294
Philippe_Cochet philippe_cochet NP00000 1
afirm afirm NCMS000 0.700265
que que PR0CN000 0.5625
se se P00CN000 0.465602
asesina asesinar VMIP3S0 0.05
a a SPS00 0.99585
nuestros nuestro DP1MPP 0.854167
hijos hijo NCMP000 1
en en SPS00 1
respuesta respuesta NCFS000 1
a a SPS00 0.99585
la el DA0FS0 0.972146
ministra ministro NCFS000 1
de de SPS00 0.999919
Justicia_Christiane_Taubira justicia_christiane_taubira NP00000 1
que que PR0CN000 0.5625
dijo decir VMIS3S0 1
tener tener VMN0000 1
la el DA0FS0 0.972146
impresi impresi RG 1
n n NCFS000 1
de de SPS00 0.999919
asistir asistir VMN0000 1
a a SPS00 0.99585
un uno DI0MS0 0.986987
mal mal NCMS000 0.492063
spaghetti spaghetti NCMS000 1
western western NCMS000 1
La la NP00000 1
tensi tensi RG 1
n n NCFS000 1
aumenta aumentar VMIP3S0 0.9
en en SPS00 1
Francia francia NP00000 1
a a SPS00 1
el el DA0MS0 1
acercar acercar VMN0000 1
se se PP3CN000 1
la el DA0FS0 0.972146
fecha fecha NCFS000 0.892857
de de SPS00 0.999919
adopci adopci RG 0.751648
n n NCFS000 1
de de SPS00 0.999919
la el DA0FS0 0.972146
ley ley NCFS000 1
que que PR0CN000 0.5625
autoriza autorizar VMIP3S0 0.75
el el DA0MS0 1
matrimonio matrimonio NCMS000 0.928571
homosexual homosexual AQ0CS0 0.625
lo el DA0NS0 0.457393
que que PR0CN000 0.5625
llev llev VMIP3S0 0.0552772
a a SPS00 1
el el DA0MS0 1
presidente presidente NCMS000 1
de de SPS00 1
el el DA0MS0 1
pa pa NCFS000 0.740689
s segundo NCMN000 0.622321
Fran fran NP00000 1
ois ois NCFN000 0.511327
Hollande hollande NP00000 1
a a SPS00 0.99585
denunciar denunciar VMN0000 1
este este DD0MS0 0.956743
jueves [J:??/??/??:??.??:??] W 1
los el DA0MP0 0.97623
actos acto NCMP000 1
hom hom NCMS000 0.500053
fobos fobos NCMP000 1
y y CC 0.999812
violentos violento AQ0MP0 1
a a SPS00 1
el el DA0MS0 1
d d NCFS000 1
a a SPS00 0.99585
siguiente siguiente AQ0CS0 1
de de SPS00 0.999919
que que CS 0.4375
se se P00CN000 0.465602
registraran registrar VMSI3P0 1
nuevos nuevo AQ0MP0 1
enfrentamientos enfrentamiento NCMP000 1
en en SPS00 1
una uno DI0FS0 0.951241
manifestaci manifestaci AQ0CS0 0.0199855
n n NCFS000 1
y y CC 0.999812
una uno DI0FS0 0.951241
agresi agresi RG 1
n n NCFS000 1
a a SPS00 0.99585
un uno DI0MS0 0.986987
bar bar NCMS000 1
gay gay AQ0CS0 0.575166
El el NP00000 1
mi mi DP1CSS 0.995536
rcoles rcoles NCMP000 0.750052
por por SPS00 1
la el DA0FS0 0.972146
noche noche NCFS000 1
varios varios DI0MP0 0.883333
miles mil NCMP000 1
de de SPS00 0.999919
opositores opositor NCMP000 0.642687
a a SPS00 1
el el DA0MS0 1
matrimonio matrimonio NCMS000 0.928571
homosexual homosexual AQ0CS0 0.625
se se P00CN000 0.465602
manifestaron manifestar VMIS3P0 1
una uno DI0FS0 0.951241
vez vez NCFS000 1
m m NCFS000 0.5
s segundo NCMN000 0.622321
cerca cerca RG 0.925
de de SPS00 0.999919
la el DA0FS0 0.972146
Asamblea_Nacional_Como asamblea_nacional_como NP00000 1
es ser VSIP3S0 1
el el DA0MS0 1
caso caso NCMS000 0.990741
desde desde SPS00 1
hace hacer VMIP3S0 1
varias varios DI0FP0 0.939394
semanas semana NCFP000 1
se se P00CN000 0.465602
registraron registrar VMIS3P0 1
enfrentamientos enfrentamiento NCMP000 1
a a SPS00 1
el el DA0MS0 1
terminar terminar VMN0000 1
la el DA0FS0 0.972146
manifestaci manifestaci AQ0CS0 0.0199855
n n NCFS000 1
Seg seg NP00000 1
n n NCFS000 1
la el DA0FS0 0.972146
polic polic NCFS000 1
a a SPS00 0.99585
fueron ser VSIS3P0 0.796296
detenidas detener VMP00PF 0.391767
11 11 Z 1
personas persona NCFP000 0.983871
Poco poco NP00000 1
antes antes RG 1
la el DA0FS0 0.972146
polic polic NCFS000 1
a a SPS00 0.99585
hab hab NCMS000 0.63631
a a SPS00 0.99585
detenido detenido NCMS000 0.166667
a a SPS00 0.99585
otras otro DI0FP0 0.731481
24 24 Z 1
personas persona NCFP000 0.983871
que que PR0CN000 0.5625
trataban tratar VMII3P0 1
de de SPS00 0.999919
realizar realizar VMN0000 1
una uno DI0FS0 0.951241
contramanifestaci contramanifestaci RG 0.751648
n n NCFS000 1
enarbolando enarbolar VMG0000 1
una uno DI0FS0 0.951241
banderola banderola NCFS000 1
con con SPS00 1
la el DA0FS0 0.972146
frase frase NCFS000 1
La la NP00000 1
homofobia homofobia NCFS000 1
mata matar VMIP3S0 0.833333
y y CC 0.999812
gritando gritar VMG0000 1
fachas facha NCCP000 1
fuera_de fuera_de SPS00 1
nuestro nuestro DP1MSP 0.933333
barrio barrio NCMS000 1
En en NP00000 1
la el DA0FS0 0.972146
avenida avenida NCFS000 0.408201
de de SPS00 0.999919
los el DA0MP0 0.97623
Campos_El campos_el NP00000 1
seos seo NCCP000 1
se se P00CN000 0.465602
da dar VMIP3S0 0.983871
aron aron NCMS000 1
autom autometro NCMN000 0.65
viles vil AQ0CP0 0.65727
y y CC 0.999812
mobiliario mobiliario AQ0MS0 0.65727
urbano urbano NCMS000 0.642648
Unos unos NP00000 1
militantes militante NCCP000 0.642613
de de SPS00 0.999919
extrema extremo AQ0FS0 0.777778
derecha derecha NCFS000 0.735294
agredieron agredir VMIS3P0 1
tambi tambi AQ0CN0 1
n n NCFS000 1
a a SPS00 0.99585
unos uno DI0MP0 0.879032
periodistas periodista NCCP000 1
a a SPS00 0.99585
uno uno PI0MS000 0.964744
de de SPS00 0.999919
los el DA0MP0 0.97623
cuales cual PR0CP000 1
le le PP3CSD00 1
rompieron romper VMIS3P0 1
la el DA0FS0 0.972146
c c NCFS000 1
mara mara NCFS000 0.714265
El el NP00000 1
colectivo colectivo NCMS000 0.25
Manifestaci manifestaci NP00000 1
n n NCFS000 1
para para SPS00 0.998507
todos todo PI0MP000 0.374631
organizado organizar VMP00SM 1
para para SPS00 0.998507
oponer oponer VMN0000 1
se se PP3CN000 1
a a SPS00 1
el el DA0MS0 1
matrimonio matrimonio NCMS000 0.928571
para para SPS00 0.998507
todos todo PI0MP000 0.374631
previsto prever VMP00SM 1
en en SPS00 1
el el DA0MS0 1
proyecto proyecto NCMS000 0.9375
de de SPS00 0.999919
ley ley NCFS000 1
parece parecer VMIP3S0 0.9875
estar estar VAN0000 1
cada cada DI0CS0 1
vez vez NCFS000 1
m m NCFS000 0.5
s segundo NCMN000 0.622321
desbordado desbordar VMP00SM 1
por por SPS00 1
los el DA0MP0 0.97623
grupos grupo NCMP000 1
de de SPS00 0.999919
extrema extremo AQ0FS0 0.777778
derecha derecha NCFS000 0.735294
y y CC 0.999812
de de SPS00 0.999919
cat cat NCMS000 1
licos licos AQ0MP0 0.458279
integristas integrista NCCP000 0.567742
El el NP00000 1
colectivo colectivo AQ0MS0 0.75
llam llam NCMS000 0.700265
a a SPS00 0.99585
dos 2 Z 0.988722
nuevas nuevo AQ0FP0 0.961538
manifestaciones manifestación NCFP000 1
en en SPS00 1
Par par NP00000 1
s segundo NCMN000 0.622321
el el DA0MS0 1
21 21 Z 1
y y CC 0.999812
el el DA0MS0 1
23_de_abril [??:23/4/??:??.??:??] W 1
El el NP00000 1
mi mi DP1CSS 0.995536
rcoles rcoles NCMP000 0.750052
por por SPS00 1
la el DA0FS0 0.972146
noche noche NCFS000 1
varios varios DI0MP0 0.883333
miles mil NCMP000 1
de de SPS00 0.999919
opositores opositor NCMP000 0.642687
a a SPS00 1
el el DA0MS0 1
matrimonio matrimonio NCMS000 0.928571
homosexual homosexual AQ0CS0 0.625
se se P00CN000 0.465602
manifestaron manifestar VMIS3P0 1
una uno DI0FS0 0.951241
vez vez NCFS000 1
m m NCFS000 0.5
s segundo NCMN000 0.622321
cerca cerca RG 0.925
de de SPS00 0.999919
la el DA0FS0 0.972146
Asamblea_Nacional_Como asamblea_nacional_como NP00000 1
es ser VSIP3S0 1
el el DA0MS0 1
caso caso NCMS000 0.990741
desde desde SPS00 1
hace hacer VMIP3S0 1
varias varios DI0FP0 0.939394
semanas semana NCFP000 1
se se P00CN000 0.465602
registraron registrar VMIS3P0 1
enfrentamientos enfrentamiento NCMP000 1
a a SPS00 1
el el DA0MS0 1
terminar terminar VMN0000 1
la el DA0FS0 0.972146
manifestaci manifestaci AQ0CS0 0.0199855
n n NCFS000 1
Seg seg NP00000 1
n n NCFS000 1
la el DA0FS0 0.972146
polic polic NCFS000 1
a a SPS00 0.99585
fueron ser VSIS3P0 0.796296
detenidas detener VMP00PF 0.391767
11 11 Z 1
personas persona NCFP000 0.983871
Pero pero NP00000 1
entre entre SPS00 0.995223
tanto tanto RG 0.857895
se se P00CN000 0.465602
multiplican multiplicar VMIP3P0 1
las el DA0FP0 0.97051
acciones acción NCFP000 0.916667
intempestivas intempestivo AQ0FP0 1
como como CS 0.998579
escraches escraches NCCP000 1
de de SPS00 0.999919
pol pol NCMS000 0.861706
ticos ticos AQ0MP0 0.671839
favorables favorable AQ0CP0 1
a a SPS00 0.99585
la el DA0FS0 0.972146
ley ley NCFS000 1
tentativa tentativo AQ0FS0 0.357394
de de SPS00 0.999919
acampada acampada NCFS000 0.400536
delante_de delante_de SPS00 1
la el DA0FS0 0.972146
Asamblea asamblea NP00000 1
y y CC 0.999812
bloqueo bloqueo NCMS000 0.831653
de de SPS00 0.999919
un uno DI0MS0 0.986987
tren tren NCMS000 1
Dos 2 Z 0.988722
diputados diputado NCMP000 0.875
socialistas socialista AQ0CP0 0.5
de de SPS00 1
el el DA0MS0 1
oeste oeste NCMS000 1
de de SPS00 0.999919
Francia francia NP00000 1
denunciaron denunciar VMIS3P0 1
este este DD0MS0 0.956743
jueves [J:??/??/??:??.??:??] W 1
que que PR0CN000 0.5625
recibieron recibir VMIS3P0 1
amenazas amenaza NCFP000 0.916667
de de SPS00 0.999919
muerte muerte NCFS000 1
y y CC 0.999812
de de SPS00 0.999919
secuestro secuestro NCMS000 0.9
Tambi tambi NP00000 1
n n NCFS000 1
se se P00CN000 0.465602
registraron registrar VMIS3P0 1
agresiones agresión NCFP000 1
hom hom NCMS000 0.500053
fobas fobas VMII2S0 0.124947
como como CS 0.998579
el el DA0MS0 1
mi mi DP1CSS 0.995536
rcoles rcoles NCMP000 0.750052
por por SPS00 1
la el DA0FS0 0.972146
noche noche NCFS000 1
cuando cuando CS 0.983796
tres 3 Z 1
empleados empleado NCMP000 0.7
de de SPS00 0.999919
un uno DI0MS0 0.986987
bar bar NCMS000 1
gay gay AQ0CS0 0.575166
de de SPS00 0.999919
Lille lille NP00000 1
norte norte NCMS000 1
fueron ser VSIS3P0 0.796296
levemente levemente RG 1
heridos herir VMP00PM 0.5
por por SPS00 1
cuatro 4 Z 1
hombres hombre NCMP000 1
que que PR0CN000 0.5625
los lo PP3MPA00 0.023584
atacaron atacar VMIS3P0 1
Los los NP00000 1
agresores agresor NCMP000 0.64273
fueron ser VSIS3P0 0.796296
detenidos detener VMP00PM 0.691767
posteriormente posteriormente RG 1
El el NP00000 1
ministro ministro NCMS000 1
de de SPS00 1
el el DA0MS0 1
Interior_Manuel_Valls interior_manuel_valls NP00000 1
hizo hacer VMIS3S0 1
este este DD0MS0 0.956743
jueves [J:??/??/??:??.??:??] W 1
un uno DI0MS0 0.986987
llamamiento llamamiento NCMS000 1
a a SPS00 0.99585
la el DA0FS0 0.972146
responsabilidad responsabilidad NCFS000 1
de de SPS00 0.999919
todos todo PI0MP000 0.374631
dando_cuenta dar_cuenta VMG0000 1
de de SPS00 0.999919
actos acto NCMP000 1
particularmente particularmente RG 1
graves grave AQ0CP0 0.833333
y y CC 0.999812
criticando criticar VMG0000 1
los el DA0MP0 0.97623
discursos discurso NCMP000 1
de de SPS00 0.999919
odio odio NCMS000 0.625
y y CC 0.999812
los el DA0MP0 0.97623
actos acto NCMP000 1
hom hom NCMS000 0.500053
fobos fobos NCMP000 1
En en NP00000 1
la el DA0FS0 0.972146
derecha derecha NCFS000 0.735294
el el DA0MS0 1
presidente presidente NCMS000 1
de de SPS00 0.999919
la el DA0FS0 0.972146
UMP_Jean_Fran ump_jean_fran NP00000 1
ois ois NCFN000 0.511327
Cop cop NP00000 1
conden conden VMIP3P0 0.666887
tambi tambi AQ0CN0 1
n n NCFS000 1
este este DD0MS0 0.956743
jueves [J:??/??/??:??.??:??] W 1
los el DA0MP0 0.97623
actos acto NCMP000 1
de de SPS00 0.999919
homofobia homofobia NCFS000 1
abyectos abyecto AQ0MP0 1
pero pero CC 0.998821
rechaz rechaz AQ0CS0 0.803258
toda todo DI0FS0 0.975806
amalgama amalgama NCFS000 0.846877
entre entre SPS00 0.995223
stos stos NCMP000 0.71747
y y CC 0.999812
la el DA0FS0 0.972146
mayor mayor AQ0CS0 0.989796
a a SPS00 0.99585
de de SPS00 0.999919
los el DA0MP0 0.97623
opositores opositor NCMP000 0.642687
a a SPS00 1
el el DA0MS0 1
matrimonio matrimonio NCMS000 0.928571
gay gay AQ0CS0 0.575166
200 200 Z 1
oficinas oficina NCFP000 1
en en SPS00 1
150 150 Z 1
pa pa NCFS000 0.740689
ses ses NCMP000 0.727093
Ampliar_Desea ampliar_desea NP00000 1
compartir compartir VMN0000 1
una uno DI0FS0 0.951241
informaci informaci AQ0CS0 0.0199855
n n NCFS000 1
un uno DI0MS0 0.986987
comentario comentario NCMS000 1
Escr escr NP00000 1
banos banos NCMP000 0.509288
a a SPS00 0.99585

