BAGDAD_AFP_Irak bagdad_afp_irak NP00000 1
reforz reforz RG 0.101752
este este DD0MS0 0.956743
viernes [V:??/??/??:??.??:??] W 1
sus su DP3CP0 0.998462
medidas medida NCFP000 0.944444
de de SPS00 0.999919
seguridad seguridad NCFS000 1
en en SPS00 1
v v NCFS000 1
spera spera AQ0FS0 0.222163
de de SPS00 0.999919
las el DA0FP0 0.97051
primeras 1 AO0FP0 0.9
elecciones elección NCFP000 1
desde desde SPS00 1
que que CS 0.4375
las el DA0FP0 0.97051
tropas tropa NCFP000 1
estadounidenses estadounidense AQ0CP0 0.875
abandonaran abandonar VMSI3P0 1
el el DA0MS0 1
pa pa NCFS000 0.740689
s segundo NCMN000 0.622321
a a SPS00 0.99585
finales final NCFP000 0.416667
de de SPS00 0.999919
2011 2011 Z 1
en en SPS00 1
momentos momento NCMP000 1
en en SPS00 1
que que CS 0.4375
los el DA0MP0 0.97623
ltimos ltimos AQ0MP0 0.143025
atentados atentado NCMP000 0.75
han haber VAIP3P0 1
dejado dejar VMP00SM 1
37 37 Z 1
muertos muerto NCMP000 0.681818
Un uno DI0MS0 0.986987
total total AQ0CS0 0.944444
de de SPS00 0.999919
14 14 Z 1
candidatos candidato NCMP000 1
a a SPS00 0.99585
estas este DD0FP0 0.960526
elecciones elección NCFP000 1
provinciales provincial AQ0CP0 1
de de SPS00 1
el el DA0MS0 1
s segundo NCMN000 0.622321
bado bado VMP00SM 0.818183
han haber VAIP3P0 1
sido ser VSP00SM 1
asesinados asesinar VMP00PM 1
en en SPS00 1
lo el DA0NS0 0.457393
que que PR0CN000 0.5625
va ir VMIP3S0 1
de de SPS00 0.999919
a a SPS00 0.99585
o o CC 0.998845
Estos estos NP00000 1
comicios comicio NCMP000 1
eran ser VSII3P0 0.963415
considerados considerar VMP00PM 1
como como CS 0.998579
una uno DI0FS0 0.951241
prueba prueba NCFS000 0.916667
de de SPS00 0.999919
la el DA0FS0 0.972146
estabilidad estabilidad NCFS000 1
y y CC 0.999812
seguridad seguridad NCFS000 1
en en SPS00 1
el el DA0MS0 1
pa pa NCFS000 0.740689
s segundo NCMN000 0.622321
En_todo_caso en_todo_caso NP00000 1
permitir permitir VMN0000 1
n n NCFS000 1
calibrar calibrar VMN0000 1
la el DA0FS0 0.972146
popularidad popularidad NCFS000 1
de de SPS00 1
el el DA0MS0 1
Gobierno gobierno NP00000 1
pro pro SPS00 0.235088
chi chi NCMS000 1
ta ta I 1
de de SPS00 1
el el DA0MS0 1
primer 1 AO0MS0 1
ministro ministro NCMS000 1
Nuri_A_el_Maliki nuri_a_el_maliki NP00000 1
con_vistas_a con_vistas_a SPS00 1
las el DA0FP0 0.97051
elecciones elección NCFP000 1
generales general AQ0CP0 0.444444
de de SPS00 1
el el DA0MS0 1
pr pr NCMS000 0.224371
ximo ximo AQ0MS0 0.937453
a a SPS00 0.99585
o o CC 0.998845
Sin sin NP00000 1
embargo embargar VMIP1S0 0.0265036
los el DA0MP0 0.97623
ltimos ltimos AQ0MP0 0.143025
atentados atentado NCMP000 0.75
de de SPS00 1
el el DA0MS0 1
jueves [J:??/??/??:??.??:??] W 1
y y CC 0.999812
viernes [V:??/??/??:??.??:??] W 1
han haber VAIP3P0 1
ensombrecido ensombrecer VMP00SM 1
el el DA0MS0 1
panorama panorama NCMS000 1
dejando dejar VMG0000 1
en en SPS00 1
total total AQ0CS0 0.944444
37 37 Z 1
muertos muerto NCMP000 0.681818
y y CC 0.999812
numerosos numeroso AQ0MP0 1
interrogantes interrogante NCMP000 0.342746
sobre sobre SPS00 0.994203
la el DA0FS0 0.972146
capacidad capacidad NCFS000 1
de de SPS00 0.999919
las el DA0FP0 0.97051
fuerzas fuerza NCFP000 0.954545
de de SPS00 1
el el DA0MS0 1
orden orden NCMS000 0.6
para para SPS00 0.998507
garantizar garantizar VMN0000 1
la el DA0FS0 0.972146
seguridad seguridad NCFS000 1
durante durante SPS00 1
los el DA0MP0 0.97623
comicios comicio NCMP000 1
Los los NP00000 1
ataques ataque NCMP000 0.928571
de de SPS00 0.999919
este este DD0MS0 0.956743
viernes [V:??/??/??:??.??:??] W 1
se se P00CN000 0.465602
produjeron producir VMIS3P0 1
despu despu NCMS000 0.774439
s segundo NCMN000 0.622321
de de SPS00 0.999919
la el DA0FS0 0.972146
oraci oraci RG 0.751648
n n NCFS000 1
cuando cuando CS 0.983796
los el DA0MP0 0.97623
fieles fiel AQ0CP0 0.657184
sal sal NCFS000 0.916667
an an NCFS000 1
de de SPS00 0.999919
la el DA0FS0 0.972146
mezquita mezquita NCFS000 1
y y CC 0.999812
causaron causar VMIS3P0 1
en en SPS00 1
total total AQ0CS0 0.944444
10 10 Z 1
muertos muerto NCMP000 0.681818
en en SPS00 1
diversos diverso AQ0MP0 1
lugares lugar NCMP000 1
de de SPS00 1
el el DA0MS0 1
pa pa NCFS000 0.740689
s segundo NCMN000 0.622321
El el NP00000 1
jueves_27 [J:27/??/??:??.??:??] W 1
personas persona NCFP000 0.983871
murieron morir VMIS3P0 1
y y CC 0.999812
m m NCFS000 0.5
s segundo NCMN000 0.622321
de de SPS00 0.999919
50 50 Z 1
resultaron resultar VMIS3P0 1
heridas herida NCFP000 0.416667
en en SPS00 1
un uno DI0MS0 0.986987
atentado atentado NCMS000 0.875
en en SPS00 1
un uno DI0MS0 0.986987
caf caf I 1
en en SPS00 1
Bagdad_La bagdad_la NP00000 1
explosi explosi RG 1
n n NCFS000 1
ocurri ocurri RG 0.83337
a a SPS00 0.99585
las el DA0FP0 0.97051
22H00 22H00 Z 1
locales local NCMP000 0.75
19H00 19H00 Z 1
GMT gmt NP00000 1
en en SPS00 1
el el DA0MS0 1
Caf_Dubai caf_dubai NP00000 1
de de SPS00 1
el el DA0MS0 1
barrio barrio NCMS000 1
de de SPS00 0.999919
Amriyah amriyah NP00000 1
en en SPS00 1
el el DA0MS0 1
oeste oeste NCMS000 1
de de SPS00 0.999919
la el DA0FS0 0.972146
capital capital NCFS000 0.372549
frecuentado frecuentar VMP00SM 1
por por SPS00 1
hombres hombre NCMP000 1
j j NCFS000 1
venes venes AQ0CP0 0.35715
que que PR0CN000 0.5625
all all NCFN000 1
juegan jugar VMIP3P0 1
a a SPS00 1
el el DA0MS0 1
billar billar NCMS000 1
y y CC 0.999812
se se P00CN000 0.465602
divierten divertir VMIP3P0 1
con con SPS00 1
los el DA0MP0 0.97623
juegos juego NCMP000 1
de de SPS00 0.999919
video video NCMS000 1
El el NP00000 1
caf caf I 1
se se P00CN000 0.465602
encuentra encontrar VMIP3S0 0.972222
en en SPS00 1
el el DA0MS0 1
segundo 2 AO0MS0 0.742424
piso piso NCMS000 0.928571
de de SPS00 0.999919
un uno DI0MS0 0.986987
peque peque NCCS000 0.618697
o o CC 0.998845
centro centro NCMS000 0.966667
comercial comercial AQ0CS0 1
que que PR0CN000 0.5625
tambi tambi AQ0CN0 1
n n NCFS000 1
alberga albergar VMIP3S0 0.994854
tiendas tienda NCFP000 0.833333
de de SPS00 0.999919
ropa ropa NCFS000 1
y y CC 0.999812
restaurantes restaurante NCMP000 1
con con SPS00 1
clientela clientela NCFS000 1
familiar familiar AQ0CS0 0.9375
Irak irak NP00000 1
reforz reforz NCFS000 0.620205
este este DD0MS0 0.956743
viernes [V:??/??/??:??.??:??] W 1
sus su DP3CP0 0.998462
medidas medida NCFP000 0.944444
de de SPS00 0.999919
seguridad seguridad NCFS000 1
en en SPS00 1
v v NCFS000 1
spera spera AQ0FS0 0.222163
de de SPS00 0.999919
las el DA0FP0 0.97051
primeras 1 AO0FP0 0.9
elecciones elección NCFP000 1
desde desde SPS00 1
que que CS 0.4375
las el DA0FP0 0.97051
tropas tropa NCFP000 1
estadounidenses estadounidense AQ0CP0 0.875
abandonaran abandonar VMSI3P0 1
el el DA0MS0 1
pa pa NCFS000 0.740689
s segundo NCMN000 0.622321
a a SPS00 0.99585
finales final NCFP000 0.416667
de de SPS00 0.999919
2011 2011 Z 1
en en SPS00 1
momentos momento NCMP000 1
en en SPS00 1
que que CS 0.4375
los el DA0MP0 0.97623
ltimos ltimos AQ0MP0 0.143025
atentados atentado NCMP000 0.75
han haber VAIP3P0 1
dejado dejar VMP00SM 1
37 37 Z 1
muertos muerto NCMP000 0.681818
Este este NP00000 1
atentado atentado NCMS000 0.875
el el DA0MS0 1
m m NCFS000 0.5
s segundo NCMN000 0.622321
sangriento sangriento AQ0MS0 1
en en SPS00 1
m m NCFS000 0.5
s segundo NCMN000 0.622321
de de SPS00 0.999919
un uno DI0MS0 0.986987
mes mes NCMS000 1
no no RN 0.99778
fue ser VSIS3S0 0.932292
reivindicado reivindicar VMP00SM 1
pero pero CC 0.998821
los el DA0MP0 0.97623
insurgentes insurgente NCCP000 0.75
sunitas sunitas AQ0FP0 0.250007
incluyendo incluir VMG0000 1
A_el_Qaeda a_el_qaeda NP00000 1
en en SPS00 1
Irak irak NP00000 1
cometen cometer VMIP3P0 1
regularmente regularmente RG 1
atentados atentar VMP00PM 0.25
con con SPS00 1
el el DA0MS0 1
objeto objeto NCMS000 0.95
de de SPS00 0.999919
desestabilizar desestabilizar VMN0000 1
a a SPS00 0.99585
las el DA0FP0 0.97051
autoridades autoridad NCFP000 1
El el NP00000 1
primer 1 AO0MS0 1
ministro ministro NCMS000 1
Maliki maliki NP00000 1
un uno DI0MS0 0.986987
chiita chiita NCCS000 1
se se P00CN000 0.465602
enfrenta enfrentar VMIP3S0 0.75
desde desde SPS00 1
hace hacer VMIP3S0 1
m m NCFS000 0.5
s segundo NCMN000 0.622321
de de SPS00 0.999919
cuatro 4 Z 1
meses mes NCMP000 0.964286
a a SPS00 0.99585
un uno DI0MS0 0.986987
movimiento movimiento NCMS000 1
de de SPS00 0.999919
contestaci contestaci RG 0.751648
n n NCFS000 1
de de SPS00 0.999919
la el DA0FS0 0.972146
minor minor NCMS000 0.511189
a a SPS00 0.99585
sunita sunita NCFS000 0.166912
y y CC 0.999812
de de SPS00 0.999919
sus su DP3CP0 0.998462
socios socio NCMP000 1
en en SPS00 1
la el DA0FS0 0.972146
coalici coalici AQ0CS0 0.0199855
n n NCFS000 1
que que PR0CN000 0.5625
lo lo PP3CNA00 0.271163
acusan acusar VMIP3P0 1
de de SPS00 0.999919
acaparar acaparar VMN0000 1
el el DA0MS0 1
poder poder NCMS000 0.711538
En en NP00000 1
el el DA0MS0 1
oeste oeste NCMS000 1
y y CC 0.999812
el el DA0MS0 1
norte norte NCMS000 1
de de SPS00 1
el el DA0MS0 1
pa pa NCFS000 0.740689
s segundo NCMN000 0.622321
donde donde PR000000 0.963542
son ser VSIP3P0 0.986772
mayoritarios mayoritario AQ0MP0 1
los el DA0MP0 0.97623
sunitas sunitas NCFP000 0.562529
reclaman reclamar VMIP3P0 1
su su DP3CS0 1
dimisi dimisi RG 1
n n NCFS000 1
y y CC 0.999812
se se P00CN000 0.465602
manifiestan manifestar VMIP3P0 1
para para SPS00 0.998507
exigir exigir VMN0000 1
que que PR0CN000 0.5625
ponga poner VMSP1S0 0.484848
fin fin NCMS000 1
a a SPS00 0.99585
la el DA0FS0 0.972146
marginaci marginaci AQ0CS0 0.0199855
n n NCFS000 1
de de SPS00 0.999919
la el DA0FS0 0.972146
que que PR0CN000 0.5625
se se P00CN000 0.465602
consideran considerar VMIP3P0 1
v v NCFS000 1
ctimas ctimas NCFP000 1
El el NP00000 1
s segundo NCMN000 0.622321
bado bado VMP00SM 0.818183
13 13 Z 1
8_millones 8000000 Zd 1
de de SPS00 0.999919
electores elector NCMP000 0.642718
iraqu iraqu NCMS000 0.774439
es ser VSIP3S0 1
son ser VSIP3P0 0.986772
convocados convocar VMP00PM 1
a a SPS00 0.99585
renovar renovar VMN0000 1
las el DA0FP0 0.97051
asambleas asamblea NCFP000 1
provinciales provincial AQ0CP0 1
en en SPS00 1
12 12 Z 1
de de SPS00 0.999919
las el DA0FP0 0.97051
18 18 Z 1
provincias provincia NCFP000 1
de de SPS00 1
el el DA0MS0 1
pa pa NCFS000 0.740689
s segundo NCMN000 0.622321
en en SPS00 1
la el DA0FS0 0.972146
primera 1 AO0FS0 0.987179
elecci elecci NCMS000 0.0996348
n n NCFS000 1
desde desde SPS00 1
la el DA0FS0 0.972146
salida salida NCFS000 0.8125
de de SPS00 0.999919
las el DA0FP0 0.97051
tropas tropa NCFP000 1
estadounidenses estadounidense AQ0CP0 0.875
Un uno DI0MS0 0.986987
total total AQ0CS0 0.944444
de de SPS00 0.999919
8 8 Z 1
000 0 Z 1
candidatos candidato NCMP000 1
se se P00CN000 0.465602
disputan disputar VMIP3P0 1
378 378 Z 1
esca esca NCFS000 0.500214
os os PP2CP000 0.722222
Estos estos NP00000 1
comicios comicio NCMP000 1
son ser VSIP3P0 0.986772
de de SPS00 0.999919
gran gran AQ0CS0 1
importancia importancia NCFS000 1
ya_que ya_que CS 1
las el DA0FP0 0.97051
asambleas asamblea NCFP000 1
provinciales provincial AQ0CP0 1
designan designar VMIP3P0 1
a a SPS00 0.99585
los el DA0MP0 0.97623
gobernadores gobernador NCMP000 0.542782
figuras figurar VMIP2S0 0.25
clave clave NCFS000 0.866667
en en SPS00 1
el el DA0MS0 1
sistema sistema NCMS000 1
federal federal AQ0CS0 1
iraqu iraqu NCMS000 0.774439
El el NP00000 1
gobernador gobernador AQ0MS0 0.35727
tiene tener VMIP3S0 1
poder poder NCMS000 0.711538
decisorio decisorio AQ0MS0 1
en en SPS00 1
la el DA0FS0 0.972146
administraci administraci AQ0CS0 0.0199855
n n NCFS000 1
las el DA0FP0 0.97051
finanzas finanzas NCFP000 1
y y CC 0.999812
la el DA0FS0 0.972146
reconstrucci reconstrucci AQ0CS0 0.0199855
n n NCFS000 1
Entre entre NP00000 1
estos este DD0MP0 0.990566
temas tema NCMP000 0.625
se se P00CN000 0.465602
encuentran encontrar VMIP3P0 1
los el DA0MP0 0.97623
que que PR0CN000 0.5625
m m NCFS000 0.5
s segundo NCMN000 0.622321
preocupan preocupar VMIP3P0 1
a a SPS00 0.99585
la el DA0FS0 0.972146
poblaci poblaci AQ0CS0 0.0199855
n n NCFS000 1
el el DA0MS0 1
mal mal NCMS000 0.492063
funcionamiento funcionamiento NCMS000 1
de de SPS00 0.999919
la el DA0FS0 0.972146
red red NCFS000 1
el el DA0MS0 1
ctrica ctrica AQ0FS0 1
y y CC 0.999812
las el DA0FP0 0.97051
carencias carencia NCFP000 1
de de SPS00 0.999919
los el DA0MP0 0.97623
servicios servicio NCMP000 1
p p NCFS000 0.5
blicos blicos AQ0MP0 1
Diplom diplom NP00000 1
ticos ticos AQ0MP0 0.671839
y y CC 0.999812
observadores observador AQ0MP0 0.25
cuestionan cuestionar VMIP3P0 1
la el DA0FS0 0.972146
credibilidad credibilidad NCFS000 1
de de SPS00 0.999919
la el DA0FS0 0.972146
consulta consulta NCFS000 0.546947
en en SPS00 1
la el DA0FS0 0.972146
que que PR0CN000 0.5625
no no RN 0.99778
participan participar VMIP3P0 1
un_tercio 1/3 Zp 1
de de SPS00 0.999919
las el DA0FP0 0.97051
provincias provincia NCFP000 1
En en NP00000 1
total total AQ0CS0 0.944444
m m NCFS000 0.5
s segundo NCMN000 0.622321
de de SPS00 0.999919
300 300 Z 1
personas persona NCFP000 0.983871
han haber VAIP3P0 1
muerto morir VMP00SM 0.676471
en en SPS00 1
atentados atentado NCMP000 0.75
cometidos cometer VMP00PM 0.691767
este este DD0MS0 0.956743
a a NCFS000 0.00415028
o o CC 0.998845
Aunque aunque NP00000 1
siguen seguir VMIP3P0 1
ensangrentando ensangrentar VMG0000 1
Irak irak NP00000 1
a_diario a_diario RG 1
estas este DD0FP0 0.960526
violencias violencia NCFP000 1
ya ya RG 0.996988
no no RN 0.99778
alcanzan alcanzar VMIP3P0 1
los el DA0MP0 0.97623
niveles nivel NCMP000 0.75
de de SPS00 0.999919
2006 2006 Z 1
2007 2007 Z 1
En en NP00000 1
la el DA0FS0 0.972146
poca poco DI0FS0 0.9
el el DA0MS0 1
conflicto conflicto NCMS000 1
religioso religioso AQ0MS0 0.875
dejaba dejar VMII3S0 0.65
varios varios DI0MP0 0.883333
miles mil NCMP000 1
de de SPS00 0.999919
v v NCFS000 1
ctimas ctimas NCFP000 1
a a SPS00 1
el el DA0MS0 1
mes mes NCMS000 1
200 200 Z 1
oficinas oficina NCFP000 1
en en SPS00 1
150 150 Z 1
pa pa NCFS000 0.740689
ses ses NCMP000 0.727093
Ampliar_Desea ampliar_desea NP00000 1
compartir compartir VMN0000 1
una uno DI0FS0 0.951241
informaci informaci AQ0CS0 0.0199855
n n NCFS000 1
un uno DI0MS0 0.986987
comentario comentario NCMS000 1
Escr escr NP00000 1
banos banos NCMP000 0.509288
a a SPS00 0.99585

