ESTAMBUL_AFP_El estambul_afp_el NP00000 1
secretario secretario NCMS000 1
de de SPS00 0.999919
Estado estado NP00000 1
norteamericano norteamericano AQ0MS0 0.833333
John_Kerry john_kerry NP00000 1
se se P00CN000 0.465602
reuni reuni VMIS1S0 0.0691907
nuevamente nuevamente RG 1
este este DD0MS0 0.956743
domingo [G:??/??/??:??.??:??] W 1
en en SPS00 1
Estambul estambul NP00000 1
con con SPS00 1
el el DA0MS0 1
presidente presidente NCMS000 1
palestino palestino AQ0MS0 0.35727
Mahmud_Abas mahmud_abas NP00000 1
para para SPS00 0.998507
hablar hablar VMN0000 1
de de SPS00 1
el el DA0MS0 1
proceso proceso NCMS000 0.973684
de de SPS00 0.999919
paz paz NCFS000 1
israelo israelo NCMS000 0.807346
palestino palestino AQ0MS0 0.35727
y y CC 0.999812
de de SPS00 0.999919
la el DA0FS0 0.972146
normalizaci normalizaci AQ0CS0 0.0199855
n n NCFS000 1
de de SPS00 0.999919
relaciones relación NCFP000 0.944444
entre entre SPS00 0.995223
Israel israel NP00000 1
y y CC 0.999812
Turqu turqu NP00000 1
a a SPS00 0.99585
seg segundo NCMN000 1
n n NCFS000 1
fuentes fuente NCFP000 1
diplom diplom NCMS000 0.500053
ticas ticas AQ0FP0 0.760898
Los los NP00000 1
dos 2 Z 0.988722
hombres hombre NCMP000 1
que que PR0CN000 0.5625
se se P00CN000 0.465602
vieron ver VMIS3P0 1
varias varios DI0FP0 0.939394
veces vez NCFP000 1
en en SPS00 1
los el DA0MP0 0.97623
dos 2 Z 0.988722
ltimos ltimos AQ0MP0 0.143025
meses mes NCMP000 0.964286
hablaron hablar VMIS3P0 1
durante durante SPS00 1
una_hora TM_h:1 Zu 1
y y CC 0.999812
media medio AQ0FS0 0.72
en en SPS00 1
un uno DI0MS0 0.986987
gran gran AQ0CS0 1
hotel hotel NCMS000 1
de de SPS00 0.999919
la el DA0FS0 0.972146
megal megal NCFS000 0.649998
polis polis NCFN000 1
turca turco AQ0FS0 0.387524
acompa acompa VMSP3S0 1
ados ado NCMP000 1
de de SPS00 0.999919
sus su DP3CP0 0.998462
delegaciones delegación NCFP000 1
y y CC 0.999812
luego luego RG 0.983871
a_solas a_solas RG 1
seg segundo NCMN000 1
n n NCFS000 1
un uno DI0MS0 0.986987
responsable responsable NCCS000 0.416667
de de SPS00 1
el el DA0MS0 1
Departamento_de_Estado_Kerry departamento_de_estado_kerry NP00000 1
quien quien PR0CS000 1
se se P00CN000 0.465602
encontraba encontrar VMII3S0 0.65
en en SPS00 1
Estambul estambul NP00000 1
desde desde SPS00 1
el el DA0MS0 1
s segundo NCMN000 0.622321
bado bado VMP00SM 0.818183
por por SPS00 1
la el DA0FS0 0.972146
noche noche NCFS000 1
asistiendo asistir VMG0000 1
a a SPS00 0.99585
una uno DI0FS0 0.951241
reuni reuni AQ0CS0 0.0199855
n n NCFS000 1
de de SPS00 0.999919
los el DA0MP0 0.97623
pa pa NCFS000 0.740689
ses ses AQ0CP0 0.068278
integrantes integrante NCCP000 0.64267
de de SPS00 1
el el DA0MS0 1
Grupo_de_Amigos_de_Siria grupo_de_amigos_de_siria NP00000 1
ten tener VMM02S0 1
a a SPS00 0.99585
previsto prever VMP00SM 1
ofrecer ofrecer VMN0000 1
una uno DI0FS0 0.951241
rueda rueda NCFS000 0.666667
de de SPS00 0.999919
prensa prensa NCFS000 0.925926
Estados_Unidos estados_unidos NP00000 1
anunci anunci RG 0.751648
que que CS 0.4375
iba ir VMII3S0 0.635011
a a SPS00 0.99585
duplicar duplicar VMN0000 1
su su DP3CS0 1
asistencia asistencia NCFS000 1
directa directo AQ0FS0 1
y y CC 0.999812
la el DA0FS0 0.972146
entrega entrega NCFS000 0.266667
de de SPS00 0.999919
equipo equipo NCMS000 0.984848
militar militar AQ0CS0 0.666667
defensivo defensivo AQ0MS0 0.75
a a SPS00 0.99585
los el DA0MP0 0.97623
rebeldes rebelde AQ0CP0 0.638481
sirios sirio NCMP000 0.642674
un uno DI0MS0 0.986987
apoyo apoyo NCMS000 0.928571
que que PR0CN000 0.5625
no no RN 0.99778
colma colmar VMIP3S0 0.280548
sin sin SPS00 1
embargo embargo NCMS000 0.973496
las el DA0FP0 0.97051
expectativas expectativa NCFP000 1
de de SPS00 0.999919
la el DA0FS0 0.972146
oposici oposici AQ0CS0 0.0199855
n n NCFS000 1
a a SPS00 1
el el DA0MS0 1
r r NCFS000 0.638487
gimen gemir VMIP3P0 1
de de SPS00 0.999919
Bashar bashar NP00000 1
a a SPS00 1
el el DA0MS0 1
Asad_Kerry asad_kerry NP00000 1
se se P00CN000 0.465602
entrevistar entrevistar VMN0000 1
asimismo asimismo RG 1
con con SPS00 1
el el DA0MS0 1
primer 1 AO0MS0 1
ministro ministro NCMS000 1
turco turco AQ0MS0 0.875
Recep_Tayyip_Erdogan recep_tayyip_erdogan NP00000 1
y y CC 0.999812
con con SPS00 1
su su DP3CS0 1
hom hom NCMS000 0.500053
logo logo NCMS000 1
Ahmet_Davutoglu ahmet_davutoglu NP00000 1
antes_de antes_de SPS00 1
viajar viajar VMN0000 1
a a SPS00 0.99585
Bruselas_La bruselas_la NP00000 1
normalizaci normalizaci RG 0.751648
n n NCFS000 1
de de SPS00 0.999919
las el DA0FP0 0.97051
relaciones relación NCFP000 0.944444
entre entre SPS00 0.995223
Israel israel NP00000 1
y y CC 0.999812
Turqu turqu NP00000 1
a a SPS00 0.99585
centrar centrar VMN0000 1
esas ese DD0FP0 0.961538
entrevistas entrevista NCFP000 0.666667
despu despu NCMS000 0.774439
s segundo NCMN000 0.622321
de de SPS00 0.999919
casi casi RG 1
tres 3 Z 1
a a SPS00 0.99585
os o NCFP000 0.222222
de de SPS00 0.999919
distanciamiento distanciamiento NCMS000 1
entre entre SPS00 0.995223
los el DA0MP0 0.97623
dos 2 Z 0.988722
pa pa NCFS000 0.740689
ses ses AQ0CP0 0.068278
tras tras SPS00 1
la el DA0FS0 0.972146
muerte muerte NCFS000 1
de de SPS00 0.999919
nueve 9 Z 1
militantes militante NCCP000 0.642613
turcos turco AQ0MP0 0.357398
propalestinos propalestino NCMP000 0.64273
durante durante SPS00 1
un uno DI0MS0 0.986987
ataque ataque NCMS000 0.9625
mar mar NCCS000 1
timo timo NCMS000 0.973479
israel israel NCMS000 0.567351
frente_a frente_a SPS00 1
las el DA0FP0 0.97051
costas costa NCFP000 1
de de SPS00 0.999919
Gaza gaza NP00000 1
seg segundo NCMN000 1
n n NCFS000 1
dijo decir VMIS3S0 1
a a SPS00 0.99585
la el DA0FS0 0.972146
AFP afp NP00000 1
una uno DI0FS0 0.951241
fuente fuente NCFS000 1
diplom diplom NCMS000 0.500053
tica tica AQ0FS0 0.595788
turca turco NCFS000 0.612476
El el NP00000 1
proceso proceso NCMS000 0.973684
de de SPS00 0.999919
normalizaci normalizaci RG 0.751648
n n NCFS000 1
ser ser VSN0000 0.93883
desde_luego desde_luego RG 1
tratado tratar VMP00SM 0.5
Turqu turqu NP00000 1
a a SPS00 0.99585
desea desear VMIP3S0 0.833333
superar superar VMN0000 1
esas ese DD0FP0 0.961538
dificultades dificultad NCFP000 1
con con SPS00 1
Israel israel NP00000 1
indic indic RG 0.5
esa ese DD0FS0 0.978261
fuente fuente NCFS000 1
Fue fue NP00000 1
gracias_a gracias_a SPS00 1
la el DA0FS0 0.972146
mediaci mediaci AQ0CS0 0.0199855
n n NCFS000 1
directa directo AQ0FS0 1
de de SPS00 1
el el DA0MS0 1
presidente presidente NCMS000 1
estadounidense estadounidense AQ0CS0 0.833333
Barack_Obama barack_obama NP00000 1
que que PR0CN000 0.5625
los el DA0MP0 0.97623
dos 2 Z 0.988722
pa pa NCFS000 0.740689
ses ses NCMP000 0.727093
antes antes RG 1
aliados aliar VMP00PM 0.125
en en SPS00 1
la el DA0FS0 0.972146
regi regi AQ0CS0 0.0199855
n n NCFS000 1
decidieron decidir VMIS3P0 1
reanudar reanudar VMN0000 1
sus su DP3CP0 0.998462
relaciones relación NCFP000 0.944444
normales normal AQ0CP0 0.833333
El el NP00000 1
jefe jefe NCMS000 1
de de SPS00 0.999919
gobierno gobierno NCMS000 0.9
israel israel NCMS000 0.567351
Benjamin_Netanyahu benjamin_netanyahu NP00000 1
acept acept NCMS000 0.607342
el el DA0MS0 1
22_de_marzo [??:22/3/??:??.??:??] W 1
pasado pasar VMP00SM 0.647727
presentar presentar VMN0000 1
sus su DP3CP0 0.998462
disculpas disculpa NCFP000 0.973497
oficiales oficial AQ0CP0 0.866667
a a SPS00 0.99585
Turqu turqu NP00000 1
a a SPS00 0.99585
por por SPS00 1
la el DA0FS0 0.972146
muerte muerte NCFS000 1
de de SPS00 0.999919
esos ese DD0MP0 0.961538
nueve 9 Z 1
turcos turco NCMP000 0.642602
un uno DI0MS0 0.986987
gesto gesto NCMS000 0.916667
que que PR0CN000 0.5625
Ankara ankara NP00000 1
siempre siempre RG 1
exigi exigi AQ0CS0 0.0199855
y y CC 0.999812
que que PR0CN000 0.5625
hasta hasta SPS00 0.955172
ahora ahora RG 1
Israel israel NP00000 1
se se P00CN000 0.465602
negaba negar VMII3S0 0.65
a a SPS00 0.99585
hacer hacer VMN0000 1
En en NP00000 1
el el DA0MS0 1
mbito mbito NCMS000 1
de de SPS00 1
el el DA0MS0 1
conflicto conflicto NCMS000 1
de de SPS00 0.999919
Oriente_Medio_Kerry oriente_medio_kerry NP00000 1
y y CC 0.999812
Abas abas NP00000 1
que que PR0CN000 0.5625
se se P00CN000 0.465602
han haber VAIP3P0 1
visto ver VMP00SM 0.982759
varias varios DI0FP0 0.939394
veces vez NCFP000 1
en en SPS00 1
los el DA0MP0 0.97623
ltimos ltimos VMIP1P0 0.856975
dos 2 Z 0.988722
meses mes NCMP000 0.964286
proseguir proseguir VMN0000 1
n n NCFS000 1
desde_luego desde_luego RG 1
la el DA0FS0 0.972146
conversaci conversaci AQ0CS0 0.0199855
n n NCFS000 1
que que PR0CN000 0.5625
mantienen mantener VMIP3P0 1
desde desde SPS00 1
hace hacer VMIP3S0 1
varias varios DI0FP0 0.939394
semanas semana NCFP000 1
sobre sobre SPS00 0.994203
la el DA0FS0 0.972146
manera manera NCFS000 1
en en SPS00 1
que que CS 0.4375
las el DA0FP0 0.97051
dos 2 Z 0.988722
partes parte NCFP000 0.495495
Israel israel NP00000 1
y y CC 0.999812
la el DA0FS0 0.972146
Autoridad_Palestina autoridad_palestina NP00000 1
pueden poder VMIP3P0 1
volver volver VMN0000 1
a a SPS00 0.99585
sentar sentar VMN0000 1
se se PP3CN000 1
en en SPS00 1
la el DA0FS0 0.972146
mesa mesa NCFS000 0.939394
de de SPS00 0.999919
negociaciones negociación NCFP000 1
dijo decir VMIS3S0 1
un uno DI0MS0 0.986987
diplom diplom NCMS000 0.500053
tico tico AQ0MS0 0.806828
estadounidense estadounidense AQ0CS0 0.833333
a a SPS00 0.99585
la el DA0FS0 0.972146
prensa prensa NCFS000 0.925926
El el NP00000 1
jefe jefe NCMS000 1
de de SPS00 0.999919
la el DA0FS0 0.972146
diplomacia diplomacia NCFS000 1
estadounidense estadounidense AQ0CS0 0.833333
hab hab NCMS000 0.63631
a a SPS00 0.99585
advertido advertir VMP00SM 1
el el DA0MS0 1
mi mi DP1CSS 0.995536
rcoles rcoles NCMP000 0.750052
en en SPS00 1
Washington washington NP00000 1
que que CS 0.4375
el el DA0MS0 1
tiempo tiempo NCMS000 1
estaba estar VAII1S0 0.5
contado contar VMP00SM 0.659582
para para SPS00 0.998507
la el DA0FS0 0.972146
reanudaci reanudaci AQ0CS0 0.0199855
n n NCFS000 1
de de SPS00 1
el el DA0MS0 1
proceso proceso NCMS000 0.973684
de de SPS00 0.999919
paz paz NCFS000 1
israelo israelo NCMS000 0.807346
palestino palestino AQ0MS0 0.35727
y y CC 0.999812
declar declar VMN0000 1
por por SPS00 1
primera 1 AO0FS0 0.987179
vez vez NCFS000 1
que que PR0CN000 0.5625
solamente solamente RG 1
quedaban quedar VMII3P0 1
dos 2 Z 0.988722
a a SPS00 0.99585
os os PP2CP000 0.722222
como como CS 0.998579
m m NCFS000 0.5
ximo ximo AQ0MS0 0.937453
para para SPS00 0.998507
lograr lograr VMN0000 1
ese ese DD0MS0 0.98125
objetivo objetivo NCMS000 0.761905
Kerry kerry NP00000 1
trabaja trabajar VMIP3S0 0.875
actualmente actualmente RG 1
en en SPS00 1
un uno DI0MS0 0.986987
proyecto proyecto NCMS000 0.9375
para para SPS00 0.998507
reactivar reactivar VMN0000 1
la el DA0FS0 0.972146
econom econom NCMS000 0.500053
a a SPS00 0.99585
palestina palestino NCFS000 0.5
e y CC 0.973684
intentar intentar VMN0000 1
restaurar restaurar VMN0000 1
la el DA0FS0 0.972146
confianza confianza NCFS000 1
entre entre SPS00 0.995223
ambas ambos DI0FP0 0.785714
partes parte NCFP000 0.495495
Tambi tambi NP00000 1
n n NCFS000 1
anunci anunci RG 0.751648
que que CS 0.4375
el el DA0MS0 1
exprimer exprimer VMN0000 1
ministro ministro NCMS000 1
brit brit NCMN000 1
nico nico AQ0MS0 0.470565
Tony_Blair tony_blair NP00000 1
hab hab NCMS000 0.63631
a a SPS00 0.99585
aceptado aceptar VMP00SM 1
participar participar VMN0000 1
en en SPS00 1
los el DA0MP0 0.97623
esfuerzos esfuerzo NCMP000 1
para para SPS00 0.998507
mejorar mejorar VMN0000 1
la el DA0FS0 0.972146
econom econom NCMS000 0.500053
a a SPS00 0.99585
de de SPS00 0.999919
los el DA0MP0 0.97623
territorios territorio NCMP000 1
palestinos palestino AQ0MP0 0.35727
Abas abas NP00000 1
que que PR0CN000 0.5625
lleg lleg RG 0.14318
el el DA0MS0 1
s segundo NCMN000 0.622321
bado bado VMP00SM 0.818183
a a SPS00 0.99585
Estambul estambul NP00000 1
tambi tambi AQ0CN0 1
n n NCFS000 1
prev prev NCFS000 1
entrevistar entrevistar VMN0000 1
se se PP3CN000 1
con con SPS00 1
el el DA0MS0 1
presidente presidente NCMS000 1
turco turco AQ0MS0 0.875
Abdul_Gul abdul_gul NP00000 1
y y CC 0.999812
con con SPS00 1
Davutoglu_La davutoglu_la NP00000 1
visita visita NCFS000 0.866667
de de SPS00 1
el el DA0MS0 1
presidente presidente NCMS000 1
palestino palestino AQ0MS0 0.35727
se se P00CN000 0.465602
produce producir VMIP3S0 0.961538
despu despu NCMS000 0.774439
s segundo NCMN000 0.622321
de de SPS00 0.999919
que que CS 0.4375
Erdogan erdogan NP00000 1
confirmara confirmar VMSI3S0 0.500021
su su DP3CS0 1
intenci intenci AQ0CS0 0.0199855
n n NCFS000 1
de de SPS00 0.999919
visitar visitar VMN0000 1
a_fines_de a_fines_de SPS00 1
mayo [??:??/5/??:??.??:??] W 1
Gaza gaza NP00000 1
gobernada gobernar VMP00SF 1
por por SPS00 1
el el DA0MS0 1
movimiento movimiento NCMS000 1
islamista islamista AQ0CS0 0.657183
Hamas hamas NP00000 1
200 200 Z 1
oficinas oficina NCFP000 1
en en SPS00 1
150 150 Z 1
pa pa NCFS000 0.740689
ses ses NCMP000 0.727093
Ampliar_Desea ampliar_desea NP00000 1
compartir compartir VMN0000 1
una uno DI0FS0 0.951241
informaci informaci AQ0CS0 0.0199855
n n NCFS000 1
un uno DI0MS0 0.986987
comentario comentario NCMS000 1
Escr escr NP00000 1
banos banos NCMP000 0.509288
a a SPS00 0.99585

