ISLAMABAD_AFP_El islamabad_afp_el NP00000 1
expresidente expresidente NCMS000 0.9
paquistan paquistan VMIP3P0 1
Pervez_Musharraf pervez_musharraf NP00000 1
est est NCMS000 1
desde desde SPS00 1
este este DD0MS0 0.956743
viernes [V:??/??/??:??.??:??] W 1
en en SPS00 1
arresto arresto NCMS000 0.973494
domiciliario domiciliario AQ0MS0 1
por por SPS00 1
la el DA0FS0 0.972146
justicia justicia NCFS000 1
paquistan paquistan VMIP3P0 1
que que CS 0.4375
la el DA0FS0 0.972146
v v NCFS000 1
spera spera AQ0FS0 0.222163
hab hab NCMS000 0.63631
a a SPS00 0.99585
ordenado ordenar VMP00SM 1
su su DP3CS0 1
detenci detenci AQ0CS0 0.0199855
n n NCFS000 1
por por SPS00 1
la el DA0FS0 0.972146
destituci destituci AQ0CS0 0.0199855
n n NCFS000 1
ilegal ilegal AQ0CS0 1
de de SPS00 0.999919
magistrados magistrado NCMP000 1
cuando cuando CS 0.983796
estaba estar VAII1S0 0.5
en en SPS00 1
el el DA0MS0 1
poder poder NCMS000 0.711538
algo algo PI0CS000 0.896341
sin sin SPS00 1
precedentes precedente NCMP000 0.34273
para para SPS00 0.998507
un uno DI0MS0 0.986987
exjefe exjefe NCMS000 1
de de SPS00 0.999919
Estado_Mayor_de_las_Fuerzas_Armadas_Esta estado_mayor_de_las_fuerzas_armadas_esta NP00000 1
detenci detenci RG 0.751648
n n NCFS000 1
es ser VSIP3S0 1
una uno DI0FS0 0.951241
nueva nuevo AQ0FS0 0.977273
humillaci humillaci NCMS000 0.0996348
n n NCFS000 1
para para SPS00 0.998507
el el DA0MS0 1
' ' Fe 1
General_Musharraf general_musharraf NP00000 1
' ' Fe 1
que que CS 0.4375
lleg lleg NCMS000 0.714133
a a SPS00 1
el el DA0MS0 1
poder poder NCMS000 0.711538
en en SPS00 1
1999 1999 Z 1
con con SPS00 1
un uno DI0MS0 0.986987
golpe golpe NCMS000 1
de de SPS00 0.999919
Estado estado NP00000 1
y y CC 0.999812
dimiti dimiti NCMS000 1
en en SPS00 1
2008 2008 Z 1
y y CC 0.999812
que que CS 0.4375
hab hab NCMS000 0.63631
a a SPS00 0.99585
regresado regresar VMP00SM 1
de de SPS00 1
el el DA0MS0 1
exilio exilio NCMS000 0.833333
recientemente recientemente RG 1
para para SPS00 0.998507
participar participar VMN0000 1
en en SPS00 1
las el DA0FP0 0.97051
elecciones elección NCFP000 1
legislativas legislativo AQ0FP0 1
de de SPS00 1
el el DA0MS0 1
11_de_mayo [??:11/5/??:??.??:??] W 1
argumentando argumentar VMG0000 1
que que CS 0.4375
quer quer VMN0000 0.717691
a a SPS00 0.99585
salvar salvar VMN0000 1
a a SPS00 1
el el DA0MS0 1
pa pa NCFS000 0.740689
s segundo NCMN000 0.622321
de de SPS00 0.999919
la el DA0FS0 0.972146
inseguridad inseguridad NCFS000 1
cr cr NCMS000 1
nica nica AQ0FS0 0.730709
y y CC 0.999812
de de SPS00 0.999919
la el DA0FS0 0.972146
crisis crisis NCFN000 1
econ econ NCMS000 1
mica mica NCFS000 1
El el NP00000 1
general general AQ0CS0 0.90625
Musharraf musharraf NP00000 1
fue ser VSIS3S0 0.932292
puesto poner VMP00SM 0.547619
en en SPS00 1
detenci detenci RG 0.751648
n n NCFS000 1
preventiva preventivo AQ0FS0 1
dos_d TM_d:2 Zu 1
as as NCMS000 1
y y CC 0.999812
permanecer permanecer VMN0000 1
en en SPS00 1
su su DP3CS0 1
granja granja NCFS000 1
en en SPS00 1
las el DA0FP0 0.97051
afueras afueras NCFP000 0.75
de de SPS00 0.999919
Islamabad islamabad NP00000 1
declar declar VMN0000 1
a a SPS00 0.99585
AFP afp NP00000 1
un uno DI0MS0 0.986987
portavoz portavoz NCCS000 1
de de SPS00 0.999919
su su DP3CS0 1
partido partido NCMS000 0.886364
el el DA0MS0 1
APML_All_Pakistan_Muslim_League_La apml_all_pakistan_muslim_league_la NP00000 1
decisi decisi RG 1
n n NCFS000 1
fue ser VSIS3S0 0.932292
confirmada confirmar VMP00SF 1
por por SPS00 1
un uno DI0MS0 0.986987
magistrado magistrado NCMS000 1
en en SPS00 1
Islamabad_Musharraf islamabad_musharraf NP00000 1
compareci compareci RG 0.751648
el el DA0MS0 1
jueves [J:??/??/??:??.??:??] W 1
por por SPS00 1
la el DA0FS0 0.972146
ma ma AQ0FS0 0.14579
ana ana NCFS000 1
en en SPS00 1
una uno DI0FS0 0.951241
audiencia audiencia NCFS000 1
para para SPS00 0.998507
prolongar prolongar VMN0000 1
su su DP3CS0 1
libertad libertad NCFS000 0.978261
bajo bajo SPS00 0.866071
fianza fianza NCFS000 1
en en SPS00 1
el el DA0MS0 1
caso caso NCMS000 0.990741
de de SPS00 0.999919
la el DA0FS0 0.972146
destituci destituci AQ0CS0 0.0199855
n n NCFS000 1
ilegal ilegal AQ0CS0 1
de de SPS00 0.999919
jueces juez NCCP000 1
que que PR0CN000 0.5625
se se P00CN000 0.465602
le le PP3CSD00 1
hab hab NCMS000 0.63631
a a SPS00 0.99585
acordado acordar VMP00SM 1
a a SPS00 1
el el DA0MS0 1
regresar regresar VMN0000 1
Pero pero NP00000 1
el el DA0MS0 1
tribunal tribunal NCMS000 1
rechaz rechaz AQ0CS0 0.803258
su su DP3CS0 1
solicitud solicitud NCFS000 1
y y CC 0.999812
orden orden NCMS000 0.6
su su DP3CS0 1
arresto arresto NCMS000 0.973494
pues pues CS 0.990385
el el DA0MS0 1
magistrado magistrado NCMS000 1
encargado encargar VMP00SM 0.5
de de SPS00 1
el el DA0MS0 1
caso caso NCMS000 0.990741
consider consider VMN0000 0.630215
que que CS 0.4375
Musharraf musharraf NP00000 1
hab hab NCMS000 0.63631
a a SPS00 0.99585
diseminado diseminar VMP00SM 1
el el DA0MS0 1
miedo miedo NCMS000 1
en en SPS00 1
la el DA0FS0 0.972146
sociedad sociedad NCFS000 1
la el DA0FS0 0.972146
inseguridad inseguridad NCFS000 1
entre entre SPS00 0.995223
los el DA0MP0 0.97623
jueces juez NCCP000 1
y y CC 0.999812
el el DA0MS0 1
terrorismo terrorismo NCMS000 1
en en SPS00 1
todo todo DI0MS0 0.559816
Pakist pakist NP00000 1
n n NCFS000 1
cuando cuando CS 0.983796
estaba estar VAII1S0 0.5
en en SPS00 1
el el DA0MS0 1
poder poder NCMS000 0.711538
Eso eso NP00000 1
no no RN 0.99778
ten tener VMM02S0 1
a a SPS00 0.99585
precedentes precedente NCMP000 0.34273
en en SPS00 1
este este DD0MS0 0.956743
pa pa NCFS000 0.740689
s segundo NCMN000 0.622321
acostumbrado acostumbrar VMP00SM 1
a a SPS00 0.99585
los el DA0MP0 0.97623
golpes golpe NCMP000 1
de de SPS00 0.999919
Estado estado NP00000 1
militares militar NCCP000 0.416667
Hasta hasta NP00000 1
entonces entonces RG 0.97619
jam jam NCMS000 0.700265
s segundo NCMN000 0.622321
la el DA0FS0 0.972146
justicia justicia NCFS000 1
hab hab NCMS000 0.63631
a a SPS00 0.99585
ordenado ordenar VMP00SM 1
el el DA0MS0 1
arresto arresto NCMS000 0.973494
de de SPS00 0.999919
un uno DI0MS0 0.986987
ex ex AQ0CN0 0.25
jefe jefe NCMS000 1
de de SPS00 0.999919
Estado_Mayor_de_las_Fuerzas_Armadas estado_mayor_de_las_fuerzas_armadas NP00000 1
considerada considerar VMP00SF 1
como como CS 0.998579
la el DA0FS0 0.972146
instituci instituci AQ0CS0 0.0199855
n n NCFS000 1
m m NCFS000 0.5
s segundo NCMN000 0.622321
poderosa poderoso AQ0FS0 0.75
de de SPS00 1
el el DA0MS0 1
pa pa NCFS000 0.740689
s segundo NCMN000 0.622321
El el NP00000 1
tribunal tribunal NCMS000 1
orden orden NCMS000 0.6
el el DA0MS0 1
jueves [J:??/??/??:??.??:??] W 1
su su DP3CS0 1
detenci detenci RG 0.751648
n n NCFS000 1
pero pero CC 0.998821
el el DA0MS0 1
expresidente expresidente NCMS000 0.9
se se P00CN000 0.465602
fue ir VMIS3S0 0.0677083
de de SPS00 1
el el DA0MS0 1
recinto recinto NCMS000 1
bajo bajo SPS00 0.866071
la el DA0FS0 0.972146
protecci protecci AQ0CS0 0.0199855
n n NCFS000 1
de de SPS00 0.999919
sus su DP3CP0 0.998462
guardias guardia NCCP000 1
frente_a frente_a SPS00 1
los el DA0MP0 0.97623
asombrados asombrar VMP00PM 1
polic polic NCFS000 1
as as NCMS000 1
y y CC 0.999812
se se P00CN000 0.465602
refugi refugi VMIS1S0 0.0691907
en en SPS00 1
su su DP3CS0 1
domicilio domicilio NCMS000 0.833333
En en NP00000 1
un uno DI0MS0 0.986987
comunicado comunicado NCMS000 0.345763
Pervez_Musharraf pervez_musharraf NP00000 1
dijo decir VMIS3S0 1
el el DA0MS0 1
jueves [J:??/??/??:??.??:??] W 1
que que PR0CN000 0.5625
era ser VSII1S0 0.490859
v v NCFS000 1
ctima ctima NCFS000 1
de de SPS00 0.999919
una uno DI0FS0 0.951241
venganza venganza NCFS000 1
Sus sus NP00000 1
abogados abogado NCMP000 0.833333
anunciaron anunciar VMIS3P0 1
que que CS 0.4375
apelar apelar VMN0000 1
an an NCFS000 1
la el DA0FS0 0.972146
decisi decisi RG 1
n n NCFS000 1
de de SPS00 1
el el DA0MS0 1
juez juez NCCS000 1
este este DD0MS0 0.956743
viernes [V:??/??/??:??.??:??] W 1
ante ante SPS00 0.990566
la el DA0FS0 0.972146
Corte_Suprema corte_suprema NP00000 1
manifestando manifestar VMG0000 1
su su DP3CS0 1
optimismo optimismo NCMS000 1
Si si NP00000 1
la el DA0FS0 0.972146
justicia justicia NCFS000 1
no no RN 0.99778
cancela cancelar VMIP3S0 0.15079
la el DA0FS0 0.972146
orden orden NCMS000 0.6
de de SPS00 0.999919
arresto arresto NCMS000 0.973494
eso ese PD0NS000 1
podr podr VMN0000 0.633986
a a SPS00 0.99585
conducir conducir VMN0000 1
a a SPS00 0.99585
tensiones tensión NCFP000 1
innecesarias innecesario AQ0FP0 1
entre entre SPS00 0.995223
los el DA0MP0 0.97623
diferentes diferente AQ0CP0 1
pilares pilar NCMP000 0.995706
de de SPS00 1
el el DA0MS0 1
Estado estado NP00000 1
e y CC 0.973684
incluso incluso RG 0.988095
desestabilizar desestabilizar VMN0000 1
a a SPS00 1
el el DA0MS0 1
pa pa NCFS000 0.740689
s segundo NCMN000 0.622321
advirti advirti NCMS000 1
sugiriendo sugerir VMG0000 1
un uno DI0MS0 0.986987
posible posible AQ0CS0 1
nuevo nuevo AQ0MS0 1
conflicto conflicto NCMS000 1
entre entre SPS00 0.995223
la el DA0FS0 0.972146
justicia justicia NCFS000 1
y y CC 0.999812
el el DA0MS0 1
ej ej NCMS000 0.692259
rcito rcito NCMS000 1
dos 2 Z 0.988722
rivales rival NCCP000 0.95
que que PR0CN000 0.5625
a a SPS00 0.99585
menudo menudo NCMS000 0.25
presionaron presionar VMIS3P0 1
a a SPS00 1
el el DA0MS0 1
poder poder NCMS000 0.711538
pol pol NCMS000 0.861706
tico tico AQ0MS0 0.806828
en en SPS00 1
la el DA0FS0 0.972146
agitada agitar VMP00SF 1
historia historia NCFS000 1
de de SPS00 1
el el DA0MS0 1
pa pa NCFS000 0.740689
s segundo NCMN000 0.622321
Finalmente_Musharraf finalmente_musharraf NP00000 1
volvi volvi VMIS1S0 1
a a SPS00 0.99585
presentar presentar VMN0000 1
se se PP3CN000 1
este este DD0MS0 0.956743
viernes [V:??/??/??:??.??:??] W 1
por por SPS00 1
la el DA0FS0 0.972146
ma ma AQ0FS0 0.14579
ana ana NCFS000 1
ante ante SPS00 0.990566
la el DA0FS0 0.972146
justicia justicia NCFS000 1
que que PR0CN000 0.5625
pronunci pronunci VMIS1S0 0.0691907
su su DP3CS0 1
detenci detenci AQ0CS0 0.0199855
n n NCFS000 1
preventiva preventivo AQ0FS0 1
pero pero CC 0.998821
lo el DA0NS0 0.457393
dej dej NCMS000 0.692259
regresar regresar VMN0000 1
a a SPS00 0.99585
su su DP3CS0 1
hogar hogar NCMS000 1
Adem adem NP00000 1
s segundo NCMN000 0.622321
de de SPS00 1
el el DA0MS0 1
caso caso NCMS000 0.990741
de de SPS00 0.999919
los el DA0MP0 0.97623
jueces juez NCCP000 1
Musharraf musharraf NP00000 1
est est NCMS000 1
acusado acusar VMP00SM 0.75
por por SPS00 1
la el DA0FS0 0.972146
justicia justicia NCFS000 1
de de SPS00 0.999919
presunta presunto AQ0FS0 1
implicaci implicaci NCMS000 0.0996348
n n NCFS000 1
en en SPS00 1
varios varios DI0MP0 0.883333
asuntos asunto NCMP000 1
sobre sobre SPS00 0.994203
todo todo DI0MS0 0.559816
los el DA0MP0 0.97623
asesinatos asesinato NCMP000 1
de de SPS00 1
el el DA0MS0 1
jefe jefe NCMS000 1
independentista independentista AQ0CS0 0.5
de de SPS00 0.999919
la el DA0FS0 0.972146
provincia provincia NCFS000 1
de de SPS00 0.999919
Baluchist baluchist NP00000 1
n n NCFS000 1
sudoeste sudoeste NCMS000 1
Akbar_Bugti akbar_bugti NP00000 1
y y CC 0.999812
de de SPS00 0.999919
la el DA0FS0 0.972146
exprimera exprimera AQ0FS0 0.832278
ministra ministro NCFS000 1
Benazir_Bhutto_Algunos benazir_bhutto_algunos NP00000 1
abogados abogado NCMP000 0.833333
paquistan paquistan VMIP3P0 1
es ser VSIP3S0 1
tratan tratar VMIP3P0 1
tambi tambi AQ0CN0 1
n n NCFS000 1
de de SPS00 0.999919
convencer convencer VMN0000 1
a a SPS00 0.99585
la el DA0FS0 0.972146
Corte_Suprema corte_suprema NP00000 1
de de SPS00 0.999919
juzgar juzgar VMN0000 1
lo lo PP3CNA00 0.5 lo PP3MSA00 0.5
por por SPS00 1
alta alto AQ0FS0 0.970588
traici traici NCMS000 0.0996348
n n NCFS000 1
por por SPS00 1
haber haber VAN0000 0.744444
impuesto imponer VMP00SM 0.5
el el DA0MS0 1
estado estado NCMS000 0.662162
de de SPS00 0.999919
excepci excepci RG 0.751648
n n NCFS000 1
en en SPS00 1
2007 2007 Z 1
cuando cuando CS 0.983796
estaba estar VAII1S0 0.5
a_el_frente_de al_frente_de SPS00 1
el el DA0MS0 1
pa pa NCFS000 0.740689
s segundo NCMN000 0.622321
la el DA0FS0 0.972146
nica nica AQ0FS0 0.730709
potencia potencia NCFS000 0.916667
musulmana musulmán AQ0FS0 0.75
dotada dotar VMP00SF 1
de de SPS00 1
el el DA0MS0 1
arma arma NCFS000 0.944444
nuclear nuclear AQ0CS0 1
El el NP00000 1
expresidente expresidente NCMS000 0.9
planeaba planear VMII3S0 0.649997
en en SPS00 1
un uno DI0MS0 0.986987
primer 1 AO0MS0 1
momento momento NCMS000 1
participar participar VMN0000 1
en en SPS00 1
las el DA0FP0 0.97051
elecciones elección NCFP000 1
legislativas legislativo AQ0FP0 1
de de SPS00 1
el el DA0MS0 1
11_de_mayo [??:11/5/??:??.??:??] W 1
Pero pero NP00000 1
un uno DI0MS0 0.986987
tribunal tribunal NCMS000 1
paquistan paquistan VMIP3P0 1
excluy excluy RG 0.993863
esta este DD0FS0 0.982143
semana semana NCFS000 1
su su DP3CS0 1
candidatura candidatura NCFS000 1
estimando estimar VMG0000 1
que que CS 0.4375
hab hab NCMS000 0.63631
a a SPS00 0.99585
violado violado NCMS000 0.40823
la el DA0FS0 0.972146
Constituci constituci NP00000 1
n n NCFS000 1
en en SPS00 1
varias varios DI0FP0 0.939394
ocasiones ocasión NCFP000 0.964286
cuando cuando CS 0.983796
estaba estar VAII1S0 0.5
en en SPS00 1
el el DA0MS0 1
poder poder NCMS000 0.711538
200 200 Z 1
oficinas oficina NCFP000 1
en en SPS00 1
150 150 Z 1
pa pa NCFS000 0.740689
ses ses NCMP000 0.727093
Ampliar_Desea ampliar_desea NP00000 1
compartir compartir VMN0000 1
una uno DI0FS0 0.951241
informaci informaci AQ0CS0 0.0199855
n n NCFS000 1
un uno DI0MS0 0.986987
comentario comentario NCMS000 1
Escr escr NP00000 1
banos banos NCMP000 0.509288
a a SPS00 0.99585

