BOSTON_EEUU_AFP_La boston_eeuu_afp_la NP00000 1
polic polic NCFS000 1
a a SPS00 0.99585
captur captur NCMS000 0.75005
a a SPS00 0.99585
uno uno PI0MS000 0.964744
de de SPS00 0.999919
los el DA0MP0 0.97623
sospechosos sospechoso NCMP000 0.25
de de SPS00 1
el el DA0MS0 1
atentado atentado NCMS000 0.875
de de SPS00 0.999919
Boston boston NP00000 1
noreste noreste NCMS000 0.833333
de de SPS00 0.999919
Estados_Unidos estados_unidos NP00000 1
y y CC 0.999812
buscaba buscar VMII3S0 0.5
a a SPS00 1
el el DA0MS0 1
segundo segundo NCMS000 0.242424
durante durante SPS00 1
un uno DI0MS0 0.986987
operativo operativo NCMS000 0.64273
este este DD0MS0 0.956743
viernes [V:??/??/??:??.??:??] W 1
de_madrugada de_madrugada RG 1
en en SPS00 1
las el DA0FP0 0.97051
afueras afueras NCFP000 0.75
de de SPS00 0.999919
la el DA0FS0 0.972146
ciudad ciudad NCFS000 1
afirm afirm NCMS000 0.700265
el el DA0MS0 1
diario diario NCMS000 0.5
Boston_Globe boston_globe NP00000 1
Un uno DI0MS0 0.986987
hombre hombre NCMS000 0.95679
armado armar VMP00SM 1
dispar dispar AQ0CS0 1
y y CC 0.999812
mat mat NCMS000 1
a a SPS00 0.99585
un uno DI0MS0 0.986987
polic polic NCFS000 1
a a SPS00 0.99585
el el DA0MS0 1
jueves_por_la_noche [J:??/??/??:??.??:pm] W 1
en en SPS00 1
el el DA0MS0 1
Instituto_Tecnol instituto_tecnol NP00000 1
gico gico AQ0MS0 1
de de SPS00 0.999919
Massachusetts_MIT massachusetts_mit NP00000 1
cerca cerca RG 0.925
de de SPS00 0.999919
Boston boston NP00000 1
en en SPS00 1
cuyo cuyo PR0MS000 1
campus campus NCMN000 1
se se P00CN000 0.465602
escucharon escuchar VMIS3P0 1
luego luego RG 0.983871
varios varios DI0MP0 0.883333
disparos disparo NCMP000 1
y y CC 0.999812
explosiones explosión NCFP000 0.995706
seg segundo NCMN000 1
n n NCFS000 1
autoridades autoridad NCFP000 1
y y CC 0.999812
testigos testigo NCCP000 1
De_acuerdo_con_el_Boston_Globe de_acuerdo_con_el_boston_globe NP00000 1
el el DA0MS0 1
sospechoso sospechoso NCMS000 0.388768
fue ser VSIS3S0 0.932292
detenido detener VMP00SM 0.833333
en en SPS00 1
la el DA0FS0 0.972146
vecina vecino NCFS000 0.785714
Watertown watertown NP00000 1
escenario escenario NCMS000 1
de de SPS00 0.999919
un uno DI0MS0 0.986987
inmenso inmenso AQ0MS0 1
operativo operativo NCMS000 0.64273
policial policial AQ0CS0 1
El_FBI_Oficina_Federal_de_Investigaciones el_fbi_oficina_federal_de_investigaciones NP00000 1
hab hab NCMS000 0.63631
a a SPS00 0.99585
difundido difundir VMP00SM 1
el el DA0MS0 1
jueves_por_la_tarde [J:??/??/??:??.??:pm] W 1
fotos foto NCFP000 1
y y CC 0.999812
v v NCFS000 1
deos deos NCMP000 1
de de SPS00 0.999919
dos 2 Z 0.988722
hombres hombre NCMP000 1
sospechosos sospechoso AQ0MP0 0.75
de de SPS00 0.999919
perpetrar perpetrar VMN0000 1
el el DA0MS0 1
doble doble AQ0CS0 0.927273
atentado atentado NCMS000 0.875
en en SPS00 1
el el DA0MS0 1
marat marat NCMS000 1
n n NCFS000 1
de de SPS00 0.999919
Boston boston NP00000 1
el el DA0MS0 1
lunes [L:??/??/??:??.??:??] W 1
que que PR0CN000 0.5625
dej dej NCMS000 0.692259
tres 3 Z 1
muertos muerto NCMP000 0.681818
y y CC 0.999812
m m NCFS000 0.5
s segundo NCMN000 0.622321
de de SPS00 0.999919
180 180 Z 1
heridos herido NCMP000 0.5
La la NP00000 1
divisi divisi RG 1
n n NCFS000 1
de de SPS00 0.999919
Boston_de_el_FBI boston_de_el_fbi NP00000 1
est est NCMS000 1
a_el_tanto_de al_tanto_de SPS00 1
un uno DI0MS0 0.986987
operativo operativo NCMS000 0.64273
de de SPS00 0.999919
las el DA0FP0 0.97051
fuerzas fuerza NCFP000 0.954545
de de SPS00 0.999919
seguridad seguridad NCFS000 1
en en SPS00 1
las el DA0FP0 0.97051
afueras afueras NCFP000 0.75
de de SPS00 0.999919
Boston_La boston_la NP00000 1
situaci situaci RG 0.751648
n n NCFS000 1
contin contin RG 0.388954
a a SPS00 0.99585
Trabajamos trabajamos NP00000 1
con con SPS00 1
las el DA0FP0 0.97051
autoridades autoridad NCFP000 1
locales local AQ0CP0 0.25
para para SPS00 0.998507
determinar determinar VMN0000 1
lo el DA0NS0 0.457393
que que PR0CN000 0.5625
sucedi sucedi VMIS1S0 1
indic indic RG 0.5
esa ese DD0FS0 0.978261
agencia agencia NCFS000 0.666667
el el DA0MS0 1
viernes_por_la_madrugada [V:??/??/??:??.??:am] W 1
en en SPS00 1
un uno DI0MS0 0.986987
comunicado comunicado NCMS000 0.345763
De de NP00000 1
su su DP3CS0 1
lado lado NCMS000 1
la el DA0FS0 0.972146
fiscal fiscal NCCS000 0.342737
a a SPS00 0.99585
de de SPS00 1
el el DA0MS0 1
distrito distrito NCMS000 1
confirm confirm NCMS000 0.700265
por por SPS00 1
el el DA0MS0 1
momento momento NCMS000 1
solo solo AQ0MS0 0.930556
la el DA0FS0 0.972146
muerte muerte NCFS000 1
de de SPS00 1
el el DA0MS0 1
polic polic NCFS000 1
a a SPS00 0.99585
y y CC 0.999812
se se P00CN000 0.465602
a a SPS00 1
el el DA0MS0 1
que que PR0CN000 0.5625
se se P00CN000 0.465602
estaba estar VAII1S0 0.5
investigando investigar VMG0000 1
lo el DA0NS0 0.457393
ocurrido ocurrir VMP00SM 1
El el NP00000 1
polic polic NCFS000 1
a a SPS00 0.99585
sufri sufri RG 0.83337
m m NCFS000 0.5
ltiples ltiples AQ0CP0 1
heridas herida NCFP000 0.416667
de de SPS00 0.999919
bala bala NCFS000 0.777778
cuando cuando CS 0.983796
intentaba intentar VMII3S0 0.65
hacer_frente hacer_frente VMN0000 1
a a SPS00 0.99585
la el DA0FS0 0.972146
situaci situaci AQ0CS0 0.0199855
n n NCFS000 1
dijo decir VMIS3S0 1
Michel_Pelgro michel_pelgro NP00000 1
fiscal fiscal NCCS000 0.342737
de de SPS00 1
el el DA0MS0 1
distrito distrito NCMS000 1
de de SPS00 0.999919
Middlesex middlesex NP00000 1
en en SPS00 1
un uno DI0MS0 0.986987
comunicado comunicado NCMS000 0.345763
200 200 Z 1
oficinas oficina NCFP000 1
en en SPS00 1
150 150 Z 1
pa pa NCFS000 0.740689
ses ses NCMP000 0.727093
Ampliar_Desea ampliar_desea NP00000 1
compartir compartir VMN0000 1
una uno DI0FS0 0.951241
informaci informaci AQ0CS0 0.0199855
n n NCFS000 1
un uno DI0MS0 0.986987
comentario comentario NCMS000 1
Escr escr NP00000 1
banos banos NCMP000 0.509288
a a SPS00 0.99585

