ROMA_AFP_El roma_afp_el NP00000 1
presidente presidente NCMS000 1
de de SPS00 0.999919
la el DA0FS0 0.972146
Rep rep NP00000 1
blica blica AQ0FS0 1
italiana italiano AQ0FS0 0.75
Giorgio_Napolitano giorgio_napolitano NP00000 1
acept acept NCMS000 0.607342
este este DD0MS0 0.956743
s segundo NCMN000 0.622321
bado bado VMP00SM 0.818183
su su DP3CS0 1
candidatura candidatura NCFS000 1
para para SPS00 0.998507
un uno DI0MS0 0.986987
segundo 2 AO0MS0 0.742424
mandato mandato NCMS000 1
por por SPS00 1
responsabilidad responsabilidad NCFS000 1
ante ante SPS00 0.990566
el el DA0MS0 1
pa pa NCFS000 0.740689
s segundo NCMN000 0.622321
indic indic RG 0.5
en en SPS00 1
un uno DI0MS0 0.986987
comunicado comunicado NCMS000 0.345763
oficial oficial AQ0CS0 0.916667
Los los NP00000 1
l l NCFS000 0.639398
deres deres NCMP000 0.800047
de de SPS00 0.999919
los el DA0MP0 0.97623
mayores mayor AQ0CP0 0.8125
partidos partido NCMP000 0.928571
pol pol NCMS000 0.861706
ticos ticos AQ0MP0 0.671839
con con SPS00 1
excepci excepci RG 0.751648
n n NCFS000 1
de de SPS00 1
el el DA0MS0 1
Movimiento movimiento NP00000 1
Cinco 5 Z 0.98
Estrellas estrellas NP00000 1
de de SPS00 1
el el DA0MS0 1
c c NCFS000 1
mico mico NCMS000 1
Beppe_Grillo beppe_grillo NP00000 1
solicitaron solicitar VMIS3P0 1
a a SPS00 0.99585
Napolitano napolitano NP00000 1
un uno DI0MS0 0.986987
anciano anciano NCMS000 0.467748
excomunista excomunista AQ0CS0 1
de de SPS00 0.999919
87 87 Z 1
a a SPS00 0.99585
os os PP2CP000 0.722222
que que PR0CN000 0.5625
acepte aceptar VMSP3S0 0.610926
seguir seguir VMN0000 1
como como CS 0.998579
presidente presidente NCMS000 1
debido_a debido_a SPS00 1
el el DA0MS0 1
atasco atasco NCMS000 0.833333
pol pol NCMS000 0.861706
tico tico AQ0MS0 0.806828
en en SPS00 1
que que PR0CN000 0.5625
se se P00CN000 0.465602
encuentra encontrar VMIP3S0 0.972222
Italia_Considero italia_considero NP00000 1
un uno DI0MS0 0.986987
deber deber NCMS000 0.9
confirmar confirmar VMN0000 1
mi mi DP1CSS 0.995536
disponibilidad disponibilidad NCFS000 1
ante ante SPS00 0.990566
las el DA0FP0 0.97051
peticiones petición NCFP000 0.75
recibidas recibir VMP00PF 1
reza rezar VMIP3S0 0.994868
el el DA0MS0 1
comunicado comunicado NCMS000 0.345763
La la NP00000 1
decisi decisi RG 1
n n NCFS000 1
de de SPS00 1
el el DA0MS0 1
actual actual AQ0CS0 1
jefe jefe NCMS000 1
de de SPS00 0.999919
Estado estado NP00000 1
cuyo cuyo PR0MS000 1
primer 1 AO0MS0 1
mandato mandato NCMS000 1
concluye concluir VMIP3S0 0.75
el el DA0MS0 1
15_de_mayo [??:15/5/??:??.??:??] W 1
es ser VSIP3S0 1
in in RG 0.388954
dita dita NCFS000 1
ya_que ya_que CS 1
se se P00CN000 0.465602
tratar tratar VMN0000 1
a a SPS00 0.99585
de de SPS00 0.999919
la el DA0FS0 0.972146
primera 1 AO0FS0 0.987179
vez vez NCFS000 1
en en SPS00 1
la el DA0FS0 0.972146
historia historia NCFS000 1
de de SPS00 0.999919
la el DA0FS0 0.972146
pen pen AQ0CN0 0.249994
nsula nsula NCFS000 0.842094
que que PR0CN000 0.5625
se se P00CN000 0.465602
reelige reelegir VMIP3S0 0.994868
el el DA0MS0 1
presidente presidente NCMS000 1
de de SPS00 0.999919
la el DA0FS0 0.972146
Rep rep NP00000 1
blica blica AQ0FS0 1
La la NP00000 1
sexta 6 AO0FS0 0.333333
ronda ronda NCFS000 0.666667
de de SPS00 0.999919
votaciones votación NCFP000 1
en en SPS00 1
el el DA0MS0 1
Parlamento parlamento NP00000 1
en en SPS00 1
la el DA0FS0 0.972146
que que PR0CN000 0.5625
participan participar VMIP3P0 1
1006 1006 Z 1
electores elector NCMP000 0.642718
est est NCMS000 1
prevista prever VMP00SF 1
para para SPS00 0.998507
la el DA0FS0 0.972146
tarde tarde NCFS000 0.269565
de de SPS00 0.999919
este este DD0MS0 0.956743
s segundo NCMN000 0.622321
bado bado VMP00SM 0.818183
El el NP00000 1
veterano veterano NCMS000 0.64273
excomunista excomunista AQ0CS0 1
que que CS 0.4375
en en SPS00 1
siete 7 Z 1
a a SPS00 0.99585
os o NCFP000 0.222222
de de SPS00 0.999919
mandato mandato NCMS000 1
ha haber VAIP3S0 0.998141
tenido tener VMP00SM 1
que que CS 0.4375
resolver resolver VMN0000 1
intricadas intricadas AQ0FP0 0.166627
crisis crisis NCFN000 1
pol pol NCMS000 0.861706
ticas ticas AQ0FP0 0.760898
acept acept NCMS000 0.607342
aunque aunque CC 1
no no RN 0.99778
se se P00CN000 0.465602
si si CS 0.997706
sabe saber VMIP3S0 0.983333
si si CS 0.997706
puso poner VMIS3S0 1
condiciones condición NCFP000 0.958333
como como CS 0.998579
la el DA0FS0 0.972146
formaci formaci AQ0CS0 0.0199855
n n NCFS000 1
de de SPS00 0.999919
un uno DI0MS0 0.986987
gobierno gobierno NCMS000 0.9
que que PR0CN000 0.5625
logre lograr VMSP3S0 0.580581
aprobar aprobar VMN0000 1
la el DA0FS0 0.972146
reforma reforma NCFS000 0.866667
de de SPS00 0.999919
la el DA0FS0 0.972146
controvertida controvertir VMP00SF 1
ley ley NCFS000 1
electoral electoral AQ0CS0 1
la el DA0FS0 0.972146
cerdada cerdada NCFS000 1
como como CS 0.998579
la lo PP3FSA00 0.0277626
califica calificar VMIP3S0 0.75
su su DP3CS0 1
autor autor NCMS000 1
principal principal AQ0CS0 0.9375
culpable culpable AQ0CS0 0.7
de de SPS00 0.999919
la el DA0FS0 0.972146
ingobernabilidad ingobernabilidad NCFS000 1
Me me NP00000 1
impulsa impulsar VMIP3S0 0.994867
el el DA0MS0 1
sentimiento sentimiento NCMS000 1
de de SPS00 0.999919
responsabilidad responsabilidad NCFS000 1
ante ante SPS00 0.990566
la el DA0FS0 0.972146
naci naci AQ0CS0 0.0199855
n n NCFS000 1
y y CC 0.999812
conf conf NCMS000 0.500257
o o CC 0.998845
en en SPS00 1
una uno DI0FS0 0.951241
an an NCFS000 1
loga loga NCFS000 1
responsabilidad responsabilidad NCFS000 1
colectiva colectivo AQ0FS0 1
reza rezar VMIP3S0 0.994868
la el DA0FS0 0.972146
nota nota NCFS000 0.3125
a a SPS00 1
el el DA0MS0 1
referir referir VMN0000 1
se se PP3CN000 1
a a SPS00 0.99585
las el DA0FP0 0.97051
votaciones votación NCFP000 1
en en SPS00 1
Parlamento_La parlamento_la NP00000 1
ca ca I 1
tica tica NCFS000 0.372209
elecci elecci AQ0CS0 0.0199855
n n NCFS000 1
de de SPS00 1
el el DA0MS0 1
jefe jefe NCMS000 1
de de SPS00 0.999919
Estado estado NP00000 1
italiano italiano NCMS000 0.833333
por por SPS00 1
parte parte NCFS000 0.497967
de de SPS00 1
el el DA0MS0 1
Parlamento parlamento NP00000 1
que que CS 0.4375
desde desde SPS00 1
el el DA0MS0 1
jueves [J:??/??/??:??.??:??] W 1
se se P00CN000 0.465602
re re NCMS000 0.64128
ne ne VMIP3S0 0.792275
dos 2 Z 0.988722
veces vez NCFP000 1
a a SPS00 1
el el DA0MS0 1
d d NCFS000 1
a a SPS00 0.99585
para para SPS00 0.998507
votar votar VMN0000 1
ha haber VAIP3S0 0.998141
significado significar VMP00SM 0.5
una uno DI0FS0 0.951241
cruda crudo AQ0FS0 1
derrota derrota NCFS000 0.547112
para para SPS00 0.998507
el el DA0MS0 1
Partido_Democr partido_democr NP00000 1
tico tico AQ0MS0 0.806828
a a SPS00 1
el el DA0MS0 1
borde borde NCMS000 0.733333
de de SPS00 0.999919
la el DA0FS0 0.972146
implosi implosi RG 1
n n NCFS000 1
y y CC 0.999812
de de SPS00 1
el el DA0MS0 1
suicidio suicidio NCMS000 1
pol pol NCMS000 0.861706
tico tico AQ0MS0 0.806828
La la NP00000 1
tercera 3 AO0FS0 0.928571
econom econom NCMS000 0.500053
a a SPS00 0.99585
de de SPS00 0.999919
la el DA0FS0 0.972146
zona zona NCFS000 1
euro euro NCMS000 1
se se P00CN000 0.465602
encuentra encontrar VMIP3S0 0.972222
a a SPS00 0.99585
la el DA0FS0 0.972146
deriva deriva NCFS000 0.111111
frente_a frente_a SPS00 1
la el DA0FS0 0.972146
peor peor AQ0CS0 0.9
crisis crisis NCFN000 1
pol pol NCMS000 0.861706
tica tica AQ0FS0 0.595788
de de SPS00 0.999919
la el DA0FS0 0.972146
historia historia NCFS000 1
republicana republicano AQ0FS0 0.75
200 200 Z 1
oficinas oficina NCFP000 1
en en SPS00 1
150 150 Z 1
pa pa NCFS000 0.740689
ses ses NCMP000 0.727093
Ampliar_Desea ampliar_desea NP00000 1
compartir compartir VMN0000 1
una uno DI0FS0 0.951241
informaci informaci AQ0CS0 0.0199855
n n NCFS000 1
un uno DI0MS0 0.986987
comentario comentario NCMS000 1
Escr escr NP00000 1
banos banos NCMP000 0.509288
a a SPS00 0.99585

