MARSELLA_AFP_El marsella_afp_el NP00000 1
tribunal tribunal NCMS000 1
correccional correccional AQ0CS0 0.65727
de de SPS00 0.999919
Marsella marsella NP00000 1
sur sur NCMS000 1
de de SPS00 0.999919
Francia francia NP00000 1
que que PR0CN000 0.5625
juzga juzgar VMIP3S0 0.988986
desde desde SPS00 1
el el DA0MS0 1
mi mi DP1CSS 0.995536
rcoles rcoles NCMP000 0.750052
el el DA0MS0 1
caso caso NCMS000 0.990741
de de SPS00 0.999919
las el DA0FP0 0.97051
pr pr AQ0CS0 0.0829965
tesis tesis NCFN000 1
mamarias mamario AQ0FP0 1
adulteradas adulterar VMP00PF 1
de de SPS00 0.999919
la el DA0FS0 0.972146
firma firma NCFS000 0.833333
francesa francés AQ0FS0 0.875
PIP pip NP00000 1
rechaz rechaz AQ0CS0 0.803258
este este DD0MS0 0.956743
jueves_dos [J:2/??/??:??.??:??] W 1
recursos recurso NCMP000 1
de de SPS00 0.999919
constitucionalidad constitucionalidad NCFS000 1
presentados presentar VMP00PM 1
por por SPS00 1
la el DA0FS0 0.972146
defensa defensa NCCS000 1
por por SPS00 1
lo el DA0NS0 0.457393
que que PR0CN000 0.5625
el el DA0MS0 1
proceso proceso NCMS000 0.973684
contin contin AQ0CS0 0.0555794
a a SPS00 0.99585
A a NP00000 1
el el DA0MS0 1
reanudar reanudar VMN0000 1
se se PP3CN000 1
la el DA0FS0 0.972146
audiencia audiencia NCFS000 1
este este DD0MS0 0.956743
jueves [J:??/??/??:??.??:??] W 1
por por SPS00 1
la el DA0FS0 0.972146
ma ma AQ0FS0 0.14579
ana ana NCFS000 1
la el DA0FS0 0.972146
jueza juez NCFS000 1
Claude_Vieillard claude_vieillard NP00000 1
que que PR0CN000 0.5625
preside presidir VMIP3S0 0.994868
el el DA0MS0 1
tribunal tribunal NCMS000 1
rechaz rechaz AQ0CS0 0.803258
el el DA0MS0 1
pedido pedido NCMS000 0.25
de de SPS00 0.999919
los el DA0MP0 0.97623
abogados abogado NCMP000 0.833333
de de SPS00 0.999919
dos 2 Z 0.988722
de de SPS00 0.999919
los el DA0MP0 0.97623
acusados acusado NCMP000 0.308257
que que PR0CN000 0.5625
deseaban desear VMII3P0 1
que que CS 0.4375
fueran ser VSSI3P0 0.9375
transmitidas transmitir VMP00PF 1
a a SPS00 1
el el DA0MS0 1
tribunal tribunal NCMS000 1
de de SPS00 0.999919
casaci casaci RG 0.751648
n n NCFS000 1
dos 2 Z 0.988722
cuestionamientos cuestionamiento NCMP000 1
de de SPS00 0.999919
constitucionalidad constitucionalidad NCFS000 1
Los los NP00000 1
abogados abogado NCMP000 0.833333
de de SPS00 0.999919
Hannelore_Font hannelore_font NP00000 1
y y CC 0.999812
Claude_Couty claude_couty NP00000 1
directivos directivo NCMP000 0.833333
de de SPS00 0.999919
PIP pip NP00000 1
argumentaban argumentar VMII3P0 1
que que CS 0.4375
la el DA0FS0 0.972146
manera manera NCFS000 1
como como CS 0.998579
la el DA0FS0 0.972146
fiscal fiscal NCCS000 0.342737
a a SPS00 0.99585
organiz organiz NCMS000 1
el el DA0MS0 1
procedimiento procedimiento NCMS000 1
afecta afectar VMIP3S0 0.777778
los el DA0MP0 0.97623
derechos derecho NCMP000 0.9
de de SPS00 0.999919
la el DA0FS0 0.972146
defensa defensa NCCS000 1
Despu despu NP00000 1
s segundo NCMN000 0.622321
de de SPS00 0.999919
deliberar deliberar VMN0000 1
el el DA0MS0 1
tribunal tribunal NCMS000 1
rechaz rechaz AQ0CS0 0.803258
los el DA0MP0 0.97623
dos 2 Z 0.988722
recursos recurso NCMP000 1
consider consider VMN0000 0.630215
ndolos ndolos NCMP000 1
carentes carente AQ0CP0 1
de de SPS00 0.999919
car car NCMS000 1
cter cter NCMS000 1
serio serio AQ0MS0 0.9
Por por NP00000 1
tanto tanto RG 0.857895
la el DA0FS0 0.972146
audiencia audiencia NCFS000 1
prosigue proseguir VMIP3S0 0.994868
y y CC 0.999812
el el DA0MS0 1
tribunal tribunal NCMS000 1
va ir VMIP3S0 1
a a SPS00 0.99585
examinar examinar VMN0000 1
ahora ahora RG 1
los el DA0MP0 0.97623
incidentes incidente NCMP000 0.75
relevados relevar VMP00PM 1
por por SPS00 1
los el DA0MP0 0.97623
acusados acusar VMP00PM 0.691743
agreg agreg NCMS000 0.714133
la el DA0FS0 0.972146
jueza juez NCFS000 1
Si si NP00000 1
el el DA0MS0 1
tribunal tribunal NCMS000 1
hubiera haber VASI1S0 0.421384
aceptado aceptar VMP00SM 1
esos ese DD0MP0 0.961538
recursos recurso NCMP000 1
el el DA0MS0 1
proceso proceso NCMS000 0.973684
por por SPS00 1
este este DD0MS0 0.956743
esc esc NC00000 0.538029
ndalo ndalo NCMS000 1
de de SPS00 0.999919
repercusiones repercusión NCFP000 1
mundiales mundial AQ0CP0 0.557257
hubiera haber VMSI3S0 0.157233
sido ser VSP00SM 1
aplazado aplazar VMP00SM 1
' ' Fe 1
sine sine NCMS000 0.908358
die die NCFS000 1
' ' Fe 1
En en SPS00 1
este este DD0MS0 0.956743
proceso proceso NCMS000 0.973684
Jean_Claude_Mas jean_claude_mas NP00000 1
fundador fundador NCMS000 0.75
de de SPS00 0.999919
la el DA0FS0 0.972146
empresa empresa NCFS000 1
PIP_Poly_Implant_Proth pip_poly_implant_proth NP00000 1
se se P00CN000 0.465602
y y CC 0.999812
otros otro DI0MP0 0.56875
cuatro 4 Z 1
directivos directivo NCMP000 0.833333
de de SPS00 0.999919
la el DA0FS0 0.972146
firma firma NCFS000 0.833333
comparecen comparecer VMIP3P0 1
por por SPS00 1
enga enga VMSP3S0 0.87504
o o CC 0.998845
agravado agravar VMP00SM 1
y y CC 0.999812
estafa estafa NCFS000 0.846904
por por SPS00 1
haber haber VAN0000 0.744444
utilizado utilizar VMP00SM 1
para para SPS00 0.998507
los el DA0MP0 0.97623
implantes implante NCMP000 0.995706
mamarios mamario AQ0MP0 1
un uno DI0MS0 0.986987
gel gel NCMS000 1
de de SPS00 0.999919
silicona silicona NCFS000 1
impropio impropio AQ0MS0 1
para para SPS00 0.998507
uso uso NCMS000 0.95
m m NCFS000 0.5
dico do NCMS00D 0.736653
Esas esas NP00000 1
pr pr VMN0000 0.633986
tesis tesis NCFN000 1
fueron ser VSIS3P0 0.796296
implantadas implantar VMP00PF 1
a a SPS00 0.99585
decenas decena NCFP000 1
de de SPS00 0.999919
miles mil NCMP000 1
de de SPS00 0.999919
mujeres mujer NCFP000 1
en en SPS00 1
Francia francia NP00000 1
y y CC 0.999812
en en SPS00 1
el el DA0MS0 1
extranjero extranjero NCMS000 0.875
en en SPS00 1
particular particular NCCS000 0.25
en en SPS00 1
Am am NP00000 1
rica rico AQ0FS0 0.75
Latina_Los latina_los NP00000 1
acusados acusar VMP00PM 0.691743
son ser VSIP3P0 0.986772
pasibles pasible AQ0CP0 1
de de SPS00 0.999919
cinco 5 Z 0.98
a a SPS00 0.99585
os o NCFP000 0.222222
de de SPS00 0.999919
c c NCFS000 1
rcel rcel NCFS000 1
M m NP00000 1
s segundo NCMN000 0.622321
de de SPS00 0.999919
5 5 Z 1
200 200 Z 1
mujeres mujer NCFP000 1
presentaron presentar VMIS3P0 1
demanda demanda NCFS000 0.833333
en en SPS00 1
este este DD0MS0 0.956743
proceso proceso NCMS000 0.973684
que que CS 0.4375
durar durar VMN0000 1
en en SPS00 1
principio principio NCMS000 0.966667
hasta hasta SPS00 0.955172
el el DA0MS0 1
17_de_mayo [??:17/5/??:??.??:??] W 1
200 200 Z 1
oficinas oficina NCFP000 1
en en SPS00 1
150 150 Z 1
pa pa NCFS000 0.740689
ses ses NCMP000 0.727093
Ampliar_Desea ampliar_desea NP00000 1
compartir compartir VMN0000 1
una uno DI0FS0 0.951241
informaci informaci AQ0CS0 0.0199855
n n NCFS000 1
un uno DI0MS0 0.986987
comentario comentario NCMS000 1
Escr escr NP00000 1
banos banos NCMP000 0.509288
a a SPS00 0.99585

