Argentina argentina NP00000 0.666667
y y CC 0.999812
los el DA0MP0 0.97623
Prisioneros_Pol prisioneros_pol NP00000 1
ticos ticos AQ0MP0 0.671839
de de SPS00 1
el el DA0MS0 1
mundo mundo NCMS000 1
La la NP00000 1
piel piel NCFS000 1
de de SPS00 0.999919
la el DA0FS0 0.972146
libertad libertad NCFS000 0.978261
Para para NP00000 1
la el DA0FS0 0.972146
libertad libertad NCFS000 0.978261
me me PP1CS000 0.889706
desprendo desprender VMIP1S0 1
a a SPS00 0.99585
balazos balazo NCMP000 1
de de SPS00 0.999919
los el DA0MP0 0.97623
que que PR0CN000 0.5625
han haber VAIP3P0 1
revolcado revolcar VMP00SM 1
su su DP3CS0 1
estatua estatua NCFS000 1
por por SPS00 1
el el DA0MS0 1
lodo lodo NCMS000 1
Y y NP00000 1
me me PP1CS000 0.889706
desprendo desprender VMIP1S0 1
a a SPS00 0.99585
golpes golpe NCMP000 1
de de SPS00 0.999919
mis mi DP1CPS 0.98
pies pie NCMP000 1
de de SPS00 0.999919
mis mi DP1CPS 0.98
brazos brazo NCMP000 1
de de SPS00 0.999919
mi mi DP1CSS 0.995536
casa casa NCFS000 0.971264
de de SPS00 0.999919
todo todo DI0MS0 0.559816
Miguel_Hern miguel_hern NP00000 1
ndez ndez NCFS000 1
Cu cu NP00000 1
ntos ntos NCMP000 0.794713
y y CC 0.999812
qui qui NCMS000 1
nes nes NCFP000 0.666437
son ser VSIP3P0 0.986772
los el DA0MP0 0.97623
prisioneros prisionero AQ0MP0 0.50727
pol pol NCMS000 0.861706
ticos ticos AQ0MP0 0.671839
de de SPS00 1
el el DA0MS0 1
mundo mundo NCMS000 1
Si si NP00000 1
la el DA0FS0 0.972146
libertad libertad NCFS000 0.978261
en en SPS00 1
general general AQ0CS0 0.90625
s segundo NCMN000 0.622321
lo el DA0NS0 0.457393
ser ser VSN0000 0.93883
resultado resultar VMP00SM 0.192308
de de SPS00 0.999919
la el DA0FS0 0.972146
igualdad igualdad NCFS000 1
social social AQ0CS0 0.977273
de de SPS00 0.999919
alg alg NCMS000 0.714133
n n NCFS000 1
modo modo NCMS000 1
todos todo PI0MP000 0.374631
estamos estar VAIP1P0 1
presos preso NCMP000 0.75
Lo lo NP00000 1
feroz feroz AQ0CS0 1
es ser VSIP3S0 1
la el DA0FS0 0.972146
experiencia experiencia NCFS000 1
tan tan RG 1
concreta concreto AQ0FS0 0.866667
como como CS 0.998579
el el DA0MS0 1
castigo castigo NCMS000 0.75
enrejado enrejar VMP00SM 0.691767
de de SPS00 0.999919
miles mil NCMP000 1
y y CC 0.999812
miles mil NCMP000 1
de de SPS00 0.999919
rebeldes rebelde AQ0CP0 0.638481
luchadores luchador NCMP000 0.608934
sociales social AQ0CP0 0.9375
justos justo AQ0MP0 0.75
en en SPS00 1
minor minor NCMS000 0.511189
a a SPS00 0.99585
insubordinados insubordinar VMP00PM 0.691748
mujeres mujer NCFP000 1
y y CC 0.999812
hombres hombre NCMP000 1
que que PR0CN000 0.5625
resisten resistir VMIP3P0 1
en en SPS00 1
condiciones condición NCFP000 0.958333
de de SPS00 0.999919
espanto espanto NCMS000 0.833333
el el DA0MS0 1
sometimiento sometimiento NCMS000 1
de de SPS00 0.999919
clase clase NCFS000 1
impuesto imponer VMP00SM 0.5
por por SPS00 1
el el DA0MS0 1
Estado_La estado_la NP00000 1
paradoja paradoja NCFS000 1
es ser VSIP3S0 1
que que CS 0.4375
el el DA0MS0 1
carcelero carcelero NCMS000 0.542738
sea ser VSSP1S0 0.485714
cual cual PR0CS000 0.9
sea ser VSSP1S0 0.485714
su su DP3CS0 1
estatura estatura NCFS000 1
permanece permanecer VMIP3S0 0.875
tan tan RG 1
falto falto AQ0MS0 0.974382
de de SPS00 0.999919
libertad libertad NCFS000 0.978261
como como CS 0.998579
el el DA0MS0 1
prisionero prisionero NCMS000 0.64273
La la NP00000 1
futura futuro AQ0FS0 1
desaparici desaparici VMIS1S0 0.0691907
n n NCFS000 1
de de SPS00 0.999919
la el DA0FS0 0.972146
minor minor NCMS000 0.511189
a a SPS00 0.99585
opresora opresor NCFS000 0.557792
contra contra SPS00 0.976316
la el DA0FS0 0.972146
mayor mayor AQ0CS0 0.989796
a a SPS00 0.99585
oprimida oprimir VMP00SF 1
significar significar VMN0000 1
tambi tambi AQ0CN0 1
n n NCFS000 1
la el DA0FS0 0.972146
emancipaci emancipaci AQ0CS0 0.0199855
n n NCFS000 1
de de SPS00 0.999919
los el DA0MP0 0.97623
opresores opresor NCMP000 0.64273
As as NP00000 1
el el DA0MS0 1
guardia guardia NCCS000 1
el el DA0MS0 1
juez juez NCCS000 1
la el DA0FS0 0.972146
polic polic NCFS000 1
a a SPS00 0.99585
y y CC 0.999812
el el DA0MS0 1
oficial oficial AQ0CS0 0.916667
los el DA0MP0 0.97623
pol pol NCMS000 0.861706
ticos ticos AQ0MP0 0.671839
de de SPS00 0.999919
los el DA0MP0 0.97623
que que PR0CN000 0.5625
mandan mandar VMIP3P0 1
s segundo NCMN000 0.622321
lo el DA0NS0 0.457393
ser ser VSN0000 0.93883
n n NCFS000 1
libres libre AQ0CP0 0.916667
cuando cuando CS 0.983796
no no RN 0.99778
exista existir VMSP1S0 0.47619
la el DA0FS0 0.972146
alienaci alienaci AQ0CS0 0.0199855
n n NCFS000 1
ni ni CC 0.995935
las el DA0FP0 0.97051
relaciones relación NCFP000 0.944444
de de SPS00 0.999919
clase clase NCFS000 1
y y CC 0.999812
poder poder NCMS000 0.711538
que que PR0CN000 0.5625
les le PP3CPD00 1
faculta facultar VMIP3S0 0.994868
para para SPS00 0.998507
perseguir perseguir VMN0000 1
juzgar juzgar VMN0000 1
vigilar vigilar VMN0000 1
doblegar doblegar VMN0000 1
torturar torturar VMN0000 1
y y CC 0.999812
aprobar aprobar VMN0000 1
y y CC 0.999812
promover promover VMN0000 1
el el DA0MS0 1
dolor dolor NCMS000 1
social social AQ0CS0 0.977273
y y CC 0.999812
existencial existencial AQ0CS0 1
de de SPS00 0.999919
los el DA0MP0 0.97623
que que PR0CN000 0.5625
pugnan pugnar VMIP3P0 1
por por SPS00 1
cambiar cambiar VMN0000 1
la el DA0FS0 0.972146
vida vida NCFS000 1
Sin sin NP00000 1
esclavo esclavo AQ0MS0 0.65721
no no RN 0.99778
hay haber VMIP3S0 1
amo amo NCMS000 0.375
sin sin SPS00 1
sometido someter VMP00SM 1
no no RN 0.99778
hay haber VMIP3S0 1
quien quien PR0CS000 1
someta someter VMSP3S0 0.62341
El el NP00000 1
malestar malestar NCMS000 1
de de SPS00 0.999919
los el DA0MP0 0.97623
pueblos pueblo NCMP000 1
conciente conciente AQ0CS0 0.852834
o o CC 0.998845
inconcientemente inconcientemente RG 1
se se P00CN000 0.465602
condensa condensar VMIP3S0 0.994868
en en SPS00 1
la el DA0FS0 0.972146
ausencia ausencia NCFS000 1
de de SPS00 0.999919
libertad libertad NCFS000 0.978261
La la NP00000 1
libertad libertad NCFS000 0.978261
como como CS 0.998579
movimiento movimiento NCMS000 1
propio propio AQ0MS0 0.98
de de SPS00 0.999919
la el DA0FS0 0.972146
autodeterminaci autodeterminaci AQ0CS0 0.0199855
n n NCFS000 1
colectiva colectivo AQ0FS0 1
y y CC 0.999812
personal personal AQ0CS0 0.710526
como como CS 0.998579
fin fin NCMS000 1
de de SPS00 0.999919
la el DA0FS0 0.972146
expoliaci expoliaci AQ0CS0 0.0199855
n n NCFS000 1
la el DA0FS0 0.972146
colonizaci colonizaci AQ0CS0 0.0199855
n n NCFS000 1
el el DA0MS0 1
imperialismo imperialismo NCMS000 1
capitalista capitalista AQ0CS0 0.833333
el el DA0MS0 1
cuerpo cuerpo NCMS000 1
individual individual AQ0CS0 1
desecho desecho NCMS000 0.947413
y y CC 0.999812
vuelto volver VMP00SM 1
mercanc mercanc NC00000 0.538029
a a SPS00 0.99585
La la NP00000 1
conquista conquista NCFS000 0.846874
de de SPS00 0.999919
la el DA0FS0 0.972146
libertad libertad NCFS000 0.978261
no no RN 0.99778
es ser VSIP3S0 1
la el DA0FS0 0.972146
desaparici desaparici AQ0CS0 0.0199855
n n NCFS000 1
de de SPS00 0.999919
las el DA0FP0 0.97051
contradicciones contradicción NCFP000 1
Es es NP00000 1
s segundo NCMN000 0.622321
lo lo PP3CNA00 0.271163
la el DA0FS0 0.972146
destrucci destrucci AQ0CS0 0.0199855
n n NCFS000 1
de de SPS00 1
el el DA0MS0 1
enemigo enemigo NCMS000 0.583333
principal principal AQ0CS0 0.9375
de de SPS00 0.999919
la el DA0FS0 0.972146
humanidad humanidad NCFS000 1
la el DA0FS0 0.972146
propiedad propiedad NCFS000 1
privada privar VMP00SF 0.833333
en en SPS00 1
t t NCFS000 1
rminos rminos NCMP000 1
ampliados ampliar VMP00PM 1
Sobre sobre NP00000 1
ella él PP3FS000 1
se se P00CN000 0.465602
erige erigir VMIP3S0 0.994868
el el DA0MS0 1
Estado estado NP00000 1
la el DA0FS0 0.972146
sociedad sociedad NCFS000 1
de de SPS00 0.999919
clases clase NCFP000 1
de de SPS00 0.999919
intereses interés NCMP000 0.916667
irreconciliablemente irreconciliablemente RG 1
antag antag RG 1
nicos nicos AQ0MP0 0.469818
las el DA0FP0 0.97051
relaciones relación NCFP000 0.944444
de de SPS00 0.999919
poder poder VMN0000 0.288462
el el DA0MS0 1
hambre hambre NCFS000 1
la el DA0FS0 0.972146
ignominia ignominia NCFS000 1
el el DA0MS0 1
avasallamiento avasallamiento NCMS000 1
el el DA0MS0 1
reino reino NCMS000 0.9
de de SPS00 0.999919
la el DA0FS0 0.972146
indolencia indolencia NCFS000 1
y y CC 0.999812
la el DA0FS0 0.972146
crueldad crueldad NCFS000 1
el el DA0MS0 1
ego ego NCMS000 1
smo smo AQ0MS0 0.345357
multiplicado multiplicar VMP00SM 1
el el DA0MS0 1
patriarcado patriarcado NCMS000 1
el el DA0MS0 1
despojo despojo NCMS000 0.973494
la el DA0FS0 0.972146
apropiaci apropiaci AQ0CS0 0.0199855
n n NCFS000 1
de de SPS00 1
el el DA0MS0 1
trabajo trabajo NCMS000 0.940476
de de SPS00 1
el el DA0MS0 1
conjunto conjunto NCMS000 0.944444
social social AQ0CS0 0.977273
el el DA0MS0 1
golpe golpe NCMS000 1
sobre sobre SPS00 0.994203
el el DA0MS0 1
ni ni CC 0.995935
o o CC 0.998845
el el DA0MS0 1
racismo racismo NCMS000 1
el el DA0MS0 1
abuso abuso NCMS000 0.875
en en SPS00 1
todas todo DI0FP0 0.945312
sus su DP3CP0 0.998462
manifestaciones manifestación NCFP000 1
la el DA0FS0 0.972146
administraci administraci AQ0CS0 0.0199855
n n NCFS000 1
de de SPS00 0.999919
la el DA0FS0 0.972146
miseria miseria NCFS000 1
y y CC 0.999812
la el DA0FS0 0.972146
muerte muerte NCFS000 1
esta este DD0FS0 0.982143
prehistoria prehistoria NCFS000 1
que que PR0CN000 0.5625
a a SPS00 0.99585
n n NCFS000 1
tiene tener VMIP3S0 1
cuerda cuerda NCFS000 0.623915
El el NP00000 1
17_de_abril [??:17/4/??:??.??:??] W 1
se se P00CN000 0.465602
conmemor conmemor NCMS000 1
en en SPS00 1
la el DA0FS0 0.972146
acci acci AQ0CS0 0.0199855
n n NCFS000 1
y y CC 0.999812
la el DA0FS0 0.972146
actualidad actualidad NCFS000 1
el el DA0MS0 1
D d NP00000 1
a a SPS00 0.99585
Internacional_por_la_Solidaridad internacional_por_la_solidaridad NP00000 1
con con SPS00 1
los el DA0MP0 0.97623
Prisioneros_Pol prisioneros_pol NP00000 1
ticos ticos AQ0MP0 0.671839
En en NP00000 1
el el DA0MS0 1
centro centro NCMS000 0.966667
de de SPS00 0.999919
la el DA0FS0 0.972146
Ciudad_de_Buenos_Aires_Argentina ciudad_de_buenos_aires_argentina NP00000 1
distintas distinto AQ0FP0 1
organizaciones organización NCFP000 1
y y CC 0.999812
representaciones representación NCFP000 1
realizaron realizar VMIS3P0 1
un uno DI0MS0 0.986987
acto acto NCMS000 1
emocionante emocionante AQ0CS0 1
y y CC 0.999812
de de SPS00 0.999919
madera madera NCFS000 0.888889
profunda profundo AQ0FS0 0.666667
cortando cortar VMG0000 1
la el DA0FS0 0.972146
avenida avenida NCFS000 0.408201
Corrientes corrientes NP00000 1
y y CC 0.999812
Callao callao NP00000 1
mientras mientras CS 0.881579
la el DA0FS0 0.972146
noche noche NCFS000 1
empapaba empapar VMII3S0 0.65
lentamente lentamente RG 1
la el DA0FS0 0.972146
concentraci concentraci AQ0CS0 0.0199855
n n NCFS000 1
Un uno DI0MS0 0.986987
cami cami RG 0.751648
n n NCFS000 1
de de SPS00 0.999919
lata lata NCFS000 0.733333
azul azul AQ0CS0 0.633333
fue ser VSIS3S0 0.932292
el el DA0MS0 1
escenario escenario NCMS000 1
El el NP00000 1
capitalismo capitalismo NCMS000 1
produce producir VMIP3S0 0.961538
presos preso NCMP000 0.75
El el NP00000 1
periodista periodista NCCS000 1
Herman_Schiller herman_schiller NP00000 1
http http NCMS000 1
// // Fz 1
www www NCFS000 0.159442
deigualaigual deigualaigual AQ0CS0 0.714286
net/es/actualidad/entrevistas/5925 net/es/actualidad/entrevistas/5925 Z 1
soy ser VSIP1S0 1
un uno DI0MS0 0.986987
francotirador francotirador NCMS000 1
que que PR0CN000 0.5625
esta este DD0FS0 0.982143
por por SPS00 1
la el DA0FS0 0.972146
unidad unidad NCFS000 1
de de SPS00 0.999919
la el DA0FS0 0.972146
izquierda izquierdo AQ0FS0 0.5
argentinaq argentinaq NC00000 0.699903
ofrece ofrecer VMIP3S0 0.9
la el DA0FS0 0.972146
continuidad continuidad NCFS000 1
y y CC 0.999812
las el DA0FP0 0.97051
presentaciones presentación NCFP000 1
A a NP00000 1
los el DA0MP0 0.97623
presos preso AQ0MP0 0.25
pol pol NCMS000 0.861706
ticos ticos AQ0MP0 0.671839
hay haber VMIP3S0 1
que que CS 0.4375
arrancar arrancar VMN0000 1
los lo PP3MPA00 1
de de SPS00 0.999919
las el DA0FP0 0.97051
c c NCFS000 1
rceles rceles NCFP000 1
a a SPS00 0.99585
trav trav AQ0CS0 0.0433699
s segundo NCMN000 0.622321
de de SPS00 0.999919
la el DA0FS0 0.972146
lucha lucha NCFS000 0.880952
y y CC 0.999812
en en SPS00 1
ese ese DD0MS0 0.98125
camino camino NCMS000 0.978261
nos nos PP1CP000 0.933333
encontramos encontrar VMIP1P0 0.65
En_Argentina_Los en_argentina_los NP00000 1
luchadores luchador NCMP000 0.608934
somos ser VSIP1P0 1
perseguidos perseguir VMP00PM 1
y y CC 0.999812
procesados procesar VMP00PM 0.691743
por por SPS00 1
resistir resistir VMN0000 1
a a SPS00 0.99585
las el DA0FP0 0.97051
pol pol NCMS000 0.861706
ticas ticas AQ0FP0 0.760898
de de SPS00 0.999919
hambre hambre NCFS000 1
y y CC 0.999812
saqueo saqueo NCMS000 0.831653
judicializan judicializan VMIP3P0 1
la el DA0FS0 0.972146
protesta protesta NCFS000 0.916667
y y CC 0.999812
persiguen perseguir VMIP3P0 1
a a SPS00 0.99585
quienes quien PR0CP000 1
nos nos PP1CP000 0.933333
oponemos oponer VMIP1P0 1
a a SPS00 0.99585
la el DA0FS0 0.972146
opresi opresi RG 1
n n NCFS000 1
y y CC 0.999812
la el DA0FS0 0.972146
indignidad indignidad NCFS000 1
a a SPS00 0.99585
la el DA0FS0 0.972146
que que PR0CN000 0.5625
son ser VSIP3P0 0.986772
sometidos someter VMP00PM 1
millones millón NCMP000 1
de de SPS00 0.999919
argentinos argentino NCMP000 0.592739
lee leer VMIP3S0 0.875
Schiller schiller NP00000 1
el el DA0MS0 1
comunicado comunicado NCMS000 0.345763
consensuado consensuar VMP00SM 1
por por SPS00 1
las el DA0FP0 0.97051
agrupaciones agrupación NCFP000 1
convocantes convocante AQ0CP0 0.557261
Ismael_Jalil_de_la_Coordinadora_Contra_la_Represi ismael_jalil_de_la_coordinadora_contra_la_represi NP00000 1
n n NCFS000 1
Policial policial NP00000 1
e y CC 0.973684
Institucional institucional NP00000 1
dice decir VMIP3S0 1
que que CS 0.4375
son ser VSIP3P0 0.986772
cr cr NCMS000 1
menes menes NCMP000 1
de de SPS00 0.999919
Estado estado NP00000 1
las el DA0FP0 0.97051
recientes reciente AQ0CP0 0.75
inundaciones inundación NCFP000 1
y y CC 0.999812
lo el DA0NS0 0.457393
que que PR0CN000 0.5625
pas pas NCFP000 0.954559
en en SPS00 1
Once 11 Z 1
tragedia tragedia NCFS000 1
ferrocarrilera ferrocarrilero AQ0FS0 1
las el DA0FP0 0.97051
pol pol NCMS000 0.861706
ticas ticas AQ0FP0 0.760898
de de SPS00 0.999919
exterminio exterminio NCMS000 1
contra contra SPS00 0.976316
la el DA0FS0 0.972146
poblaci poblaci AQ0CS0 0.0199855
n n NCFS000 1
mediante mediante SPS00 0.944444
el el DA0MS0 1
gatillo gatillo NCMS000 1
f f NCFS000 1
cil cil AQ0CS0 1
policial policial AQ0CS0 1
y y CC 0.999812
las el DA0FP0 0.97051
torturas tortura NCFP000 0.75
en en SPS00 1
los el DA0MP0 0.97623
lugares lugar NCMP000 1
de de SPS00 0.999919
detenci detenci RG 0.751648
n n NCFS000 1
Otro otro NP00000 1
de de SPS00 0.999919
los el DA0MP0 0.97623
mecanismos mecanismo NCMP000 1
que que PR0CN000 0.5625
utilizan utilizar VMIP3P0 1
es ser VSIP3S0 1
la el DA0FS0 0.972146
naturalizaci naturalizaci AQ0CS0 0.0199855
n n NCFS000 1
es ser VSIP3S0 1
decir decir VMN0000 0.987805
dar dar VMN0000 1
por por SPS00 1
sentado sentar VMP00SM 1
que que CS 0.4375
esto este PD0NS000 1
es ser VSIP3S0 1
lo el DA0NS0 0.457393
normal normal AQ0CS0 0.9375
Para para NP00000 1
qu qu NCMS000 0.774439
Para para NP00000 1
que que CS 0.4375
la el DA0FS0 0.972146
sociedad sociedad NCFS000 1
ignor ignor AQ0CS0 0.488811
las el DA0FP0 0.97051
causas causa NCFP000 0.833333
por por SPS00 1
las el DA0FP0 0.97051
cuales cual PR0CP000 1
fueron ser VSIS3P0 0.796296
llevados llevar VMP00PM 1
a a SPS00 0.99585
prisi prisi RG 1
n n NCFS000 1
Y y NP00000 1
este este DD0MS0 0.956743
gobierno gobierno NCMS000 0.9
est est NCMS000 1
contra contra SPS00 0.976316
la el DA0FS0 0.972146
libertad libertad NCFS000 0.978261
cuando cuando CS 0.983796
se se P00CN000 0.465602
aprueban aprobar VMIP3P0 1
ocho 8 Z 1
leyes ley NCFP000 1
pol pol NCMS000 0.861706
ticas ticas AQ0FP0 0.760898
antiterroristas antiterrorista AQ0CP0 1
por por SPS00 1
las el DA0FP0 0.97051
presiones presión NCFP000 0.995706
de de SPS00 1
el el DA0MS0 1
capital capital NCFS000 0.372549
transnacional transnacional AQ0CS0 1
Se se NP00000 1
est est NCMS000 1
contra contra SPS00 0.976316
la el DA0FS0 0.972146
libertad libertad NCFS000 0.978261
cuando cuando CS 0.983796
son ser VSIP3P0 0.986772
seis_mil 6000 Z 1
los el DA0MP0 0.97623
procesados procesado NCMP000 0.308257
por por SPS00 1
luchar luchar VMN0000 1
cuando cuando CS 0.983796
se se P00CN000 0.465602
encubre encubrir VMIP3S0 0.994868
la el DA0FS0 0.972146
impunidad impunidad NCFS000 1
de de SPS00 1
el el DA0MS0 1
Corral_de_Bustos corral_de_bustos NP00000 1
cuando cuando CS 0.983796
se se P00CN000 0.465602
termina terminar VMIP3S0 0.833333
encarcelando encarcelar VMG0000 1
a a SPS00 0.99585
los el DA0MP0 0.97623
luchadores luchador NCMP000 0.608934
de de SPS00 1
el el DA0MS0 1
pueblo pueblo NCMS000 0.978261
de de SPS00 0.999919
Bariloche bariloche NP00000 1
por por SPS00 1
denunciar denunciar VMN0000 1
sus su DP3CP0 0.998462
condiciones condición NCFP000 0.958333
de de SPS00 0.999919
miseria miseria NCFS000 1
De de NP00000 1
qu qu NCMS000 0.774439
progresismo progresismo NCMS000 1
y y CC 0.999812
DDHH ddhh NP00000 1
nos nos PP1CP000 0.933333
hablan hablar VMIP3P0 1
Emblema_de_el_Colectivo emblema_de_el_colectivo NP00000 1
de de SPS00 0.999919
ex ex NCCN000 0.75
Presas_Pol presas_pol NP00000 1
ticas ticas AQ0FP0 0.760898
de de SPS00 0.999919
Paraguay_Carmen_Soler paraguay_carmen_soler NP00000 1
la el DA0FS0 0.972146
peque peque NCCS000 0.618697
a a SPS00 0.99585
gigante gigante NCCS000 0.375
Teresita_Asilvera teresita_asilvera NP00000 1
vibra vibrar VMIP3S0 0.75
sobre sobre SPS00 0.994203
la el DA0FS0 0.972146
plataforma plataforma NCFS000 1
de de SPS00 1
el el DA0MS0 1
cami cami RG 0.751648
n n NCFS000 1
cuando cuando CS 0.983796
se se P00CN000 0.465602
ala ala NCFS000 0.961441
que que CS 0.4375
Nosotros nosotros NP00000 1
somos ser VSIP1P0 1
campesinos campesino NCMP000 0.5
Y y NP00000 1
cuando cuando CS 0.983796
en en SPS00 1
Am am NP00000 1
rica rico NCFS000 0.25
Latina latina NP00000 1
los el DA0MP0 0.97623
campesinos campesino NCMP000 0.5
tienen tener VMIP3P0 1
hambre hambre NCFS000 1
y y CC 0.999812
reclaman reclamar VMIP3P0 1
por por SPS00 1
la el DA0FS0 0.972146
tierra tierra NCFS000 1
son ser VSIP3P0 0.986772
torturados torturar VMP00PM 1
secuestrados secuestrar VMP00PM 1
confinados confinar VMP00PM 0.691767
y y CC 0.999812
desaparecidos desaparecer VMP00PM 0.541807
El el NP00000 1
capitalismo capitalismo NCMS000 1
produce producir VMIP3S0 0.961538
presos preso NCMP000 0.75
Hoy hoy NP00000 1
en en SPS00 1
Paraguay paraguay NP00000 1
existe existir VMIP3S0 0.966667
una uno DI0FS0 0.951241
dictadura dictadura NCFS000 1
urdida urdir VMP00SF 1
por por SPS00 1
la el DA0FS0 0.972146
embajada embajada NCFS000 1
norteamericana norteamericano AQ0FS0 0.75
y y CC 0.999812
los el DA0MP0 0.97623
senadores senador NCMP000 1
de de SPS00 1
el el DA0MS0 1
pa pa NCFS000 0.740689
s segundo NCMN000 0.622321
Pero pero NP00000 1
nosotras nosotros PP1FP000 1
las el DA0FP0 0.97051
mujeres mujer NCFP000 1
que que PR0CN000 0.5625
hemos haber VAIP1P0 0.969697
sido ser VSP00SM 1
atadas atar VMP00PF 1
de de SPS00 0.999919
pies pie NCMP000 1
y y CC 0.999812
manos mano NCFP000 1
que que PR0CN000 0.5625
nos nos PP1CP000 0.933333
han haber VAIP3P0 1
pasado pasar VMP00SM 0.647727
la el DA0FS0 0.972146
picana picana NCFS000 1
les le PP3CPD00 1
pedimos pedir VMIS1P0 0.54998
que que CS 0.4375
luchemos luchar VMSP1P0 0.815551
contra contra SPS00 0.976316
la el DA0FS0 0.972146
ley ley NCFS000 1
antiterrorista antiterrorista AQ0CS0 1
En en NP00000 1
junio [??:??/6/??:??.??:??] W 1
de de SPS00 1
el el DA0MS0 1
a a NCFS000 0.00415028
o o CC 0.998845
pasado pasado NCMS000 0.352273
fueron ser VSIS3P0 0.796296
asesinados asesinar VMP00PM 1
11 11 Z 1
campesinos campesino NCMP000 0.5
por por SPS00 1
la el DA0FS0 0.972146
tierra tierra NCFS000 1
en en SPS00 1
la el DA0FS0 0.972146
matanza matanza NCFS000 1
de de SPS00 0.999919
Curuguaty_En curuguaty_en NP00000 1
marzo [??:??/3/??:??.??:??] W 1
pasado pasar VMP00SM 0.647727
asesinaron asesinar VMIS3P0 1
a a SPS00 0.99585
dos 2 Z 0.988722
campesinos campesino AQ0MP0 0.5
m m NCFS000 0.5
s segundo NCMN000 0.622321
Colombia colombia NP00000 1
9 9 Z 1
500 500 Z 1
PP_Diego_Laine_de_Per pp_diego_laine_de_per NP00000 1
agradeci agradeci RG 0.751648
la el DA0FS0 0.972146
solidaridad solidaridad NCFS000 1
con con SPS00 1
el el DA0MS0 1
prisionero prisionero NCMS000 0.64273
en en SPS00 1
Argentina_Rolando_Echarri_Pareja argentina_rolando_echarri_pareja NP00000 1
porque porque CS 1
no no RN 0.99778
puede poder VMIP3S0 0.995614
haber haber VMN0000 0.244444
c c NCFS000 1
rcel rcel NCFS000 1
para para SPS00 0.998507
quien quien PR0CS000 1
lucha luchar VMIP3S0 0.0952381
por por SPS00 1
su su DP3CS0 1
pueblo pueblo NCMS000 0.978261
En_Per en_per NP00000 1
hay haber VMIP3S0 1
300 300 Z 1
prisioneros prisionero AQ0MP0 0.50727
pol pol NCMS000 0.861706
ticos ticos AQ0MP0 0.671839
que que PR0CN000 0.5625
ya ya RG 0.996988
llevan llevar VMIP3P0 1
m m NCFS000 0.5
s segundo NCMN000 0.622321
de de SPS00 0.999919
20 20 Z 1
a a SPS00 0.99585
os o NCFP000 0.222222
de de SPS00 0.999919
cautiverio cautiverio NCMS000 1
Qu qu NP00000 1
est est NCMS000 1
haciendo hacer VMG0000 0.958333
Ollanta_Humala_Castigando ollanta_humala_castigando NP00000 1
a a SPS00 0.99585
todo todo DI0MS0 0.559816
aquel aquel DD0MS0 0.985714
que que CS 0.4375
se se P00CN000 0.465602
oponga oponer VMSP3S0 0.62344
a a SPS00 0.99585
sus su DP3CP0 0.998462
pol pol NCMS000 0.861706
ticas ticas AQ0FP0 0.760898
antipopulares antipopular AQ0CP0 1
Mientras mientras NP00000 1
los el DA0MP0 0.97623
j j NCFS000 1
venes venes AQ0CP0 0.35715
estudiantes estudiante NCCP000 0.875
chilenos chileno AQ0MP0 0.75
llenan llenar VMIP3P0 1
las el DA0FP0 0.97051
calles calle NCFP000 0.954545
de de SPS00 1
el el DA0MS0 1
pa pa NCFS000 0.740689
s segundo NCMN000 0.622321
andino andino AQ0MS0 0.415349
para para SPS00 0.998507
exigir exigir VMN0000 1
una uno DI0FS0 0.951241
educaci educaci AQ0CS0 0.0199855
n n NCFS000 1
p p NCFS000 0.5
blica blica AQ0FS0 1
y y CC 0.999812
gratuita gratuito AQ0FS0 1
y y CC 0.999812
los el DA0MP0 0.97623
mapuche mapuche NCMS000 0.60523
resisten resistir VMIP3P0 1
la el DA0FS0 0.972146
usurpaci usurpaci AQ0CS0 0.0199855
n n NCFS000 1
y y CC 0.999812
militarizaci militarizaci RG 0.751648
n n NCFS000 1
de de SPS00 0.999919
sus su DP3CP0 0.998462
territorios territorio NCMP000 1
es ser VSIP3S0 1
el el DA0MS0 1
turno turno NCMS000 0.9
de de SPS00 0.999919
la el DA0FS0 0.972146
Asamblea_de_Estudiantes_Exiliados_por_la_Educaci asamblea_de_estudiantes_exiliados_por_la_educaci NP00000 1
n n NCFS000 1
de de SPS00 0.999919
Mercado_de_Chile_Alejandro mercado_de_chile_alejandro NP00000 1
vocero vocero NCMS000 1
reivindica reivindicar VMIP3S0 0.994868
el el DA0MS0 1
combate combate NCMS000 0.75
ind ind AQ0CN0 0.357839
gena gena NCFS000 0.487826
que que PR0CN000 0.5625
lleva llevar VMIP3S0 0.975
m m NCFS000 0.5
s segundo NCMN000 0.622321
de de SPS00 0.999919
500 500 Z 1
a a SPS00 0.99585
os o NCFP000 0.222222
contra contra SPS00 0.976316
la el DA0FS0 0.972146
pr pr NCMS000 0.224371
ctica ctica AQ0FS0 0.300042
estatal estatal AQ0CS0 1
de de SPS00 0.999919
burdos burdo AQ0MP0 1
montajes montaje NCMP000 1
y y CC 0.999812
que que PR0CN000 0.5625
hoy hoy RG 0.877358
suma sumar VMIP3S0 0.228571
m m NCFS000 0.5
s segundo NCMN000 0.622321
de de SPS00 0.999919
cuarenta 40 Z 1
prisioneros prisionero NCMP000 0.49273
Repudiamos repudiamos NP00000 1
la el DA0FS0 0.972146
ley ley NCFS000 1
antiterrorista antiterrorista AQ0CS0 1
de de SPS00 0.999919
Chile chile NP00000 1
y y CC 0.999812
Argentina argentina NP00000 1
y y CC 0.999812
en en SPS00 1
especial especial AQ0CS0 1
la el DA0FS0 0.972146
ley ley NCFS000 1
Hinzpeter hinzpeter NP00000 1
http http NCMS000 1
// // Fz 1
www www NCFS000 0.159442
elclarin elclarin AQ0CS0 0.0555794
cl centilitro NCMN000 1
/ / Fh 1
web web NCFS000 0.64221
/ / Fh 1
index index NCMN000 0.800012
php php NCMS000 1
option option VMIS3P0 0.923476
com cometro NCMN000 0.65
content content NCMS000 0.607342
view view RG 0.106198
article article AQ0CS0 0.730919
id ir VMM02P0 1
7677 7677 Z 1
amnistia amnistia NCFS000 0.777778
internacional internacional AQ0CS0 0.833333
dice decir VMIP3S0 1
no no RN 0.99778
a a SPS00 0.99585
la el DA0FS0 0.972146
ley ley NCFS000 1
hinzpeteren hinzpeteren VMSP3P0 1
lollapalooza lollapalooza VMIP3S0 1
catid catid NCFS000 0.961423
5 5 Z 1
cultura cultura NCFS000 1
y y CC 0.999812
espectaculos espectaculos NCMP000 0.904785
Itemid itemid NP00000 1
6 6 Z 1
En_Chile en_chile NP00000 1
gobierna gobernar VMIP3S0 0.666667
un uno DI0MS0 0.986987
Estado estado NP00000 1
policial policial AQ0CS0 1
Pero pero NP00000 1
es ser VSIP3S0 1
la el DA0FS0 0.972146
hora hora NCFS000 1
de de SPS00 0.999919
retomar retomar VMN0000 1
a a SPS00 0.99585
los el DA0MP0 0.97623
caminos camino NCMP000 1
que que PR0CN000 0.5625
heredamos heredar VMIP1P0 0.65
de de SPS00 0.999919
andar andar VMN0000 0.875
m m NCFS000 0.5
s segundo NCMN000 0.622321
despiertos despierto AQ0MP0 1
Estamos estamos NP00000 1
dispuestos disponer VMP00PM 1
a a SPS00 0.99585
asumir asumir VMN0000 1
los el DA0MP0 0.97623
riesgos riesgo NCMP000 1
necesarios necesario AQ0MP0 1
para para SPS00 0.998507
mejorar mejorar VMN0000 1
nuestras nuestro DP1FPP 0.972222
vidas vida NCFP000 1
Una uno DI0FS0 0.951241
joven joven NCCS000 0.462963
colombiana colombiano AQ0FS0 0.577232
toma tomar VMIP3S0 0.533333
el el DA0MS0 1
micr micr NCMS000 1
fono fono NCMS000 1
Por por NP00000 1
su su DP3CS0 1
voz voz NCFS000 1
transita transitar VMIP3S0 0.994868
la el DA0FS0 0.972146
herida herida NCFS000 0.444444
y y CC 0.999812
la el DA0FS0 0.972146
convicci convicci AQ0CS0 0.0199855
n n NCFS000 1
de de SPS00 0.999919
un uno DI0MS0 0.986987
pa pa NCFS000 0.740689
s segundo NCMN000 0.622321
que que PR0CN000 0.5625
sangra sangrar VMIP3S0 0.994865
y y CC 0.999812
resiste resistir VMIP3S0 0.994868
http http NCMS000 1
// // Fz 1
www www NCFS000 0.159442
rebelion rebelion VMIS3P0 0.923476
org org NCMS000 0.714133
/ / Fh 1
noticia noticia NCFS000 0.962963
php php NCMS000 1
id ir VMM02P0 1
106356 106356 Z 1
titular titular NCMS000 0.666667
la lo PP3FSA00 0.0277626
colombia colombia VMIP3S0 1
que que CS 0.4375
sangra sangrar VMIP3S0 0.994865
y y CC 0.999812
resiste resistir VMIP3S0 0.994868
Como_Marcha_Patri como_marcha_patri NP00000 1
tica tica AQ0FS0 0.595788
y y CC 0.999812
Traspasando_Muros traspasando_muros NP00000 1
queremos querer VMIP1P0 1
denunciar denunciar VMN0000 1
que que CS 0.4375
en en SPS00 1
la el DA0FS0 0.972146
actualidad actualidad NCFS000 1
en en SPS00 1
Colombia colombia NP00000 1
hay haber VMIP3S0 1
9 9 Z 1
500 500 Z 1
PP pp NP00000 1
de de SPS00 0.999919
los el DA0MP0 0.97623
cuales cual PR0CP000 1
s segundo NCMN000 0.622321
lo lo PP3CNA00 0.271163
el el DA0MS0 1
10 10 Z 1
son ser VSIP3P0 0.986772
combatientes combatiente NCCP000 1
de de SPS00 0.999919
las el DA0FP0 0.97051
organizaciones organización NCFP000 1
insurgentes insurgente AQ0CP0 0.25
y y CC 0.999812
el el DA0MS0 1
90 90 Z 1
son ser VSIP3P0 0.986772
defensores defensor NCMP000 0.75
de de SPS00 0.999919
DDHH ddhh NP00000 1
campesinos campesino AQ0MP0 0.5
estudiantes estudiante NCCP000 0.875
personas persona NCFP000 0.983871
que que PR0CN000 0.5625
forman_parte formar_parte VMIP3P0 1
de de SPS00 1
el el DA0MS0 1
movimiento movimiento NCMS000 1
popular popular AQ0CS0 1
Sin sin NP00000 1
embargo embargo NCMS000 0.973496
queremos querer VMIP1P0 1
que que CS 0.4375
el el DA0MS0 1
mundo mundo NCMS000 1
sepa saber VMSP3S0 0.623423
que que CS 0.4375
en en SPS00 1
Colombia colombia NP00000 1
existe existir VMIP3S0 0.966667
un uno DI0MS0 0.986987
gran gran AQ0CS0 1
movimiento movimiento NCMS000 1
anti anti AQ0CN0 1
carcelario carcelario AQ0MS0 1
que que PR0CN000 0.5625
ha haber VAIP3S0 0.998141
realizado realizar VMP00SM 1
enormes enorme AQ0CP0 1
jornadas jornada NCFP000 1
de de SPS00 0.999919
protesta protesta NCFS000 0.916667
Este este NP00000 1
mismo mismo AQ0MS0 0.961905
movimiento movimiento NCMS000 1
ha haber VAIP3S0 0.998141
exigido exigir VMP00SM 1
a a SPS00 0.99585
la el DA0FS0 0.972146
mesa mesa NCFS000 0.939394
de de SPS00 0.999919
di dar VMIS1S0 0.833333
logo logo NCMS000 1
que que PR0CN000 0.5625
se se P00CN000 0.465602
re re NCMS000 0.64128
ne ne VMIP3S0 0.792275
en en SPS00 1
La_Habana la_habana NP00000 1
que que PR0CN000 0.5625
torne tornar VMSP3S0 0.623409
sus su DP3CP0 0.998462
ojos ojo NCMP000 1
a a SPS00 0.99585
lo el DA0NS0 0.457393
que que PR0CN000 0.5625
ocurre ocurrir VMIP3S0 0.966667
en en SPS00 1
las el DA0FP0 0.97051
c c NCFS000 1
rceles rceles NCFP000 1
y y CC 0.999812
compruebe comprobar VMSP3S0 0.623432
que que CS 0.4375
no no RN 0.99778
son ser VSIP3P0 0.986772
terroristas terrorista AQ0CP0 0.375
o o CC 0.998845
delincuentes delincuente NCCP000 0.833333
comunes común AQ0CP0 1
los el DA0MP0 0.97623
que que PR0CN000 0.5625
all all NCFN000 1
sufren sufrir VMIP3P0 1
como como CS 0.998579
el el DA0MS0 1
gobierno gobierno NCMS000 0.9
los lo PP3MPA00 0.023584
califica calificar VMIP3S0 0.75
Por por NP00000 1
su su DP3CS0 1
costado costar VMP00SM 0.691767
la el DA0FS0 0.972146
representante representante NCCS000 0.75
de de SPS00 1
el el DA0MS0 1
Comit_de_Solidaridad comit_de_solidaridad NP00000 1
con con SPS00 1
Cuba cuba NP00000 1
y y CC 0.999812
por por SPS00 1
la el DA0FS0 0.972146
Libertad libertad NP00000 1
de de SPS00 0.999919
los el DA0MP0 0.97623
5 5 Z 1
inform inform NCMS000 0.700265
que que PR0CN000 0.5625
pronto pronto RG 0.791667
se se P00CN000 0.465602
cumplir cumplir VMN0000 1
n n NCFS000 1
15 15 Z 1
a a SPS00 0.99585
os o NCFP000 0.222222
de de SPS00 0.999919
presidio presidio NCMS000 1
imperialista imperialista AQ0CS0 1
de de SPS00 0.999919
los el DA0MP0 0.97623
5 5 Z 1
patriotas patriota NCCP000 1
cubanos cubano AQ0MP0 0.465406
A_Gerardo a_gerardo NP00000 1
lo lo PP3CNA00 0.271163
han haber VAIP3P0 1
condenado condenar VMP00SM 0.833333
con con SPS00 1
dos 2 Z 0.988722
cadenas cadena NCFP000 1
perpetuas perpetuo AQ0FP0 0.407281
m m NCFS000 0.5
s segundo NCMN000 0.622321
15 15 Z 1
a a SPS00 0.99585
os os PP2CP000 0.722222
Ellos ellos NP00000 1
est est NCMS000 1
n n NCFS000 1
cautivos cautivo AQ0MP0 0.357372
por por SPS00 1
defender defender VMN0000 1
la el DA0FS0 0.972146
vida vida NCFS000 1
de de SPS00 1
el el DA0MS0 1
pueblo pueblo NCMS000 0.978261
cubano cubano AQ0MS0 0.357352
advirtiendo advertir VMG0000 1
atentados atentado NCMP000 0.75
planificados planificar VMP00PM 1
por por SPS00 1
las el DA0FP0 0.97051
mafias mafia NCFP000 1
antirrevolucionarias antirrevolucionario AQ0FP0 1
de de SPS00 0.999919
Miami miami NP00000 1
contra contra SPS00 0.976316
la el DA0FS0 0.972146
Isla isla NP00000 1
que que PR0CN000 0.5625
evitaron evitar VMIS3P0 1
muchas mucho DI0FP0 0.819444
muertes muerte NCFP000 1
La la NP00000 1
conciencia conciencia NCFS000 0.958333
de de SPS00 0.999919
la el DA0FS0 0.972146
libertad libertad NCFS000 0.978261
es ser VSIP3S0 1
m m NCFS000 0.5
s segundo NCMN000 0.622321
fuerte fuerte AQ0CS0 0.892857
que que CS 0.4375
la el DA0FS0 0.972146
conciencia conciencia NCFS000 0.958333
de de SPS00 0.999919
la el DA0FS0 0.972146
muerte muerte NCFS000 1
Tilda_Rabi_de_la_Federaci tilda_rabi_de_la_federaci NP00000 1
n n NCFS000 1
de de SPS00 0.999919
Entidades_Argentino_Palestina entidades_argentino_palestina NP00000 1
record record AQ0CN0 0.5
que que PR0CN000 0.5625
los el DA0MP0 0.97623
palestinos palestino NCMP000 0.64273
estamos estar VAIP1P0 1
prontos pronto AQ0MP0 0.25
a a SPS00 0.99585
conmemorar conmemorar VMN0000 1
65 65 Z 1
a a SPS00 0.99585
os o NCFP000 0.222222
de de SPS00 1
el el DA0MS0 1
Nakba nakba NP00000 1
de de SPS00 0.999919
la el DA0FS0 0.972146
cat cat NCMS000 1
strofe strofe NCFS000 1
y y CC 0.999812
partici partici RG 0.751648
n n NCFS000 1
de de SPS00 0.999919
Palestina palestina NP00000 1
por por SPS00 1
una uno DI0FS0 0.951241
resoluci resoluci AQ0CS0 0.0199855
n n NCFS000 1
inconsulta inconsulta AQ0CN0 0.232314
de de SPS00 0.999919
Naciones_Unidas_Mientras_Franja_de_Gaza naciones_unidas_mientras_franja_de_gaza NP00000 1
es ser VSIP3S0 1
la el DA0FS0 0.972146
c c NCFS000 1
rcel rcel NCFS000 1
a a SPS00 0.99585
cielo cielo NCMS000 1
abierto abrir VMP00SM 1
m m NCFS000 0.5
s segundo NCMN000 0.622321
grande grande AQ0CS0 0.9
de de SPS00 1
el el DA0MS0 1
mundo mundo NCMS000 1
y y CC 0.999812
en en SPS00 1
Cisjordania cisjordania NP00000 1
se se P00CN000 0.465602
construye construir VMIP3S0 0.75
un uno DI0MS0 0.986987
muro muro NCMS000 0.875
de de SPS00 0.999919
miles mil NCMP000 1
de de SPS00 0.999919
kil kil AQ0CS0 0.768581
metros metro NCMP000 1
que que PR0CN000 0.5625
serpentea serpentear VMIP3S0 0.75
en en SPS00 1
un uno DI0MS0 0.986987
territorio territorio NCMS000 1
donde donde PR000000 0.963542
ya ya RG 0.996988
son ser VSIP3P0 0.986772
500_mil 500000 Z 1
los el DA0MP0 0.97623
colonos colono NCMP000 1
israel israel AQ0CS0 0.0876402
es ser VSIP3S0 1
los el DA0MP0 0.97623
palestinos palestino NCMP000 0.64273
tienen tener VMIP3P0 1
vedado vedar VMP00SM 1
transitar transitar VMN0000 1
de de SPS00 0.999919
una uno DI0FS0 0.951241
aldea aldea NCFS000 1
a a SPS00 0.99585
otra otro PI0FS000 0.198864
y y CC 0.999812
hasta hasta RG 0.0448276
se se P00CN000 0.465602
ha haber VAIP3S0 0.998141
prohibido prohibir VMP00SM 1
la el DA0FS0 0.972146
locomoci locomoci AQ0CS0 0.0199855
n n NCFS000 1
colectiva colectivo AQ0FS0 1
para para SPS00 0.998507
nosotros nosotros PP1MP000 1
En en NP00000 1
la el DA0FS0 0.972146
actualidad actualidad NCFS000 1
el el DA0MS0 1
pueblo pueblo NCMS000 0.978261
palestino palestino AQ0MS0 0.35727
vive vivir VMIP3S0 0.96875
un uno DI0MS0 0.986987
verdadero verdadero AQ0MS0 1
apartheid apartheid NCMS000 1
Son son NP00000 1
5_mil 5000 Z 1
los el DA0MP0 0.97623
PP pp NP00000 1
distribuidos distribuir VMP00PM 1
en en SPS00 1
27 27 Z 1
c c NCFS000 1
rceles rceles NCFP000 1
de de SPS00 0.999919
Israel_Ya israel_ya NP00000 1
hemos haber VAIP1P0 0.969697
tenido tener VMP00SM 1
dos 2 Z 0.988722
muertes muerte NCFP000 1
de de SPS00 0.999919
prisioneros prisionero NCMP000 0.49273
en en SPS00 1
lo el DA0NS0 0.457393
que que PR0CN000 0.5625
va ir VMIP3S0 1
de de SPS00 1
el el DA0MS0 1
a a NCFS000 0.00415028
o o CC 0.998845
M m NP00000 1
s segundo NCMN000 0.622321
de de SPS00 1
el el DA0MS0 1
80 80 Z 1
de de SPS00 0.999919
la el DA0FS0 0.972146
poblaci poblaci AQ0CS0 0.0199855
n n NCFS000 1
palestina palestino AQ0FS0 0.5
ha haber VAIP3S0 0.998141
sufrido sufrir VMP00SM 0.875
c c NCFS000 1
rceles rceles NCFP000 1
y y CC 0.999812
torturas tortura NCFP000 0.75
incluidos incluir VMP00PM 1
ni ni CC 0.995935
os os PP2CP000 0.722222
y y CC 0.999812
mujeres mujer NCFP000 1
Hoy hoy NP00000 1
se se P00CN000 0.465602
han haber VAIP3P0 1
sumado sumar VMP00SM 1
miles mil NCMP000 1
de de SPS00 0.999919
PP pp NP00000 1
a a SPS00 0.99585
la el DA0FS0 0.972146
huelga huelga NCFS000 0.916667
de de SPS00 0.999919
hambre hambre NCFS000 1
de de SPS00 0.999919
casi casi RG 1
280_d TM_d:280 Zu 1
as as NCMS000 1
que que PR0CN000 0.5625
lleva llevar VMIP3S0 0.975
adelante adelante RG 0.911111
Samer_Issawi samer_issawi NP00000 1
detenido detener VMP00SM 0.833333
por por SPS00 1
las el DA0FP0 0.97051
que que PR0CN000 0.5625
llaman llamar VMIP3P0 1
prisiones prisión NCFP000 1
administrativas administrativo AQ0FP0 0.35731
sin sin SPS00 1
juicios juicio NCMP000 1
ni ni CC 0.995935
derecho derecho NCMS000 0.884615
a a SPS00 0.99585
defensa defensa NCCS000 1
Tilda tilda NP00000 1
entonces entonces RG 0.97619
da dar VMIP3S0 0.983871
lectura lectura NCFS000 1
de de SPS00 0.999919
una uno DI0FS0 0.951241
carta carta NCFS000 1
estremecedora estremecedor AQ0FS0 1
una uno DI0FS0 0.951241
lecci lecci AQ0CS0 0.0199855
n n NCFS000 1
hist hist NCMS000 1
rica rico AQ0FS0 0.75
y y CC 0.999812
humanista humanista AQ0CS0 0.46979
de de SPS00 0.999919
Samer_Issawi samer_issawi NP00000 1
hecho hacer VMP00SM 0.618421
trizas triza NCFP000 0.973497
por por SPS00 1
su su DP3CS0 1
huelga huelga NCFS000 0.916667
de de SPS00 0.999919
hambre hambre NCFS000 1
escrita escribir VMP00SF 1
a a SPS00 0.99585
prop prop NCFS000 0.5
sito sito AQ0MS0 1
de de SPS00 0.999919
la el DA0FS0 0.972146
conmemoraci conmemoraci AQ0CS0 0.0199855
n n NCFS000 1
internacional internacional AQ0CS0 0.833333
por por SPS00 1
la el DA0FS0 0.972146
libertad libertad NCFS000 0.978261
de de SPS00 0.999919
los el DA0MP0 0.97623
PP_Fragmentos_Soy_Samer_Issawi pp_fragmentos_soy_samer_issawi NP00000 1
en en SPS00 1
huelga huelga NCFS000 0.916667
de de SPS00 0.999919
hambre hambre NCFS000 1
desde desde SPS00 1
hace hacer VMIP3S0 1
8 8 Z 1
meses mes NCMP000 0.964286
tendido tender VMP00SM 0.691767
en en SPS00 1
uno uno PI0MS000 0.964744
de de SPS00 0.999919
sus su DP3CP0 0.998462
hospitales hospital NCMP000 1
llamado llamar VMP00SM 0.973684
Kaplan_En kaplan_en NP00000 1
mi mi DP1CSS 0.995536
cuerpo cuerpo NCMS000 1
hay haber VMIP3S0 1
un uno DI0MS0 0.986987
aparato aparato NCMS000 1
m m NCFS000 0.5
dico dico AQ0MS0 0.263347
conectado conectar VMP00SM 1
a a SPS00 0.99585
una uno DI0FS0 0.951241
sala sala NCFS000 0.666667
de de SPS00 0.999919
vigilancia vigilancia NCFS000 1
las el DA0FP0 0.97051
24_horas TM_h:24 Zu 1
de de SPS00 1
el el DA0MS0 1
d d NCFS000 1
a a SPS00 0.99585
Funcionarios funcionarios NP00000 1
m m NCFS000 0.5
dicos do NCMP00D 1
y y CC 0.999812
oficiales oficial AQ0CP0 0.866667
de de SPS00 0.999919
Inteligencia inteligencia NP00000 1
est est NCMS000 1
n n NCFS000 1
esperando esperar VMG0000 1
mi mi DP1CSS 0.995536
ca ca I 1
da dar VMIP3S0 0.983871
Opt opt NP00000 1
por por SPS00 1
dirigir dirigir VMN0000 1
me me PP1CS000 1
a a SPS00 0.99585
ustedes usted PP2CP00P 1
intelectuales intelectual AQ0CP0 0.375
escritores escritor NCMP000 1
abogados abogado NCMP000 0.833333
y y CC 0.999812
periodistas periodista NCCP000 1
asociaciones asociación NCFP000 1
y y CC 0.999812
activistas activista NCCP000 0.581859
de de SPS00 0.999919
la el DA0FS0 0.972146
sociedad sociedad NCFS000 1
civil civil AQ0CS0 0.95
Les les NP00000 1
invito invitar VMIP1S0 1
a a SPS00 0.99585
visitar visitar VMN0000 1
me me PP1CS000 1
para para SPS00 0.998507
ver ver VMN0000 0.987179
a a SPS00 0.99585
un uno DI0MS0 0.986987
esqueleto esqueleto NCMS000 1
atado atar VMP00SM 0.654231
a a SPS00 0.99585
una uno DI0FS0 0.951241
cama cama NCFS000 1
de de SPS00 0.999919
hospital hospital NCMS000 1
y y CC 0.999812
alrededor_de alrededor_de SPS00 1
l l NCFS000 0.639398
tres 3 Z 1
carceleros carcelero NCMP000 0.642701
exhaustos exhausto AQ0MP0 1
Israel israel NP00000 1
es ser VSIP3S0 1
estoy estar VAIP1S0 1
buscando buscar VMG0000 1
a a SPS00 0.99585
un uno DI0MS0 0.986987
intelectual intelectual AQ0CS0 0.944444
para para SPS00 0.998507
un uno DI0MS0 0.986987
combate combate NCMS000 0.75
imaginario imaginario AQ0MS0 1
o o CC 0.998845
para para SPS00 0.998507
hablar hablar VMN0000 1
con con SPS00 1
su su DP3CS0 1
rostro rostro NCMS000 1
en en SPS00 1
los el DA0MP0 0.97623
espejos espejo NCMP000 1
Quiero quiero NP00000 1
que que CS 0.4375
me me PP1CS000 0.889706
mire mirar VMSP1S0 0.166667
a a SPS00 0.99585
la el DA0FS0 0.972146
cara cara NCFS000 0.973684
y y CC 0.999812
observe observar VMM03S0 0.333333
mi mi DP1CSS 0.995536
estado estado NCMS000 0.662162
de de SPS00 0.999919
coma coma NCCS000 0.0833333
capaz capaz AQ0CS0 1
de de SPS00 0.999919
remover remover VMN0000 1
el el DA0MS0 1
polvo polvo NCMS000 1
de de SPS00 0.999919
su su DP3CS0 1
pluma pluma NCFS000 1
y y CC 0.999812
de de SPS00 0.999919
su su DP3CS0 1
mente mente NCFS000 1
Yo yo NP00000 1
lo lo PP3CNA00 0.271163
ver ver VMN0000 0.987179
y y CC 0.999812
l l NCFS000 0.639398
me me PP1CS000 0.889706
ver ver VMN0000 0.987179
a a SPS00 0.99585
m m NCFS000 0.5
nervioso nervioso AQ0MS0 1
por por SPS00 1
las el DA0FP0 0.97051
respuestas respuesta NCFP000 1
de de SPS00 1
el el DA0MS0 1
futuro futuro NCMS000 0.944444
viendo ver VMG0000 1
en en SPS00 1
m m NCFS000 0.5
a a SPS00 0.99585
un uno DI0MS0 0.986987
fantasma fantasma NCMS000 1
moribundo moribundo AQ0MS0 0.75
que que PR0CN000 0.5625
no no RN 0.99778
se se P00CN000 0.465602
va ir VMIP3S0 1
Observar observar NP00000 1
a a SPS00 0.99585
una uno DI0FS0 0.951241
criatura criatura NCFS000 1
a a SPS00 0.99585
una uno DI0FS0 0.951241
caja caja NCFS000 1
tor tor NCMS000 0.904112
xica xica AQ0FS0 1
ahog ahog NCMS000 0.714133
ndose ndose VMSI3S0 0.317009
de de SPS00 0.999919
hambre hambre NCFS000 1
perdiendo perder VMG0000 1
la el DA0FS0 0.972146
conciencia conciencia NCFS000 0.958333
Los los NP00000 1
nicos nicos AQ0MP0 0.469818
cargos cargo NCMP000 1
en en SPS00 1
mi mi DP1CSS 0.995536
contra contra NCFS000 0.00263158
son ser VSIP3P0 0.986772
haber haber VAN0000 0.744444
salido salir VMP00SM 1
a a SPS00 0.99585
los el DA0MP0 0.97623
suburbios suburbio NCMP000 1
de de SPS00 0.999919
Jerusal jerusal NP00000 1
n n NCFS000 1
No no NP00000 1
he haber VAIP1S0 0.984848
o o CC 0.998845
do do NCMS000 1
a a SPS00 0.99585
ninguno ninguno PI0MS000 0.6875
de de SPS00 0.999919
ustedes usted PP2CP00P 1
escribir escribir VMN0000 1
para para SPS00 0.998507
evitar evitar VMN0000 1
los el DA0MP0 0.97623
sonidos sonido NCMP000 1
de de SPS00 0.999919
mi mi DP1CSS 0.995536
muerte muerte NCFS000 1
Es es NP00000 1
como como CS 0.998579
si si CS 0.997706
cada cada DI0CS0 1
uno uno PI0MS000 0.964744
de de SPS00 0.999919
ustedes usted PP2CP00P 1
se se P00CN000 0.465602
hubiera haber VASI1S0 0.421384
convertido convertir VMP00SM 1
en en SPS00 1
sepulturero sepulturero NCMS000 1
No no NP00000 1
puedo poder VMIP1S0 1
creer creer VMN0000 1
que que CS 0.4375
toda todo DI0FS0 0.975806
una uno DI0FS0 0.951241
sociedad sociedad NCFS000 1
se se P00CN000 0.465602
haya haber VASP1S0 0.378571
convertido convertir VMP00SM 1
en en SPS00 1
el el DA0MS0 1
guardi guardi VMIS1S0 1
n n NCFS000 1
de de SPS00 0.999919
mi mi DP1CSS 0.995536
muerte muerte NCFS000 1
y y CC 0.999812
de de SPS00 0.999919
mi mi DP1CSS 0.995536
vida vida NCFS000 1
Israel israel NP00000 1
es ser VSIP3S0 1
morir morir VMN0000 1
satisfecho satisfacer VMP00SM 1
No no NP00000 1
acepto aceptar VMIP1S0 0.0256675
ser ser VSN0000 0.93883
deportado deportar VMP00SM 1
fuera_de fuera_de SPS00 1
mi mi DP1CSS 0.995536
patria patria NCFS000 0.64262
No no NP00000 1
acepto aceptar VMIP1S0 0.0256675
sus su DP3CP0 0.998462
tribunales tribunal NCMP000 1
ni ni CC 0.995935
a a SPS00 0.99585
su su DP3CS0 1
gobierno gobierno NCMS000 0.9
arbitrario arbitrario AQ0MS0 1
La la NP00000 1
conciencia conciencia NCFS000 0.958333
de de SPS00 0.999919
la el DA0FS0 0.972146
libertad libertad NCFS000 0.978261
es ser VSIP3S0 1
m m NCFS000 0.5
s segundo NCMN000 0.622321
fuerte fuerte AQ0CS0 0.892857
que que CS 0.4375
la el DA0FS0 0.972146
conciencia conciencia NCFS000 0.958333
de de SPS00 0.999919
la el DA0FS0 0.972146
muerte muerte NCFS000 1
No no NP00000 1
hagas hacer VMSP2S0 1
caso caso NCMS000 0.990741
a a SPS00 0.99585
los el DA0MP0 0.97623
generales general NCCP000 0.444444
ni ni CC 0.995935
a a SPS00 0.99585
los el DA0MP0 0.97623
mitos mito NCMP000 1
polvorientos polvoriento AQ0MP0 1
Lib lib NP00000 1
rense rense NCCS000 0.4
de de SPS00 0.999919
ustedes usted PP2CP00P 1
mismos mismo AQ0MP0 0.884615
de de SPS00 1
el el DA0MS0 1
exceso exceso NCMS000 1
de de SPS00 0.999919
poder poder NCMS000 0.711538
codicioso codicioso AQ0MS0 0.65727
no no RN 0.99778
se se P00CN000 0.465602
queden quedar VMSP3P0 0.833333
prisioneros prisionero NCMP000 0.49273
de de SPS00 0.999919
los el DA0MP0 0.97623
campos campo NCMP000 1
militares militar AQ0CP0 0.541667
de de SPS00 0.999919
las el DA0FP0 0.97051
puertas puerta NCFP000 1
de de SPS00 0.999919
hierro hierro NCMS000 0.928571
que que PR0CN000 0.5625
han haber VAIP3P0 1
cerrado cerrar VMP00SM 1
sus su DP3CP0 0.998462
mentes mente NCFP000 1
No no NP00000 1
estoy estar VAIP1S0 1
esperando esperar VMG0000 1
un uno DI0MS0 0.986987
carcelero carcelero NCMS000 0.542738
para para SPS00 0.998507
liberar liberar VMN0000 1
me me PP1CS000 1
Estoy estoy NP00000 1
esperando esperar VMG0000 1
que que CS 0.4375
ustedes usted PP2CP00P 1
puedan poder VMSP3P0 0.928571
liberar liberar VMN0000 1
se se PP3CN000 1
de de SPS00 0.999919
mi mi DP1CSS 0.995536
memoria memoria NCFS000 1
liberar liberar VMN0000 1
se se PP3CN000 1
de de SPS00 0.999919
nuestra nuestro DP1FSP 0.892857
memoria memoria NCFS000 1
Entonces_Mohamed_Salem_Bachir entonces_mohamed_salem_bachir NP00000 1
miembro miembro NCMS000 0.9
de de SPS00 1
el el DA0MS0 1
Frente_Polisario_de_Saharaui frente_polisario_de_saharaui NP00000 1
sorprendentemente sorprendentemente RG 1
modesto modesto AQ0MS0 0.376064
y y CC 0.999812
claro claro RG 0.490741
habla hablar VMIP3S0 0.880952
desde desde SPS00 1
la el DA0FS0 0.972146
ltima ltima AQ0FS0 0.166758
colonia colonia NCFS000 1
africana africano AQ0FS0 0.65727
en en SPS00 1
la el DA0FS0 0.972146
cuarta cuarta NCFS000 0.370141
comisi comisi RG 1
n n NCFS000 1
de de SPS00 0.999919
la el DA0FS0 0.972146
ONU onu NP00000 1
una uno DI0FS0 0.951241
rep rep NCFS000 0.5
blica blica AQ0FS0 1
ocupada ocupar VMP00SF 1
por por SPS00 1
la el DA0FS0 0.972146
Espa espa NP00000 1
a a SPS00 0.99585
franquista franquista NCCS000 0.34273
hasta hasta SPS00 0.955172
1976 1976 Z 1
con con SPS00 1
la el DA0FS0 0.972146
complicidad complicidad NCFS000 1
de de SPS00 0.999919
la el DA0FS0 0.972146
Guerra_Fr guerra_fr NP00000 1
a a SPS00 0.99585
y y CC 0.999812
el el DA0MS0 1
tristemente tristemente RG 1
famoso famoso AQ0MS0 0.95
Henry_Kissinger_Luego henry_kissinger_luego NP00000 1
se se P00CN000 0.465602
dividi dividi VMIS1S0 1
a a SPS00 0.99585
todo todo DI0MS0 0.559816
el el DA0MS0 1
pueblo pueblo NCMS000 0.978261
de de SPS00 0.999919
la el DA0FS0 0.972146
Rep rep NP00000 1
blica blica AQ0FS0 1
Saharaui saharaui NP00000 1
http http NCMS000 1
// // Fz 1
videotecaalternativa videotecaalternativa NCFS000 0.833333
net net NCMS000 0.818202
/ / Fh 1
un uno DI0MS0 0.986987
grito grito NCMS000 0.833333
desde desde SPS00 1
el el DA0MS0 1
sahara sahara VMSI3S0 1
Estamos estamos NP00000 1
cercados cercar VMP00PM 0.75
por por SPS00 1
un uno DI0MS0 0.986987
muro muro NCMS000 0.875
de de SPS00 0.999919
2 2 Z 1
700 700 Z 1
kil kil AQ0CS0 0.768581
metros metro NCMP000 1
y y CC 0.999812
que que PR0CN000 0.5625
cuenta contar VMIP3S0 0.219697
con con SPS00 1
7 7 Z 1
a a SPS00 0.99585
12_millones 12000000 Zd 1
de de SPS00 0.999919
minas mina NCFP000 0.75
antipersonales antipersonales AQ0CN0 1
Todos todos NP00000 1
los el DA0MP0 0.97623
d d NCFS000 1
as as NCMS000 1
tenemos tener VMIP1P0 1
v v NCFS000 1
ctimas ctimas NCFP000 1
inocentes inocente AQ0CP0 0.833333
Hace hace NP00000 1
22 22 Z 1
a a SPS00 0.99585
os os PP2CP000 0.722222
que que CS 0.4375
nuestro nuestro DP1MSP 0.933333
pueblo pueblo NCMS000 0.978261
est est NCMS000 1
custodiado custodiar VMP00SM 1
por por SPS00 1
fuerzas fuerza NCFP000 0.954545
de de SPS00 0.999919
la el DA0FS0 0.972146
ONU onu NP00000 1
entre entre SPS00 0.995223
las el DA0FP0 0.97051
cuales cual PR0CP000 1
se se P00CN000 0.465602
encuentran encontrar VMIP3P0 1
argentinos argentino AQ0MP0 0.407261
Es es NP00000 1
la lo PP3FSA00 0.0277626
nica nica VMIP3S0 0.0577589
misi misi RG 1
n n NCFS000 1
de de SPS00 0.999919
la el DA0FS0 0.972146
ONU onu NP00000 1
en en SPS00 1
el el DA0MS0 1
mundo mundo NCMS000 1
que que PR0CN000 0.5625
no no RN 0.99778
tiene tener VMIP3S0 1
competencia competencia NCFS000 1
en en SPS00 1
DDHH_Ahora_bien ddhh_ahora_bien NP00000 1
antes_de antes_de SPS00 1
el el DA0MS0 1
24_de_abril [??:24/4/??:??.??:??] W 1
pr pr NCMS000 0.224371
ximo ximo AQ0MS0 0.937453
se se P00CN000 0.465602
votar votar VMN0000 1
en en SPS00 1
el el DA0MS0 1
Consejo_de_Seguridad_de_la_ONU consejo_de_seguridad_de_la_onu NP00000 1
una uno DI0FS0 0.951241
moci moci RG 0.751648
n n NCFS000 1
que que CS 0.4375
permitir permitir VMN0000 1
a a SPS00 0.99585
a a SPS00 0.99585
esta este DD0FS0 0.982143
misi misi RG 1
n n NCFS000 1
vigilar vigilar VMN0000 1
el el DA0MS0 1
cumplimiento cumplimiento NCMS000 1
de de SPS00 0.999919
los el DA0MP0 0.97623
DDHH_Por ddhh_por NP00000 1
eso ese PD0NS000 1
exigimos exigir VMIP1P0 0.649947
a a SPS00 0.99585
Argentina argentina NP00000 1
que que PR0CN000 0.5625
preside presidir VMIP3S0 0.994868
esa ese DD0FS0 0.978261
comisi comisi RG 1
n n NCFS000 1
que que CS 0.4375
sea ser VSSP1S0 0.485714
consecuente consecuente AQ0CS0 0.65727
en en SPS00 1
esta este DD0FS0 0.982143
materia materia NCFS000 1
vital vital AQ0CS0 1
para para SPS00 0.998507
mi mi DP1CSS 0.995536
pueblo pueblo NCMS000 0.978261
El el NP00000 1
pasado_27_de_febrero [??:27/2/??:??.??:??] W 1
pasado pasado NCMS000 0.352273
fueron ser VSIS3P0 0.796296
juzgados juzgar VMP00PM 0.650835
injustamente injustamente RG 1
unos uno DI0MP0 0.879032
25 25 Z 1
prisioneros prisionero AQ0MP0 0.50727
pol pol NCMS000 0.861706
ticos ticos AQ0MP0 0.671839
saharauis saharaui NCCP000 0.642726
civiles civil AQ0CP0 0.916667
por por SPS00 1
un uno DI0MS0 0.986987
tribunal tribunal NCMS000 1
militar militar AQ0CS0 0.666667
por por SPS00 1
organizar organizar VMN0000 1
un uno DI0MS0 0.986987
campamento campamento NCMS000 1
pac pac NCMS000 1
fico fico AQ0MS0 0.466938
en en SPS00 1
2010 2010 Z 1
para para SPS00 0.998507
reclamar reclamar VMN0000 1
sus su DP3CP0 0.998462
derechos derecho NCMP000 0.9
econ econ NCMS000 1
micos mico NCMP000 1
y y CC 0.999812
pol pol NCMS000 0.861706
ticos ticos AQ0MP0 0.671839
en en SPS00 1
las el DA0FP0 0.97051
afueras afueras NCFP000 0.75
de de SPS00 0.999919
la el DA0FS0 0.972146
capital capital NCFS000 0.372549
ocupada ocupar VMP00SF 1
de de SPS00 1
el el DA0MS0 1
pa pa NCFS000 0.740689
s segundo NCMN000 0.622321
P p NP00000 1
lida lida NCFS000 0.6
de de SPS00 0.999919
gorra gorra NCFS000 1
y y CC 0.999812
mirada mirada NCFS000 0.96875
humedecida humedecer VMP00SF 1
abierta abrir VMP00SF 1
abrazadora abrazador AQ0FS0 0.35747
y y CC 0.999812
entera entero AQ0FS0 0.777778
Mar mar NP00000 1
a a SPS00 0.99585
de de SPS00 0.999919
Amigas amigas NP00000 1
y y CC 0.999812
Amigos_de_el_Pueblo_Vasco amigos_de_el_pueblo_vasco NP00000 1
en_medio_de en_medio_de SPS00 1
el el DA0MS0 1
crep crep NCMS000 1
sculo sculo NCMS000 1
porte porte NCMS000 0.75
o o CC 0.998845
dice decir VMIP3S0 1
por por SPS00 1
la el DA0FS0 0.972146
boca boca NCFS000 1
antigua antiguo AQ0FS0 0.866667
de de SPS00 1
el el DA0MS0 1
coraz coraz AQ0CS0 0.500309
n n NCFS000 1
que que PR0CN000 0.5625
les le PP3CPD00 1
traigo traer VMIP1S0 1
las el DA0FP0 0.97051
voces voz NCFP000 1
de de SPS00 1
el el DA0MS0 1
sufrimiento sufrimiento NCMS000 1
de de SPS00 0.999919
la el DA0FS0 0.972146
rebeld rebeld NCFS000 0.961423
a a SPS00 0.99585
y y CC 0.999812
la el DA0FS0 0.972146
resistencia resistencia NCFS000 1
de de SPS00 0.999919
nuestras nuestro DP1FPP 0.972222
compa compa VMSP3S0 1
eras era NCFP000 0.111111
y y CC 0.999812
compa compa VMSP3S0 1
eros eros NCMP000 0.851076
vascos vasco AQ0MP0 0.916667
presos preso NCMP000 0.75
en en SPS00 1
las el DA0FP0 0.97051
c c NCFS000 1
rceles rceles NCFP000 1
de de SPS00 0.999919
Espa espa NP00000 1
a a SPS00 0.99585
y y CC 0.999812
Francia_El francia_el NP00000 1
pueblo pueblo NCMS000 0.978261
Vasco vasco NP00000 1
tiene tener VMIP3S0 1
tres_millones 3000000 Zd 1
de de SPS00 0.999919
habitantes habitante NCCP000 1
y y CC 0.999812
fue ser VSIS3S0 0.932292
invadido invadir VMP00SM 1
por por SPS00 1
los el DA0MP0 0.97623
pa pa NCFS000 0.740689
ses ses NCMP000 0.727093
antes antes RG 1
mencionados mencionar VMP00PM 1
y y CC 0.999812
desde desde SPS00 1
hace hacer VMIP3S0 1
500 500 Z 1
a a SPS00 0.99585
os os PP2CP000 0.722222
est est NCMS000 1
luchando luchar VMG0000 1
por por SPS00 1
su su DP3CS0 1
independencia independencia NCFS000 1
Desde desde NP00000 1
que que PR0CN000 0.5625
muri muri RG 0.83337
Franco franco NP00000 1
comenz comenz NCFS000 0.620205
una uno DI0FS0 0.951241
lucha lucha NCFS000 0.880952
pol pol NCMS000 0.861706
tico tico AQ0MS0 0.806828
militar militar AQ0CS0 0.666667
por por SPS00 1
la el DA0FS0 0.972146
organizaci organizaci AQ0CS0 0.0199855
n n NCFS000 1
ETA eta NP00000 1
que que CS 0.4375
dej dej NCMS000 0.692259
las el DA0FP0 0.97051
armas arma NCFP000 0.982759
hace hacer VMIP3S0 1
dos 2 Z 0.988722
a a SPS00 0.99585
os os PP2CP000 0.722222
unilateralmente unilateralmente RG 1
Pese_a pese_a NP00000 1
ello ello PD0NS000 1
y y CC 0.999812
a a SPS00 0.99585
convertir convertir VMN0000 1
se se PP3CN000 1
en en SPS00 1
un uno DI0MS0 0.986987
partido partido NCMS000 0.886364
pol pol AQ0MS0 0.138294
tico tico AQ0MS0 0.806828
votado votar VMP00SM 1
masivamente masivamente RG 1
los el DA0MP0 0.97623
gobiernos gobierno NCMP000 1
espa espa NCFS000 1
ol ol NCMS000 0.861706
y y CC 0.999812
franc franc NC00000 0.538029
s segundo NCMN000 0.622321
siguen seguir VMIP3P0 1
maltratando maltratar VMG0000 1
a a SPS00 0.99585
nuestros nuestro DP1MPP 0.854167
m m NCFS000 0.5
s segundo NCMN000 0.622321
de de SPS00 0.999919
600 600 Z 1
presos preso NCMP000 0.75
y y CC 0.999812
presas presa NCFP000 0.875
avalados avalar VMP00PM 1
por por SPS00 1
una uno DI0FS0 0.951241
ley ley NCFS000 1
antiterrorista antiterrorista AQ0CS0 1
escrita escribir VMP00SF 1
por por SPS00 1
el el DA0MS0 1
ex ex AQ0CN0 0.25
juez juez NCCS000 1
Baltasar_Garz baltasar_garz NP00000 1
n n NCFS000 1
y y CC 0.999812
que que PR0CN000 0.5625
tortura torturar VMIP3S0 0.150743
y y CC 0.999812
humilla humillar VMIP3S0 0.994868
a a SPS00 0.99585
las el DA0FP0 0.97051
mujeres mujer NCFP000 1
para para SPS00 0.998507
que que CS 0.4375
abandonemos abandonar VMSP1P0 0.601281
la el DA0FS0 0.972146
lucha lucha NCFS000 0.880952
Tenemos tenemos NP00000 1
18 18 Z 1
presas presa NCFP000 0.875
y y CC 0.999812
presos preso NCMP000 0.75
gravemente gravemente RG 1
enfermos enfermo AQ0MP0 0.5
Hace hace NP00000 1
s segundo NCMN000 0.622321
lo lo PP3CNA00 0.271163
unas uno DI0FP0 0.925926
semanas semana NCFP000 1
muri muri RG 0.83337
nuestro nuestro DP1MSP 0.933333
compa compa VMSP3S0 1
ero erar VMIP1S0 1
Xavier_Pe xavier_pe NP00000 1
a a SPS00 0.99585
esposado esposar VMP00SM 1
a a SPS00 0.99585
una uno DI0FS0 0.951241
cama cama NCFS000 1
porque porque CS 1
no no RN 0.99778
recibi recibi AQ0CN0 1
ayuda ayuda NCFS000 0.866667
m m NCFS000 0.5
dica dica VMIP3S0 0.768885
Hermanos hermanos NP00000 1
y y CC 0.999812
hermanos hermano NCMP000 1
un uno DI0MS0 0.986987
abrazo abrazo NCMS000 0.973497
desde desde SPS00 1
Euskal_Herria_Viva_Euskal_Herria euskal_herria_viva_euskal_herria NP00000 1
libre libre AQ0CS0 0.917647
independiente independiente AQ0CS0 1
y y CC 0.999812
socialista socialista AQ0CS0 0.875
No no NP00000 1
nos nos PP1CP000 0.933333
queda quedar VMIP3S0 0.885417
m m NCFS000 0.5
s segundo NCMN000 0.622321
que que CS 0.4375
la el DA0FS0 0.972146
resistencia resistencia NCFS000 1
Karina_Germano_L karina_germano_l NP00000 1
pez pez NCMS000 0.649732
La_Galle la_galle NP00000 1
estuvo estar VAIS3S0 1
presa preso AQ0FS0 0.125
durante durante SPS00 1
una_d TM_d:1 Zu 1
cada cada DI0CS0 1
en en SPS00 1
Brasil_Hermosa brasil_hermosa NP00000 1
y y CC 0.999812
de de SPS00 0.999919
voluntad voluntad NCFS000 1
intacta intacto AQ0FS0 1
sacude sacudir VMIP3S0 0.75
Buenos_Aires_No buenos_aires_no NP00000 1
podemos poder VMIP1P0 0.944444
olvidar olvidar VMN0000 1
a a SPS00 0.99585
los el DA0MP0 0.97623
tres 3 Z 1
prisioneros prisionero NCMP000 0.49273
de de SPS00 0.999919
mi mi DP1CSS 0.995536
causa causa NCFS000 0.794872
que que PR0CN000 0.5625
tienen tener VMIP3P0 1
exactamente exactamente RG 1
la el DA0FS0 0.972146
misma mismo AQ0FS0 0.916667
condena condena NCFS000 0.666667
30 30 Z 1
a a SPS00 0.99585
os os PP2CP000 0.722222
y y CC 0.999812
que que PR0CN000 0.5625
contin contin RG 0.388954
an an NCFS000 1
rehenes rehén NCCP000 1
en en SPS00 1
Brasil_Se brasil_se NP00000 1
trata tratar VMIP3S0 0.946237
de de SPS00 1
el el DA0MS0 1
chileno chileno NCMS000 0.627687
Mauricio_Hern mauricio_hern NP00000 1
ndez ndez NCFS000 1
Norambuena norambuena NP00000 1
ex ex AQ0CN0 0.25
miembro miembro NCMS000 0.9
de de SPS00 1
el el DA0MS0 1
extinto extinto AQ0MS0 1
Frente_Patri frente_patri NP00000 1
tico tico AQ0MS0 0.806828
Manuel_Rodr manuel_rodr NP00000 1
guez guez NCCS000 1
aut aut NCMS000 0.607342
nomo nomo NCMS000 1
de de SPS00 1
el el DA0MS0 1
Partido_Comunista_de_Chile partido_comunista_de_chile NP00000 1
http http NCMS000 1
// // Fz 1
www www NCFS000 0.159442
cctt cctt NCMS000 0.607342
cl centilitro NCMN000 1
/ / Fh 1
correo correo NCMS000 0.735623
/ / Fh 1
index index NCMN000 0.800012
php php NCMS000 1
option option VMIS3P0 0.923476
com cometro NCMN000 0.65
content content NCMS000 0.607342
view view RG 0.106198
article article AQ0CS0 0.730919
id ir VMM02P0 1
1655 1655 Z 1
hablan hablar VMIP3P0 1
que que CS 0.4375
est est NCMS000 1
enfermo enfermo AQ0MS0 0.333333
y y CC 0.999812
en en SPS00 1
un uno DI0MS0 0.986987
r r NCFS000 0.638487
gimen gemir VMIP3P0 1
especial especial AQ0CS0 1
disciplinario disciplinario AQ0MS0 1
infrahumano infrahumano AQ0MS0 1
de de SPS00 0.999919
Marta marta NP00000 1
y y CC 0.999812
Marcelo_Llevan marcelo_llevan NP00000 1
11 11 Z 1
a a SPS00 0.99585
os os PP2CP000 0.722222
presos preso AQ0MP0 0.25
Qu qu NP00000 1
vamos ir VMIP1P0 0.633333
a a SPS00 0.99585
hacer hacer VMN0000 1
para para SPS00 0.998507
sacar sacar VMN0000 1
los lo PP3MPA00 1
de de SPS00 0.999919
las el DA0FP0 0.97051
mazmorras mazmorra NCFP000 1
brasileras brasilero AQ0FP0 0.357297
Que que NP00000 1
yo yo PP1CSN00 1
est est NCMS000 1
en en SPS00 1
las el DA0FP0 0.97051
calles calle NCFP000 0.954545
tampoco tampoco RG 1
significa significar VMIP3S0 0.958333
que que CS 0.4375
me me PP1CS000 0.889706
encuentre encontrar VMSP1S0 0.466667
libre libre AQ0CS0 0.917647
Sigo sigo NP00000 1
firmando firmar VMG0000 1
cada cada DI0CS0 1
mes mes NCMS000 1
hasta hasta SPS00 0.955172
el el DA0MS0 1
2031 2031 Z 1
siguen seguir VMIP3P0 1
mis mi DP1CPS 0.98
compa compa VMSP3S0 1
eros eros NCMP000 0.851076
encarcelados encarcelar VMP00PM 1
Las las NP00000 1
c c NCFS000 1
rceles rceles NCFP000 1
son ser VSIP3P0 0.986772
una uno DI0FS0 0.951241
mierda mierda NCFS000 1
para para SPS00 0.998507
todo todo DI0MS0 0.559816
el el DA0MS0 1
mundo mundo NCMS000 1
La la NP00000 1
solidaridad solidaridad NCFS000 1
es ser VSIP3S0 1
la el DA0FS0 0.972146
nica nica AQ0FS0 0.730709
manera manera NCFS000 1
que que PR0CN000 0.5625
existe existir VMIP3S0 0.966667
para para SPS00 0.998507
extinguir extinguir VMN0000 1
los el DA0MP0 0.97623
muros muro NCMP000 1
S s NP00000 1
lo el DA0NS0 0.457393
est est NCMS000 1
la el DA0FS0 0.972146
pobreza pobreza NCFS000 1
los el DA0MP0 0.97623
combatientes combatiente NCCP000 1
y y CC 0.999812
los el DA0MP0 0.97623
que que PR0CN000 0.5625
luchan luchar VMIP3P0 1
Es es NP00000 1
preciso precisar VMIP1S0 0.1
dejar dejar VMN0000 1
de de SPS00 0.999919
victimizar victimizar VMN0000 1
a a SPS00 0.99585
nuestros nuestro DP1MPP 0.854167
compa compa VMSP3S0 1
eros eros NCMP000 0.851076
Qu qu NP00000 1
hace hacer VMIP3S0 1
la el DA0FS0 0.972146
parte parte NCFS000 0.497967
m m NCFS000 0.5
s segundo NCMN000 0.622321
desfavorecida desfavorecer VMP00SF 1
de de SPS00 0.999919
la el DA0FS0 0.972146
sociedad sociedad NCFS000 1
entre entre SPS00 0.995223
rejas reja NCFP000 1
En en NP00000 1
la el DA0FS0 0.972146
clausura clausura NCFS000 0.846939
de de SPS00 1
el el DA0MS0 1
acto acto NCMS000 1
se se P00CN000 0.465602
expres expres VMIP2S0 0.0125207
el el DA0MS0 1
luchador luchador NCMS000 0.579706
social social AQ0CS0 0.977273
abogado abogado NCMS000 0.833333
de de SPS00 0.999919
DDHH ddhh NP00000 1
y y CC 0.999812
militante militante NCCS000 0.625
de de SPS00 1
el el DA0MS0 1
Frente_de_Resistencia_Nacional_La_R_Eduardo_Negro_Soares_El frente_de_resistencia_nacional_la_r_eduardo_negro_soares_el NP00000 1
poder poder NCMS000 0.711538
trata tratar VMIP3S0 0.946237
de de SPS00 0.999919
convencer convencer VMN0000 1
nos nos PP1CP000 1
de de SPS00 0.999919
que que CS 0.4375
el el DA0MS0 1
problema problema NCMS000 1
de de SPS00 0.999919
los el DA0MP0 0.97623
prisioneros prisionero AQ0MP0 0.50727
pol pol NCMS000 0.861706
ticos ticos AQ0MP0 0.671839
es ser VSIP3S0 1
un uno DI0MS0 0.986987
asunto asunto NCMS000 1
jur jur NCMS000 0.75005
dico do NCMS00D 0.736653
legal legal AQ0CS0 1
Y y NP00000 1
nosotros nosotros PP1MP000 1
tambi tambi AQ0CN0 1
n n NCFS000 1
solemos soler VMIP1P0 0.887529
caer caer VMN0000 1
en en SPS00 1
esa ese DD0FS0 0.978261
trama trama NCFS000 0.697124
Ahora ahora NP00000 1
perm perm NCMS000 0.700265
tanme tanme VMIP3S0 0.195295
abandonar abandonar VMN0000 1
mi mi DP1CSS 0.995536
condici condici AQ0CS0 0.0199855
n n NCFS000 1
de de SPS00 0.999919
abogado abogado NCMS000 0.833333
y y CC 0.999812
dejar dejar VMN0000 1
de de SPS00 0.999919
discutir discutir VMN0000 1
esta este DD0FS0 0.982143
cuesti cuesti NCMS000 1
n n NCFS000 1
desde desde SPS00 1
el el DA0MS0 1
derecho derecho NCMS000 0.884615
Si si NP00000 1
hay haber VMIP3S0 1
PP pp NP00000 1
la el DA0FS0 0.972146
discusi discusi RG 1
n n NCFS000 1
es ser VSIP3S0 1
pol pol NCMS000 0.861706
tica tica AQ0FS0 0.595788
Quienes quienes NP00000 1
tenemos tener VMIP1P0 1
como como CS 0.998579
objetivo objetivo NCMS000 0.761905
de de SPS00 0.999919
vida vida NCFS000 1
construir construir VMN0000 1
una uno DI0FS0 0.951241
sociedad sociedad NCFS000 1
sin sin SPS00 1
clases clase NCFP000 1
sin sin SPS00 1
explotados explotar VMP00PM 1
y y CC 0.999812
explotadores explotador AQ0MP0 0.65712
sabemos saber VMIP1P0 1
que que CS 0.4375
la el DA0FS0 0.972146
resoluci resoluci AQ0CS0 0.0199855
n n NCFS000 1
es ser VSIP3S0 1
siempre siempre RG 1
pol pol AQ0MS0 0.138294
tica tica NCFS000 0.372209
Qu qu NP00000 1
podemos poder VMIP1P0 0.944444
hacer hacer VMN0000 1
entonces entonces RG 0.97619
con con SPS00 1
los el DA0MP0 0.97623
prisioneros prisionero AQ0MP0 0.50727
pol pol NCMS000 0.861706
ticos ticos AQ0MP0 0.671839
de de SPS00 0.999919
Argentina argentina NP00000 1
y y CC 0.999812
el el DA0MS0 1
mundo mundo NCMS000 1
Redoblar redoblar NP00000 1
nuestros nuestro DP1MPP 0.854167
esfuerzos esfuerzo NCMP000 1
pol pol NCMS000 0.861706
ticos ticos AQ0MP0 0.671839
Acaso acaso NP00000 1
la el DA0FS0 0.972146
ley ley NCFS000 1
antiterrorista antiterrorista AQ0CS0 1
no no RN 0.99778
deviene devenir VMIP3S0 1
de de SPS00 0.999919
la el DA0FS0 0.972146
pol pol NCMS000 0.861706
tica tica AQ0FS0 0.595788
no no RN 0.99778
fue ser VSIS3S0 0.932292
votada votar VMP00SF 0.69174
por por SPS00 1
el el DA0MS0 1
parlamento parlamento NCMS000 0.75
argentino argentino AQ0MS0 0.25
incluso incluso RG 0.988095
por por SPS00 1
algunos alguno PI0MP000 0.523438
que que PR0CN000 0.5625
estuvieron estar VAIS3P0 1
antes antes RG 1
presentes presente AQ0CP0 0.777778
en en SPS00 1
estos este DD0MP0 0.990566
actos acto NCMP000 1
Acaso acaso NP00000 1
la el DA0FS0 0.972146
expulsi expulsi RG 1
n n NCFS000 1
desde desde SPS00 1
la el DA0FS0 0.972146
Argentina argentina NP00000 1
de de SPS00 0.999919
luchadores luchador AQ0MP0 0.391066
pol pol NCMS000 0.861706
ticos ticos AQ0MP0 0.671839
de de SPS00 0.999919
otros otro DI0MP0 0.56875
pa pa NCFS000 0.740689
ses ses AQ0CP0 0.068278
para para SPS00 0.998507
ser ser VSN0000 0.93883
sometidos someter VMP00PM 1
a a SPS00 0.99585
justicias justicia NCFP000 1
fascistas fascista AQ0CP0 0.418141
e y CC 0.973684
imperialistas imperialista AQ0CP0 1
corresponde corresponder VMIP3S0 0.95
a a SPS00 0.99585
un uno DI0MS0 0.986987
expediente expediente NCMS000 0.918697
judicial judicial AQ0CS0 1
Acaso acaso NP00000 1
la lo PP3FSA00 0.0277626
entrega entregar VMIP3S0 0.666667
descarada descarar VMP00SF 1
y y CC 0.999812
cobarde cobarde AQ0CS0 0.5
que que PR0CN000 0.5625
han haber VAIP3P0 1
hecho hacer VMP00SM 0.618421
de de SPS00 0.999919
los el DA0MP0 0.97623
6 6 Z 1
patriotas patriota NCCP000 1
paraguayos paraguayo AQ0MP0 0.35727
luego_de luego_de SPS00 1
prometer prometer VMN0000 1
les le PP3CPD00 1
que que CS 0.4375
si si CS 0.997706
ven ver VMIP3P0 0.9375
an an NCFS000 1
a a SPS00 0.99585
Argentina argentina NP00000 1
ser ser VSN0000 0.93883
an an NCFS000 1
refugiados refugiado NCMP000 0.9
y y CC 0.999812
hoy hoy RG 0.877358
cargan cargar VMIP3P0 1
con con SPS00 1
35 35 Z 1
a a SPS00 0.99585
os o NCFP000 0.222222
de de SPS00 0.999919
condena condena NCFS000 0.666667
es ser VSIP3S0 1
una uno DI0FS0 0.951241
resoluci resoluci AQ0CS0 0.0199855
n n NCFS000 1
judicial judicial AQ0CS0 1
El el NP00000 1
gobierno gobierno NCMS000 0.9
de de SPS00 0.999919
Argentina argentina NP00000 1
est est NCMS000 1
sometiendo someter VMG0000 1
a a SPS00 0.99585
luchadores luchador NCMP000 0.608934
populares popular AQ0CP0 1
incrementando incrementar VMG0000 1
la el DA0FS0 0.972146
represi represi RG 1
n n NCFS000 1
ostentando ostentar VMG0000 1
la el DA0FS0 0.972146
mayor mayor AQ0CS0 0.989796
cantidad cantidad NCFS000 1
de de SPS00 0.999919
procesados procesado NCMP000 0.308257
de de SPS00 0.999919
la el DA0FS0 0.972146
historia historia NCFS000 1
desde desde SPS00 1
1983 1983 Z 1
por por SPS00 1
razones razón NCFP000 0.966667
pol pol NCMS000 0.861706
ticas ticas AQ0FP0 0.760898
Entonces entonces NP00000 1
con con SPS00 1
decisiones decisión NCFP000 1
pol pol NCMS000 0.861706
ticas ticas AQ0FP0 0.760898
nosotros nosotros PP1MP000 1
debemos deber VMIP1P0 1
enfrentar enfrentar VMN0000 1
lo lo PP3CNA00 0.5 lo PP3MSA00 0.5
Si si NP00000 1
hay haber VMIP3S0 1
algo algo PI0CS000 0.896341
de de SPS00 0.999919
lo el DA0NS0 0.457393
cual cual PR0CS000 0.9
Argentina argentina NP00000 1
se se P00CN000 0.465602
ha haber VAIP3S0 0.998141
enorgullecido enorgullecer VMP00SM 1
los lo PP3MPA00 0.023584
ltimos ltimos VMIP1P0 0.856975
150 150 Z 1
a a SPS00 0.99585
os os PP2CP000 0.722222
es ser VSIP3S0 1
de de SPS00 0.999919
su su DP3CS0 1
car car NCMS000 1
cter cter NCMS000 1
solidario solidario AQ0MS0 1
con con SPS00 1
los el DA0MP0 0.97623
luchadores luchador NCMP000 0.608934
de de SPS00 0.999919
cualquier cualquiera DI0CS0 1
lugar lugar NCMS000 1
de de SPS00 1
el el DA0MS0 1
planeta planeta NCMS000 1
Excepto excepto NP00000 1
en en SPS00 1
per per VMN0000 0.600243
odos odos NCMP000 0.823554
de de SPS00 0.999919
dictadura dictadura NCFS000 1
Argentina argentina NP00000 1
ha haber VAIP3S0 0.998141
sido ser VSP00SM 1
una uno DI0FS0 0.951241
tierra tierra NCFS000 1
de de SPS00 0.999919
refugio refugio NCMS000 0.833333
y y CC 0.999812
asilo asilo NCMS000 0.75
Sin sin NP00000 1
embargo embargo NCMS000 0.973496
desde desde SPS00 1
hace hacer VMIP3S0 1
10 10 Z 1
a a SPS00 0.99585
os os PP2CP000 0.722222
ello ello PD0NS000 1
se se P00CN000 0.465602
ha haber VAIP3S0 0.998141
interrumpido interrumpir VMP00SM 1
esa ese DD0FS0 0.978261
tradici tradici AQ0CS0 0.0199855
n n NCFS000 1
Este este NP00000 1
gobierno gobierno NCMS000 0.9
ha haber VAIP3S0 0.998141
decidido decidir VMP00SM 1
expulsar expulsar VMN0000 1
a a SPS00 0.99585
los el DA0MP0 0.97623
chilenos chileno NCMP000 0.25
Freddy_Fuentevilla freddy_fuentevilla NP00000 1
y y CC 0.999812
Marcelo_Villarroel marcelo_villarroel NP00000 1
y y CC 0.999812
luego luego RG 0.983871
a a SPS00 0.99585
Juan_Aliste_Vega juan_aliste_vega NP00000 1
sin sin SPS00 1
mediar mediar VMN0000 1
juicio juicio NCMS000 1
ni ni CC 0.995935
la el DA0FS0 0.972146
posibilidad posibilidad NCFS000 1
de de SPS00 0.999919
defender defender VMN0000 1
los lo PP3MPA00 1
abandon abandon NCMS000 1
ndolos ndolos NCMP000 1
a a SPS00 0.99585
la el DA0FS0 0.972146
justicia justicia NCFS000 1
pinochetista pinochetista AQ0CS0 1
El el NP00000 1
gobierno gobierno NCMS000 0.9
se se P00CN000 0.465602
ha haber VAIP3S0 0.998141
dedicado dedicar VMP00SM 1
a a SPS00 0.99585
acentuar acentuar VMN0000 1
la el DA0FS0 0.972146
concentraci concentraci AQ0CS0 0.0199855
n n NCFS000 1
de de SPS00 0.999919
la el DA0FS0 0.972146
riqueza riqueza NCFS000 1
y y CC 0.999812
reprimir reprimir VMN0000 1
a a SPS00 1
el el DA0MS0 1
pueblo pueblo NCMS000 0.978261
que que PR0CN000 0.5625
lucha luchar VMIP3S0 0.0952381
contra contra SPS00 0.976316
la el DA0FS0 0.972146
explotaci explotaci AQ0CS0 0.0199855
n n NCFS000 1
el el DA0MS0 1
modelo modelo NCCS000 0.973684
agroextractivo agroextractivo AQ0MS0 0.5
la el DA0FS0 0.972146
megaminer megaminer VMN0000 1
a a SPS00 0.99585
y y CC 0.999812
la el DA0FS0 0.972146
usura usura NCFS000 1
En_menos_de en_menos_de NP00000 1
5 5 Z 1
a a SPS00 0.99585
os os PP2CP000 0.722222
el el DA0MS0 1
gobierno gobierno NCMS000 0.9
carga carga NCFS000 0.935897
con con SPS00 1
casi casi RG 1
una uno DI0FS0 0.951241
treintena treintena NCFS000 1
de de SPS00 0.999919
muertos muerto NCMP000 0.681818
en en SPS00 1
situaciones situación NCFP000 1
de de SPS00 0.999919
enfrentamientos enfrentamiento NCMP000 1
pol pol NCMS000 0.861706
ticos ticos AQ0MP0 0.671839
y y CC 0.999812
sociales social AQ0CP0 0.9375
campesinos campesino NCMP000 0.5
y y CC 0.999812
sindica sindicar VMM02S0 1
les le PP3CPD00 1
sin sin SPS00 1
contar contar VMN0000 1
las el DA0FP0 0.97051
v v NCFS000 1
ctimas ctimas NCFP000 1
de de SPS00 1
el el DA0MS0 1
gatillo gatillo NCMS000 1
f f NCFS000 1
cil cil AQ0CS0 1
policial policial AQ0CS0 1
Entonces entonces NP00000 1
no no RN 0.99778
nos nos PP1CP000 0.933333
queda quedar VMIP3S0 0.885417
m m NCFS000 0.5
s segundo NCMN000 0.622321
que que CS 0.4375
la el DA0FS0 0.972146
resistencia resistencia NCFS000 1
M m NP00000 1
s segundo NCMN000 0.622321
y y CC 0.999812
m m NCFS000 0.5
s segundo NCMN000 0.622321
resistencia resistencia NCFS000 1
Haga haga NP00000 1
click click NCMS000 0.50012
aqu aqu NCMS000 0.774439
para para SPS00 0.998507
recibir recibir VMN0000 1
gratis gratis RG 0.75
Argenpress argenpress NP00000 1
en en SPS00 1
su su DP3CS0 1
correo correo NCMS000 0.735623
electr electr AQ0CS0 0.0829965
nico no NCMS00D 0.522084

