Chile_Cae chile_cae NP00000 1
ministro ministro NCMS000 1
en en SPS00 1
la el DA0FS0 0.972146
mira mirar VMM02S0 0.666667
el el DA0MS0 1
modelo modelo NCCS000 0.973684
educacional educacional AQ0CS0 1
L l NP00000 1
deres deres NCMP000 0.800047
estudiantiles estudiantil AQ0CP0 1
profesores profesor NCMP000 1
y y CC 0.999812
otras otro DI0FP0 0.731481
voces voz NCFP000 1
en en SPS00 1
Chile chile NP00000 1
coinciden coincidir VMIP3P0 1
en en SPS00 1
que que PR0CN000 0.5625
m m NCFS000 0.5
s segundo NCMN000 0.622321
all all NCFN000 1
de de SPS00 0.999919
la el DA0FS0 0.972146
destituci destituci AQ0CS0 0.0199855
n n NCFS000 1
de de SPS00 1
el el DA0MS0 1
ministro ministro NCMS000 1
de de SPS00 0.999919
Educaci educaci NP00000 1
n n NCFS000 1
Harald_Beyer_por_el_Congreso harald_beyer_por_el_congreso NP00000 1
el el DA0MS0 1
pa pa NCFS000 0.740689
s segundo NCMN000 0.622321
lo el DA0NS0 0.457393
que que PR0CN000 0.5625
necesita necesitar VMIP3S0 0.95
es ser VSIP3S0 1
cambiar cambiar VMN0000 1
el el DA0MS0 1
modelo modelo NCCS000 0.973684
en en SPS00 1
la el DA0FS0 0.972146
ense ense NCCS000 0.4
anza anza VMIP3S0 0.309573
Este este NP00000 1
proceso proceso NCMS000 0.973684
que que PR0CN000 0.5625
termina terminar VMIP3S0 0.833333
con con SPS00 1
la el DA0FS0 0.972146
destituci destituci AQ0CS0 0.0199855
n n NCFS000 1
de de SPS00 0.999919
Beyer beyer NP00000 1
no no RN 0.99778
es ser VSIP3S0 1
m m NCFS000 0.5
s segundo NCMN000 0.622321
que que CS 0.4375
la el DA0FS0 0.972146
manifestaci manifestaci AQ0CS0 0.0199855
n n NCFS000 1
clara claro AQ0FS0 0.928571
de de SPS00 0.999919
que que CS 0.4375
nuestro nuestro DP1MSP 0.933333
sistema sistema NCMS000 1
educacional educacional AQ0CS0 1
est est NCMS000 1
en en SPS00 1
una uno DI0FS0 0.951241
profunda profundo AQ0FS0 0.666667
crisis crisis NCFN000 1
expres expres AQ0CP0 0.168205
en en SPS00 1
una uno DI0FS0 0.951241
declaraci declaraci AQ0CS0 0.0199855
n n NCFS000 1
el el DA0MS0 1
Colegio_de_Profesores colegio_de_profesores NP00000 1
tras tras SPS00 1
ser ser VSN0000 0.93883
aprobada aprobar VMP00SF 1
la el DA0FS0 0.972146
acusaci acusaci AQ0CS0 0.0199855
n n NCFS000 1
constitucional constitucional AQ0CS0 1
por por SPS00 1
el el DA0MS0 1
Senado_Seg senado_seg NP00000 1
n n NCFS000 1
los el DA0MP0 0.97623
profesores profesor NCMP000 1
la el DA0FS0 0.972146
experiencia experiencia NCFS000 1
le le PP3CSD00 1
debe deber VMIP3S0 0.974359
servir servir VMN0000 1
a a SPS00 1
el el DA0MS0 1
Gobierno gobierno NP00000 1
para para SPS00 0.998507
entender entender VMN0000 0.9
que que CS 0.4375
el el DA0MS0 1
nico nico AQ0MS0 0.470565
camino camino NCMS000 0.978261
posible posible AQ0CS0 1
es ser VSIP3S0 1
abordar abordar VMN0000 1
los el DA0MP0 0.97623
problemas problema NCMP000 1
de de SPS00 0.999919
fondo fondo NCMS000 1
que que PR0CN000 0.5625
ha haber VAIP3S0 0.998141
generado generar VMP00SM 1
la el DA0FS0 0.972146
educaci educaci AQ0CS0 0.0199855
n n NCFS000 1
de de SPS00 0.999919
mercado mercado NCMS000 0.9
propiciar propiciar VMN0000 1
los el DA0MP0 0.97623
cambios cambio NCMP000 1
estructurales estructural AQ0CP0 0.75
que que PR0CN000 0.5625
se se P00CN000 0.465602
requieren requerir VMIP3P0 1
y y CC 0.999812
que que CS 0.4375
con con SPS00 1
tanta tanto DI0FS0 0.9375
urgencia urgencia NCFS000 1
piden pedir VMIP3P0 1
estudiantes estudiante NCCP000 0.875
maestros maestro AQ0MP0 0.25
organizaciones organización NCFP000 1
sociales social AQ0CP0 0.9375
y y CC 0.999812
la lo PP3FSA00 0.0277626
ciudadan ciudadan VMIP3P0 0.790742
a a SPS00 0.99585
en en SPS00 1
general general AQ0CS0 0.90625
El_Colegio el_colegio NP00000 1
reiter reiter NCMS000 1
que que CS 0.4375
la el DA0FS0 0.972146
educaci educaci AQ0CS0 0.0199855
n n NCFS000 1
en en SPS00 1
Chile chile NP00000 1
es ser VSIP3S0 1
un uno DI0MS0 0.986987
negocio negocio NCMS000 0.875
con con SPS00 1
el el DA0MS0 1
cual cual PR0CS000 0.9
se se P00CN000 0.465602
lucra lucrar VMIP3S0 0.980989
desenfocado desenfocar VMP00SM 1
de de SPS00 0.999919
la el DA0FS0 0.972146
tarea tarea NCFS000 1
social social AQ0CS0 0.977273
que que PR0CN000 0.5625
le le PP3CSD00 1
compete competer VMIP3S0 0.994868
y y CC 0.999812
que que CS 0.4375
en en SPS00 1
el el DA0MS0 1
caso caso NCMS000 0.990741
de de SPS00 0.999919
la el DA0FS0 0.972146
ense ense AQ0CS0 0.4
anza anza NCFS000 0.690427
superior superior AQ0CS0 0.964286
existe existir VMIP3S0 0.966667
un uno DI0MS0 0.986987
sistema sistema NCMS000 1
desregulado desregular VMP00SM 1
que que PR0CN000 0.5625
funciona funcionar VMIP3S0 0.75
m m NCFS000 0.5
s segundo NCMN000 0.622321
como como CS 0.998579
un uno DI0MS0 0.986987
bien bien NCMS000 0.0980392
de de SPS00 0.999919
consumo consumo NCMS000 0.833333
que que CS 0.4375
como como CS 0.998579
un uno DI0MS0 0.986987
derecho derecho NCMS000 0.884615
de de SPS00 0.999919
todos todo DI0MP0 0.622419
los el DA0MP0 0.97623
ciudadanos ciudadano NCMP000 0.875
Desde desde NP00000 1
el el DA0MS0 1
gremio gremio NCMS000 1
profesoral profesoral AQ0CS0 1
est est NCMS000 1
n n NCFS000 1
conscientes consciente AQ0CP0 1
de de SPS00 0.999919
que que CS 0.4375
la el DA0FS0 0.972146
destituci destituci AQ0CS0 0.0199855
n n NCFS000 1
de de SPS00 0.999919
un uno DI0MS0 0.986987
ministro ministro NCMS000 1
no no RN 0.99778
es ser VSIP3S0 1
la el DA0FS0 0.972146
soluci soluci AQ0CS0 0.0199855
n n NCFS000 1
de de SPS00 1
el el DA0MS0 1
problema problema NCMS000 1
y y CC 0.999812
esperan esperar VMIP3P0 1
que que CS 0.4375
el el DA0MS0 1
episodio episodio NCMS000 1
sirva servir VMSP1S0 0.444444
para para SPS00 0.998507
que que CS 0.4375
el el DA0MS0 1
Gobierno gobierno NP00000 1
se se P00CN000 0.465602
allane allanar VMSP3S0 0.62344
a a SPS00 0.99585
tratar tratar VMN0000 1
los el DA0MP0 0.97623
grandes grande AQ0CP0 0.95
temas tema NCMP000 0.625
estructurales estructural AQ0CP0 0.75
que que PR0CN000 0.5625
afectan afectar VMIP3P0 1
a a SPS00 0.99585
la el DA0FS0 0.972146
educaci educaci AQ0CS0 0.0199855
n n NCFS000 1
chilena chileno AQ0FS0 0.657132
En en NP00000 1
ese ese DD0MS0 0.98125
sentido sentido NCMS000 0.948276
llamaron llamar VMIS3P0 1
a a SPS00 1
el el DA0MS0 1
Ejecutivo ejecutivo NP00000 1
a a SPS00 0.99585
conversar conversar VMN0000 1
y y CC 0.999812
establecer establecer VMN0000 1
mesas mesa NCFP000 0.973497
de de SPS00 0.999919
di dar VMIS1S0 0.833333
logo logo NCMS000 1
para para SPS00 0.998507
escuchar escuchar VMN0000 1
las el DA0FP0 0.97051
propuestas propuesta NCFP000 0.75
de de SPS00 0.999919
todos todo DI0MP0 0.622419
los el DA0MP0 0.97623
actores actor NCMP000 1
sociales social AQ0CP0 0.9375
a_fin_de a_fin_de SPS00 1
enmendar enmendar VMN0000 1
de de SPS00 0.999919
una uno DI0FS0 0.951241
vez vez NCFS000 1
el el DA0MS0 1
rumbo rumbo NCMS000 1
que que PR0CN000 0.5625
debe deber VMIP3S0 0.974359
apuntar apuntar VMN0000 1
a a SPS00 0.99585
la el DA0FS0 0.972146
ense ense NCCS000 0.4
anza anza VMIP3S0 0.309573
como como CS 0.998579
un uno DI0MS0 0.986987
derecho derecho NCMS000 0.884615
de de SPS00 0.999919
todos todo DI0MP0 0.622419
La_Organizaci la_organizaci NP00000 1
n n NCFS000 1
para para SPS00 0.998507
la el DA0FS0 0.972146
Cooperaci cooperaci NP00000 1
n n NCFS000 1
y y CC 0.999812
el el DA0MS0 1
Desarrollo_OCDE desarrollo_ocde NP00000 1
ha haber VAIP3S0 0.998141
diagnosticado diagnosticar VMP00SM 1
que que CS 0.4375
la el DA0FS0 0.972146
educaci educaci AQ0CS0 0.0199855
n n NCFS000 1
chilena chileno AQ0FS0 0.657132
est est NCMS000 1
influida influir VMP00SF 1
por por SPS00 1
una uno DI0FS0 0.951241
ideolog ideolog NCMS000 0.714133
a a SPS00 0.99585
que que PR0CN000 0.5625
da dar VMIP3S0 0.983871
una uno DI0FS0 0.951241
importancia importancia NCFS000 1
indebida indebido AQ0FS0 1
a a SPS00 0.99585
los el DA0MP0 0.97623
mecanismos mecanismo NCMP000 1
de de SPS00 0.999919
mercado mercado NCMS000 0.9
para para SPS00 0.998507
mejorar mejorar VMN0000 1
la el DA0FS0 0.972146
ense ense AQ0CS0 0.4
anza anza NCFS000 0.690427
y y CC 0.999812
el el DA0MS0 1
aprendizaje aprendizaje NCMS000 1
Por_lo_tanto por_lo_tanto NP00000 1
el el DA0MS0 1
intervencionismo intervencionismo NCMS000 1
activo activo AQ0MS0 0.777778
de de SPS00 1
el el DA0MS0 1
centro centro NCMS000 0.966667
est est NCMS000 1
limitado limitar VMP00SM 1
por por SPS00 1
mecanismos mecanismo NCMP000 1
de de SPS00 0.999919
mercado mercado NCMS000 0.9
En_gran_medida en_gran_medida NP00000 1
el el DA0MS0 1
rechazo rechazo NCMS000 0.75
a a SPS00 0.99585
ese ese DD0MS0 0.98125
modelo modelo NCCS000 0.973684
ha haber VAIP3S0 0.998141
sido ser VSP00SM 1
el el DA0MS0 1
causante causante NCMS000 0.25
de de SPS00 0.999919
las el DA0FP0 0.97051
multitudinarias multitudinario AQ0FP0 1
manifestaciones manifestación NCFP000 1
que que CS 0.4375
desde desde SPS00 1
2011 2011 Z 1
inundaron inundar VMIS3P0 1
la el DA0FS0 0.972146
Alameda alameda NP00000 1
y y CC 0.999812
varias varios DI0FP0 0.939394
avenidas avenida NCFP000 0.75
de de SPS00 0.999919
Santiago_de_Chile santiago_de_chile NP00000 1
y y CC 0.999812
otras otro DI0FP0 0.731481
ciudades ciudad NCFP000 1
en en SPS00 1
reclamo reclamo NCMS000 0.673603
de de SPS00 0.999919
que que CS 0.4375
finalice finalizar VMSP3S0 0.623357
el el DA0MS0 1
lucro lucro NCMS000 0.75
en en SPS00 1
la el DA0FS0 0.972146
educaci educaci AQ0CS0 0.0199855
n n NCFS000 1
pr pr AQ0CS0 0.0829965
ctica cuenta NCFS00D 0.60002
que que PR0CN000 0.5625
por por SPS00 1
ley ley NCFS000 1
est est NCMS000 1
prohibida prohibir VMP00SF 1
en en SPS00 1
el el DA0MS0 1
pa pa NCFS000 0.740689
s segundo NCMN000 0.622321
Se se NP00000 1
trata tratar VMIP3S0 0.946237
de de SPS00 0.999919
que que CS 0.4375
unos uno DI0MP0 0.879032
pocos poco DI0MP0 0.583333
empresarios empresario NCMP000 1
se se P00CN000 0.465602
llenan llenar VMIP3P0 1
los el DA0MP0 0.97623
bolsillos bolsillo NCMP000 1
con con SPS00 1
los el DA0MP0 0.97623
sue sue NCMS000 0.439656
os o NCFP000 0.222222
de de SPS00 0.999919
miles mil NCMP000 1
de de SPS00 0.999919
familias familia NCFP000 1
precarizando precarizando VMG0000 1
la el DA0FS0 0.972146
educaci educaci AQ0CS0 0.0199855
n n NCFS000 1
y y CC 0.999812
a a SPS00 1
el el DA0MS0 1
final final NCFS000 0.425926
de de SPS00 1
el el DA0MS0 1
d d NCFS000 1
a a SPS00 0.99585
haciendo hacer VMG0000 0.958333
de de SPS00 0.999919
este este DD0MS0 0.956743
espacio espacio NCMS000 0.96875
que que CS 0.4375
deber deber NCMS000 0.9
a a SPS00 0.99585
ser ser VSN0000 0.93883
inclusivo inclusivo AQ0MS0 1
una uno DI0FS0 0.951241
gran gran AQ0CS0 1
estafa estafa NCFS000 0.846904
a a SPS00 0.99585
la el DA0FS0 0.972146
mayor mayor AQ0CS0 0.989796
a a SPS00 0.99585
de de SPS00 0.999919
los el DA0MP0 0.97623
chilenos chileno AQ0MP0 0.75
m m NCFS000 0.5
s segundo NCMN000 0.622321
pobres pobre AQ0CP0 0.375
as as NCMS000 1
describi describi AQ0CN0 1
la el DA0FS0 0.972146
situaci situaci RG 0.751648
n n NCFS000 1
el el DA0MS0 1
exvocero exvocero NCMS000 1
de de SPS00 0.999919
la el DA0FS0 0.972146
Confederaci confederaci NP00000 1
n n NCFS000 1
de de SPS00 0.999919
Estudiantes_de_Chile_Confech_Gabriel_Boric estudiantes_de_chile_confech_gabriel_boric NP00000 1
en en SPS00 1
una uno DI0FS0 0.951241
reciente reciente AQ0CS0 0.925
entrevista entrevista NCFS000 0.75
Lo lo NP00000 1
cierto cierto AQ0MS0 1
es ser VSIP3S0 1
que que CS 0.4375
Chile chile NP00000 1
mantiene mantener VMIP3S0 1
en en SPS00 1
lo lo PP3CNA00 0.271163
fundamental fundamental AQ0CS0 1
un uno DI0MS0 0.986987
sistema sistema NCMS000 1
educativo educativo AQ0MS0 1
que que PR0CN000 0.5625
hered hered NCFS000 1
de de SPS00 0.999919
la el DA0FS0 0.972146
dictadura dictadura NCFS000 1
de de SPS00 1
el el DA0MS0 1
general general AQ0CS0 0.90625
Augusto_Pinochet augusto_pinochet NP00000 1
1973 1973 Z 1
1990 1990 Z 1
El el NP00000 1
r r NCFS000 0.638487
gimen gemir VMIP3P0 1
golpista golpista NCCS000 0.642478
redujo reducir VMIS3S0 1
a a SPS00 0.99585
menos menos RG 1
de de SPS00 0.999919
la el DA0FS0 0.972146
mitad mitad NCFS000 1
las el DA0FP0 0.97051
erogaciones erogación NCFP000 1
p p NCFS000 0.5
blicas blicas AQ0FP0 1
a a SPS00 0.99585
la el DA0FS0 0.972146
educaci educaci AQ0CS0 0.0199855
n n NCFS000 1
e y CC 0.973684
incentiv incentiv VMIP3S0 0.0552772
los el DA0MP0 0.97623
colegios colegio NCMP000 0.75
privados privar VMP00PM 0.833333
Con con NP00000 1
esa ese DD0FS0 0.978261
f f NCFS000 1
rmula rmula NCFS000 1
las el DA0FP0 0.97051
reformas reforma NCFP000 0.956832
establecieron establecer VMIS3P0 1
en en SPS00 1
Chile chile NP00000 1
uno uno PI0MS000 0.964744
de de SPS00 0.999919
los el DA0MP0 0.97623
sistemas sistema NCMP000 1
educativos educativo AQ0MP0 1
m m NCFS000 0.5
s segundo NCMN000 0.622321
desiguales desigual AQ0CP0 0.974074
y y CC 0.999812
costosos costoso AQ0MP0 1
de de SPS00 1
el el DA0MS0 1
orbe orbe NCMS000 1
como como CS 0.998579
dictamin dictamin RG 0.388954
la el DA0FS0 0.972146
OCDE_La ocde_la NP00000 1
embestida embestida NCFS000 0.75
de de SPS00 0.999919
Pinochet pinochet NP00000 1
en en SPS00 1
el el DA0MS0 1
sector sector NCMS000 1
provoc provoc NC00000 0.538029
que que PR0CN000 0.5625
solo solo RG 0.0555556
un uno DI0MS0 0.986987
40_por_ciento 40/100 Zp 1
de de SPS00 0.999919
los el DA0MP0 0.97623
estudiantes estudiante NCCP000 0.875
de de SPS00 0.999919
secundaria secundario AQ0FS0 1
en en SPS00 1
el el DA0MS0 1
pa pa NCFS000 0.740689
s segundo NCMN000 0.622321
austral austral AQ0CS0 0.65727
asista asistir VMSP3S0 0.52344
a a SPS00 0.99585
colegios colegio NCMP000 0.75
p p NCFS000 0.5
blicos blicos AQ0MP0 1
gratuitos gratuito AQ0MP0 1
Tal tal NP00000 1
facilidad facilidad NCFS000 1
sigue seguir VMIP3S0 0.982759
siendo ser VSG0000 1
un uno DI0MS0 0.986987
anhelo anhelo NCMS000 0.833333
en en SPS00 1
la el DA0FS0 0.972146
ense ense AQ0CS0 0.4
anza anza NCFS000 0.690427
universitaria universitario AQ0FS0 0.833333
En en NP00000 1
opini opini VMIS1S0 0.0691907
n n NCFS000 1
de de SPS00 1
el el DA0MS0 1
acad acad NCFS000 0.973952
mico mico NCMS000 1
Patricio_L patricio_l NP00000 1
pez pez NCMS000 0.649732
director director NCMS000 0.970588
de de SPS00 1
el el DA0MS0 1
Observatorio_de_Pol observatorio_de_pol NP00000 1
ticas ticas AQ0FP0 0.760898
Educativas_de_la_Universidad_de_Chile educativas_de_la_universidad_de_chile NP00000 1
a a SPS00 0.99585
su su DP3CS0 1
pa pa NCFS000 0.740689
s segundo NCMN000 0.622321
le le PP3CSD00 1
sobra sobrar VMIP3S0 0.444444
dinero dinero NCMS000 1
para para SPS00 0.998507
dar dar VMN0000 1
gratuidad gratuidad NCFS000 1
universal universal AQ0CS0 0.9375
a a SPS00 0.99585
todos todo DI0MP0 0.622419
los el DA0MP0 0.97623
niveles nivel NCMP000 0.75
educativos educativo AQ0MP0 1
pero pero CC 0.998821
eso ese PD0NS000 1
supone suponer VMIP3S0 1
un uno DI0MS0 0.986987
replanteamiento replanteamiento NCMS000 1
de de SPS00 1
el el DA0MS0 1
uso uso NCMS000 0.95
de de SPS00 0.999919
los el DA0MP0 0.97623
recursos recurso NCMP000 1
nacionales nacional AQ0CP0 1
Desde desde NP00000 1
las el DA0FP0 0.97051
filas fila NCFP000 1
de de SPS00 1
el el DA0MS0 1
estudiantado estudiantado NCMS000 1
varios varios DI0MP0 0.883333
dirigentes dirigente NCCP000 0.75
aplaudieron aplaudir VMIS3P0 1
la el DA0FS0 0.972146
destituci destituci AQ0CS0 0.0199855
n n NCFS000 1
pero pero CC 0.998821
manifestaron manifestar VMIS3P0 1
estar estar VAN0000 1
conscientes consciente AQ0CP0 1
que que CS 0.4375
con con SPS00 1
la el DA0FS0 0.972146
ca ca I 1
da dar VMIP3S0 0.983871
de de SPS00 0.999919
Beyer beyer NP00000 1
no no RN 0.99778
quedaba quedar VMII3S0 0.65
sepultado sepultar VMP00SM 1
el el DA0MS0 1
sistema sistema NCMS000 1
Es es NP00000 1
a a SPS00 1
el el DA0MS0 1
menos menos RG 1
el el DA0MS0 1
fin fin NCMS000 1
simb simb NCMS000 0.63631
lico lico AQ0MS0 0.392198
de de SPS00 1
el el DA0MS0 1
lucro lucro NCMS000 0.75
consider consider NCMS000 0.246545
Diego_Vela diego_vela NP00000 1
uno uno PI0MS000 0.964744
de de SPS00 0.999919
los el DA0MP0 0.97623
voceros vocero NCMP000 1
de de SPS00 0.999919
la el DA0FS0 0.972146
Confech confech NP00000 1
quien quien PR0CS000 1
consider consider NCMS000 0.246545
que que PR0CN000 0.5625
ahora ahora RG 1
es ser VSIP3S0 1
necesario necesario AQ0MS0 1
avanzar avanzar VMN0000 1
hacia hacia SPS00 1
su su DP3CS0 1
total total AQ0CS0 0.944444
t t NCFS000 1
rmino rmino NCMS000 1
Otro otro NP00000 1
directivo directivo NCMS000 0.9
de de SPS00 0.999919
esa ese DD0FS0 0.978261
organizaci organizaci AQ0CS0 0.0199855
n n NCFS000 1
Andr andr NP00000 1
s segundo NCMN000 0.622321
Fielbaum fielbaum NP00000 1
quien quien PR0CS000 1
preside presidir VMIP3S0 0.994868
la el DA0FS0 0.972146
Federaci federaci NP00000 1
n n NCFS000 1
de de SPS00 0.999919
Estudiantes_de_la_Universidad_de_Chile estudiantes_de_la_universidad_de_chile NP00000 1
insisti insisti NCMS000 1
en en SPS00 1
que que CS 0.4375
sacar sacar VMN0000 1
a a SPS00 0.99585
Beyer beyer NP00000 1
con con SPS00 1
una uno DI0FS0 0.951241
mano mano NCFS000 0.974359
y y CC 0.999812
con con SPS00 1
la el DA0FS0 0.972146
otra otro PI0FS000 0.198864
aprobar aprobar VMN0000 1
su su DP3CS0 1
agenda agenda NCFS000 1
legislativa legislativo AQ0FS0 1
pro pro SPS00 0.235088
lucro lucro NCMS000 0.75
de de SPS00 0.999919
nada nada PI0CS000 0.846667
sirve servir VMIP3S0 0.916667
Por por NP00000 1
su su DP3CS0 1
parte parte NCFS000 0.497967
la el DA0FS0 0.972146
emblem emblem NCMS000 1
tica tica AQ0FS0 0.595788
exdirigente exdirigente AQ0CS0 1
estudiantil estudiantil AQ0CS0 1
Camila_Vallejo camila_vallejo NP00000 1
escribi escribi AQ0CN0 1
en en SPS00 1
su su DP3CS0 1
cuenta cuenta NCFS000 0.765152
de de SPS00 0.999919
Twitter twitter NP00000 1
que que CS 0.4375
la el DA0FS0 0.972146
destituci destituci AQ0CS0 0.0199855
n n NCFS000 1
de de SPS00 1
el el DA0MS0 1
ministro ministro NCMS000 1
refleja reflejo AQ0FS0 0.641247
que que PR0CN000 0.5625
hay haber VMIP3S0 1
una uno DI0FS0 0.951241
ciudadan ciudadan VMIP3P0 0.790742
a a SPS00 0.99585
mucho mucho DI0MS0 0.275362
m m NCFS000 0.5
s segundo NCMN000 0.622321
empoderada empoderada VMP00SF 1
que que PR0CN000 0.5625
exige exigir VMIP3S0 0.875
fiscalizar fiscalizar VMN0000 1
y y CC 0.999812
terminar terminar VMN0000 1
con con SPS00 1
el el DA0MS0 1
lucro lucro NCMS000 0.75
Desde_el_Palacio_de_La_Moneda desde_el_palacio_de_la_moneda NP00000 1
el el DA0MS0 1
presidente presidente NCMS000 1
Sebasti sebasti NP00000 1
n n NCFS000 1
Pi pi NP00000 1
era ser VSII1S0 0.490859
consider consider VMN0000 0.630215
que que CS 0.4375
una uno DI0FS0 0.951241
peque peque NCCS000 0.618697
a a SPS00 0.99585
mayor mayor AQ0CS0 0.989796
a a SPS00 0.99585
en en SPS00 1
el el DA0MS0 1
Senado senado NP00000 1
cometi cometi NCMS000 1
una uno DI0FS0 0.951241
inmensa inmenso AQ0FS0 1
injusticia injusticia NCFS000 1
Seg seg NP00000 1
n n NCFS000 1
el el DA0MS0 1
mandatario mandatario NCMS000 1
fueron ser VSIS3P0 0.796296
injustos injusto AQ0MP0 0.657078
los el DA0MP0 0.97623
argumentos argumento NCMP000 1
en en SPS00 1
que que PR0CN000 0.5625
se se P00CN000 0.465602
bas ba NCFP000 1
la el DA0FS0 0.972146
acusaci acusaci AQ0CS0 0.0199855
n n NCFS000 1
en en SPS00 1
su su DP3CS0 1
opini opini AQ0CS0 0.0199855
n n NCFS000 1
profundamente profundamente RG 0.75
re re AQ0CN0 0.35872
idos ir VMP00PM 1
con con SPS00 1
la el DA0FS0 0.972146
letra letra NCFS000 1
y y CC 0.999812
el el DA0MS0 1
esp esp NCMS000 1
ritu ritu NCMS000 1
de de SPS00 0.999919
la el DA0FS0 0.972146
Constituci constituci NP00000 1
n n NCFS000 1
Beyer beyer NP00000 1
el el DA0MS0 1
tercer 3 AO0MS0 1
ministro ministro NCMS000 1
de de SPS00 0.999919
Educaci educaci NP00000 1
n n NCFS000 1
de de SPS00 0.999919
la el DA0FS0 0.972146
administraci administraci AQ0CS0 0.0199855
n n NCFS000 1
Pi pi NP00000 1
era ser VSII1S0 0.490859
fue ser VSIS3S0 0.932292
destituido destituir VMP00SM 1
por por SPS00 1
abandonar abandonar VMN0000 1
sus su DP3CP0 0.998462
deberes deber NCMP000 1
en en SPS00 1
el el DA0MS0 1
enfrentamiento enfrentamiento NCMS000 1
a a SPS00 1
el el DA0MS0 1
lucro lucro NCMS000 0.75
en en SPS00 1
la el DA0FS0 0.972146
ense ense NCCS000 0.4
anza anza VMIP3S0 0.309573
sanci sanci RG 0.751648
n n NCFS000 1
que que PR0CN000 0.5625
le le PP3CSD00 1
proh proh NCFS000 0.5
be be NCFS000 1
ejercer ejercer VMN0000 1
por por SPS00 1
cinco 5 Z 0.98
a a SPS00 0.99585
os os PP2CP000 0.722222
cualquier cualquiera DI0CS0 1
cargo cargo NCMS000 0.916667
p p NCFS000 0.5
blico blico AQ0MS0 0.400224
pese_a pese_a SPS00 1
que que CS 0.4375
no no RN 0.99778
recaigan recaer VMSP3P0 0.901254
sobre sobre SPS00 0.994203
l l NCFS000 0.639398
la el DA0FS0 0.972146
imputaci imputaci AQ0CS0 0.0199855
n n NCFS000 1
de de SPS00 0.999919
un uno DI0MS0 0.986987
delito delito NCMS000 1
y y CC 0.999812
un uno DI0MS0 0.986987
juicio juicio NCMS000 1
penal penal AQ0CS0 0.75
Haga haga NP00000 1
click click NCMS000 0.50012
aqu aqu NCMS000 0.774439
para para SPS00 0.998507
recibir recibir VMN0000 1
gratis gratis RG 0.75
Argenpress argenpress NP00000 1
en en SPS00 1
su su DP3CS0 1
correo correo NCMS000 0.735623
electr electr AQ0CS0 0.0829965
nico no NCMS00D 0.522084

