Corea_Metas corea_metas NP00000 1
inviables inviable AQ0CP0 1
Desde desde NP00000 1
el el DA0MS0 1
borde borde NCMS000 0.733333
de de SPS00 0.999919
la el DA0FS0 0.972146
guerra guerra NCFS000 1
y y CC 0.999812
m m NCFS000 0.5
s segundo NCMN000 0.622321
all all NCFN000 1
de de SPS00 0.999919
la el DA0FS0 0.972146
sensatez sensatez NCFS000 1
Corea_de_el_Norte corea_de_el_norte NP00000 1
parece parecer VMIP3S0 0.9875
regresar regresar VMN0000 1
a a SPS00 0.99585
las el DA0FP0 0.97051
posiciones posición NCFP000 0.75
iniciales inicial AQ0CP0 0.166667
y y CC 0.999812
propone proponer VMIP3S0 1
retomar retomar VMN0000 1
el el DA0MS0 1
di dar VMIS1S0 0.833333
logo logo NCMS000 1
condicion condicion VMIS3P0 0.923476
ndolo ndolo NCMS000 1
a a SPS00 0.99585
1 1 Z 1
Levantamiento levantamiento NP00000 1
de de SPS00 0.999919
las el DA0FP0 0.97051
sanciones sanción NCFP000 0.995706
de de SPS00 1
el el DA0MS0 1
Consejo_de_Seguridad consejo_de_seguridad NP00000 1
2 2 Z 1
Retirada retirada NP00000 1
de de SPS00 0.999919
las el DA0FP0 0.97051
armas arma NCFP000 0.982759
nucleares nuclear AQ0CP0 1
de de SPS00 0.999919
la el DA0FS0 0.972146
regi regi AQ0CS0 0.0199855
n n NCFS000 1
3 3 Z 1
Fin fin NP00000 1
de de SPS00 0.999919
los el DA0MP0 0.97623
ejercicios ejercicio NCMP000 1
militares militar AQ0CP0 0.541667
de de SPS00 0.999919
Estados_Unidos estados_unidos NP00000 1
y y CC 0.999812
Corea_de_el_Sur_La corea_de_el_sur_la NP00000 1
propuesta propuesta NCFS000 0.75
se se P00CN000 0.465602
realiza realizar VMIP3S0 0.75
en en SPS00 1
el el DA0MS0 1
tono tono NCMS000 1
reci reci RG 0.751648
n n NCFS000 1
estrenado estrenar VMP00SM 1
Si_Estados_Unidos si_estados_unidos NP00000 1
y y CC 0.999812
los el DA0MP0 0.97623
t t NCFS000 1
teres teres NCMP000 1
de de SPS00 0.999919
Corea_de_el_Sur corea_de_el_sur NP00000 1
desean desear VMIP3P0 1
evitar evitar VMN0000 1
el el DA0MS0 1
golpe golpe NCMS000 1
de de SPS00 0.999919
mazo mazo NCMS000 0.75
de de SPS00 0.999919
nuestro nuestro DP1MSP 0.933333
Ej ej NP00000 1
rcito rcito NCMS000 1
y y CC 0.999812
pueblo pueblo NCMS000 0.978261
deben deber VMIP3P0 1
decidir decidir VMN0000 1
Aunque aunque NP00000 1
alguna alguno DI0FS0 0.893939
de de SPS00 0.999919
las el DA0FP0 0.97051
demandas demanda NCFP000 0.75
pueden poder VMIP3P0 1
resultar resultar VMN0000 1
inviables inviable AQ0CP0 1
el el DA0MS0 1
hecho hecho NCMS000 0.381579
de de SPS00 0.999919
que que CS 0.4375
los el DA0MP0 0.97623
mismos mismo AQ0MP0 0.884615
l l NCFS000 0.639398
deres deres NCMP000 0.800047
que que PR0CN000 0.5625
llegaron llegar VMIS3P0 1
a a SPS00 0.99585
declarar declarar VMN0000 1
un uno DI0MS0 0.986987
virtual virtual AQ0CS0 1
estado estado NCMS000 0.662162
de de SPS00 0.999919
guerra guerra NCFS000 1
y y CC 0.999812
solicitar solicitar VMN0000 1
a a SPS00 0.99585
los el DA0MP0 0.97623
extranjeros extranjero AQ0MP0 0.833333
evacuar evacuar VMN0000 1
Pyongyang pyongyang NP00000 1
acepten aceptar VMSP3P0 0.901254
la el DA0FS0 0.972146
posibilidad posibilidad NCFS000 1
de de SPS00 0.999919
dialogar dialogar VMN0000 1
es ser VSIP3S0 1
una uno DI0FS0 0.951241
se se P00CN000 0.465602
a a SPS00 1
el el DA0MS0 1
en en SPS00 1
la el DA0FS0 0.972146
direcci direcci AQ0CS0 0.0199855
n n NCFS000 1
de de SPS00 0.999919
la el DA0FS0 0.972146
distensi distensi RG 1
n n NCFS000 1
Es es NP00000 1
evidente evidente AQ0CS0 1
que que CS 0.4375
Estados_Unidos estados_unidos NP00000 1
no no RN 0.99778
retirar retirar VMN0000 1
ahora ahora RG 1
ni ni CC 0.995935
en en SPS00 1
plazos plazo NCMP000 1
predecibles predecible AQ0CP0 1
sus su DP3CP0 0.998462
armas arma NCFP000 0.982759
nucleares nuclear AQ0CP0 1
desplegadas desplegar VMP00PF 1
en en SPS00 1
la el DA0FS0 0.972146
regi regi AQ0CS0 0.0199855
n n NCFS000 1
ni ni CC 0.995935
en en SPS00 1
ninguna ninguno DI0FS0 0.722222
otra otro DI0FS0 0.801136
parte parte NCFS000 0.497967
porque porque CS 1
otro otro DI0MS0 0.61215
pa pa NCFS000 0.740689
s segundo NCMN000 0.622321
se se P00CN000 0.465602
lo lo PP3CNA00 0.271163
demande demandar VMSP3S0 0.623206
Entre entre NP00000 1
otras otro DI0FP0 0.731481
cosas cosa NCFP000 0.986842
tales tal DD0CP0 0.880952
armas arma NCFP000 0.982759
son ser VSIP3P0 0.986772
la el DA0FS0 0.972146
base base NCCS000 0.955882
de de SPS00 0.999919
su su DP3CS0 1
doctrina doctrina NCFS000 0.666667
de de SPS00 0.999919
militar militar NCCS000 0.166667
global global AQ0CS0 1
La la NP00000 1
exigencia exigencia NCFS000 1
es ser VSIP3S0 1
especialmente especialmente RG 1
contraria contrario AQ0FS0 0.7
a a SPS00 0.99585
la el DA0FS0 0.972146
estrategia estrategia NCFS000 1
reci reci RG 0.751648
n n NCFS000 1
anunciada anunciar VMP00SF 1
basada basar VMP00SF 0.833333
en en SPS00 1
el el DA0MS0 1
incremento incremento NCMS000 0.75
de de SPS00 0.999919
la el DA0FS0 0.972146
presencia presencia NCFS000 0.962963
y y CC 0.999812
de de SPS00 1
el el DA0MS0 1
potencial potencial NCMS000 0.75
militar militar AQ0CS0 0.666667
en en SPS00 1
la el DA0FS0 0.972146
regi regi AQ0CS0 0.0199855
n n NCFS000 1
Asia_Pacifico_La asia_pacifico_la NP00000 1
nica nica AQ0FS0 0.730709
hip hip NCMS000 1
tesis tesis NCFN000 1
viable viable AQ0CS0 1
de de SPS00 0.999919
reducci reducci RG 0.751648
n n NCFS000 1
de de SPS00 0.999919
las el DA0FP0 0.97051
armas arma NCFP000 0.982759
at at NCFS000 1
micas mica NCFP000 1
es ser VSIP3S0 1
la el DA0FS0 0.972146
adopci adopci AQ0CS0 0.0199855
n n NCFS000 1
de de SPS00 0.999919
acuerdos acuerdo NCMP000 1
bilaterales bilateral AQ0CP0 1
entre entre SPS00 0.995223
Estados_Unidos estados_unidos NP00000 1
y y CC 0.999812
Rusia rusia NP00000 1
proceso proceso NCMS000 0.973684
a a SPS00 0.99585
los el DA0MP0 0.97623
que que PR0CN000 0.5625
en en SPS00 1
alg alg NCMS000 0.714133
n n NCFS000 1
momento momento NCMS000 1
pudieran poder VMSI3P0 1
sumar sumar VMN0000 1
se se PP3CN000 1
China china NP00000 1
y y CC 0.999812
otros otro DI0MP0 0.56875
pa pa NCFS000 0.740689
ses ses NCMP000 0.727093
nucleares nuclear AQ0CP0 1
Las las NP00000 1
negociaciones negociación NCFP000 1
sobre sobre SPS00 0.994203
limitaci limitaci RG 0.751648
n n NCFS000 1
de de SPS00 0.999919
armas arma NCFP000 0.982759
estrat estrat NCMS000 1
gicas gicas AQ0FP0 1
SALT_I salt_i NP00000 1
y y CC 0.999812
II ii NP00000 1
iniciadas iniciar VMP00PF 0.691735
en en SPS00 1
Helsinki helsinki NP00000 1
en en SPS00 1
1969 1969 Z 1
en en SPS00 1
44 44 Z 1
a a SPS00 0.99585
os os PP2CP000 0.722222
han haber VAIP3P0 1
producido producir VMP00SM 1
como como CS 0.998579
nicos nicos AQ0MP0 0.469818
y y CC 0.999812
magros magro AQ0MP0 0.357318
resultados resultado NCMP000 0.958333
los el DA0MP0 0.97623
tratados tratado NCMP000 0.25
START start NP00000 1
y y CC 0.999812
ABM_Ni abm_ni NP00000 1
siquiera siquiera RG 0.95
la el DA0FS0 0.972146
desaparici desaparici AQ0CS0 0.0199855
n n NCFS000 1
de de SPS00 0.999919
la el DA0FS0 0.972146
Uni uni NP00000 1
n n NCFS000 1
Sovi sovi NP00000 1
tica tica VMIP3S0 0.0320024
cambi cambi AQ0CN0 1
esos ese DD0MP0 0.961538
hechos hecho NCMP000 0.375
En en NP00000 1
toda todo DI0FS0 0.975806
la lo PP3FSA00 0.0277626
era ser VSII1S0 0.490859
nuclear nuclear AQ0CS0 1
la el DA0FS0 0.972146
nica nica AQ0FS0 0.730709
exigencia exigencia NCFS000 1
de de SPS00 0.999919
obligar obligar VMN0000 1
a a SPS00 0.99585
retirar retirar VMN0000 1
armas arma NCFP000 0.982759
nucleares nuclear AQ0CP0 1
bajo bajo SPS00 0.866071
amenaza amenaza NCFS000 0.666667
fue ser VSIS3S0 0.932292
intentada intentar VMP00SF 1
por por SPS00 1
la el DA0FS0 0.972146
administraci administraci AQ0CS0 0.0199855
n n NCFS000 1
Kennedy kennedy NP00000 1
durante durante SPS00 1
la el DA0FS0 0.972146
Crisis_de_los_Misiles crisis_de_los_misiles NP00000 1
de de SPS00 0.999919
1962 1962 Z 1
que que PR0CN000 0.5625
finalmente finalmente RG 1
se se P00CN000 0.465602
cubri cubri RG 0.83337
con con SPS00 1
una uno DI0FS0 0.951241
negociaci negociaci AQ0CS0 0.0199855
n n NCFS000 1
de de SPS00 0.999919
intercambio intercambio NCMS000 0.5
de de SPS00 0.999919
los el DA0MP0 0.97623
cohetes cohete NCMP000 1
instalados instalar VMP00PM 1
en en SPS00 1
Cuba_por_la_Uni cuba_por_la_uni NP00000 1
n n NCFS000 1
Sovi sovi NP00000 1
tica tica AQ0FS0 0.595788
por por SPS00 1
los el DA0MP0 0.97623
J j NP00000 1
piter piter NCMS000 0.732933
emplazados emplazar VMP00PM 1
por por SPS00 1
Estados_Unidos estados_unidos NP00000 1
en en SPS00 1
Turqu turqu NP00000 1
a a SPS00 0.99585
Una uno DI0FS0 0.951241
exigencia exigencia NCFS000 1
como como CS 0.998579
la el DA0FS0 0.972146
de de SPS00 0.999919
Corea_de_el_Norte corea_de_el_norte NP00000 1
jam jam NCMS000 0.700265
s segundo NCMN000 0.622321
ha haber VAIP3S0 0.998141
funcionado funcionar VMP00SM 1
con con SPS00 1
ning ning NCMS000 0.833333
n n NCFS000 1
pa pa NCFS000 0.740689
s segundo NCMN000 0.622321
incluso incluso RG 0.988095
no no RN 0.99778
ha haber VAIP3S0 0.998141
surtido surtir VMP00SM 0.25
efecto efecto NCMS000 1
ni ni CC 0.995935
en en SPS00 1
ella él PP3FS000 1
misma mismo AQ0FS0 0.916667
Lo lo NP00000 1
novedoso novedoso AQ0MS0 1
en en SPS00 1
el el DA0MS0 1
nuevo nuevo AQ0MS0 1
enfoque enfoque NCMS000 0.625
norcoreano norcoreano AQ0MS0 1
es ser VSIP3S0 1
que que CS 0.4375
aparentemente aparentemente RG 1
se se P00CN000 0.465602
retira retirar VMIP3S0 0.75
de de SPS00 0.999919
la el DA0FS0 0.972146
intenci intenci AQ0CS0 0.0199855
n n NCFS000 1
de de SPS00 0.999919
negociar negociar VMN0000 1
su su DP3CS0 1
programa programa NCMS000 0.866667
nuclear nuclear AQ0CS0 1
en en SPS00 1
primer 1 AO0MS0 1
lugar lugar NCMS000 1
el el DA0MS0 1
de de SPS00 0.999919
naturaleza naturaleza NCFS000 1
militar militar AQ0CS0 0.666667
intercambi intercambi AQ0CN0 1
ndolo ndolo NCMS000 1
por por SPS00 1
compromisos compromiso NCMP000 1
pol pol NCMS000 0.861706
ticos ticos AQ0MP0 0.671839
asociados asociar VMP00PM 0.691767
a a SPS00 0.99585
la el DA0FS0 0.972146
reunificaci reunificaci AQ0CS0 0.0199855
n n NCFS000 1
y y CC 0.999812
por por SPS00 1
algunas alguno DI0FP0 0.758065
formas forma NCFP000 0.921053
de de SPS00 0.999919
asistencia asistencia NCFS000 1
econ econ NCMS000 1
mica mica NCFS000 1
que que PR0CN000 0.5625
hasta hasta SPS00 0.955172
ahora ahora RG 1
hab hab NCMS000 0.63631
a a SPS00 0.99585
sostenido sostenido NCMS000 0.25
y y CC 0.999812
que que PR0CN000 0.5625
fue ser VSIS3S0 0.932292
la el DA0FS0 0.972146
base base NCCS000 0.955882
de de SPS00 0.999919
los el DA0MP0 0.97623
acuerdos acuerdo NCMP000 1
durante durante SPS00 1
la el DA0FS0 0.972146
administraci administraci AQ0CS0 0.0199855
n n NCFS000 1
de de SPS00 1
el el DA0MS0 1
presidente presidente NCMS000 1
Clinton clinton NP00000 1
y y CC 0.999812
son ser VSIP3P0 0.986772
el el DA0MS0 1
n n NCFS000 1
cleo cleo NCMS000 1
de de SPS00 0.999919
las el DA0FP0 0.97051
negociaciones negociación NCFP000 1
a a SPS00 0.99585
Seis 6 Z 1
Bandas bandas NP00000 1
cuya cuyo PR0FS000 1
esencia esencia NCFS000 1
es ser VSIP3S0 1
la el DA0FS0 0.972146
desnuclearizaci desnuclearizaci AQ0CS0 0.0199855
n n NCFS000 1
de de SPS00 0.999919
Corea_de_el_Norte corea_de_el_norte NP00000 1
no no RN 0.99778
la el DA0FS0 0.972146
de de SPS00 0.999919
Estados_Unidos_Seguramente estados_unidos_seguramente NP00000 1
en en SPS00 1
los el DA0MP0 0.97623
pr pr NCMS000 0.224371
ximos ximos AQ0MP0 1
d d NCFS000 1
as as NCMS000 1
habr habr VMN0000 0.633986
nuevos nuevo AQ0MP0 1
esclarecimiento esclarecimiento NCMS000 1
pero pero CC 0.998821
por por SPS00 1
ahora ahora RG 1
los el DA0MP0 0.97623
dedos dedo NCMP000 1
parecen parecer VMIP3P0 1
alejar alejar VMN0000 1
se se PP3CN000 1
de de SPS00 0.999919
los el DA0MP0 0.97623
gatillos gatillo NCMP000 1
at at NCFS000 1
micos mico NCMP000 1
Ojal ojal NP00000 1
la el DA0FS0 0.972146
tendencia tendencia NCFS000 1
se se P00CN000 0.465602
consolide consolidar VMSP3S0 0.623206
All all NP00000 1
nos nos PP1CP000 0.933333
vemos ver VMIP1P0 1
Haga haga NP00000 1
click click NCMS000 0.50012
aqu aqu NCMS000 0.774439
para para SPS00 0.998507
recibir recibir VMN0000 1
gratis gratis RG 0.75
Argenpress argenpress NP00000 1
en en SPS00 1
su su DP3CS0 1
correo correo NCMS000 0.735623
electr electr AQ0CS0 0.0829965
nico no NCMS00D 0.522084

