Crece crecer VMM02S0 0.25
d d NCFS000 1
ficit ficit NCMN000 1
comercial comercial AQ0CS0 1
de de SPS00 0.999919
la el DA0FS0 0.972146
India india NP00000 1
en en SPS00 1
a a SPS00 0.99585
o o CC 0.998845
fiscal fiscal AQ0CS0 0.657263
2012 2012 Z 1
2013 2013 Z 1
Una uno DI0FS0 0.951241
baja bajo AQ0FS0 0.90625
de de SPS00 1
el el DA0MS0 1
1 1 Z 1
76_por_ciento 76/100 Zp 1
en en SPS00 1
las el DA0FP0 0.97051
exportaciones exportación NCFP000 1
y y CC 0.999812
un uno DI0MS0 0.986987
ligero ligero AQ0MS0 1
aumento aumento NCMS000 0.916667
de de SPS00 0.999919
las el DA0FP0 0.97051
importaciones importación NCFP000 1
en en SPS00 1
el el DA0MS0 1
reci reci NCMS000 0.0996348
n n NCFS000 1
concluido concluir VMP00SM 1
a a SPS00 0.99585
o o CC 0.998845
fiscal fiscal AQ0CS0 0.657263
agrandaron agrandar VMIS3P0 1
el el DA0MS0 1
d d NCFS000 1
ficit ficit NCMN000 1
comercial comercial AQ0CS0 1
de de SPS00 0.999919
la el DA0FS0 0.972146
India india NP00000 1
hasta hasta SPS00 0.955172
un uno DI0MS0 0.986987
r r NCFS000 0.638487
cord cord AQ0CN0 0.5
de de SPS00 0.999919
190_mil_910_millones_de_d TM_d:190910000000 Zu 1
lares lar NCMP000 1
En en NP00000 1
ese ese DD0MS0 0.98125
per per NCMS000 0.19998
odo odo RG 0.51927
las el DA0FP0 0.97051
ventas venta NCFP000 1
a a SPS00 1
el el DA0MS0 1
exterior exterior NCMS000 0.3125
cayeron caer VMIS3P0 1
a a SPS00 0.99585
300_mil_600_millones_de_d TM_d:300600000000 Zu 1
lares lar NCMP000 1
un uno DI0MS0 0.986987
fen fen NCMS000 1
meno meno NCMS000 1
que que CS 0.4375
el el DA0MS0 1
ministro ministro NCMS000 1
de de SPS00 0.999919
Comercio_Anand_Sharma comercio_anand_sharma NP00000 1
citado citar VMP00SM 1
hoy hoy RG 0.877358
en en SPS00 1
Nueva_Delhi nueva_delhi NP00000 1
por por SPS00 1
la el DA0FS0 0.972146
agencia agencia NCFS000 0.666667
de de SPS00 0.999919
noticias noticia NCFP000 0.9375
IANS ians NP00000 1
atribuy atribuy RG 0.993863
a a SPS00 0.99585
un uno DI0MS0 0.986987
retraimiento retraimiento NCMS000 1
de de SPS00 0.999919
la el DA0FS0 0.972146
demanda demanda NCFS000 0.833333
desde desde SPS00 1
mercados mercado NCMP000 0.75
de de SPS00 0.999919
tanto tanto DI0MS0 0.121053
peso peso NCMS000 0.958333
como como CS 0.998579
Estados_Unidos estados_unidos NP00000 1
y y CC 0.999812
la el DA0FS0 0.972146
Uni uni NP00000 1
n n NCFS000 1
Europea_Sharma europea_sharma NP00000 1
acot acot NCCS000 0.727043
empero empero CC 1
que que CS 0.4375
las el DA0FP0 0.97051
exportaciones exportación NCFP000 1
superaron superar VMIS3P0 1
los el DA0MP0 0.97623
300_mil_millones_de_d TM_d:300000000000 Zu 1
lares lar NCMP000 1
que que PR0CN000 0.5625
se se P00CN000 0.465602
hab hab NCMS000 0.63631
a a SPS00 0.99585
planteado plantear VMP00SM 1
el el DA0MS0 1
Ejecutivo ejecutivo NP00000 1
para para SPS00 0.998507
el el DA0MS0 1
ejercicio ejercicio NCMS000 1
fiscal fiscal AQ0CS0 0.657263
concluido concluir VMP00SM 1
en en SPS00 1
marzo [??:??/3/??:??.??:??] W 1
En en NP00000 1
ese ese DD0MS0 0.98125
lapso lapso NCMS000 1
las el DA0FP0 0.97051
importaciones importación NCFP000 1
crecieron crecer VMIS3P0 1
0 0 Z 1
44_por_ciento 44/100 Zp 1
a a SPS00 1
el el DA0MS0 1
llegar llegar VMN0000 1
a a SPS00 0.99585
491_mil_480_millones_de_d TM_d:491480000000 Zu 1
lares lar NCMP000 1
b b NCFS000 1
sicamente sicamente RG 1
a_causa_de a_causa_de SPS00 1
un uno DI0MS0 0.986987
aumento aumento NCMS000 0.916667
de de SPS00 1
el el DA0MS0 1
9 9 Z 1
22_por_ciento 22/100 Zp 1
en en SPS00 1
las el DA0FP0 0.97051
compras compra NCFP000 0.964676
de de SPS00 0.999919
petr petr VMN0000 0.633986
leo leo NCCN000 0.25
que que PR0CN000 0.5625
se se P00CN000 0.465602
colocaron colocar VMIS3P0 1
por por SPS00 1
encima_de encima_de SPS00 1
los el DA0MP0 0.97623
169_mil_millones_de_d TM_d:169000000000 Zu 1
lares lar NCMP000 1
Tambi tambi NP00000 1
n n NCFS000 1
crecieron crecer VMIS3P0 1
significativamente significativamente RG 1
las el DA0FP0 0.97051
adquisiciones adquisición NCFP000 1
de de SPS00 0.999919
metales metal NCMP000 0.975
preciosos precioso AQ0MP0 1
carb carb NCMS000 0.63631
n n NCFS000 1
y y CC 0.999812
maquinaria maquinaria NCFS000 1
Si si NP00000 1
en en SPS00 1
el el DA0MS0 1
anterior anterior AQ0CS0 1
a a SPS00 0.99585
o o CC 0.998845
fiscal fiscal AQ0CS0 0.657263
el el DA0MS0 1
d d NCFS000 1
ficit ficit NCMN000 1
comercial comercial AQ0CS0 1
indio indio NCMS000 0.75
ascendi ascendi VMIS1S0 1
a a SPS00 0.99585
la el DA0FS0 0.972146
cifra cifra NCFS000 0.799844
r r NCFS000 0.638487
cord cord AQ0CN0 0.5
de de SPS00 0.999919
183_mil_400_millones_de_d TM_d:183400000000 Zu 1
lares lar NCMP000 1
en en SPS00 1
este este DD0MS0 0.956743
a a NCFS000 0.00415028
o o CC 0.998845
fue ser VSIS3S0 0.932292
4 4 Z 1
1_por_ciento 1/100 Zp 1
superior superior AQ0CS0 0.964286
Sharma sharma NP00000 1
anuncio anunciar VMIP1S0 0.25
un uno DI0MS0 0.986987
paquete paquete NCMS000 1
de de SPS00 0.999919
555_millones_de_d TM_d:555000000 Zu 1
lares lar NCMP000 1
para para SPS00 0.998507
estimular estimular VMN0000 1
las el DA0FP0 0.97051
exportaciones exportación NCFP000 1
aunque aunque CC 1
organizaciones organización NCFP000 1
de de SPS00 0.999919
la el DA0FS0 0.972146
industria industria NCFS000 0.833333
se se P00CN000 0.465602
alaron alaron VMIS3P0 1
que que CS 0.4375
esperaban esperar VMII3P0 1
medidas medida NCFP000 0.944444
m m NCFS000 0.5
s segundo NCMN000 0.622321
sustantivas sustantivo AQ0FP0 0.97439
para para SPS00 0.998507
ayudar ayudar VMN0000 1
a a SPS00 0.99585
capear capear VMN0000 1
la el DA0FS0 0.972146
desaceleraci desaceleraci AQ0CS0 0.0199855
n n NCFS000 1
de de SPS00 0.999919
la el DA0FS0 0.972146
demanda demanda NCFS000 0.833333
de de SPS00 0.999919
las el DA0FP0 0.97051
econom econom NCMS000 0.500053
as as NCMS000 1
occidentales occidental AQ0CP0 0.75
El el NP00000 1
d d NCFS000 1
ficit ficit NCMN000 1
comercial comercial AQ0CS0 1
debilita debilitar VMIP3S0 0.994868
la el DA0FS0 0.972146
rupia rupia NCFS000 1
y y CC 0.999812
el el DA0MS0 1
aumento aumento NCMS000 0.916667
de de SPS00 0.999919
la el DA0FS0 0.972146
dependencia dependencia NCFS000 1
de de SPS00 1
el el DA0MS0 1
pa pa NCFS000 0.740689
s segundo NCMN000 0.622321
de de SPS00 0.999919
los el DA0MP0 0.97623
flujos flujo NCMP000 1
de de SPS00 0.999919
capitales capital NCMP000 0.53005
extranjeros extranjero AQ0MP0 0.833333
vol vol NCMS000 0.861706
tiles tiles AQ0CP0 0.555497
en en SPS00 1
los el DA0MP0 0.97623
mercados mercado NCMP000 0.75
financieros financiero AQ0MP0 0.25
para para SPS00 0.998507
reducir reducir VMN0000 1
la el DA0FS0 0.972146
brecha brecha NCFS000 1
de de SPS00 0.999919
la el DA0FS0 0.972146
cuenta cuenta NCFS000 0.765152
corriente corriente AQ0CS0 0.375
Como como NP00000 1
parte parte NCFS000 0.497967
de de SPS00 1
el el DA0MS0 1
paquete paquete NCMS000 1
de de SPS00 0.999919
est est NCMS000 1
mulo mulo NCMS000 1
a a SPS00 0.99585
las el DA0FP0 0.97051
exportaciones exportación NCFP000 1
el el DA0MS0 1
gobierno gobierno NCMS000 0.9
extender extender VMN0000 1
por por SPS00 1
un uno DI0MS0 0.986987
a a NCFS000 0.00415028
o o CC 0.998845
un uno DI0MS0 0.986987
programa programa NCMS000 0.866667
que que PR0CN000 0.5625
ofrece ofrecer VMIP3S0 0.9
un uno DI0MS0 0.986987
incentivo incentivo NCMS000 0.973497
financiero financiero AQ0MS0 0.75
de de SPS00 1
el el DA0MS0 1
dos_por_ciento 2/100 Zp 1
a a SPS00 0.99585
las el DA0FP0 0.97051
ventas venta NCFP000 1
a a SPS00 0.99585
Estados_Unidos_Europa estados_unidos_europa NP00000 1
y y CC 0.999812
Asia_El_Ejecutivo asia_el_ejecutivo NP00000 1
planea planear VMIP3S0 0.75
ampliar ampliar VMN0000 1
lo lo PP3CNA00 0.5 lo PP3MSA00 0.5
para para SPS00 0.998507
incluir incluir VMN0000 1
las el DA0FP0 0.97051
exportaciones exportación NCFP000 1
a a SPS00 0.99585
53 53 Z 1
pa pa NCFS000 0.740689
ses ses NCMP000 0.727093
africanos africano AQ0MP0 0.75
y y CC 0.999812
latinoamericanos latinoamericano AQ0MP0 0.490617
Haga haga NP00000 1
click click NCMS000 0.50012
aqu aqu NCMS000 0.774439
para para SPS00 0.998507
recibir recibir VMN0000 1
gratis gratis RG 0.75
Argenpress argenpress NP00000 1
en en SPS00 1
su su DP3CS0 1
correo correo NCMS000 0.735623
electr electr AQ0CS0 0.0829965
nico no NCMS00D 0.522084

