La el DA0FS0 0.972146
paja paja NCFS000 1
en en SPS00 1
el el DA0MS0 1
ojo ojo NCMS000 0.892857
ajeno ajeno AQ0MS0 1
El el NP00000 1
mundo mundo NCMS000 1
est est NCMS000 1
convulsionado convulsionar VMP00SM 1
por por SPS00 1
los el DA0MP0 0.97623
tres 3 Z 1
muertos muerto NCMP000 0.681818
de de SPS00 0.999919
la el DA0FS0 0.972146
marat marat NCMS000 1
n n NCFS000 1
de de SPS00 0.999919
Boston boston NP00000 1
que que PR0CN000 0.5625
ha haber VAIP3S0 0.998141
arrancado arrancar VMP00SM 1
la el DA0FS0 0.972146
aseveraci aseveraci AQ0CS0 0.0199855
n n NCFS000 1
m m NCFS000 0.5
s segundo NCMN000 0.622321
fuerte fuerte AQ0CS0 0.892857
de de SPS00 1
el el DA0MS0 1
presidente presidente NCMS000 1
Obama obama NP00000 1
en en SPS00 1
sus su DP3CP0 0.998462
cinco 5 Z 0.98
a a SPS00 0.99585
os o NCFP000 0.222222
de de SPS00 0.999919
gobierno gobierno NCMS000 0.9
Iremos iremos NP00000 1
por por SPS00 1
los el DA0MP0 0.97623
responsables responsable NCCP000 0.5
hasta hasta SPS00 0.955172
los el DA0MP0 0.97623
confines confín NCMP000 0.666667
de de SPS00 1
el el DA0MS0 1
mundo mundo NCMS000 1
Todo todo NP00000 1
el el DA0MS0 1
mundo mundo NCMS000 1
cree creer VMIP3S0 0.911111
que que CS 0.4375
los el DA0MP0 0.97623
confines confín NCMP000 0.666667
de de SPS00 1
el el DA0MS0 1
mundo mundo NCMS000 1
quedan quedar VMIP3P0 1
en en SPS00 1
cualquier cualquiera DI0CS0 1
parte parte NCFS000 0.497967
menos menos RG 1
en en SPS00 1
Estados_Unidos_Damos estados_unidos_damos NP00000 1
en en SPS00 1
pensar pensar VMN0000 1
que que CS 0.4375
los el DA0MP0 0.97623
confines confín NCMP000 0.666667
de de SPS00 1
el el DA0MS0 1
mundo mundo NCMS000 1
son ser VSIP3P0 0.986772
muy muy RG 1
lejos_de lejos_de SPS00 1
donde donde PR000000 0.963542
uno 1 Z 0.0320513
est est NCMS000 1
parado parar VMP00SM 0.5
Y y NP00000 1
resulta resultar VMIP3S0 0.964912
que que CS 0.4375
en en SPS00 1
este este DD0MS0 0.956743
caso caso NCMS000 0.990741
de de SPS00 0.999919
la el DA0FS0 0.972146
marat marat NCMS000 1
n n NCFS000 1
de de SPS00 0.999919
Boston boston NP00000 1
los el DA0MP0 0.97623
confines confín NCMP000 0.666667
de de SPS00 1
el el DA0MS0 1
mundo mundo NCMS000 1
de de SPS00 0.999919
los el DA0MP0 0.97623
que que PR0CN000 0.5625
habla hablar VMIP3S0 0.880952
el el DA0MS0 1
presidente presidente NCMS000 1
Obama obama NP00000 1
pueden poder VMIP3P0 1
estar estar VAN0000 1
precisamente precisamente RG 1
debajo_de debajo_de SPS00 1
sus su DP3CP0 0.998462
pies pie NCMP000 1
Las las NP00000 1
caracter caracter NCMS000 1
sticas sticas AQ0FP0 0.416942
de de SPS00 1
el el DA0MS0 1
atentado atentado NCMS000 0.875
llevan llevar VMIP3P0 1
todas todo PI0FP000 0.0546875
a a SPS00 0.99585
creer creer VMN0000 1
sin_necesidad_de sin_necesidad_de SPS00 1
ser ser VSN0000 0.93883
un uno DI0MS0 0.986987
sabueso sabueso NCMS000 0.582743
ingl ingl AQ0CS0 0.587402
s segundo NCMN000 0.622321
a a SPS00 1
el el DA0MS0 1
estilo estilo NCMS000 0.916667
Sherlock_Holmes sherlock_holmes NP00000 1
o o CC 0.998845
un uno DI0MS0 0.986987
intuitivo intuitivo AQ0MS0 1
agente agente NCCS000 0.9
de de SPS00 0.999919
la el DA0FS0 0.972146
CIA cia NP00000 1
que que PR0CN000 0.5625
puede poder VMIP3S0 0.995614
tratar tratar VMN0000 1
se se PP3CN000 1
de de SPS00 0.999919
un uno DI0MS0 0.986987
hombre hombre NCMS000 0.95679
perturbado perturbar VMP00SM 1
que que PR0CN000 0.5625
actuaba actuar VMII3S0 0.649997
solo solo AQ0MS0 0.930556
a a SPS00 1
el el DA0MS0 1
servicio servicio NCMS000 1
de de SPS00 0.999919
nadie nadie PI0CS000 1
que que PR0CN000 0.5625
ha haber VAIP3S0 0.998141
sido ser VSP00SM 1
la el DA0FS0 0.972146
m m NCFS000 0.5
s segundo NCMN000 0.622321
maravillosa maravilloso AQ0FS0 1
conclusi conclusi RG 1
n n NCFS000 1
de de SPS00 0.999919
todos todo DI0MP0 0.622419
los el DA0MP0 0.97623
grandes grande AQ0CP0 0.95
acontecimientos acontecimiento NCMP000 1
criminales criminal AQ0CP0 0.666667
en en SPS00 1
Estados_Unidos estados_unidos NP00000 1
como como CS 0.998579
el el DA0MS0 1
asesinato asesinato NCMS000 1
de de SPS00 1
el el DA0MS0 1
presidente presidente NCMS000 1
Kennedy kennedy NP00000 1
a a SPS00 0.99585
manos mano NCFP000 1
de de SPS00 0.999919
Lee_Harvey_Oswald lee_harvey_oswald NP00000 1
por_ejemplo por_ejemplo RG 1
Que que NP00000 1
el el DA0MS0 1
presidente presidente NCMS000 1
Obama obama NP00000 1
haya haber VASP1S0 0.378571
insinuado insinuar VMP00SM 1
ir ir VMN0000 1
hasta hasta SPS00 0.955172
los el DA0MP0 0.97623
confines confín NCMP000 0.666667
de de SPS00 1
el el DA0MS0 1
mundo mundo NCMS000 1
en_busca_de en_busca_de SPS00 1
el el DA0MS0 1
asesino asesino NCMS000 0.777778
es ser VSIP3S0 1
lo el DA0NS0 0.457393
que que PR0CN000 0.5625
preocupa preocupar VMIP3S0 0.875
porque porque CS 1
sabemos saber VMIP1P0 1
que que CS 0.4375
l l NCFS000 0.639398
como como CS 0.998579
todo todo DI0MS0 0.559816
el el DA0MS0 1
mundo mundo NCMS000 1
pro pro SPS00 0.235088
occidental occidental NCCS000 0.25
tienen tener VMIP3P0 1
los el DA0MP0 0.97623
confines confín NCMP000 0.666667
de de SPS00 1
el el DA0MS0 1
mundo mundo NCMS000 1
m m NCFS000 0.5
s segundo NCMN000 0.622321
all all NCFN000 1
de de SPS00 0.999919
su su DP3CS0 1
mundo mundo NCMS000 1
en en SPS00 1
Irak_Afganist irak_afganist NP00000 1
n n NCFS000 1
Arabia arabia NP00000 1
o o CC 0.998845
Corea corea NP00000 1
o o CC 0.998845
inclusive inclusive RG 1
en en SPS00 1
alg alg NCMS000 0.714133
n n NCFS000 1
pa pa NCFS000 0.740689
s segundo NCMN000 0.622321
de de SPS00 0.999919
su su DP3CS0 1
patio patio NCMS000 1
trasero trasero AQ0MS0 0.833333
que que PR0CN000 0.5625
est est NCMS000 1
haciendo hacer VMG0000 0.958333
goteras gotera NCFP000 1
y y CC 0.999812
que que CS 0.4375
como como CS 0.998579
excusa excusa NCFS000 0.794
de de SPS00 1
el el DA0MS0 1
horrendo horrendo AQ0MS0 1
atentado atentado NCMS000 0.875
en en SPS00 1
Boston boston NP00000 1
pueda poder VMSP1S0 0.490196
entrar entrar VMN0000 1
en en SPS00 1
l l NCFS000 0.639398
en_busca_de en_busca_de SPS00 1
el el DA0MS0 1
asesino asesino NCMS000 0.777778
No no NP00000 1
es ser VSIP3S0 1
malo malo AQ0MS0 0.833333
pensar pensar VMN0000 1
como como CS 0.998579
el el DA0MS0 1
presidente presidente NCMS000 1
Obama_Si obama_si NP00000 1
los el DA0MP0 0.97623
colombianos colombiano AQ0MP0 0.75
pens pens NCMP000 0.325087
ramos ramo NCMP000 1
as as NCMS000 1
ya ya RG 0.996988
habr habr AQ0CS0 0.0829965
amos amo NCMP000 1
dado dar VMP00SM 0.972222
con con SPS00 1
el el DA0MS0 1
conf conf NCMS000 0.500257
n n NCFS000 1
de de SPS00 1
el el DA0MS0 1
mundo mundo NCMS000 1
donde donde PR000000 0.963542
permanecen permanecer VMIP3P0 1
ocultos oculto AQ0MP0 1
los el DA0MP0 0.97623
asesinos asesino NCMP000 0.875
de de SPS00 0.999919
Gait gait NP00000 1
n n NCFS000 1
Gal gal NP00000 1
n n NCFS000 1
Bernardo_Jaramillo bernardo_jaramillo NP00000 1
lvaro lvaro NCMS000 0.326661
G g NP00000 1
mez mez NCFS000 0.749889
Pizarro_Le pizarro_le NP00000 1
n n NCFS000 1
G g NP00000 1
mez mez RG 0.208241
todos todo DI0MP0 0.622419
los el DA0MP0 0.97623
magistrados magistrado NCMP000 1
de de SPS00 1
el el DA0MS0 1
Palacio_de_Justicia palacio_de_justicia NP00000 1
y y CC 0.999812
tantas tanto DI0FP0 0.944444
otras otro DI0FP0 0.731481
v v NCFS000 1
ctimas ctimas NCFP000 1
de de SPS00 1
el el DA0MS0 1
conflicto conflicto NCMS000 1
interno interno AQ0MS0 0.777778
que que CS 0.4375
alguna alguno DI0FS0 0.893939
mano mano NCFS000 0.974359
venida venir VMP00SF 0.591799
de de SPS00 1
el el DA0MS0 1
conf conf NCMS000 0.500257
n n NCFS000 1
de de SPS00 1
el el DA0MS0 1
mundo mundo NCMS000 1
prendi prendi VMIS1S0 1
hace hacer VMIP3S0 1
a a SPS00 0.99585
os os PP2CP000 0.722222
en en SPS00 1
nuestro nuestro DP1MSP 0.933333
medio medio NCMS000 0.261538
y y CC 0.999812
aviva avivar VMIP3S0 0.994868
constantemente constantemente RG 1
en en SPS00 1
diversas diverso AQ0FP0 1
formas forma NCFP000 0.921053
y y CC 0.999812
maneras manera NCFP000 1
todas todo DI0FP0 0.945312
llenas llena NCFP000 0.111111
de de SPS00 0.999919
sangre sangre NCFS000 0.931818
Fin fin NP00000 1
de de SPS00 0.999919
folio folio NCMS000 0.973495
Solo solo NP00000 1
ahora ahora RG 1
gracias_a gracias_a SPS00 1
Obama obama NP00000 1
podemos poder VMIP1P0 0.944444
comprender comprender VMN0000 1
la el DA0FS0 0.972146
inmensa inmenso AQ0FS0 1
dimensi dimensi RG 1
n n NCFS000 1
de de SPS00 0.999919
ese ese DD0MS0 0.98125
viejo viejo NCMS000 0.1875
dicho decir VMP00SM 0.958333
que que PR0CN000 0.5625
llama llamar VMIP3S0 0.948718
a a SPS00 0.99585
escudri escudri RG 0.83337
ar ar I 1
por por SPS00 1
entre entre SPS00 0.995223
la el DA0FS0 0.972146
viga viga NCFS000 1
que que PR0CN000 0.5625
nubla nublar VMIP3S0 0.451541
nuestra nuestro DP1FSP 0.892857
mirada mirada NCFS000 0.96875
buscando buscar VMG0000 1
la el DA0FS0 0.972146
paja paja NCFS000 1
en en SPS00 1
el el DA0MS0 1
ojo ojo NCMS000 0.892857
ajeno ajeno AQ0MS0 1
Haga haga NP00000 1
click click NCMS000 0.50012
aqu aqu NCMS000 0.774439
para para SPS00 0.998507
recibir recibir VMN0000 1
gratis gratis RG 0.75
Argenpress argenpress NP00000 1
en en SPS00 1
su su DP3CS0 1
correo correo NCMS000 0.735623
electr electr AQ0CS0 0.0829965
nico no NCMS00D 0.522084

