Las el DA0FP0 0.97051
prescripciones prescripción NCFP000 1
de de SPS00 1
el el DA0MS0 1
FMI fmi NP00000 1
para para SPS00 0.998507
el el DA0MS0 1
mercado mercado NCMS000 0.9
de de SPS00 0.999919
trabajo trabajo NCMS000 0.940476
condenan condenar VMIP3P0 1
a a SPS00 0.99585
los el DA0MP0 0.97623
trabajadores trabajador NCMP000 0.928571
a a SPS00 0.99585
peores peor AQ0CP0 1
empleos empleo NCMP000 1
y y CC 0.999812
a a SPS00 0.99585
mayor mayor AQ0CS0 0.989796
desigualdad desigualdad NCFS000 1
Nuevo nuevo NP00000 1
informe informe AQ0CS0 0.726437
rompe romper VMIP3S0 0.875
los el DA0MP0 0.97623
mitos mito NCMP000 1
econ econ NCMS000 1
micos mico NCMP000 1
que que PR0CN000 0.5625
sustentan sustentar VMIP3P0 1
las el DA0FP0 0.97051
reformas reforma NCFP000 0.956832
laborales laboral AQ0CP0 0.833333
Los los NP00000 1
consejos consejo NCMP000 1
para para SPS00 0.998507
el el DA0MS0 1
mercado mercado NCMS000 0.9
de de SPS00 0.999919
trabajo trabajo NCMS000 0.940476
de de SPS00 1
el el DA0MS0 1
FMI fmi NP00000 1
en en SPS00 1
su su DP3CS0 1
calidad calidad NCFS000 1
de de SPS00 0.999919
parte parte NCFS000 0.497967
de de SPS00 0.999919
la el DA0FS0 0.972146
Troika troika NP00000 1
socava socavar VMIP3S0 0.450691
la el DA0FS0 0.972146
democracia democracia NCFS000 1
y y CC 0.999812
corre correr VMIP3S0 0.916667
el el DA0MS0 1
riesgo riesgo NCMS000 1
de de SPS00 0.999919
imponer imponer VMN0000 1
una uno DI0FS0 0.951241
dictadura dictadura NCFS000 1
econ econ NCMS000 1
mica mica NCFS000 1
en en SPS00 1
toda todo DI0FS0 0.975806
Europa europa NP00000 1
y y CC 0.999812
m m NCFS000 0.5
s segundo NCMN000 0.622321
all all NCFN000 1
advirti advirti NCMS000 1
la el DA0FS0 0.972146
Confederaci confederaci NP00000 1
n n NCFS000 1
Sindical_Internacional_CSI sindical_internacional_csi NP00000 1
a_el_tiempo_que al_tiempo_que CS 1
crear crear VMN0000 1
m m NCFS000 0.5
s segundo NCMN000 0.622321
divisiones división NCFP000 1
y y CC 0.999812
conflictos conflicto NCMP000 1
sociales social AQ0CP0 0.9375
sin sin SPS00 1
redituar redituar VMN0000 1
ning ning NCMS000 0.833333
n n NCFS000 1
beneficio beneficio NCMS000 0.833333
econ econ NCMS000 1
mico mico NCMS000 1
El el NP00000 1
informe informe AQ0CS0 0.726437
Nuevos_Frentes_de_la_CSI nuevos_frentes_de_la_csi NP00000 1
de de SPS00 0.999919
2013 2013 Z 1
Ideolog ideolog NP00000 1
a a SPS00 0.99585
sin sin SPS00 1
justificaci justificaci RG 0.751648
n n NCFS000 1
econ econ NCMS000 1
mica mica NCFS000 1
Ataques_de_el_FMI ataques_de_el_fmi NP00000 1
a a SPS00 0.99585
la el DA0FS0 0.972146
negociaci negociaci AQ0CS0 0.0199855
n n NCFS000 1
colectiva colectivo AQ0FS0 1
se se P00CN000 0.465602
publica publicar VMIP3S0 0.994868
la el DA0FS0 0.972146
v v NCFS000 1
spera spera AQ0FS0 0.222163
de de SPS00 0.999919
las el DA0FP0 0.97051
reuniones reunión NCFP000 1
de de SPS00 0.999919
primavera primavera NCFS000 1
de de SPS00 1
el el DA0MS0 1
FMI fmi NP00000 1
en en SPS00 1
un uno DI0MS0 0.986987
momento momento NCMS000 1
en en SPS00 1
que que CS 0.4375
los el DA0MP0 0.97623
extremos extremo NCMP000 0.875
niveles nivelar VMSP2S0 0.25
de de SPS00 0.999919
desempleo desempleo NCMS000 1
y y CC 0.999812
el el DA0MS0 1
aumento aumento NCMS000 0.916667
de de SPS00 0.999919
la el DA0FS0 0.972146
desigualdad desigualdad NCFS000 1
contin contin RG 0.388954
an an NCFS000 1
predominando predominar VMG0000 1
en en SPS00 1
la el DA0FS0 0.972146
econom econom NCMS000 0.500053
a a SPS00 0.99585
mundial mundial AQ0CS0 0.928571
Sharan_Burrow_Secretaria_General_de_la_CSI sharan_burrow_secretaria_general_de_la_csi NP00000 1
se se P00CN000 0.465602
a a SPS00 1
el el DA0MS0 1
que que PR0CN000 0.5625
el el DA0MS0 1
nuevo nuevo AQ0MS0 1
informe informe NCMS000 0.185057
proporciona proporcionar VMIP3S0 0.875
pruebas prueba NCFP000 0.9
emp emp NCMS000 1
ricas rico AQ0FP0 0.75
que que PR0CN000 0.5625
demuestran demostrar VMIP3P0 1
que que CS 0.4375
no no RN 0.99778
hay haber VMIP3S0 1
justificaci justificaci RG 0.751648
n n NCFS000 1
econ econ NCMS000 1
mica mica NCFS000 1
s segundo NCMN000 0.622321
lida lida AQ0FS0 0.299818
para para SPS00 0.998507
arremeter arremeter VMN0000 1
contra contra SPS00 0.976316
los el DA0MP0 0.97623
derechos derecho NCMP000 0.9
de de SPS00 0.999919
los el DA0MP0 0.97623
trabajadores trabajador NCMP000 0.928571
y y CC 0.999812
las el DA0FP0 0.97051
trabajadoras trabajador NCFP000 0.411969
provocando provocar VMG0000 1
un uno DI0MS0 0.986987
impacto impacto NCMS000 0.973497
devastador devastador AQ0MS0 0.75
en en SPS00 1
las el DA0FP0 0.97051
familias familia NCFP000 1
las el DA0FP0 0.97051
comunidades comunidad NCFP000 1
y y CC 0.999812
las el DA0FP0 0.97051
econom econom NCMS000 0.500053
as as NCMS000 1
La la NP00000 1
econom econom NCMS000 0.500053
a a SPS00 0.99585
mundial mundial AQ0CS0 0.928571
no no RN 0.99778
es ser VSIP3S0 1
hoy hoy RG 0.877358
m m NCFS000 0.5
s segundo NCMN000 0.622321
segura seguro AQ0FS0 1
de de SPS00 0.999919
lo el DA0NS0 0.457393
que que PR0CN000 0.5625
era ser VSII1S0 0.490859
hace hacer VMIP3S0 1
cinco 5 Z 0.98
a a SPS00 0.99585
os os PP2CP000 0.722222
Las las NP00000 1
instituciones institución NCFP000 1
internacionales internacional AQ0CP0 0.928571
no no RN 0.99778
regulan regular VMIP3P0 1
la el DA0FS0 0.972146
codicia codicia NCFS000 0.833333
ni ni CC 0.995935
previenen prevenir VMIP3P0 1
la el DA0FS0 0.972146
pr pr NCMS000 0.224371
xima xima AQ0FS0 0.800006
crisis crisis NCFN000 1
bancaria bancario AQ0FS0 1
Los los NP00000 1
instrumentos instrumento NCMP000 1
de de SPS00 0.999919
distribuci distribuci RG 0.751648
n n NCFS000 1
de de SPS00 0.999919
la el DA0FS0 0.972146
riqueza riqueza NCFS000 1
tales tal DD0CP0 0.880952
como como CS 0.998579
la el DA0FS0 0.972146
negociaci negociaci AQ0CS0 0.0199855
n n NCFS000 1
colectiva colectivo AQ0FS0 1
est est NCMS000 1
n n NCFS000 1
siendo ser VSG0000 1
suprimidos suprimir VMP00PM 1
aun aun RG 0.84375
cuando cuando CS 0.983796
se se P00CN000 0.465602
ha haber VAIP3S0 0.998141
demostrado demostrar VMP00SM 1
que que CS 0.4375
los el DA0MP0 0.97623
pa pa NCFS000 0.740689
ses ses NCMP000 0.727093
con con SPS00 1
sindicatos sindicato NCMP000 1
fuertes fuerte AQ0CP0 0.916667
una uno DI0FS0 0.951241
alta alto AQ0FS0 0.970588
cobertura cobertura NCFS000 1
de de SPS00 0.999919
negociaci negociaci RG 0.751648
n n NCFS000 1
colectiva colectivo AQ0FS0 1
y y CC 0.999812
sistemas sistema NCMP000 1
de de SPS00 0.999919
negociaci negociaci RG 0.751648
n n NCFS000 1
sincronizados sincronizar VMP00PM 1
presentan presentar VMIP3P0 1
claras claro AQ0FP0 0.75
ventajas ventaja NCFP000 1
econ econ NCMS000 1
micas mica NCFP000 1
La la NP00000 1
aplicaci aplicaci VMIS1S0 0.0691907
n n NCFS000 1
de de SPS00 0.999919
las el DA0FP0 0.97051
reformas reforma NCFP000 0.956832
de de SPS00 1
el el DA0MS0 1
mercado mercado NCMS000 0.9
laboral laboral AQ0CS0 1
y y CC 0.999812
el el DA0MS0 1
debilitamiento debilitamiento NCMS000 1
de de SPS00 0.999919
las el DA0FP0 0.97051
instituciones institución NCFP000 1
de de SPS00 0.999919
protecci protecci RG 0.751648
n n NCFS000 1
de de SPS00 1
el el DA0MS0 1
mercado mercado NCMS000 0.9
de de SPS00 0.999919
trabajo trabajo NCMS000 0.940476
en en SPS00 1
un uno DI0MS0 0.986987
momento momento NCMS000 1
en en SPS00 1
que que CS 0.4375
la el DA0FS0 0.972146
demanda demanda NCFS000 0.833333
de de SPS00 0.999919
mano mano NCFS000 0.974359
de de SPS00 0.999919
obra obra NCFS000 0.972222
ha haber VAIP3S0 0.998141
disminuido disminuir VMP00SM 1
tanto tanto RG 0.857895
y y CC 0.999812
existe existir VMIP3S0 0.966667
ya ya RG 0.996988
un uno DI0MS0 0.986987
gran gran AQ0CS0 1
desempleo desempleo NCMS000 1
no no RN 0.99778
conseguir conseguir VMN0000 1
sino sino CC 0.981707
condenar condenar VMN0000 1
a a SPS00 0.99585
un uno DI0MS0 0.986987
n n NCFS000 1
mero mero AQ0MS0 0.777778
mucho mucho DI0MS0 0.275362
m m NCFS000 0.5
s segundo NCMN000 0.622321
importante importante AQ0CS0 1
de de SPS00 0.999919
trabajadores trabajador NCMP000 0.928571
y y CC 0.999812
trabajadoras trabajador NCFP000 0.411969
a a SPS00 0.99585
engrosar engrosar VMN0000 1
las el DA0FP0 0.97051
filas fila NCFP000 1
de de SPS00 0.999919
los el DA0MP0 0.97623
desempleados desempleado AQ0MP0 1
afirm afirm NCMS000 0.700265
Sharan_Burrow_En sharan_burrow_en NP00000 1
un uno DI0MS0 0.986987
panel panel NCMS000 1
con con SPS00 1
la el DA0FS0 0.972146
Directoral_Gerente_de_el_FMI_Christine_Lagarde_Sharan_Burrow directoral_gerente_de_el_fmi_christine_lagarde_sharan_burrow NP00000 1
le le PP3CSD00 1
advertir advertir VMN0000 1
que que PR0CN000 0.5625
la el DA0FS0 0.972146
austeridad austeridad NCFS000 1
solamente solamente RG 1
consigue conseguir VMIP3S0 0.916667
incrementar incrementar VMN0000 1
la el DA0FS0 0.972146
desigualdad desigualdad NCFS000 1
Los los NP00000 1
pa pa VMIP3S0 0.12964
ses ses NCMP000 0.727093
con con SPS00 1
sistemas sistema NCMP000 1
de de SPS00 0.999919
negociaci negociaci RG 0.751648
n n NCFS000 1
colectiva colectivo AQ0FS0 1
fuertes fuerte AQ0CP0 0.916667
han haber VAIP3P0 1
obtenido obtener VMP00SM 1
mejores mejor AQ0CP0 0.964286
resultados resultado NCMP000 0.958333
en en SPS00 1
t t NCFS000 1
rminos rminos NCMP000 1
de de SPS00 0.999919
desempleo desempleo NCMS000 1
ya_que ya_que CS 1
generan generar VMIP3P0 1
una uno DI0FS0 0.951241
distribuci distribuci AQ0CS0 0.0199855
n n NCFS000 1
salarial salarial AQ0CS0 1
que que PR0CN000 0.5625
es ser VSIP3S0 1
m m NCFS000 0.5
s segundo NCMN000 0.622321
compatible compatible AQ0CS0 1
con con SPS00 1
la el DA0FS0 0.972146
cohesi cohesi RG 1
n n NCFS000 1
social social AQ0CS0 0.977273
y y CC 0.999812
un uno DI0MS0 0.986987
crecimiento crecimiento NCMS000 1
econ econ NCMS000 1
mico mico NCMS000 1
estable estable AQ0CS0 1
Seg seg NP00000 1
n n NCFS000 1
la el DA0FS0 0.972146
OCDE ocde NP00000 1
los el DA0MP0 0.97623
ingresos ingreso NCMP000 1
de de SPS00 1
el el DA0MS0 1
10 10 Z 1
de de SPS00 0.999919
los el DA0MP0 0.97623
trabajadores trabajador NCMP000 0.928571
que que PR0CN000 0.5625
m m NCFS000 0.5
s segundo NCMN000 0.622321
ganan ganar VMIP3P0 1
han haber VAIP3P0 1
ascendido ascender VMP00SM 1
r r NCFS000 0.638487
pidamente pidamente RG 1
en en SPS00 1
relaci relaci RG 0.751648
n n NCFS000 1
con con SPS00 1
la el DA0FS0 0.972146
mayor mayor AQ0CS0 0.989796
a a SPS00 0.99585
de de SPS00 0.999919
los el DA0MP0 0.97623
casos caso NCMP000 1
de de SPS00 1
el el DA0MS0 1
10 10 Z 1
que que PR0CN000 0.5625
menos menos RG 1
gana ganar VMIP3S0 0.583333
sum sum NCMS000 0.833338
ndose ndose VMSI3S0 0.317009
a a SPS00 0.99585
la el DA0FS0 0.972146
tendencia tendencia NCFS000 1
a a SPS00 0.99585
largo largo AQ0MS0 0.458333
plazo plazo NCMS000 1
a a SPS00 0.99585
aumentar aumentar VMN0000 1
la el DA0FS0 0.972146
desigualdad desigualdad NCFS000 1
de de SPS00 0.999919
ingresos ingreso NCMP000 1
Los los NP00000 1
nuevos nuevo AQ0MP0 1
datos dato NCMP000 1
de de SPS00 0.999919
Estados_Unidos estados_unidos NP00000 1
muestran mostrar VMIP3P0 1
que que CS 0.4375
la el DA0FS0 0.972146
proporci proporci AQ0CS0 0.0199855
n n NCFS000 1
de de SPS00 0.999919
los el DA0MP0 0.97623
ingresos ingreso NCMP000 1
de de SPS00 0.999919
los el DA0MP0 0.97623
hogares hogar NCMP000 1
despu despu NCMS000 0.774439
s segundo NCMN000 0.622321
de de SPS00 0.999919
impuestos impuesto NCMP000 0.833333
para para SPS00 0.998507
el el DA0MS0 1
1 1 Z 1
que que PR0CN000 0.5625
m m NCFS000 0.5
s segundo NCMN000 0.622321
gana gana NCFS000 0.333333
se se P00CN000 0.465602
ha haber VAIP3S0 0.998141
multiplicado multiplicar VMP00SM 1
m m NCFS000 0.5
s segundo NCMN000 0.622321
de de SPS00 1
el el DA0MS0 1
doble doble AQ0CS0 0.927273
cuando cuando CS 0.983796
en en SPS00 1
1979 1979 Z 1
alcanzaron alcanzar VMIS3P0 1
casi casi RG 1
el el DA0MS0 1
8 8 Z 1
y y CC 0.999812
en en SPS00 1
2007 2007 Z 1
el el DA0MS0 1
17 17 Z 1
Durante durante NP00000 1
el el DA0MS0 1
mismo mismo AQ0MS0 0.961905
per per VMN0000 0.600243
odo odo RG 0.51927
el el DA0MS0 1
porcentaje porcentaje NCMS000 1
correspondiente correspondiente AQ0CS0 0.875
a a SPS00 1
el el DA0MS0 1
20 20 Z 1
de de SPS00 0.999919
la el DA0FS0 0.972146
poblaci poblaci AQ0CS0 0.0199855
n n NCFS000 1
con con SPS00 1
los el DA0MP0 0.97623
ingresos ingreso NCMP000 1
m m NCFS000 0.5
s segundo NCMN000 0.622321
bajos bajo AQ0MP0 0.833333
descendi descendi VMIS1S0 1
de de SPS00 1
el el DA0MS0 1
7 7 Z 1
a a SPS00 1
el el DA0MS0 1
5 5 Z 1
Utilizando utilizando NP00000 1
los el DA0MP0 0.97623
datos dato NCMP000 1
de de SPS00 1
el el DA0MS0 1
FMI_la_Iniciativa_para_el_Di fmi_la_iniciativa_para_el_di NP00000 1
logo logo NCMS000 1
Pol pol NP00000 1
tico tico AQ0MS0 0.806828
de de SPS00 0.999919
la el DA0FS0 0.972146
Universidad_de_Columbia universidad_de_columbia NP00000 1
y y CC 0.999812
el el DA0MS0 1
South_Centre south_centre NP00000 1
analizaron analizar VMIS3P0 1
las el DA0FP0 0.97051
medidas medida NCFP000 0.944444
de de SPS00 0.999919
austeridad austeridad NCFS000 1
en en SPS00 1
todo todo DI0MS0 0.559816
el el DA0MS0 1
mundo mundo NCMS000 1
y y CC 0.999812
concluyeron concluir VMIS3P0 1
que que CS 0.4375
119 119 Z 1
de de SPS00 0.999919
181 181 Z 1
pa pa NCFS000 0.740689
ses ses AQ0CP0 0.068278
experimentar experimentar VMN0000 1
n n NCFS000 1
una uno DI0FS0 0.951241
contracci contracci RG 0.751648
n n NCFS000 1
fiscal fiscal AQ0CS0 0.657263
en en SPS00 1
2013 2013 Z 1
Se se NP00000 1
prev prev NCFS000 1
que que PR0CN000 0.5625
esta este DD0FS0 0.982143
contracci contracci AQ0CS0 0.0199855
n n NCFS000 1
siga seguir VMSP1S0 0.388889
aumentando aumentar VMG0000 1
por_lo_menos por_lo_menos RG 1
hasta hasta SPS00 0.955172
2016 2016 Z 1
y y CC 0.999812
con con SPS00 1
ella él PP3FS000 1
la el DA0FS0 0.972146
desigualdad desigualdad NCFS000 1
La_CSI la_csi NP00000 1
hace hacer VMIP3S0 1
un uno DI0MS0 0.986987
llamamiento llamamiento NCMS000 1
para para SPS00 0.998507
un uno DI0MS0 0.986987
nuevo nuevo AQ0MS0 1
programa programa NCMS000 0.866667
de de SPS00 0.999919
reformas reforma NCFP000 0.956832
basado basar VMP00SM 1
en en SPS00 1
lo el DA0NS0 0.457393
que que PR0CN000 0.5625
muestran mostrar VMIP3P0 1
las el DA0FP0 0.97051
pruebas prueba NCFP000 0.9
econ econ NCMS000 1
micas mica NCFP000 1
La la NP00000 1
confianza confianza NCFS000 1
ha haber VAIP3S0 0.998141
sido ser VSP00SM 1
destruida destruir VMP00SF 1
por por SPS00 1
la el DA0FS0 0.972146
austeridad austeridad NCFS000 1
y y CC 0.999812
las el DA0FP0 0.97051
reformas reforma NCFP000 0.956832
laborales laboral AQ0CP0 0.833333
draconianas draconiano AQ0FP0 1
Para para NP00000 1
recuperar recuperar VMN0000 1
la el DA0FS0 0.972146
confianza confianza NCFS000 1
es ser VSIP3S0 1
preciso preciso AQ0MS0 0.9
que que CS 0.4375
cesen cesar VMSP3P0 0.901254
los el DA0MP0 0.97623
ataques ataque NCMP000 0.928571
a a SPS00 0.99585
la el DA0FS0 0.972146
negociaci negociaci AQ0CS0 0.0199855
n n NCFS000 1
colectiva colectivo AQ0FS0 1
y y CC 0.999812
a a SPS00 0.99585
los el DA0MP0 0.97623
derechos derecho NCMP000 0.9
de de SPS00 0.999919
los el DA0MP0 0.97623
trabajadores trabajador NCMP000 0.928571
y y CC 0.999812
de de SPS00 0.999919
las el DA0FP0 0.97051
trabajadoras trabajador NCFP000 0.411969
Pagar pagar NP00000 1
m m NCFS000 0.5
s segundo NCMN000 0.622321
a a SPS00 0.99585
los el DA0MP0 0.97623
trabajadores trabajador NCMP000 0.928571
en en SPS00 1
los el DA0MP0 0.97623
pa pa NCFS000 0.740689
ses ses AQ0CP0 0.068278
que que PR0CN000 0.5625
registran registrar VMIP3P0 1
un uno DI0MS0 0.986987
constante constante NCFS000 0.0416667
super super AQ0CN0 1
vit vit NCFS000 1
en en SPS00 1
su su DP3CS0 1
cuenta cuenta NCFS000 0.765152
corriente corriente AQ0CS0 0.375
y y CC 0.999812
la el DA0FS0 0.972146
garant garant NCMS000 0.607342
a a SPS00 0.99585
de de SPS00 0.999919
que que CS 0.4375
sus su DP3CP0 0.998462
derechos derecho NCMP000 0.9
se se P00CN000 0.465602
respetan respetar VMIP3P0 1
plenamente plenamente RG 1
ayudar ayudar VMN0000 1
a a SPS00 0.99585
a a SPS00 0.99585
estimular estimular VMN0000 1
la el DA0FS0 0.972146
demanda demanda NCFS000 0.833333
mundial mundial AQ0CS0 0.928571
y y CC 0.999812
a a SPS00 0.99585
reequilibrar reequilibrar VMN0000 1
la el DA0FS0 0.972146
econom econom NCMS000 0.500053
a a SPS00 0.99585
mundial mundial AQ0CS0 0.928571
afirm afirm NCMS000 0.700265
Sharan_Burrow_Michael_Sommer_Presidente_de_la_DGB_de_Alemania sharan_burrow_michael_sommer_presidente_de_la_dgb_de_alemania NP00000 1
y y CC 0.999812
de de SPS00 0.999919
la el DA0FS0 0.972146
CSI csi NP00000 1
se se P00CN000 0.465602
a a SPS00 1
el el DA0MS0 1
En_Alemania en_alemania NP00000 1
aquellos aquel DD0MP0 0.833333
que que PR0CN000 0.5625
mantienen mantener VMIP3P0 1
el el DA0MS0 1
pa pa NCFS000 0.740689
s segundo NCMN000 0.622321
en en SPS00 1
marcha marcha NCFS000 0.948718
y y CC 0.999812
generan generar VMIP3P0 1
su su DP3CS0 1
riqueza riqueza NCFS000 1
merecen merecer VMIP3P0 1
obtener obtener VMN0000 1
la el DA0FS0 0.972146
parte parte NCFS000 0.497967
justa justo AQ0FS0 0.6
que que PR0CN000 0.5625
les le PP3CPD00 1
corresponde corresponder VMIP3S0 0.95
El el NP00000 1
informe informe AQ0CS0 0.726437
de de SPS00 0.999919
la el DA0FS0 0.972146
CSI csi NP00000 1
concluye concluir VMIP3S0 0.75
que que CS 0.4375
el el DA0MS0 1
crecimiento crecimiento NCMS000 1
sostenible sostenible AQ0CS0 1
el el DA0MS0 1
trabajo trabajo NCMS000 0.940476
decente decente AQ0CS0 1
para para SPS00 0.998507
todos todo DI0MP0 0.622419
la el DA0FS0 0.972146
eficiencia eficiencia NCFS000 1
econ econ NCMS000 1
mica mica NCFS000 1
y y CC 0.999812
la el DA0FS0 0.972146
equidad equidad NCFS000 1
son ser VSIP3P0 0.986772
aspiraciones aspiración NCFP000 1
comunes común AQ0CP0 1
que que PR0CN000 0.5625
requieren requerir VMIP3P0 1
sistemas sistema NCMP000 1
integrales integral AQ0CP0 0.581809
de de SPS00 0.999919
negociaci negociaci RG 0.751648
n n NCFS000 1
colectiva colectivo AQ0FS0 1
y y CC 0.999812
s segundo NCMN000 0.622321
lidas lidas AQ0FP0 0.499829
instituciones institución NCFP000 1
de de SPS00 1
el el DA0MS0 1
mercado mercado NCMS000 0.9
laboral laboral AQ0CS0 1
en en SPS00 1
todos todo DI0MP0 0.622419
los el DA0MP0 0.97623
pa pa NCFS000 0.740689
ses ses NCMP000 0.727093
John_Evans_Economista john_evans_economista NP00000 1
jefe jefe NCMS000 1
de de SPS00 0.999919
la el DA0FS0 0.972146
CSI csi NP00000 1
indic indic NCMN000 0.5
Incrementar incrementar NP00000 1
la el DA0FS0 0.972146
igualdad igualdad NCFS000 1
econ econ NCMS000 1
mica mica NCFS000 1
y y CC 0.999812
contrarrestar contrarrestar VMN0000 1
los el DA0MP0 0.97623
intereses interés NCMP000 0.916667
creados crear VMP00PM 1
son ser VSIP3P0 0.986772
las el DA0FP0 0.97051
pol pol NCMS000 0.861706
ticas ticas AQ0FP0 0.760898
clave clave NCFS000 0.866667
que que PR0CN000 0.5625
deben deber VMIP3P0 1
seguir seguir VMN0000 1
a a SPS00 0.99585
la el DA0FS0 0.972146
Gran_Recesi gran_recesi NP00000 1
n n NCFS000 1
como como CS 0.998579
lo lo PP3CNA00 0.271163
fueron ir VMIS3P0 0.203704
despu despu NCMS000 0.774439
s segundo NCMN000 0.622321
de de SPS00 0.999919
la el DA0FS0 0.972146
Gran_Depresi gran_depresi NP00000 1
n n NCFS000 1
y y CC 0.999812
de de SPS00 0.999919
la el DA0FS0 0.972146
Segunda_Guerra_Mundial_La_CSI segunda_guerra_mundial_la_csi NP00000 1
representa representar VMIP3S0 0.928571
a a SPS00 0.99585
175_millones 175000000 Zd 1
de de SPS00 0.999919
trabajadores trabajador NCMP000 0.928571
y y CC 0.999812
trabajadoras trabajador NCFP000 0.411969
en en SPS00 1
315 315 Z 1
organizaciones organización NCFP000 1
afiliadas afiliado NCFP000 0.75
nacionales nacional AQ0CP0 1
en en SPS00 1
156 156 Z 1
pa pa NCFS000 0.740689
ses ses AQ0CP0 0.068278
y y CC 0.999812
territorios territorio NCMP000 1
CSI_Confederaci csi_confederaci NP00000 1
n n NCFS000 1
Sindical_InternacionalHaga sindical_internacionalhaga NP00000 1
click click NCMS000 0.50012
aqu aqu NCMS000 0.774439
para para SPS00 0.998507
recibir recibir VMN0000 1
gratis gratis RG 0.75
Argenpress argenpress NP00000 1
en en SPS00 1
su su DP3CS0 1
correo correo NCMS000 0.735623
electr electr AQ0CS0 0.0829965
nico no NCMS00D 0.522084

