M m NP00000 0.666667
xico xico NCMS000 0.499503
Comicios comicios NP00000 1
locales local NCMP000 0.75
y y CC 0.999812
apuestas apuesta NCFP000 0.687584
innecesarias innecesario AQ0FP0 1
S s NP00000 1
lo lo PP3CNA00 0.271163
el el DA0MS0 1
af af NCFS000 1
n n NCFS000 1
de de SPS00 0.999919
quedar quedar VMN0000 1
bien bien RG 0.898039
con con SPS00 1
el el DA0MS0 1
primer 1 AO0MS0 1
pri pri NCCS000 0.16663
sta sta AQ0CS0 0.210375
de de SPS00 1
el el DA0MS0 1
pa pa NCFS000 0.740689
s segundo NCMN000 0.622321
ahora ahora RG 1
con con SPS00 1
toda todo DI0FS0 0.975806
la el DA0FS0 0.972146
cobertura cobertura NCFS000 1
estatutaria estatutario AQ0FS0 1
dada dar VMP00SF 1
por por SPS00 1
la el DA0FS0 0.972146
XXV_Asamblea_Nacional xxv_asamblea_nacional NP00000 1
salvo salvo SPS00 0.933333
disposici disposici RG 0.751648
n n NCFS000 1
en en SPS00 1
contrario contrario NCMS000 0.5
de de SPS00 1
el el DA0MS0 1
llamado llamar VMP00SM 0.973684
arbitro arbitrar VMIP1S0 1
electoral electoral AQ0CS0 1
puede poder VMIP3S0 0.995614
explicar explicar VMN0000 1
que que CS 0.4375
dirigentes dirigente NCCP000 0.75
de de SPS00 1
el el DA0MS0 1
partido partido NCMS000 0.886364
tricolor tricolor AQ0CS0 1
apuesten apostar VMSP3P0 0.901254
a a SPS00 0.99585
que que CS 0.4375
los el DA0MP0 0.97623
logros logro NCMP000 1
alcanzados alcanzar VMP00PM 1
como como CS 0.998579
gobernante gobernante NCCS000 0.342743
por por SPS00 1
Enrique_Pe enrique_pe NP00000 1
a a SPS00 0.99585
Nieto nieto NP00000 1
ser ser VSN0000 0.93883
n n NCFS000 1
factor factor NCMS000 1
que que CS 0.4375
influir influir VMN0000 1
mucho mucho RG 0.699275
en en SPS00 1
los el DA0MP0 0.97623
resultados resultado NCMP000 0.958333
de de SPS00 0.999919
las el DA0FP0 0.97051
elecciones elección NCFP000 1
de de SPS00 1
el el DA0MS0 1
7_de_julio [??:7/7/??:??.??:??] W 1
Como como NP00000 1
lo lo PP3CNA00 0.271163
evidencian evidenciar VMIP3P0 1
varias varios DI0FP0 0.939394
muestras muestra NCFP000 0.833333
demosc demosc NC00000 0.538029
picas pica NCFP000 0.973497
la el DA0FS0 0.972146
mitad mitad NCFS000 1
de de SPS00 0.999919
los el DA0MP0 0.97623
ciudadanos ciudadano NCMP000 0.875
respalda respaldar VMIP3S0 0.987464
la el DA0FS0 0.972146
gesti gesti NCMS000 1
n n NCFS000 1
de de SPS00 0.999919
Pe pe NP00000 1
a a SPS00 0.99585
Nieto_Y nieto_y NP00000 1
con con SPS00 1
este este DD0MS0 0.956743
apoyo apoyo NCMS000 0.928571
dif dif NCFS000 1
cilmente cilmente RG 1
influir influir VMN0000 1
mucho mucho RG 0.699275
en en SPS00 1
los el DA0MP0 0.97623
resultados resultado NCMP000 0.958333
de de SPS00 0.999919
los el DA0MP0 0.97623
14 14 Z 1
procesos proceso NCMP000 1
electorales electoral AQ0CP0 1
en en SPS00 1
puerta puerta NCFS000 1
y y CC 0.999812
respecto_de respecto_de SPS00 1
los el DA0MP0 0.97623
que que PR0CN000 0.5625
Paloma_Villase paloma_villase NP00000 1
or or AQ0CS0 0.240813
jura jura NCFS000 0.846939
que que PR0CN000 0.5625
el el DA0MS0 1
PRI pri NP00000 1
continuar continuar VMN0000 1
su su DP3CS0 1
racha racha NCFS000 1
ganadora ganador AQ0FS0 0.357453
de de SPS00 0.999919
2012 2012 Z 1
y y CC 0.999812
reconquistar reconquistar VMN0000 1
la el DA0FS0 0.972146
gubernatura gubernatura NCFS000 1
de de SPS00 0.999919
Baja_California baja_california NP00000 1
perdida perder VMP00SF 0.916667
hace hacer VMIP3S0 1
24 24 Z 1
a a SPS00 0.99585
os os PP2CP000 0.722222
ante ante SPS00 0.990566
Acci acci NP00000 1
n n NCFS000 1
Nacional_Derrota nacional_derrota NP00000 1
de de SPS00 0.999919
la el DA0FS0 0.972146
que que PR0CN000 0.5625
a a SPS00 0.99585
n n NCFS000 1
se se P00CN000 0.465602
recuerda recordar VMIP3S0 0.884615
la el DA0FS0 0.972146
respuesta respuesta NCFS000 1
de de SPS00 0.999919
Luis_Donaldo_Colosio luis_donaldo_colosio NP00000 1
a a SPS00 0.99585
un uno DI0MS0 0.986987
amigo amigo NCMS000 0.861111
que que PR0CN000 0.5625
le le PP3CSD00 1
pregunt pregunt NCMS000 0.607342
C c NP00000 1
mo mo AQ0MS0 0.297018
est est NCMS000 1
s segundo NCMN000 0.622321
Donaldo donaldo NP00000 1
enseguida enseguida RG 1
de de SPS00 0.999919
hacer hacer VMN0000 1
el el DA0MS0 1
anuncio anuncio NCMS000 0.75
formal formal AQ0CS0 1
en en SPS00 1
Insurgentes insurgentes NP00000 1
y y CC 0.999812
Violeta_Aqu violeta_aqu NP00000 1
terminando terminar VMG0000 1
de de SPS00 0.999919
comer comer VMN0000 0.954545
sapos sapo NCMP000 1
fue ser VSIS3S0 0.932292
la el DA0FS0 0.972146
respuesta respuesta NCFS000 1
Menos menos NP00000 1
recomendable recomendable AQ0CS0 1
todav todav NCFS000 0.159442
a a SPS00 0.99585
es ser VSIP3S0 1
apostar apostar VMN0000 1
a a SPS00 0.99585
que que CS 0.4375
los el DA0MP0 0.97623
comicios comicio NCMP000 1
mostrar mostrar VMN0000 1
n n NCFS000 1
la el DA0FS0 0.972146
ratificaci ratificaci AQ0CS0 0.0199855
n n NCFS000 1
o o CC 0.998845
no no RN 0.99778
de de SPS00 1
el el DA0MS0 1
apoyo apoyo NCMS000 0.928571
que que PR0CN000 0.5625
dan dar VMIP3P0 1
a a SPS00 0.99585
los el DA0MP0 0.97623
gobiernos gobierno NCMP000 1
en en SPS00 1
turno turno NCMS000 0.9
pues pues CS 0.990385
si si CS 0.997706
la el DA0FS0 0.972146
cosecha cosecha NCFS000 0.786967
de de SPS00 0.999919
sufragios sufragio NCMP000 1
de de SPS00 1
el el DA0MS0 1
Revolucionario revolucionario NP00000 1
no no RN 0.99778
es ser VSIP3S0 1
la el DA0FS0 0.972146
mejor mejor AQ0CS0 0.868421
colocar colocar VMN0000 1
n n NCFS000 1
en en SPS00 1
situaci situaci RG 0.751648
n n NCFS000 1
comprometedora comprometedor AQ0FS0 1
a a SPS00 1
el el DA0MS0 1
mexiquense mexiquense NCCS000 1
de de SPS00 0.999919
Atlacomulco atlacomulco NP00000 1
grupo grupo NCMS000 1
incluido incluir VMP00SM 1
El el NP00000 1
bajo bajo SPS00 0.866071
respaldo respaldo NCMS000 0.75
ciudadano ciudadano AQ0MS0 0.125
a a SPS00 0.99585
Pe pe NP00000 1
a a SPS00 0.99585
para para SPS00 0.998507
tratar tratar VMN0000 1
se se PP3CN000 1
de de SPS00 0.999919
un uno DI0MS0 0.986987
gobierno gobierno NCMS000 0.9
que que PR0CN000 0.5625
apenas apenas RG 0.979167
comienza comenzar VMIP3S0 0.928571
resulta resultar VMIP3S0 0.964912
explicable explicable AQ0CS0 1
si si CS 0.997706
observamos observar VMIP1P0 0.65
que que CS 0.4375
no no RN 0.99778
existen existir VMIP3P0 1
resultados resultado NCMP000 0.958333
ni ni CC 0.995935
buenos bueno AQ0MP0 1
ni ni CC 0.995935
malos malo AQ0MP0 0.75
en en SPS00 1
los el DA0MP0 0.97623
temas tema NCMP000 0.625
que que PR0CN000 0.5625
m m NCFS000 0.5
s segundo NCMN000 0.622321
preocupan preocupar VMIP3P0 1
y y CC 0.999812
por_supuesto por_supuesto RG 1
ocupan ocupar VMIP3P0 1
a a SPS00 0.99585
las el DA0FP0 0.97051
mayor mayor AQ0CS0 0.989796
as as NCMS000 1
seguridad seguridad NCFS000 1
p p NCFS000 0.5
blica blica AQ0FS0 1
empleo empleo NCMS000 0.785714
poder poder NCMS000 0.711538
adquisitivo adquisitivo AQ0MS0 1
de de SPS00 1
el el DA0MS0 1
salario salario NCMS000 0.9375
Cierto cierto NP00000 1
es ser VSIP3S0 1
tambi tambi AQ0CN0 1
n n NCFS000 1
que que PR0CN000 0.5625
en en SPS00 1
el el DA0MS0 1
c c NCFS000 1
rculo rculo NCMS000 1
rojo rojo AQ0MS0 0.464286
el el DA0MS0 1
de de SPS00 0.999919
la el DA0FS0 0.972146
opini opini AQ0CS0 0.0199855
n n NCFS000 1
p p NCFS000 0.5
blica blica AQ0FS0 1
y y CC 0.999812
publicada publicar VMP00SF 1
le le PP3CSD00 1
va ir VMIP3S0 1
mucho mucho RG 0.699275
mejor mejor AQ0CS0 0.868421
a a SPS00 1
el el DA0MS0 1
esposo esposo NCMS000 0.9
de de SPS00 0.999919
Ang ang NP00000 1
lica lica AQ0FS0 0.500121
Rivera_All rivera_all NP00000 1
logra lograr VMIP3S0 0.833333
que que CS 0.4375
70_por_ciento 70/100 Zp 1
de de SPS00 0.999919
sus su DP3CP0 0.998462
integrantes integrante NCCP000 0.64267
lo lo PP3CNA00 0.271163
apoyen apoyar VMSP3P0 0.901252
por por SPS00 1
generar generar VMN0000 1
un uno DI0MS0 0.986987
clima clima NCMS000 1
pol pol NCMS000 0.861706
tico tico AQ0MS0 0.806828
de de SPS00 0.999919
mayor mayor AQ0CS0 0.989796
colaboraci colaboraci NCMS000 0.0996348
n n NCFS000 1
multipartidaria multipartidario AQ0FS0 0.657236
as as NCMS000 1
sea ser VSSP1S0 0.485714
en en SPS00 1
detrimento detrimento NCMS000 1
de de SPS00 1
el el DA0MS0 1
legalmente legalmente RG 1
insustituible insustituible AQ0CS0 1
papel papel NCMS000 1
legislativo legislativo AQ0MS0 0.557323
de de SPS00 0.999919
la el DA0FS0 0.972146
dos 2 Z 0.988722
c c NCFS000 1
maras maras NCFP000 0.750094
y y CC 0.999812
de de SPS00 0.999919
coadyuvar coadyuvar VMN0000 1
a a SPS00 0.99585
la el DA0FS0 0.972146
mayor mayor AQ0CS0 0.989796
fractura fractura NCFS000 0.846947
de de SPS00 0.999919
las el DA0FP0 0.97051
dirigencias dirigencia NCFP000 1
de de SPS00 0.999919
Acci acci NP00000 1
n n NCFS000 1
Nacional nacional NP00000 1
y y CC 0.999812
de de SPS00 0.999919
la el DA0FS0 0.972146
Revoluci revoluci NP00000 1
n n NCFS000 1
Democr democr NP00000 1
tica tica NCFS000 0.372209
Cuenta cuenta NP00000 1
por_supuesto por_supuesto RG 1
la el DA0FS0 0.972146
reforma reforma NCFS000 0.866667
educativa educativo AQ0FS0 1
en en SPS00 1
t t NCFS000 1
rminos rminos NCMP000 1
constitucionales constitucional AQ0CP0 1
y y CC 0.999812
lo el DA0NS0 0.457393
que que PR0CN000 0.5625
en_materia_de en_materia_de SPS00 1
telecomunicaciones telecomunicación NCFP000 1
trabaja trabajar VMIP3S0 0.875
el el DA0MS0 1
Senado_Son senado_son NP00000 1
grandes grande AQ0CP0 0.95
definiciones definición NCFP000 1
conceptos concepto NCMP000 1
rganos rganos NCMP000 1
y y CC 0.999812
lineamientos lineamiento NCMP000 1
demasiado demasiado RG 0.93
importantes importante AQ0CP0 1
publicitados publicitar VMP00PM 1
exageradamente exageradamente RG 1
y y CC 0.999812
sin sin SPS00 1
respaldo respaldo NCMS000 0.75
en en SPS00 1
hechos hecho NCMP000 0.375
concretos concreto AQ0MP0 0.43227
que que CS 0.4375
tardar tardar VMN0000 1
n n NCFS000 1
buena bueno AQ0FS0 1
parte parte NCFS000 0.497967
de de SPS00 1
el el DA0MS0 1
sexenio sexenio NCMS000 1
para para SPS00 0.998507
ser ser VSN0000 0.93883
observados observar VMP00PM 1
por por SPS00 1
el el DA0MS0 1
ciudadano ciudadano NCMS000 0.875
com cometro NCMN000 0.65
n n NCFS000 1
Y y NP00000 1
mientras mientras CS 0.881579
lo lo PP3CNA00 0.271163
anterior anterior AQ0CS0 1
sucede suceder VMIP3S0 0.944444
aparece aparecer VMIP3S0 0.961538
la el DA0FS0 0.972146
inmediatez inmediatez NCFS000 1
Los los NP00000 1
reclamos reclamo NCMP000 1
partidistas partidista AQ0CP0 0.432261
por por SPS00 1
el el DA0MS0 1
a a SPS00 0.99585
ejo ejo AQ0MS0 0.195099
contubernio contubernio NCMS000 1
entre entre SPS00 0.995223
el el DA0MS0 1
gobierno gobierno NCMS000 0.9
y y CC 0.999812
su su DP3CS0 1
partido partido NCMS000 0.886364
el el DA0MS0 1
otrora otrora RG 1
PRI pri NP00000 1
gobierno gobernar VMIP1S0 0.1
denominado denominar VMP00SM 1
as as NCMS000 1
por por SPS00 1
los el DA0MP0 0.97623
que que PR0CN000 0.5625
durante durante SPS00 1
una_docena 12 Zd 1
de de SPS00 0.999919
a a SPS00 0.99585
os os PP2CP000 0.722222
erigieron erigir VMIS3P0 1
el el DA0MS0 1
PAN pan NP00000 1
gobierno gobernar VMIP1S0 0.1
y y CC 0.999812
fracasaron fracasar VMIS3P0 1
en en SPS00 1
las el DA0FP0 0.97051
contiendas contienda NCFP000 0.995706
electorales electoral AQ0CP0 1
Jes jes NP00000 1
s segundo NCMN000 0.622321
Zambrano zambrano NP00000 1
da dar VMIP3S0 0.983871
por por SPS00 1
hecho hecho NCMS000 0.381579
la el DA0FS0 0.972146
realizaci realizaci AQ0CS0 0.0199855
n n NCFS000 1
de de SPS00 0.999919
una uno DI0FS0 0.951241
mesa mesa NCFS000 0.939394
paralela paralelo AQ0FS0 0.75
a a SPS00 0.99585
la el DA0FS0 0.972146
de de SPS00 1
el el DA0MS0 1
Pacto_por_M pacto_por_m NP00000 1
xico xico AQ0MS0 0.500497
entre entre SPS00 0.995223
las el DA0FP0 0.97051
directivas directiva NCFP000 0.34277
de de SPS00 0.999919
los el DA0MP0 0.97623
partidos partido NCMP000 0.928571
y y CC 0.999812
el el DA0MS0 1
gobierno gobierno NCMS000 0.9
federal federal AQ0CS0 1
Con con NP00000 1
enternecedora enternecedor AQ0FS0 1
candidez candidez NCFS000 1
anuncia anunciar VMIP3S0 0.994868
que que CS 0.4375
con con SPS00 1
piso piso NCMS000 0.928571
disparejo disparejo AQ0MS0 1
no no RN 0.99778
aceptaremos aceptar VMIF1P0 1
que que CS 0.4375
durante durante SPS00 1
el el DA0MS0 1
proceso proceso NCMS000 0.973684
electoral electoral AQ0CS0 1
nos nos PP1CP000 0.933333
quieran querer VMSP3P0 0.901254
ver ver VMN0000 0.987179
la el DA0FS0 0.972146
cara cara NCFS000 0.973684
Que_el_Ejecutivo que_el_ejecutivo NP00000 1
federal federal AQ0CS0 1
debe deber VMIP3S0 0.974359
ser ser VSN0000 0.93883
garante garante AQ0CS0 0.634173
de de SPS00 0.999919
generar generar VMN0000 1
las el DA0FP0 0.97051
condiciones condición NCFP000 0.958333
para para SPS00 0.998507
una uno DI0FS0 0.951241
cancha cancha NCFS000 1
equilibrada equilibrar VMP00SF 1
Ahora ahora NP00000 1
se se P00CN000 0.465602
entiende entender VMIP3S0 0.9375
mejor mejor AQ0CS0 0.868421
por por SPS00 1
qu qu NCMS000 0.774439
lo lo PP3CNA00 0.271163
elogian elogiar VMIP3P0 1
tanto tanto RG 0.857895
prominentes prominente AQ0CP0 1
hombres hombre NCMP000 1
y y CC 0.999812
mujeres mujer NCFP000 1
de de SPS00 1
el el DA0MS0 1
Institucional_De institucional_de NP00000 1
el el DA0MS0 1
mismo mismo AQ0MS0 0.961905
partido partido NCMS000 0.886364
Alejandro_Encinas alejandro_encinas NP00000 1
exigi exigi NCMS000 0.0996348
Es es NP00000 1
momento momento NCMS000 1
de de SPS00 0.999919
que que CS 0.4375
los el DA0MP0 0.97623
municipios municipio NCMP000 1
no no RN 0.99778
sean ser VSSP3P0 0.958333
tratados tratar VMP00PM 0.75
como como CS 0.998579
patitos patio NCMP00D 0.333333
feos feo AQ0MP0 1
y y CC 0.999812
denunci denunci RG 0.751648
que que CS 0.4375
la el DA0FS0 0.972146
Cruzada_Nacional cruzada_nacional NP00000 1
contra contra SPS00 0.976316
el el DA0MS0 1
Hambre hambre NP00000 1
es ser VSIP3S0 1
por por SPS00 1
los el DA0MP0 0.97623
votos voto NCMP000 1
dado_que dado_que CS 1
la el DA0FS0 0.972146
mayor mayor AQ0CS0 0.989796
a a SPS00 0.99585
de de SPS00 0.999919
los el DA0MP0 0.97623
400 400 Z 1
municipios municipio NCMP000 1
que que PR0CN000 0.5625
est est NCMS000 1
n n NCFS000 1
en en SPS00 1
el el DA0MS0 1
programa programa NCMS000 0.866667
se se P00CN000 0.465602
hallan hallar VMIP3P0 1
en en SPS00 1
zonas zona NCFP000 1
urbanas urbano AQ0FP0 1
donde donde PR000000 0.963542
perdi perdar VMIS1S0 0.994868
el el DA0MS0 1
PRI pri NP00000 1
las el DA0FP0 0.97051
elecciones elección NCFP000 1
pasadas pasar VMP00PF 0.75
De de NP00000 1
ese ese DD0MS0 0.98125
tama tama NCFS000 0.500001
o o CC 0.998845
mientras mientras CS 0.881579
su su DP3CS0 1
compa compa VMSP3S0 1
ero erar VMIP1S0 1
de de SPS00 0.999919
partido partido NCMS000 0.886364
pero pero CC 0.998821
no no RN 0.99778
de de SPS00 0.999919
sector sector NCMS000 1
pide pedir VMIP3S0 0.875
peras pera NCFP000 1
a a SPS00 1
el el DA0MS0 1
olmo olmo NCMS000 1
Haga haga NP00000 1
click click NCMS000 0.50012
aqu aqu NCMS000 0.774439
para para SPS00 0.998507
recibir recibir VMN0000 1
gratis gratis RG 0.75
Argenpress argenpress NP00000 1
en en SPS00 1
su su DP3CS0 1
correo correo NCMS000 0.735623
electr electr AQ0CS0 0.0829965
nico no NCMS00D 0.522084

