Panorama panorama NP00000 0.288237
econ econ NCMS000 1
mico mico NCMS000 1
de de SPS00 0.999919
Vietnam_Foro vietnam_foro NP00000 1
empresarial empresarial AQ0CS0 1
promueve promover VMIP3S0 0.994868
comercio comercio NCMS000 0.833333
Vietnam_Sudcorea vietnam_sudcorea NP00000 1
/ / Fh 1
Buscan buscan NP00000 1
inversiones inversión NCFP000 1
para para SPS00 0.998507
Centro centro NP00000 1
y y CC 0.999812
Sur_de_Vietnam sur_de_vietnam NP00000 1
/ / Fh 1
Rusia rusia NP00000 1
mayor mayor AQ0CS0 0.989796
receptor receptor NCMS000 0.785714
de de SPS00 0.999919
inversiones inversión NCFP000 1
vietnamitas vietnamita AQ0CP0 0.417269
/ / Fh 1
Vietnam vietnam NP00000 1
y y CC 0.999812
Chile chile NP00000 1
conversan conversar VMIP3P0 1
sobre sobre SPS00 0.994203
acuerdo acuerdo NCMS000 0.958333
transpac transpac NCMS000 1
fico fico AQ0MS0 0.466938
Foro foro NP00000 1
empresarial empresarial AQ0CS0 1
promueve promover VMIP3S0 0.994868
comercio comercio NCMS000 0.833333
Vietnam_Sudcorea_Hombres vietnam_sudcorea_hombres NP00000 1
de de SPS00 0.999919
negocio negocio NCMS000 0.875
vietnamitas vietnamita AQ0CP0 0.417269
y y CC 0.999812
sudcoreanos sudcoreano AQ0MP0 1
buscan buscar VMIP3P0 1
oportunidades oportunidad NCFP000 1
de de SPS00 0.999919
cooperaci cooperaci RG 0.751648
n n NCFS000 1
en en SPS00 1
un uno DI0MS0 0.986987
foro foro NCMS000 1
empresarial empresarial AQ0CS0 1
efectuado efectuar VMP00SM 1
hoy hoy RG 0.877358
en en SPS00 1
Se se NP00000 1
l l NCFS000 0.639398
Sudcorea sudcorea NP00000 1
bajo bajo SPS00 0.866071
el el DA0MS0 1
auspicio auspicio NCMS000 0.973497
de de SPS00 0.999919
las el DA0FP0 0.97051
c c NCFS000 1
maras maras NCFP000 0.750094
de de SPS00 0.999919
industria industria NCFS000 0.833333
y y CC 0.999812
comercio comercio NCMS000 0.833333
de de SPS00 0.999919
los el DA0MP0 0.97623
dos 2 Z 0.988722
pa pa NCFS000 0.740689
ses ses NCMP000 0.727093
El el NP00000 1
embajador embajador NCMS000 1
de de SPS00 0.999919
Hanoi hanoi NP00000 1
en en SPS00 1
este este DD0MS0 0.956743
pa pa NCFS000 0.740689
s segundo NCMN000 0.622321
Tran_Trong_Toan tran_trong_toan NP00000 1
present present NCMS000 0.607342
los el DA0MP0 0.97623
logros logro NCMP000 1
vietnamitas vietnamita AQ0CP0 0.417269
durante durante SPS00 1
el el DA0MS0 1
ltimo ltimo RG 1
decenio decenio NCMS000 1
sobre sobre SPS00 0.994203
todo todo PI0MS000 0.430982
en en SPS00 1
la el DA0FS0 0.972146
econom econom NCMS000 0.500053
a a SPS00 0.99585
la el DA0FS0 0.972146
reducci reducci AQ0CS0 0.0199855
n n NCFS000 1
de de SPS00 0.999919
la el DA0FS0 0.972146
pobreza pobreza NCFS000 1
y y CC 0.999812
el el DA0MS0 1
cumplimiento cumplimiento NCMS000 1
de de SPS00 0.999919
los el DA0MP0 0.97623
Objetivos_de_Desarrollo_de_el_Milenio_Se objetivos_de_desarrollo_de_el_milenio_se NP00000 1
a a SPS00 1
el el DA0MS0 1
que que PR0CN000 0.5625
Vietnam vietnam NP00000 1
se se P00CN000 0.465602
esforzar esforzar VMN0000 1
por por SPS00 1
convertir convertir VMN0000 1
se se PP3CN000 1
en en SPS00 1
una uno DI0FS0 0.951241
naci naci AQ0CS0 0.0199855
n n NCFS000 1
industrializada industrializar VMP00SF 1
y y CC 0.999812
modernizada modernizar VMP00SF 1
con con SPS00 1
un uno DI0MS0 0.986987
crecimiento crecimiento NCMS000 1
anual anual AQ0CS0 1
de de SPS00 1
el el DA0MS0 1
siete 7 Z 1
a a SPS00 1
el el DA0MS0 1
ocho_por_ciento 8/100 Zp 1
durante durante SPS00 1
el el DA0MS0 1
lapso lapso NCMS000 1
2011 2011 Z 1
2020 2020 Z 1
Seg seg NP00000 1
n n NCFS000 1
el el DA0MS0 1
diplom diplom NCMS000 0.500053
tico tico AQ0MS0 0.806828
el el DA0MS0 1
foro foro NCMS000 1
es ser VSIP3S0 1
una uno DI0FS0 0.951241
ocasi ocasi RG 1
n n NCFS000 1
para para SPS00 0.998507
que que CS 0.4375
los el DA0MP0 0.97623
inversores inversor NCMP000 0.64273
sudcoreanos sudcoreano AQ0MP0 1
actualicen actualizar VMSP3P0 0.901254
informaciones información NCFP000 1
sobre sobre SPS00 0.994203
las el DA0FP0 0.97051
necesidades necesidad NCFP000 1
de de SPS00 1
el el DA0MS0 1
pa pa NCFS000 0.740689
s segundo NCMN000 0.622321
indochino indochino AQ0MS0 0.439088
e y CC 0.973684
intercambien intercambiar VMM03P0 0.0987461
con con SPS00 1
sus su DP3CP0 0.998462
contrapartes contraparte NCFP000 1
acerca_de acerca_de SPS00 1
comercio comercio NCMS000 0.833333
e y CC 0.973684
inversi inversi RG 1
n n NCFS000 1
Los los NP00000 1
participantes participante NCCP000 0.75
en en SPS00 1
la el DA0FS0 0.972146
cita cita NCFS000 0.666667
se se P00CN000 0.465602
informaron informar VMIS3P0 1
de de SPS00 0.999919
las el DA0FP0 0.97051
pol pol NCMS000 0.861706
ticas ticas AQ0FP0 0.760898
vietnamitas vietnamita NCCP000 0.582731
de de SPS00 0.999919
captaci captaci RG 0.751648
n n NCFS000 1
de de SPS00 0.999919
las el DA0FP0 0.97051
inversiones inversión NCFP000 1
extranjeras extranjero AQ0FP0 0.5
la el DA0FS0 0.972146
situaci situaci RG 0.751648
n n NCFS000 1
econ econ NCMS000 1
mica mica NCFS000 1
las el DA0FP0 0.97051
relaciones relación NCFP000 0.944444
comerciales comercial AQ0CP0 0.75
Hanoi_Se hanoi_se NP00000 1
l l NCFS000 0.639398
y y CC 0.999812
las el DA0FP0 0.97051
perspectivas perspectiva NCFP000 0.75
de de SPS00 0.999919
la el DA0FS0 0.972146
cooperaci cooperaci AQ0CS0 0.0199855
n n NCFS000 1
industrial industrial AQ0CS0 0.833333
Buscan buscan NP00000 1
inversiones inversión NCFP000 1
para para SPS00 0.998507
Centro centro NP00000 1
y y CC 0.999812
Sur_de_Vietnam_Medidas sur_de_vietnam_medidas NP00000 1
para para SPS00 0.998507
captar captar VMN0000 1
m m NCFS000 0.5
s segundo NCMN000 0.622321
las el DA0FP0 0.97051
inversiones inversión NCFP000 1
extranjeras extranjero AQ0FP0 0.5
directas directo AQ0FP0 1
IED ied NP00000 1
en en SPS00 1
Vietnam vietnam NP00000 1
centraron centrar VMIS3P0 1
debates debate NCMP000 0.973497
de de SPS00 0.999919
una uno DI0FS0 0.951241
conferencia conferencia NCFS000 0.666667
celebrada celebrar VMP00SF 1
el el DA0MS0 1
jueves [J:??/??/??:??.??:??] W 1
en en SPS00 1
la el DA0FS0 0.972146
provincia provincia NCFS000 1
central central AQ0CS0 0.916667
de de SPS00 0.999919
Binh_Dinh_Los binh_dinh_los NP00000 1
representantes representante NCCP000 0.875
de de SPS00 0.999919
las el DA0FP0 0.97051
zonas zona NCFP000 1
econ econ NCMS000 1
micas mica NCFP000 1
industriales industrial AQ0CP0 0.833333
y y CC 0.999812
de de SPS00 0.999919
procesamiento procesamiento NCMS000 1
provenientes proveniente AQ0CP0 1
de de SPS00 0.999919
32 32 Z 1
localidades localidad NCFP000 1
centrales central AQ0CP0 0.666667
y y CC 0.999812
sure sure VMSP3S0 1
as as NCMS000 1
propusieron proponer VMIS3P0 1
soluciones solución NCFP000 0.833333
destinadas destinar VMP00PF 1
a a SPS00 0.99585
mejorar mejorar VMN0000 1
el el DA0MS0 1
ambiente ambiente NCMS000 0.866667
inversionista inversionista AQ0CS0 0.65715
en en SPS00 1
la el DA0FS0 0.972146
regi regi AQ0CS0 0.0199855
n n NCFS000 1
Las las NP00000 1
sugerencias sugerencia NCFP000 1
se se P00CN000 0.465602
refirieron referir VMIS3P0 1
a a SPS00 0.99585
la el DA0FS0 0.972146
introducci introducci AQ0CS0 0.0199855
n n NCFS000 1
de de SPS00 0.999919
incentivos incentivo NCMP000 1
a a SPS00 0.99585
la el DA0FS0 0.972146
inversi inversi RG 1
n n NCFS000 1
autorizaci autorizaci RG 0.751648
n n NCFS000 1
para para SPS00 0.998507
conceder conceder VMN0000 1
licencias licencia NCFP000 0.973497
a a SPS00 0.99585
proyectos proyecto NCMP000 1
perfeccionamiento perfeccionamiento NCMS000 1
de de SPS00 1
el el DA0MS0 1
sistema sistema NCMS000 1
infraestructural infraestructural AQ0CS0 1
recursos recurso NCMP000 1
humanos humano AQ0MP0 0.681818
y y CC 0.999812
la el DA0FS0 0.972146
reforma reforma NCFS000 0.866667
administrativa administrativo AQ0FS0 0.53725
Las las NP00000 1
32 32 Z 1
provincias provincia NCFP000 1
contadas contar VMP00PF 1
desde desde SPS00 1
la el DA0FS0 0.972146
ciudad ciudad NCFS000 1
central central AQ0CS0 0.916667
de de SPS00 0.999919
Da_Nang da_nang NP00000 1
hasta hasta SPS00 0.955172
la el DA0FS0 0.972146
sure sure VMSP3S0 1
a a SPS00 0.99585
extrema extremo AQ0FS0 0.777778
de de SPS00 0.999919
Cau_Mau cau_mau NP00000 1
cubren cubrir VMIP3P0 1
una uno DI0FS0 0.951241
extensi extensi RG 1
n n NCFS000 1
territorial territorial AQ0CS0 1
de de SPS00 0.999919
162_mil_664 162664 Z 1
kil kil AQ0CS0 0.768581
metros metro NCMP000 1
lo el DA0NS0 0.457393
que que PR0CN000 0.5625
representa representar VMIP3S0 0.928571
49 49 Z 1
3_por_ciento 3/100 Zp 1
de de SPS00 0.999919
la el DA0FS0 0.972146
superficie superficie NCFS000 1
total total AQ0CS0 0.944444
de de SPS00 1
el el DA0MS0 1
pa pa NCFS000 0.740689
s segundo NCMN000 0.622321
En en NP00000 1
2012 2012 Z 1
las el DA0FP0 0.97051
zonas zona NCFP000 1
econ econ NCMS000 1
micas mica NCFP000 1
e y CC 0.973684
industria industriar VMM02S0 1
les le PP3CPD00 1
en en SPS00 1
la el DA0FS0 0.972146
regi regi AQ0CS0 0.0199855
n n NCFS000 1
atrajeron atraer VMIS3P0 1
tres_mil_378 3378 Z 1
proyectos proyecto NCMP000 1
de de SPS00 0.999919
IED ied NP00000 1
con con SPS00 1
capital capital NCFS000 0.372549
registrado registrar VMP00SM 1
de de SPS00 0.999919
unos uno DI0MP0 0.879032
49_mil_millones_de_d TM_d:49000000000 Zu 1
lares lar NCMP000 1
cifra cifrar VMIP3S0 0.195666
que que CS 0.4375
todav todav VMN0000 0.0464435
a a SPS00 0.99585
no no RN 0.99778
se se P00CN000 0.465602
corresponde corresponder VMIP3S0 0.95
con con SPS00 1
las el DA0FP0 0.97051
potencialidades potencialidad NCFP000 1
locales local AQ0CP0 0.25
Esas esas NP00000 1
reas reo AQ0FP0 0.411814
que que PR0CN000 0.5625
generan generar VMIP3P0 1
empleos empleo NCMP000 1
aumentan aumentar VMIP3P0 1
el el DA0MS0 1
presupuesto presupuesto NCMS000 0.666667
estatal estatal AQ0CS0 1
y y CC 0.999812
promueven promover VMIP3P0 1
el el DA0MS0 1
comercio comercio NCMS000 0.833333
constituyen constituir VMIP3P0 1
locomotoras locomotor AQ0FP0 0.634092
de de SPS00 1
el el DA0MS0 1
desarrollo desarrollo NCMS000 0.964286
socioecon socioecon NCMS000 1
mico mico NCMS000 1
nacional nacional AQ0CS0 1
Rusia rusia NP00000 1
mayor mayor AQ0CS0 0.989796
receptor receptor NCMS000 0.785714
de de SPS00 0.999919
inversiones inversión NCFP000 1
vietnamitas vietnamita AQ0CP0 0.417269
Rusia rusia NP00000 1
encabeza encabezar VMIP3S0 0.994868
la el DA0FS0 0.972146
lista lista NCFS000 0.125
de de SPS00 0.999919
pa pa NCFS000 0.740689
ses ses AQ0CP0 0.068278
receptores receptor NCMP000 0.75
de de SPS00 0.999919
inversiones inversión NCFP000 1
vietnamitas vietnamita AQ0CP0 0.417269
en en SPS00 1
lo el DA0NS0 0.457393
que que PR0CN000 0.5625
va ir VMIP3S0 1
de de SPS00 1
el el DA0MS0 1
a a SPS00 0.99585
o o CC 0.998845
a a SPS00 1
el el DA0MS0 1
captar captar VMN0000 1
mil_400_millones_de_d TM_d:1400000000 Zu 1
lares lar NCMP000 1
m m NCFS000 0.5
s segundo NCMN000 0.622321
de de SPS00 0.999919
la el DA0FS0 0.972146
mitad mitad NCFS000 1
de de SPS00 0.999919
los el DA0MP0 0.97623
fondos fondo NCMP000 1
depositados depositar VMP00PM 1
por por SPS00 1
el el DA0MS0 1
pa pa NCFS000 0.740689
s segundo NCMN000 0.622321
indochino indochino AQ0MS0 0.439088
en en SPS00 1
el el DA0MS0 1
exterior exterior NCMS000 0.3125
Un uno DI0MS0 0.986987
informe informe NCMS000 0.185057
de de SPS00 1
el el DA0MS0 1
Ministerio_de_Planificaci ministerio_de_planificaci NP00000 1
n n NCFS000 1
e y CC 0.973684
Inversi inversi NP00000 1
n n NCFS000 1
precis precis NCMN000 1
que que CS 0.4375
los el DA0MP0 0.97623
capitales capital NCMP000 0.53005
en en SPS00 1
Rusia rusia NP00000 1
ocupan ocupar VMIP3P0 1
el el DA0MS0 1
52 52 Z 1
7_por_ciento 7/100 Zp 1
de de SPS00 1
el el DA0MS0 1
total total AQ0CS0 0.944444
seguido seguir VMP00SM 1
por por SPS00 1
Laos laos NP00000 1
20 20 Z 1
1 1 Z 1
y y CC 0.999812
Myanmar myanmar NP00000 1
11 11 Z 1
3 3 Z 1
En en NP00000 1
el el DA0MS0 1
primer 1 AO0MS0 1
trimestre trimestre NCMS000 0.342795
de de SPS00 1
el el DA0MS0 1
a a NCFS000 0.00415028
o o CC 0.998845
las el DA0FP0 0.97051
empresas empresa NCFP000 1
nacionales nacional AQ0CP0 1
colocaron colocar VMIS3P0 1
dos_mil_650_millones_de_d TM_d:2650000000 Zu 1
lares lar NCMP000 1
en en SPS00 1
el el DA0MS0 1
extranjero extranjero NCMS000 0.875
centrados centrar VMP00PM 0.691767
en en SPS00 1
los el DA0MP0 0.97623
sectores sector NCMP000 1
minero minero AQ0MS0 0.357278
de de SPS00 0.999919
servicios servicio NCMP000 1
de de SPS00 0.999919
alojamiento alojamiento NCMS000 1
y y CC 0.999812
gastronom gastronom NCMS000 0.500053
a a SPS00 0.99585
e y CC 0.973684
informaci informaci RG 0.751648
n n NCFS000 1
y y CC 0.999812
telecomunicaci telecomunicaci RG 0.751648
n n NCFS000 1
a a SPS00 0.99585
adi adar VMIS1S0 0.994868
De de NP00000 1
ese ese DD0MS0 0.98125
monto monto NCMS000 0.75
720_millones 720000000 Zd 1
corresponden corresponder VMIP3P0 1
a a SPS00 0.99585
22 22 Z 1
nuevos nuevo AQ0MP0 1
programas programa NCMP000 0.9
indic indic RG 0.5
tras tras SPS00 1
subrayar subrayar VMN0000 1
que que CS 0.4375
el el DA0MS0 1
proyecto proyecto NCMS000 0.9375
de de SPS00 0.999919
la el DA0FS0 0.972146
empresa empresa NCFS000 1
mixta mixto AQ0FS0 1
Rusvietpetro rusvietpetro NP00000 1
aument aument NCMS000 0.607342
su su DP3CS0 1
capital capital NCFS000 0.372549
en en SPS00 1
Rusia rusia NP00000 1
a a SPS00 0.99585
mil_400_millones_de_d TM_d:1400000000 Zu 1
lares lar NCMP000 1
Vietnam vietnam NP00000 1
y y CC 0.999812
Chile chile NP00000 1
conversan conversar VMIP3P0 1
sobre sobre SPS00 0.994203
acuerdo acuerdo NCMS000 0.958333
transpac transpac NCMS000 1
fico fico AQ0MS0 0.466938
El el NP00000 1
viceministro viceministro NCMS000 1
vietnamita vietnamita AQ0CS0 0.35727
de de SPS00 0.999919
Industria industria NP00000 1
y y CC 0.999812
Comercio_Tran_Quoc_Khanh comercio_tran_quoc_khanh NP00000 1
se se P00CN000 0.465602
reuni reuni VMIS1S0 0.0691907
hoy hoy RG 0.877358
con con SPS00 1
su su DP3CS0 1
hom hom NCMS000 0.500053
logo logo NCMS000 1
chileno chileno AQ0MS0 0.372313
de de SPS00 0.999919
Comercio comercio NP00000 1
lvaro lvaro NCMS000 0.326661
Jana jana NP00000 1
para para SPS00 0.998507
debatir debatir VMN0000 1
sobre sobre SPS00 0.994203
la el DA0FS0 0.972146
cooperaci cooperaci AQ0CS0 0.0199855
n n NCFS000 1
bilateral bilateral AQ0CS0 1
y y CC 0.999812
temas tema NCMP000 0.625
de de SPS00 0.999919
inter inter AQ0CN0 1
s segundo NCMN000 0.622321
mutuo mutuo AQ0MS0 0.55009
incluido incluir VMP00SM 1
el el DA0MS0 1
Acuerdo_de_Asociaci acuerdo_de_asociaci NP00000 1
n n NCFS000 1
Transpac transpac NP00000 1
fico fico NCMS000 0.466441
TPP tpp NP00000 1
en en SPS00 1
ingl ingl AQ0CS0 0.587402
s segundo NCMN000 0.622321
El el NP00000 1
encuentro encontrar VMIP1S0 0.4375
se se P00CN000 0.465602
efectu efectu NCMS000 1
a a SPS00 1
el el DA0MS0 1
margen margen NCCS000 1
de de SPS00 0.999919
la el DA0FS0 0.972146
Conferencia conferencia NP00000 1
ministerial ministerial AQ0CS0 0.65727
de de SPS00 1
el el DA0MS0 1
sector sector NCMS000 1
de de SPS00 1
el el DA0MS0 1
Foro_de_Cooperaci foro_de_cooperaci NP00000 1
n n NCFS000 1
Econ econ NP00000 1
mica mica NCFS000 1
de de SPS00 0.999919
Asia_Pac asia_pac NP00000 1
fico fico NCMS000 0.466441
APEC apec NP00000 1
prevista prever VMP00SF 1
los el DA0MP0 0.97623
d d NCFS000 1
as as NCMS000 1
20 20 Z 1
y y CC 0.999812
21 21 Z 1
pr pr NCMS000 0.224371
ximos ximos AQ0MP0 1
en en SPS00 1
la el DA0FS0 0.972146
ciudad ciudad NCFS000 1
portuaria portuario AQ0FS0 1
indonesia indonesio NCFS000 0.5
de de SPS00 0.999919
Surabaya_La surabaya_la NP00000 1
delegaci delegaci RG 0.751648
n n NCFS000 1
vietnamita vietnamita AQ0CS0 0.35727
encabezada encabezar VMP00SF 1
por por SPS00 1
el el DA0MS0 1
ministro ministro NCMS000 1
de de SPS00 0.999919
Industria industria NP00000 1
y y CC 0.999812
Comercio_Vu_Huy_Hoang comercio_vu_huy_hoang NP00000 1
participar participar VMN0000 1
en en SPS00 1
esa ese DD0FS0 0.978261
cita cita NCFS000 0.666667
concentrada concentrar VMP00SF 1
en en SPS00 1
el el DA0MS0 1
sistema sistema NCMS000 1
de de SPS00 0.999919
comercio comercio NCMS000 0.833333
multilateral multilateral AQ0CS0 1
y y CC 0.999812
las el DA0FP0 0.97051
prioridades prioridad NCFP000 1
de de SPS00 1
el el DA0MS0 1
APEC apec NP00000 1
este este DD0MS0 0.956743
a a NCFS000 0.00415028
o o CC 0.998845
Con con NP00000 1
anterioridad anterioridad NCFS000 1
el el DA0MS0 1
embajador embajador NCMS000 1
de de SPS00 0.999919
Hanoi hanoi NP00000 1
en en SPS00 1
Yakarta_Nguyen_Xuan_Thuy yakarta_nguyen_xuan_thuy NP00000 1
asisti asisti NCMS000 1
a a SPS00 0.99585
la el DA0FS0 0.972146
conferencia conferencia NCFS000 0.666667
de de SPS00 0.999919
funcionarios funcionario NCMP000 1
de de SPS00 0.999919
alto alto AQ0MS0 0.973684
nivel nivel NCMS000 1
de de SPS00 0.999919
APEC apec NP00000 1
y y CC 0.999812
un uno DI0MS0 0.986987
foro foro NCMS000 1
de de SPS00 0.999919
di dar VMIS1S0 0.833333
logo logo NCMS000 1
sobre sobre SPS00 0.994203
servicios servicio NCMP000 1
y y CC 0.999812
otros otro DI0MP0 0.56875
asuntos asunto NCMP000 1
relativos relativo AQ0MP0 0.507252
a a SPS00 1
el el DA0MS0 1
proceso proceso NCMS000 0.973684
de de SPS00 0.999919
conexi conexi NCMS000 1
n n NCFS000 1
regional regional AQ0CS0 1
Las las NP00000 1
sugerencias sugerencia NCFP000 1
ser ser VSN0000 0.93883
n n NCFS000 1
presentadas presentar VMP00PF 1
en en SPS00 1
la el DA0FS0 0.972146
Cumbre_de_APEC cumbre_de_apec NP00000 1
en en SPS00 1
octubre [??:??/10/??:??.??:??] W 1
venidero venidero AQ0MS0 1
durante durante SPS00 1
la el DA0FS0 0.972146
cual cual PR0CS000 0.9
los el DA0MP0 0.97623
l l NCFS000 0.639398
deres deres NCMP000 0.800047
de de SPS00 0.999919
las el DA0FP0 0.97051
econom econom NCMS000 0.500053
as as NCMS000 1
miembros miembro AQ0MP0 0.0833333
analizar analizar VMN0000 1
n n NCFS000 1
temas temer VMSP2S0 0.375
como como CS 0.998579
el el DA0MS0 1
desarrollo desarrollo NCMS000 0.964286
de de SPS00 0.999919
servicios servicio NCMP000 1
para para SPS00 0.998507
la el DA0FS0 0.972146
infraestructura infraestructura NCFS000 1
y y CC 0.999812
el el DA0MS0 1
fomento fomento NCMS000 0.966523
de de SPS00 0.999919
la el DA0FS0 0.972146
capacidad capacidad NCFS000 1
competitiva competitivo AQ0FS0 1
para para SPS00 0.998507
la el DA0FS0 0.972146
integraci integraci AQ0CS0 0.0199855
n n NCFS000 1
econ econ NCMS000 1
mica mica NCFS000 1
en en SPS00 1
Asia_Pac asia_pac NP00000 1
fico fico NCMS000 0.466441
Haga haga NP00000 1
click click NCMS000 0.50012
aqu aqu NCMS000 0.774439
para para SPS00 0.998507
recibir recibir VMN0000 1
gratis gratis RG 0.75
Argenpress argenpress NP00000 1
en en SPS00 1
su su DP3CS0 1
correo correo NCMS000 0.735623
electr electr AQ0CS0 0.0829965
nico no NCMS00D 0.522084

