Paraguay_Horacio_Cartes paraguay_horacio_cartes NP00000 1
llev llev VMIP3S0 0.0552772
a a SPS00 1
el el DA0MS0 1
Partido_Colorado partido_colorado NP00000 1
de de SPS00 0.999919
regreso regreso NCMS000 0.75
a a SPS00 1
el el DA0MS0 1
poder poder VMN0000 0.288462
Un uno DI0MS0 0.986987
acaudalado acaudalar VMP00SM 1
empresario empresario NCMS000 1
paraguayo paraguayo AQ0MS0 0.65727
Horacio_Cartes horacio_cartes NP00000 1
incursionando incursionar VMG0000 1
por por SPS00 1
primera 1 AO0FS0 0.987179
vez vez NCFS000 1
en en SPS00 1
alta alto AQ0FS0 0.970588
pol pol NCMS000 0.861706
tica tica AQ0FS0 0.595788
condujo conducir VMIS3S0 1
a a SPS00 1
el el DA0MS0 1
Partido_Colorado partido_colorado NP00000 1
de de SPS00 0.999919
regreso regreso NCMS000 0.75
a a SPS00 1
el el DA0MS0 1
poder poder NCMS000 0.711538
perdido perder VMP00SM 0.961538
en en SPS00 1
el el DA0MS0 1
2008 2008 Z 1
La la NP00000 1
victoria victoria NCFS000 0.954545
de de SPS00 0.999919
Cartes cartes NP00000 1
celebrada celebrar VMP00SF 1
con con SPS00 1
entusiasmo entusiasmo NCMS000 0.916667
por por SPS00 1
sus su DP3CP0 0.998462
partidarios partidario NCMP000 0.34285
anoche anoche RG 1
propin propin NCMS000 1
una uno DI0FS0 0.951241
especial especial AQ0CS0 1
derrota derrota NCFS000 0.547112
a a SPS00 1
el el DA0MS0 1
Partido_Liberal_Radical_Aut partido_liberal_radical_aut NP00000 1
ntico ntico AQ0MS0 1
con con SPS00 1
el el DA0MS0 1
cual cual PR0CS000 0.9
se se P00CN000 0.465602
hab hab NCMS000 0.63631
a a SPS00 0.99585
asociado asociado NCMS000 0.36823
el el DA0MS0 1
pasado_mes_de_junio [??:??/6/??:??.??:??] W 1
para para SPS00 0.998507
un uno DI0MS0 0.986987
expedito expedito AQ0MS0 1
juicio juicio NCMS000 1
pol pol NCMS000 0.861706
tico tico AQ0MS0 0.806828
que que PR0CN000 0.5625
sac sac NCMS000 1
de de SPS00 1
el el DA0MS0 1
poder poder NCMS000 0.711538
a a SPS00 1
el el DA0MS0 1
presidente presidente NCMS000 1
Fernando_Lugo_Aquel fernando_lugo_aquel NP00000 1
hecho hacer VMP00SM 0.618421
incluy incluy RG 0.993863
un uno DI0MS0 0.986987
pacto pacto NCMS000 0.875
con con SPS00 1
los el DA0MP0 0.97623
liberales liberal NCMP000 0.509004
y y CC 0.999812
permiti permiti NCMS000 1
asumir asumir VMN0000 1
la el DA0FS0 0.972146
presidencia presidencia NCFS000 1
de de SPS00 0.999919
la el DA0FS0 0.972146
Rep rep NP00000 1
blica blica AQ0FS0 1
a a SPS00 0.99585
Federico_Franco federico_franco NP00000 1
por por SPS00 1
14 14 Z 1
meses mes NCMP000 0.964286
que que PR0CN000 0.5625
se se P00CN000 0.465602
cumplir cumplir VMN0000 1
n n NCFS000 1
con con SPS00 1
la el DA0FS0 0.972146
entrega entrega NCFS000 0.266667
de de SPS00 1
el el DA0MS0 1
poder poder NCMS000 0.711538
a a SPS00 0.99585
Cartes cartes NP00000 1
el el DA0MS0 1
pr pr NCMS000 0.224371
ximo ximo AQ0MS0 0.937453
15_de_agosto [??:15/8/??:??.??:??] W 1
Sin sin NP00000 1
embargo embargo NCMS000 0.973496
como_mucho como_mucho RG 1
se se P00CN000 0.465602
se se P00CN000 0.465602
a a SPS00 1
el el DA0MS0 1
en en SPS00 1
aquel aquel DD0MS0 0.985714
momento momento NCMS000 1
dicho decir VMP00SM 0.958333
acuerdo acuerdo NCMS000 0.958333
sentenci sentenci RG 0.751648
a a SPS00 1
el el DA0MS0 1
gobierno gobierno NCMS000 0.9
liberal liberal AQ0CS0 0.616364
a a SPS00 0.99585
cargar cargar VMN0000 1
con con SPS00 1
el el DA0MS0 1
aislamiento aislamiento NCMS000 1
internacional internacional AQ0CS0 0.833333
y y CC 0.999812
la el DA0FS0 0.972146
suspensi suspensi RG 1
n n NCFS000 1
de de SPS00 0.999919
su su DP3CS0 1
membres membres NCMP000 0.876694
a a SPS00 0.99585
en en SPS00 1
los el DA0MP0 0.97623
organismos organismo NCMP000 1
integracionistas integracionista AQ0CP0 0.35727
de de SPS00 0.999919
Mercosur mercosur NP00000 1
y y CC 0.999812
Unasur unasur NP00000 1
as as NCMS000 1
como como CS 0.998579
a a SPS00 0.99585
un uno DI0MS0 0.986987
gran gran AQ0CS0 1
rev revolución NCFN000 1
s segundo NCMN000 0.622321
en en SPS00 1
los el DA0MP0 0.97623
comicios comicio NCMP000 1
celebrados celebrar VMP00PM 1
la el DA0FS0 0.972146
v v NCFS000 1
spera spera VMIP3S0 0.444593
En en NP00000 1
realidad realidad NCFS000 1
la el DA0FS0 0.972146
victoria victoria NCFS000 0.954545
electoral electoral AQ0CS0 1
de de SPS00 0.999919
Cartes cartes NP00000 1
en en SPS00 1
estas este DD0FP0 0.960526
votaciones votación NCFP000 1
no no RN 0.99778
fue ser VSIS3S0 0.932292
lo el DA0NS0 0.457393
suficientemente suficientemente RG 1
amplia amplio AQ0FS0 1
como como CS 0.998579
para para SPS00 0.998507
garantizar garantizar VMN0000 1
le le PP3CSD00 1
la el DA0FS0 0.972146
mayor mayor AQ0CS0 0.989796
a a SPS00 0.99585
en en SPS00 1
el el DA0MS0 1
Senado senado NP00000 1
y y CC 0.999812
le le PP3CSD00 1
arrebata arrebatar VMIP3S0 0.994868
gobernaciones gobernación NCFP000 1
departamentales departamental AQ0CP0 1
que que PR0CN000 0.5625
siempre siempre RG 1
controlaron controlar VMIS3P0 1
Estos estos NP00000 1
comicios comicio NCMP000 1
marcaron marcar VMIS3P0 1
tambi tambi AQ0CN0 1
n n NCFS000 1
pr pr VMN0000 0.633986
cticamente cticamente RG 1
la el DA0FS0 0.972146
liquidaci liquidaci AQ0CS0 0.0199855
n n NCFS000 1
de de SPS00 0.999919
partidos partido NCMP000 0.928571
como como CS 0.998579
Patria_Querida patria_querida NP00000 1
y y CC 0.999812
la el DA0FS0 0.972146
disminuci disminuci AQ0CS0 0.0199855
n n NCFS000 1
significativa significativo AQ0FS0 1
de de SPS00 0.999919
Unac unac NP00000 1
que que CS 0.4375
hab hab NCMS000 0.63631
a a SPS00 0.99585
optado optar VMP00SM 1
por por SPS00 1
apoyar apoyar VMN0000 1
a a SPS00 1
el el DA0MS0 1
liberalismo liberalismo NCMS000 1
a a SPS00 0.99585
ltima ltima AQ0FS0 0.166758
hora hora NCFS000 1
tras tras SPS00 1
la el DA0FS0 0.972146
muerte muerte NCFS000 1
de de SPS00 0.999919
su su DP3CS0 1
l l NCFS000 0.639398
der der NCMS000 0.246545
Lino_Oviedo_Adem lino_oviedo_adem NP00000 1
s segundo NCMN000 0.622321
la el DA0FS0 0.972146
constituci constituci AQ0CS0 0.0199855
n n NCFS000 1
de de SPS00 1
el el DA0MS0 1
Senado senado NP00000 1
mostrar mostrar VMN0000 1
con con SPS00 1
el el DA0MS0 1
novel novel AQ0CS0 0.656762
resultado resultado NCMS000 0.807692
electoral electoral AQ0CS0 1
la el DA0FS0 0.972146
presencia presencia NCFS000 0.962963
de de SPS00 1
el el DA0MS0 1
bloque bloque NCMS000 0.625
m m NCFS000 0.5
s segundo NCMN000 0.622321
importante importante AQ0CS0 1
de de SPS00 1
el el DA0MS0 1
sector sector NCMS000 1
de de SPS00 0.999919
la el DA0FS0 0.972146
izquierda izquierda NCFS000 0.5
encabezado encabezar VMP00SM 0.591844
por por SPS00 1
el el DA0MS0 1
Frente_Guas frente_guas NP00000 1
lo el DA0NS0 0.457393
cual cual PR0CS000 0.9
puede poder VMIP3S0 0.995614
actuar actuar VMN0000 1
en en SPS00 1
la el DA0FS0 0.972146
pr pr NCMS000 0.224371
ctica ctica AQ0FS0 0.300042
como como CS 0.998579
una uno DI0FS0 0.951241
suerte suerte NCFS000 1
de de SPS00 0.999919
contrapeso contrapeso NCMS000 0.75
de de SPS00 1
el el DA0MS0 1
hasta hasta SPS00 0.955172
ahora ahora RG 1
poder poder VMN0000 0.288462
omn omn NCMS000 1
modo modo NCMS000 1
en en SPS00 1
la el DA0FS0 0.972146
pol pol NCMS000 0.861706
tica tica AQ0FS0 0.595788
nacional nacional AQ0CS0 1
Por por NP00000 1
ltimo ltimo RG 1
bas ba NCFP000 1
ndose ndose VMSI3S0 0.317009
en en SPS00 1
su su DP3CS0 1
propio propio AQ0MS0 0.98
pragmatismo pragmatismo NCMS000 1
sobre sobre SPS00 0.994203
el el DA0MS0 1
tema tema NCMS000 0.953125
demostrado demostrar VMP00SM 1
en en SPS00 1
la el DA0FS0 0.972146
campa campar VMIP3S0 0.994867
a a SPS00 0.99585
electoral electoral AQ0CS0 1
Cartes cartes NP00000 1
se se P00CN000 0.465602
empe empe VMIP3S0 1
ar ar I 1
en en SPS00 1
superar superar VMN0000 1
de de SPS00 0.999919
alguna alguno DI0FS0 0.893939
forma forma NCFS000 0.960317
la el DA0FS0 0.972146
suspensi suspensi RG 1
n n NCFS000 1
de de SPS00 1
el el DA0MS0 1
pa pa NCFS000 0.740689
s segundo NCMN000 0.622321
en en SPS00 1
los el DA0MP0 0.97623
grandes grande AQ0CP0 0.95
bloques bloque NCMP000 0.995706
integracionistas integracionista AQ0CP0 0.35727
de de SPS00 0.999919
Suram suram NP00000 1
rica rico NCFS000 0.25
Haga haga NP00000 1
click click NCMS000 0.50012
aqu aqu NCMS000 0.774439
para para SPS00 0.998507
recibir recibir VMN0000 1
gratis gratis RG 0.75
Argenpress argenpress NP00000 1
en en SPS00 1
su su DP3CS0 1
correo correo NCMS000 0.735623
electr electr AQ0CS0 0.0829965
nico no NCMS00D 0.522084

