Qui qui NP00000 1
n n NCFS000 1
esp esp NCMS000 1
a a SPS00 0.99585
a a SPS00 0.99585
quien quien PR0CS000 1
Cuando cuando NP00000 1
escuch escuch AQ0CN0 1
que que CS 0.4375
Corea_de_el_Norte corea_de_el_norte NP00000 1
era ser VSII1S0 0.490859
la el DA0FS0 0.972146
que que PR0CN000 0.5625
hab hab NCMS000 0.63631
a a SPS00 0.99585
colocado colocar VMP00SM 1
a a SPS00 1
el el DA0MS0 1
gran gran AQ0CS0 1
imperio imperio NCMS000 1
de de SPS00 0.999919
los el DA0MP0 0.97623
Estados_Unidos estados_unidos NP00000 1
y y CC 0.999812
su su DP3CS0 1
eterno eterno AQ0MS0 1
aliado aliado NCMS000 0.75
Corea_de_el_Sur corea_de_el_sur NP00000 1
en en SPS00 1
un uno DI0MS0 0.986987
aprieto aprieto NCMS000 0.97349
a a SPS00 1
el el DA0MS0 1
declarar declarar VMN0000 1
en en SPS00 1
estado estado NCMS000 0.662162
de de SPS00 0.999919
guerra guerra NCFS000 1
a a SPS00 1
el el DA0MS0 1
pa pa NCFS000 0.740689
s segundo NCMN000 0.622321
por por SPS00 1
la el DA0FS0 0.972146
radio radio NCFS000 0.491228
p p NCFS000 0.5
blica blica AQ0FS0 1
95 95 Z 1
3 3 Z 1
supuse suponer VMIS1S0 1
que que CS 0.4375
yo yo PP1CSN00 1
estaba estar VAII1S0 0.5
totalmente totalmente RG 1
equivocado equivocar VMP00SM 1
Fui fui NP00000 1
a a SPS00 0.99585
un uno DI0MS0 0.986987
cuaderno cuaderno NCMS000 1
de de SPS00 0.999919
esos ese DD0MP0 0.961538
viejos viejo NCMP000 0.416667
a a SPS00 0.99585
ver ver VMN0000 0.987179
en en SPS00 1
los el DA0MP0 0.97623
mapas mapa NCMP000 1
si si CS 0.997706
lindaba lindar VMII3S0 0.65
el el DA0MS0 1
gran gran AQ0CS0 1
imperio imperio NCMS000 1
de de SPS00 1
el el DA0MS0 1
norte norte NCMS000 1
Estados_Unidos estados_unidos NP00000 1
con con SPS00 1
Corea_de_el_Norte corea_de_el_norte NP00000 1
y y CC 0.999812
me me PP1CS000 0.889706
encontr encontr VMN0000 0.633986
con con SPS00 1
que que CS 0.4375
los el DA0MP0 0.97623
Estados_Unidos estados_unidos NP00000 1
estaban estar VAII3P0 1
a a SPS00 0.99585
miles mil NCMP000 1
de de SPS00 0.999919
kil kil AQ0CS0 0.768581
metros metro NCMP000 1
de de SPS00 0.999919
Corea_de_el_Norte corea_de_el_norte NP00000 1
mejor mejor RG 0.131579
conocida conocer VMP00SF 0.875
como como CS 0.998579
la el DA0FS0 0.972146
Rep rep NP00000 1
blica blica AQ0FS0 1
Democr democr NP00000 1
tica tica NCFS000 0.372209
de de SPS00 0.999919
Corea_Supon corea_supon NP00000 1
a a SPS00 0.99585
que que PR0CN000 0.5625
estaba estar VAII1S0 0.5
equivocado equivocar VMP00SM 1
el el DA0MS0 1
se se P00CN000 0.465602
or or NCMS000 0.655771
que que PR0CN000 0.5625
dijo decir VMIS3S0 1
muy muy RG 1
suelto suelto AQ0MS0 0.875
de de SPS00 0.999919
huesos hueso NCMP000 1
y y CC 0.999812
por por SPS00 1
la el DA0FS0 0.972146
radio radio NCFS000 0.491228
p p NCFS000 0.5
blica blica AQ0FS0 1
que que CS 0.4375
Corea_de_el_Norte corea_de_el_norte NP00000 1
era ser VSII1S0 0.490859
un uno DI0MS0 0.986987
pa pa NCFS000 0.740689
s segundo NCMN000 0.622321
que que PR0CN000 0.5625
causaba causar VMII3S0 0.63001
preocupaci preocupaci RG 0.751648
n n NCFS000 1
a a SPS00 0.99585
los el DA0MP0 0.97623
Estados_Unidos estados_unidos NP00000 1
y y CC 0.999812
a a SPS00 0.99585
Corea_de_el_Sur_En corea_de_el_sur_en NP00000 1
palabras palabra NCFP000 1
m m NCFS000 0.5
s segundo NCMN000 0.622321
nuestras nuestro PX1FP0P0 0.0277778
no no RN 0.99778
hay haber VMIP3S0 1
una uno DI0FS0 0.951241
vecindad vecindad NCFS000 1
entre entre SPS00 0.995223
el el DA0MS0 1
gran gran AQ0CS0 1
imperio imperio NCMS000 1
y y CC 0.999812
Corea_de_el_Norte corea_de_el_norte NP00000 1
como como CS 0.998579
para para SPS00 0.998507
causar causar VMN0000 1
le le PP3CSD00 1
preocupaci preocupaci RG 0.751648
n n NCFS000 1
Lo lo NP00000 1
que que PR0CN000 0.5625
si si CS 0.997706
estoy estar VAIP1S0 1
seguro seguro AQ0MS0 0.564103
es ser VSIP3S0 1
que que CS 0.4375
Corea_de_el_Sur corea_de_el_sur NP00000 1
es ser VSIP3S0 1
una uno DI0FS0 0.951241
base base NCCS000 0.955882
de de SPS00 0.999919
los el DA0MP0 0.97623
Estados_Unidos estados_unidos NP00000 1
y y CC 0.999812
que que CS 0.4375
cada cada DI0CS0 1
a a NCFS000 0.00415028
o o CC 0.998845
hay haber VMIP3S0 1
unas uno DI0FP0 0.925926
maniobras maniobra NCFP000 0.75
conjuntas conjunto AQ0FP0 0.97439
que que PR0CN000 0.5625
ponen poner VMIP3P0 1
en en SPS00 1
riesgo riesgo NCMS000 1
a a SPS00 0.99585
Corea_de_el_Norte_Desde corea_de_el_norte_desde NP00000 1
los el DA0MP0 0.97623
a a SPS00 0.99585
os os PP2CP000 0.722222
50 50 Z 1
a a SPS00 0.99585
53 53 Z 1
de de SPS00 1
el el DA0MS0 1
siglo siglo NCMS000 1
pasado pasar VMP00SM 0.647727
las el DA0FP0 0.97051
dos 2 Z 0.988722
Coreas coreas NP00000 1
est est NCMS000 1
n n NCFS000 1
divididas dividir VMP00PF 1
por por SPS00 1
el el DA0MS0 1
paralelo paralelo NCMS000 0.25
38 38 Z 1
una uno DI0FS0 0.951241
especie especie NCFS000 1
de de SPS00 0.999919
frontera frontera NCFS000 0.95
Y y NP00000 1
que que PR0CN000 0.5625
se se P00CN000 0.465602
dieron dar VMIS3P0 1
y y CC 0.999812
duro duro AQ0MS0 0.925926
como como CS 0.998579
debe deber VMIP3S0 0.974359
ser ser VSN0000 0.93883
entre entre SPS00 0.995223
las el DA0FP0 0.97051
dos 2 Z 0.988722
Coreas coreas NP00000 1
mejor mejor RG 0.131579
dicho decir VMP00SM 0.958333
entre entre SPS00 0.995223
Estados_Unidos estados_unidos NP00000 1
y y CC 0.999812
Corea_de_el_Norte corea_de_el_norte NP00000 1
ya_que ya_que CS 1
seg segundo NCMN000 1
n n NCFS000 1
se se P00CN000 0.465602
supo saber VMIS3S0 1
de de SPS00 0.999919
no no RN 0.99778
ser ser VSN0000 0.93883
por por SPS00 1
los el DA0MP0 0.97623
Estados_Unidos_Corea_de_el_Sur estados_unidos_corea_de_el_sur NP00000 1
desparecer desparecer VMN0000 0.86
a a SPS00 0.99585
de de SPS00 1
el el DA0MS0 1
mapa mapa NCMS000 1
Cosas cosas NP00000 1
de de SPS00 0.999919
la el DA0FS0 0.972146
guerra guerra NCFS000 1
fr fr AQ0CS0 0.0829965
a a SPS00 0.99585
Pero pero NP00000 1
eso ese PD0NS000 1
no no RN 0.99778
fue ser VSIS3S0 0.932292
de de SPS00 1
el el DA0MS0 1
siglo siglo NCMS000 1
pasado pasar VMP00SM 0.647727
siglo siglo NCMS000 1
20 20 Z 1
preguntamos preguntar VMIP1P0 0.65
ya_que ya_que CS 1
nuestra nuestro DP1FSP 0.892857
profesi profesi RG 1
n n NCFS000 1
nos nos PP1CP000 0.933333
da dar VMIP3S0 0.983871
para para SPS00 0.998507
ser ser VSN0000 0.93883
preguntones preguntón NCMP000 0.617733
de de SPS00 0.999919
naturaleza naturaleza NCFS000 1
A a NP00000 1
lo lo PP3CNA00 0.271163
que que PR0CN000 0.5625
nos nos PP1CP000 0.933333
respondieron responder VMIS3P0 1
los el DA0MP0 0.97623
que que PR0CN000 0.5625
saben saber VMIP3P0 1
o o CC 0.998845
dicen decir VMIP3P0 1
que que CS 0.4375
saben saber VMIP3P0 1
que que CS 0.4375
de de SPS00 0.999919
no no RN 0.99778
ser ser VSN0000 0.93883
por por SPS00 1
el el DA0MS0 1
Jap jap NP00000 1
n n NCFS000 1
y y CC 0.999812
por por SPS00 1
Estados_Unidos estados_unidos NP00000 1
no no RN 0.99778
existir existir VMN0000 1
a a SPS00 0.99585
la el DA0FS0 0.972146
Corea_de_el_Sur_Volvimos corea_de_el_sur_volvimos NP00000 1
a a SPS00 0.99585
preguntar preguntar VMN0000 1
no no RN 0.99778
es ser VSIP3S0 1
ese ese PD0MS000 0.01875
un uno DI0MS0 0.986987
problema problema NCMS000 1
que que PR0CN000 0.5625
viene venir VMIP3S0 1
de de SPS00 0.999919
la el DA0FS0 0.972146
segunda 2 AO0FS0 0.958333
guerra guerra NCFS000 1
mundial mundial AQ0CS0 0.928571
1940 1940 Z 1
1945 1945 Z 1
A a NP00000 1
lo el DA0NS0 0.457393
que que PR0CN000 0.5625
volvieron volver VMIS3P0 1
a a SPS00 0.99585
responder responder VMN0000 1
nos nos PP1CP000 1
los el DA0MP0 0.97623
que que PR0CN000 0.5625
se se P00CN000 0.465602
creen creer VMIP3P0 0.866667
sabios sabio NCMP000 0.625
Cierto cierto NP00000 1
es ser VSIP3S0 1
que que CS 0.4375
viene venir VMIP3S0 1
de de SPS00 0.999919
la el DA0FS0 0.972146
segunda 2 AO0FS0 0.958333
guerra guerra NCFS000 1
mundial mundial AQ0CS0 0.928571
pero pero CC 0.998821
el el DA0MS0 1
gran gran AQ0CS0 1
imperio imperio NCMS000 1
de de SPS00 1
el el DA0MS0 1
norte norte NCMS000 1
ha ha I 0.00185874
cre cre AQ0CS0 1
do do NCMS000 1
conveniente conveniente AQ0CS0 1
mantener mantener VMN0000 1
sus su DP3CP0 0.998462
bases base NCCP000 0.75
en en SPS00 1
Corea_de_el_Sur corea_de_el_sur NP00000 1
no no RN 0.99778
vaya ir VMSP1S0 0.22
a a SPS00 0.99585
ser ser VSN0000 0.93883
que que CS 0.4375
el el DA0MS0 1
liberalismo liberalismo NCMS000 1
mejor mejor AQ0CS0 0.868421
dicho decir VMP00SM 0.958333
el el DA0MS0 1
neoliberalismo neoliberalismo NCMS000 1
desaparezca desaparecer VMSP3S0 0.62344
de de SPS00 1
el el DA0MS0 1
mapa mapa NCMS000 1
Entonces entonces NP00000 1
si si CS 0.997706
nos nos PP1CP000 0.933333
jodemos joder VMIP1P0 1
todos todo DI0MP0 0.622419
El el NP00000 1
padre padre NCMS000 1
de de SPS00 0.999919
Corea_de_el_Norte corea_de_el_norte NP00000 1
se se P00CN000 0.465602
llam llam NCMS000 0.700265
Kim_Il_Sung kim_il_sung NP00000 1
y y CC 0.999812
logr logr NCFS000 0.638487
con con SPS00 1
la el DA0FS0 0.972146
ayuda ayuda NCFS000 0.866667
de de SPS00 0.999919
la el DA0FS0 0.972146
China_Rep china_rep NP00000 1
blica blica AQ0FS0 1
Popular_de_China popular_de_china NP00000 1
el el DA0MS0 1
que que PR0CN000 0.5625
exista existir VMSP1S0 0.47619
Corea_de_el_Norte corea_de_el_norte NP00000 1
junto_a junto_a SPS00 1
Corea_de_el_Sur_Y corea_de_el_sur_y NP00000 1
no no RN 0.99778
se se P00CN000 0.465602
dec dec NC00000 0.538029
an an NCFS000 1
marxistas marxista AQ0CP0 0.35731
preguntamos preguntar VMIP1P0 0.65
As as NP00000 1
fue ser VSIS3S0 0.932292
entonces entonces RG 0.97619
C c NP00000 1
mo mo VMIP1S0 0.0383376
es ser VSIP3S0 1
que que CS 0.4375
Kim_Il_Sung kim_il_sung NP00000 1
se se P00CN000 0.465602
dedic dedic NCMN000 0.5
a a SPS00 1
el el DA0MS0 1
culto culto NCMS000 0.833333
a a SPS00 0.99585
la el DA0FS0 0.972146
personalidad personalidad NCFS000 1
La la NP00000 1
respuesta respuesta NCFS000 1
es ser VSIP3S0 1
muy muy RG 1
f f NCFS000 1
cil cil AQ0CS0 1
en en SPS00 1
la el DA0FS0 0.972146
Rep rep NP00000 1
blica blica AQ0FS0 1
China china NP00000 1
hab hab NCMS000 0.63631
a a SPS00 0.99585
aparecido aparecido NCMS000 0.326983
con con SPS00 1
fuerza fuerza NCFS000 0.968254
el el DA0MS0 1
camarada camarada NCCS000 1
Mao_Thse_Thung_Mao_Ze_Dong mao_thse_thung_mao_ze_dong NP00000 1
seg segundo NCMN000 1
n n NCFS000 1
el el DA0MS0 1
chino chino AQ0MS0 0.291667
leg leg NCMS000 0.714133
timo timo NCMS000 0.973479
y y CC 0.999812
a a SPS00 0.99585
l l NCFS000 0.639398
se se P00CN000 0.465602
veneraba venerar VMII3S0 0.65
en en SPS00 1
todas todo DI0FP0 0.945312
partes parte NCFP000 0.495495
no no RN 0.99778
solo solo AQ0MS0 0.930556
en en SPS00 1
la el DA0FS0 0.972146
China china NP00000 1
sino sino CC 0.981707
en en SPS00 1
los el DA0MP0 0.97623
pa pa NCFS000 0.740689
ses ses NCMP000 0.727093
colindantes colindante AQ0CP0 1
entre entre SPS00 0.995223
ellos ellos PP3MP000 1
Corea_de_el_Norte_El_Partido_Comunista_de_Corea_de_el_Norte corea_de_el_norte_el_partido_comunista_de_corea_de_el_norte NP00000 1
resolvi resolvi VMIS1S0 1
exagerar exagerar VMN0000 1
la el DA0FS0 0.972146
vida vida NCFS000 1
de de SPS00 0.999919
Kim_Il_Sung kim_il_sung NP00000 1
como como CS 0.998579
respuesta respuesta NCFS000 1
a a SPS00 0.99585
la el DA0FS0 0.972146
China_de_Mao_De china_de_mao_de NP00000 1
esa ese DD0FS0 0.978261
manera manera NCFS000 1
los el DA0MP0 0.97623
coreanos coreano NCMP000 0.166667
de de SPS00 1
el el DA0MS0 1
norte norte NCMS000 1
tuvieron tener VMIS3P0 1
su su DP3CS0 1
Mao mao NP00000 1
propio propio AQ0MS0 0.98
de de SPS00 0.999919
nombre nombre NCMS000 0.97973
King_Y king_y NP00000 1
eso ese PD0NS000 1
fue ser VSIS3S0 0.932292
todo todo DI0MS0 0.559816
Sea sea NP00000 1
lo lo PP3CNA00 0.271163
que que PR0CN000 0.5625
haya haber VMSP3S0 0.235714
sido ser VSP00SM 1
lo el DA0NS0 0.457393
cierto cierto AQ0MS0 1
es ser VSIP3S0 1
que que CS 0.4375
Kim_Il_Sung kim_il_sung NP00000 1
fue ser VSIS3S0 0.932292
el el DA0MS0 1
fundador fundador NCMS000 0.75
de de SPS00 0.999919
Corea_de_el_Norte corea_de_el_norte NP00000 1
bajo bajo SPS00 0.866071
el el DA0MS0 1
impulso impulso NCMS000 0.916667
de de SPS00 1
el el DA0MS0 1
comunismo comunismo NCMS000 1
Y y NP00000 1
l l NCFS000 0.639398
dej dej NCMS000 0.692259
como como CS 0.998579
su su DP3CS0 1
representante representante NCCS000 0.75
a a SPS00 0.99585
su su DP3CS0 1
hijo hijo NCMS000 1
Kim_Song_Il kim_song_il NP00000 1
quien quien PR0CS000 1
dirigi dirigi RG 0.751648
a a SPS00 0.99585
la el DA0FS0 0.972146
Rep rep NP00000 1
blica blica AQ0FS0 1
hasta hasta SPS00 0.955172
su su DP3CS0 1
muerte muerte NCFS000 1
Por por NP00000 1
ese ese DD0MS0 0.98125
lado lado NCMS000 1
viene venir VMIP3S0 1
Kim_Song kim_song NP00000 1
Uno uno PI0MS000 0.964744
un uno DI0MS0 0.986987
joven joven NCCS000 0.462963
que que PR0CN000 0.5625
dirige dirigir VMIP3S0 0.875
actualmente actualmente RG 1
las el DA0FP0 0.97051
huestes hueste NCFP000 1
que que CS 0.4375
dej dej NCMS000 0.692259
su su DP3CS0 1
abuelo abuelo NCMS000 1
Y y NP00000 1
para para SPS00 0.998507
quienes quien PR0CP000 1
no no RN 0.99778
est est NCMS000 1
n n NCFS000 1
conformes conforme AQ0CP0 0.685714
con con SPS00 1
ese ese DD0MS0 0.98125
liderazgo liderazgo NCMS000 1
pensemos pensar VMSP1P0 0.901233
que que CS 0.4375
otros otro DI0MP0 0.56875
pa pa NCFS000 0.740689
ses ses AQ0CP0 0.068278
de de SPS00 1
el el DA0MS0 1
Medio_Oriente medio_oriente NP00000 1
y y CC 0.999812
de de SPS00 1
el el DA0MS0 1
Asia asia NP00000 1
que que CS 0.4375
son ser VSIP3P0 0.986772
verdaderas verdadero AQ0FP0 1
hegemon hegemon VMIS3P0 0.923476
as as NCMS000 1
pol pol NCMS000 0.861706
ticas ticas AQ0FP0 0.760898
Preguntamos preguntamos NP00000 1
qui qui NCMS000 1
n n NCFS000 1
los el DA0MP0 0.97623
eligi eligi NCMS000 0.0996348
para para SPS00 0.998507
ser ser VSN0000 0.93883
gobiernos gobierno NCMP000 1
a a SPS00 0.99585
los el DA0MP0 0.97623
mandamases mandamás NCCP000 1
y y CC 0.999812
/ / Fh 1
o o CC 0.998845
monarcas monarca NCCP000 1
de de SPS00 0.999919
esos ese DD0MP0 0.961538
pa pa NCFS000 0.740689
ses ses NCMP000 0.727093
Si si NP00000 1
la el DA0FS0 0.972146
cr cr NCMS000 1
tica tica AQ0FS0 0.595788
fuera fuera RG 0.301418
contra contra SPS00 0.976316
las el DA0FP0 0.97051
familias familia NCFP000 1
con con SPS00 1
mucha mucho DI0FS0 0.97619
suerte suerte NCFS000 1
en en SPS00 1
estos este DD0MP0 0.990566
tiempos tiempo NCMP000 1
preguntamos preguntar VMIP1P0 0.65
qui qui NCMS000 1
n n NCFS000 1
eligi eligi RG 0.751648
a a SPS00 0.99585
los el DA0MP0 0.97623
soberanos soberano NCMP000 0.64273
que que PR0CN000 0.5625
dominan dominar VMIP3P0 1
por_ejemplo por_ejemplo RG 1
a a SPS00 0.99585
Espa espa NP00000 1
a a SPS00 0.99585
Y y NP00000 1
qui qui NCMS000 1
n n NCFS000 1
eligi eligi RG 0.751648
a a SPS00 0.99585
los el DA0MP0 0.97623
que que PR0CN000 0.5625
van ir VMIP3P0 1
a a SPS00 0.99585
gobernar gobernar VMN0000 1
los el DA0MP0 0.97623
Pa pa NP00000 1
ses ses NCMP000 0.727093
Bajos_Holanda_De bajos_holanda_de NP00000 1
esta este DD0FS0 0.982143
manera manera NCFS000 1
las el DA0FP0 0.97051
preguntas pregunta NCFP000 0.833333
sobrar sobrar VMN0000 1
an an NCFS000 1
Pongo pongo NP00000 1
el el DA0MS0 1
caso caso NCMS000 0.990741
que que PR0CN000 0.5625
los el DA0MP0 0.97623
ecuatorianos ecuatoriano NCMP000 0.467771
hagamos hacer VMSP1P0 0.5
algo algo PI0CS000 0.896341
contra contra SPS00 0.976316
Colombia colombia NP00000 1
acaso acaso RG 0.958333
el el DA0MS0 1
gobierno gobierno NCMS000 0.9
de de SPS00 0.999919
los el DA0MP0 0.97623
Estados_Unidos estados_unidos NP00000 1
se se P00CN000 0.465602
dar dar VMN0000 1
a a SPS00 0.99585
por por SPS00 1
notificado notificar VMP00SM 1
porque porque CS 1
tiene tener VMIP3S0 1
7 7 Z 1
bases base NCCP000 0.75
a a SPS00 0.99585
reas reo NCFP000 0.588186
en en SPS00 1
Colombia colombia NP00000 1
y y CC 0.999812
en en SPS00 1
Ecuador ecuador NP00000 1
apenas apenas RG 0.979167
una uno DI0FS0 0.951241
en en SPS00 1
Manta manta NP00000 1
que que CS 0.4375
fue ser VSIS3S0 0.932292
levantada levantar VMP00SF 1
con con SPS00 1
el el DA0MS0 1
benepl benepl NCMS000 0.279395
cito citar VMIP1S0 1
general general AQ0CS0 0.90625
La la NP00000 1
respuesta respuesta NCFS000 1
lo lo PP3CNA00 0.271163
digo decir VMIP1S0 1
yo yo PP1CSN00 1
mismo mismo RG 0.0333333
no no RN 0.99778
nos nos PP1CP000 0.933333
dir dir NCFS000 0.638487
an an NCFS000 1
que que PR0CN000 0.5625
estamos estar VAIP1P0 1
locos loco AQ0MP0 0.507435
de de SPS00 0.999919
remate remate NCMS000 0.6
Pregunto pregunto NP00000 1
por por SPS00 1
qu qu NCMS000 0.774439
el el DA0MS0 1
gran gran AQ0CS0 1
imperio imperio NCMS000 1
se se P00CN000 0.465602
da dar VMIP3S0 0.983871
por por SPS00 1
notificado notificar VMP00SM 1
por por SPS00 1
lo el DA0NS0 0.457393
que que PR0CN000 0.5625
hace hacer VMIP3S0 1
la el DA0FS0 0.972146
Rep rep NP00000 1
blica blica AQ0FS0 1
Democr democr NP00000 1
tica tica NCFS000 0.372209
de de SPS00 0.999919
Corea_de_el_Norte_Solo corea_de_el_norte_solo NP00000 1
que que CS 0.4375
a a SPS00 0.99585
estas este DD0FP0 0.960526
alturas altura NCFP000 1
se se P00CN000 0.465602
acuerden acordar VMSP3P0 0.901254
de de SPS00 0.999919
lo el DA0NS0 0.457393
que que PR0CN000 0.5625
dijo decir VMIS3S0 1
el el DA0MS0 1
Presidente_de_los_Estados_Unidos presidente_de_los_estados_unidos NP00000 1
el el DA0MS0 1
se se P00CN000 0.465602
or or NCMS000 0.655771
Adams adams NP00000 1
creo crear VMIP1S0 0.5
que que CS 0.4375
Am am NP00000 1
rica rico AQ0FS0 0.75
es ser VSIP3S0 1
de de SPS00 0.999919
los el DA0MP0 0.97623
americanos americano NCMP000 0.7
o o CC 0.998845
lo el DA0NS0 0.457393
que que PR0CN000 0.5625
dijo decir VMIS3S0 1
otro otro DI0MS0 0.61215
Presidente_de_los_Estados_Unidos presidente_de_los_estados_unidos NP00000 1
que que CS 0.4375
Am am NP00000 1
rica rico NCFS000 0.25
Latina latina NP00000 1
es ser VSIP3S0 1
la el DA0FS0 0.972146
trastienda trastienda NCFS000 1
de de SPS00 1
el el DA0MS0 1
Continente_Qu continente_qu NP00000 1
tal tal DD0CS0 0.741379
si si CS 0.997706
invade invadir VMIP3S0 0.75
Venezuela venezuela NP00000 1
o o CC 0.998845
Brasil brasil NP00000 1
o o CC 0.998845
Bolivia bolivia NP00000 1
o o CC 0.998845
Nicaragua nicaragua NP00000 1
a a SPS00 0.99585
t t NCFS000 1
tulo tulo NCMS000 1
de de SPS00 0.999919
que que PR0CN000 0.5625
es ser VSIP3S0 1
el el DA0MS0 1
gran gran AQ0CS0 1
imperio imperio NCMS000 1
Estoy estoy NP00000 1
diciendo decir VMG0000 1
tonter tonter NCMS000 0.732933
as as NCMS000 1
Traigo traigo NP00000 1
a a SPS00 0.99585
colaci colaci RG 0.751648
n n NCFS000 1
lo el DA0NS0 0.457393
que que PR0CN000 0.5625
dice decir VMIP3S0 1
el el DA0MS0 1
uruguayo uruguayo NCMS000 0.25
Eduardo_Galeano eduardo_galeano NP00000 1
si si CS 0.997706
nosotros nosotros PP1MP000 1
no no RN 0.99778
produc produc NC00000 0.538029
amos amo NCMP000 1
sino sino CC 0.981707
r r NCFS000 0.638487
banos banos NCMP000 0.509288
nadie nadie PI0CS000 1
se se P00CN000 0.465602
ocupar ocupar VMN0000 1
a a SPS00 0.99585
de de SPS00 0.999919
destruir destruir VMN0000 1
nos nos PP1CP000 1
Y y NP00000 1
nuestra nuestro DP1FSP 0.892857
mala malo AQ0FS0 0.95
suerte suerte NCFS000 1
es ser VSIP3S0 1
que que CS 0.4375
producimos producir VMIP1P0 1
petr petr VMN0000 0.633986
leo leo NCCN000 0.25
y y CC 0.999812
el el DA0MS0 1
Comandante_Hugo_Ch comandante_hugo_ch NP00000 1
vez vez NCFS000 1
Fr fr NP00000 1
as as NCMS000 1
fallecido fallecer VMP00SM 0.691759
el el DA0MS0 1
5 5 Z 1
de de SPS00 0.999919
marzo/2013 marzo/2013 Z 1
descubri descubri RG 0.83337
que que CS 0.4375
en en SPS00 1
el el DA0MS0 1
Orinoco orinoco NP00000 1
de de SPS00 0.999919
ese ese DD0MS0 0.98125
pa pa NCFS000 0.740689
s segundo NCMN000 0.622321
estaban estar VAII3P0 1
las el DA0FP0 0.97051
reservas reserva NCFP000 0.875
m m NCFS000 0.5
s segundo NCMN000 0.622321
grandes grande AQ0CP0 0.95
de de SPS00 1
el el DA0MS0 1
mundo mundo NCMS000 1
Raz raz NP00000 1
n n NCFS000 1
por por SPS00 1
lo el DA0NS0 0.457393
cual cual PR0CS000 0.9
es ser VSIP3S0 1
muy muy RG 1
posible posible AQ0CS0 1
esa ese DD0FS0 0.978261
invasi invasi RG 1
n n NCFS000 1
Para para NP00000 1
eso ese PD0NS000 1
tiene tener VMIP3S0 1
a a SPS00 0.99585
un uno DI0MS0 0.986987
Henrique_Capriles henrique_capriles NP00000 1
y y CC 0.999812
a a SPS00 1
el el DA0MS0 1
se se P00CN000 0.465602
or or NCMS000 0.655771
Carmona carmona NP00000 1
que que CS 0.4375
logr logr NCFS000 0.638487
asilar asilar VMN0000 1
se se PP3CN000 1
en en SPS00 1
Bogot_Y bogot_y NP00000 1
ahora ahora RG 1
el el DA0MS0 1
Papa papa NP00000 1
que que CS 0.4375
es ser VSIP3S0 1
argentino argentino AQ0MS0 0.25
que que CS 0.4375
fue ser VSIS3S0 0.932292
el el DA0MS0 1
obispo obispo NCMS000 1
muy muy RG 1
amigo amigo AQ0MS0 0.111111
de de SPS00 1
el el DA0MS0 1
Flaco_Videla flaco_videla NP00000 1
sentenciado sentenciar VMP00SM 1
a a SPS00 0.99585
cadena cadena NCFS000 1
perpetua perpetuo AQ0FS0 0.75
que que CS 0.4375
en_menos_de en_menos_de SPS00 1
8 8 Z 1
a a SPS00 0.99585
os o NCFP000 0.222222
de de SPS00 0.999919
dictadura dictadura NCFS000 1
hizo hacer VMIS3S0 1
desaparecer desaparecer VMN0000 1
bot bot NCMS000 1
ndoles ndoles AQ0MP0 0.249948
a a SPS00 1
el el DA0MS0 1
mar mar NCCS000 1
a a SPS00 0.99585
argentinos argentino NCMP000 0.592739
y y CC 0.999812
argentinas argentino AQ0FP0 0.477198
m m NCFS000 0.5
s segundo NCMN000 0.622321
de de SPS00 0.999919
30 30 Z 1
000 0 Z 1
entre entre SPS00 0.995223
ellos ellos PP3MP000 1
dos 2 Z 0.988722
curas cura NCFP000 0.481481
cat cat NCMS000 1
licos licos AQ0MP0 0.458279
que que PR0CN000 0.5625
trataban tratar VMII3P0 1
de de SPS00 0.999919
salvar salvar VMN0000 1
a a SPS00 0.99585
la el DA0FS0 0.972146
gente gente NCFS000 1
Y y NP00000 1
el el DA0MS0 1
ahora ahora RG 1
Papa papa NP00000 1
se se P00CN000 0.465602
hizo hacer VMIS3S0 1
el el DA0MS0 1
pendejo pendejo NCMS000 1
Es es NP00000 1
decir decir VMN0000 0.987805
no no RN 0.99778
hay haber VMIP3S0 1
que que CS 0.4375
suponer suponer VMN0000 1
por por SPS00 1
m m NCFS000 0.5
s segundo NCMN000 0.622321
que que CS 0.4375
uno uno PI0MS000 0.964744
sea ser VSSP1S0 0.485714
un_d TM_d:1 Zu 1
cil cil AQ0CS0 1
instrumento instrumento NCMS000 0.973494
de de SPS00 1
el el DA0MS0 1
gran gran AQ0CS0 1
imperio imperio NCMS000 1
que que CS 0.4375
est est NCMS000 1
molesto molesto AQ0MS0 0.75
por por SPS00 1
lo el DA0NS0 0.457393
de de SPS00 0.999919
Corea_de_el_Norte_Ya_Fidel_Castro_Ruz corea_de_el_norte_ya_fidel_castro_ruz NP00000 1
escribi escribi AQ0CN0 1
a a SPS00 0.99585
los el DA0MP0 0.97623
tiempos tiempo NCMP000 1
una uno DI0FS0 0.951241
de de SPS00 0.999919
sus su DP3CP0 0.998462
reflexiones reflexión NCFP000 0.75
y y CC 0.999812
dice decir VMIP3S0 1
que que CS 0.4375
Corea corea NP00000 1
ni ni CC 0.995935
el el DA0MS0 1
mundo mundo NCMS000 1
merecen merecer VMIP3P0 1
semejante semejante DD0CS0 0.541667
suerte suerte NCFS000 1
No no NP00000 1
han haber VAIP3P0 1
explicado explicar VMP00SM 1
hasta hasta SPS00 0.955172
hoy hoy RG 0.877358
d d NCFS000 1
a a SPS00 0.99585
porque porque CS 1
se se P00CN000 0.465602
ponen poner VMIP3P0 1
tan tan RG 1
nerviosos nervioso AQ0MP0 1
si si CS 0.997706
Corea_de_el_Norte corea_de_el_norte NP00000 1
igual igual AQ0CS0 0.716667
que que PR0CN000 0.5625
Ir ir NP00000 1
n n NCFS000 1
est est NCMS000 1
en en SPS00 1
la el DA0FS0 0.972146
capacidad capacidad NCFS000 1
de de SPS00 0.999919
fabricar fabricar VMN0000 1
su su DP3CS0 1
propia propio AQ0FS0 1
bomba bomba NCFS000 0.964286
at at NCFS000 1
mica mica NCFS000 1
Qui qui NP00000 1
n n NCFS000 1
les le PP3CPD00 1
ha haber VAIP3S0 0.998141
dicho decir VMP00SM 0.958333
que que PR0CN000 0.5625
solo solo RG 0.0555556
ellos ellos PP3MP000 1
lo lo PP3CNA00 0.271163
pueden poder VMIP3P0 1
tener tener VMN0000 1
Es es NP00000 1
decir decir VMN0000 0.987805
nosotros nosotros PP1MP000 1
en en SPS00 1
Am am NP00000 1
rica rico AQ0FS0 0.75
Latina latina NP00000 1
no no RN 0.99778
podemos poder VMIP1P0 0.944444
correr correr VMN0000 1
semejante semejante DD0CS0 0.541667
riesgo riesgo NCMS000 1
porque porque CS 1
saldr saldr VMN0000 0.633986
amos amo NCMP000 1
castigados castigar VMP00PM 1
Solo solo NP00000 1
se se P00CN000 0.465602
nos nos PP1CP000 0.933333
permite permitir VMIP3S0 0.966667
que que CS 0.4375
pongamos poner VMSP1P0 0.833333
nuestros nuestro DP1MPP 0.854167
presidentes presidente NCMP000 1
que que CS 0.4375
para para SPS00 0.998507
eso ese PD0NS000 1
somos ser VSIP1P0 1
buenos bueno AQ0MP0 1
O o NP00000 1
ramos ramo NCMP000 1
buenos bueno AQ0MP0 1
Sea sea NP00000 1
lo lo PP3CNA00 0.271163
que que CS 0.4375
sea ser VSSP1S0 0.485714
lo el DA0NS0 0.457393
cierto cierto AQ0MS0 1
es ser VSIP3S0 1
que que CS 0.4375
el el DA0MS0 1
Gran_Imperio_de_el_Norte_Estados_Unidos gran_imperio_de_el_norte_estados_unidos NP00000 1
se se P00CN000 0.465602
preocup preocup NCMS000 1
por por SPS00 1
poner poner VMN0000 1
fin fin NCMS000 1
a a SPS00 1
el el DA0MS0 1
litigio litigio NCMS000 1
Ecuador_Per_Hicimos ecuador_per_hicimos NP00000 1
las el DA0FP0 0.97051
pases pase NCMP000 0.75
m m NCFS000 0.5
s segundo NCMN000 0.622321
bien bien RG 0.898039
dicho decir VMP00SM 0.958333
el el DA0MS0 1
se se P00CN000 0.465602
or or NCMS000 0.655771
Jamil_Mahuad jamil_mahuad NP00000 1
hizo hacer VMIS3S0 1
las el DA0FP0 0.97051
pases pase NCMP000 0.75
con con SPS00 1
el el DA0MS0 1
se se P00CN000 0.465602
or or AQ0CS0 0.240813
Alberto_Fujimore alberto_fujimore NP00000 1
que que PR0CN000 0.5625
ya ya RG 0.996988
era ser VSII1S0 0.490859
demasiado demasiado RG 0.93
lo el DA0NS0 0.457393
que que PR0CN000 0.5625
estaba estar VAII1S0 0.5
pasando pasar VMG0000 1
entre entre SPS00 0.995223
Per per NP00000 1
y y CC 0.999812
Ecuador ecuador NP00000 1
y y CC 0.999812
que que CS 0.4375
lo el DA0NS0 0.457393
sucedido sucedido NCMS000 0.214286
era ser VSII1S0 0.490859
suficiente suficiente AQ0CS0 1
Lo lo NP00000 1
cierto cierto AQ0MS0 1
es ser VSIP3S0 1
que que CS 0.4375
hicieron hacer VMIS3P0 1
las el DA0FP0 0.97051
pases pase NCMP000 0.75
y y CC 0.999812
qu qu NCMS000 0.774439
pases pase NCMP000 0.75
y y CC 0.999812
nos nos PP1CP000 0.933333
olvidamos olvidar VMIP1P0 0.649997
de de SPS00 0.999919
los el DA0MP0 0.97623
enemigos enemigo NCMP000 0.85
de de SPS00 1
el el DA0MS0 1
sur sur NCMS000 1
que que PR0CN000 0.5625
eran ser VSII3P0 0.963415
los el DA0MP0 0.97623
peruanos peruano NCMP000 0.25
para para SPS00 0.998507
dedicar dedicar VMN0000 1
todo todo DI0MS0 0.559816
nuestro nuestro DP1MSP 0.933333
esfuerzo esfuerzo NCMS000 0.958333
a a SPS00 0.99585
la el DA0FS0 0.972146
frontera frontera NCFS000 0.95
norte norte NCMS000 1
Da da NP00000 1
la el DA0FS0 0.972146
casualidad casualidad NCFS000 1
que que PR0CN000 0.5625
ahora ahora RG 1
el el DA0MS0 1
Ministro_de_Defensa_Santos ministro_de_defensa_santos NP00000 1
es ser VSIP3S0 1
el el DA0MS0 1
presidente presidente NCMS000 1
de de SPS00 0.999919
Colombia colombia NP00000 1
y y CC 0.999812
que que PR0CN000 0.5625
dedicamos dedicar VMIP1P0 0.65
7 7 Z 1
000 0 Z 1
hombres hombre NCMP000 1
a a SPS00 0.99585
cuidar cuidar VMN0000 1
sus su DP3CP0 0.998462
bases base NCCP000 0.75
en en SPS00 1
la el DA0FS0 0.972146
frontera frontera NCFS000 0.95
norte norte NCMS000 1
Que que NP00000 1
no no RN 0.99778
duerman dormir VMSP3P0 0.75
ah ah I 1
las el DA0FP0 0.97051
FARC farc NP00000 1
porque porque CS 1
eso ese PD0NS000 1
es ser VSIP3S0 1
pecado pecado NCMS000 0.875
grave grave AQ0CS0 0.90625
y y CC 0.999812
se se P00CN000 0.465602
castiga castigar VMIP3S0 0.833333
con con SPS00 1
la el DA0FS0 0.972146
muerte muerte NCFS000 1
Si si NP00000 1
no no RN 0.99778
que que CS 0.4375
lo lo PP3CNA00 0.271163
digan decir VMSP3P0 0.901254
los el DA0MP0 0.97623
4 4 Z 1
estudiantes estudiante NCCP000 0.875
mexicanos mexicano AQ0MP0 0.75
que que PR0CN000 0.5625
murieron morir VMIS3P0 1
en en SPS00 1
Angostura angostura NP00000 1
y y CC 0.999812
que que PR0CN000 0.5625
acaban acabar VMIP3P0 1
de de SPS00 0.999919
lanzar lanzar VMN0000 1
un uno DI0MS0 0.986987
libro libro NCMS000 0.986111
sobre sobre SPS00 0.994203
el el DA0MS0 1
tema tema NCMS000 0.953125
Ser ser NP00000 1
gratis gratis AQ0CN0 0.25
que que PR0CN000 0.5625
dedicamos dedicar VMIP1P0 0.65
buena bueno AQ0FS0 1
parte parte NCFS000 0.497967
de de SPS00 0.999919
nuestro nuestro DP1MSP 0.933333
precario precario AQ0MS0 1
presupuesto presupuesto NCMS000 0.666667
que que PR0CN000 0.5625
tenemos tener VMIP1P0 1
que que CS 0.4375
cuidar cuidar VMN0000 1
le le PP3CSD00 1
las el DA0FP0 0.97051
espaldas espalda NCFP000 1
a a SPS00 1
el el DA0MS0 1
que que PR0CN000 0.5625
nos nos PP1CP000 0.933333
agredi agredi VMIS1S0 1
Por por NP00000 1
ah ah I 1
anda andar VMIP3S0 0.75
haciendo hacer VMG0000 0.958333
las el DA0FP0 0.97051
pases pase NCMP000 0.75
con con SPS00 1
las el DA0FP0 0.97051
FARC_ELN farc_eln NP00000 1
y y CC 0.999812
el el DA0MS0 1
Gobierno_de_Colombia gobierno_de_colombia NP00000 1
respecto_de respecto_de SPS00 1
la el DA0FS0 0.972146
paz paz NCFS000 1
que que PR0CN000 0.5625
es ser VSIP3S0 1
necesaria necesario AQ0FS0 1
despu despu NCMS000 0.774439
s segundo NCMN000 0.622321
de de SPS00 0.999919
haber haber VAN0000 1
se se PP3CN000 1
dado dar VMP00SM 0.972222
50 50 Z 1
a a SPS00 0.99585
os o NCFP000 0.222222
de de SPS00 0.999919
guerra guerra NCFS000 1
Solo solo NP00000 1
nos nos PP1CP000 0.933333
falta faltar VMIP3S0 0.284091
que que CS 0.4375
nos nos PP1CP000 0.933333
digan decir VMSP3P0 0.901254
ilusos iluso AQ0MP0 0.432297
si si CS 0.997706
pens pens RG 0.109065
bamos bamos VMII1P0 0.954217
que que CS 0.4375
las el DA0FP0 0.97051
pases pase NCMP000 0.75
con con SPS00 1
el el DA0MS0 1
Per per NP00000 1
deb deb NCMS000 0.63631
a a SPS00 0.99585
dar dar VMN0000 1
se se PP3CN000 1
ya ya RG 0.996988
no no RN 0.99778
les le PP3CPD00 1
quedaban quedar VMII3P0 1
sino sino CC 0.981707
la el DA0FS0 0.972146
guerra guerra NCFS000 1
As as NP00000 1
que que PR0CN000 0.5625
ah ah I 1
est est NCMS000 1
la el DA0FS0 0.972146
frontera frontera NCFS000 0.95
con con SPS00 1
Colombia colombia NP00000 1
que que PR0CN000 0.5625
supuestamente supuestamente RG 1
no no RN 0.99778
quiere querer VMIP3S0 0.982759
la el DA0FS0 0.972146
paz paz NCFS000 1
que que PR0CN000 0.5625
discute discutir VMIP3S0 0.75
en en SPS00 1
La_Habana_Cuba la_habana_cuba NP00000 1
a_disgusto a_disgusto RG 1
de de SPS00 1
el el DA0MS0 1
se se P00CN000 0.465602
or or NCMS000 0.655771
Alvaro alvaro NP00000 1
que que CS 0.4375
no no RN 0.99778
quiere querer VMIP3S0 0.982759
la el DA0FS0 0.972146
paz paz NCFS000 1
Mucho mucho NP00000 1
mejor mejor AQ0CS0 0.868421
le le PP3CSD00 1
iba ir VMII3S0 0.635011
con con SPS00 1
la el DA0FS0 0.972146
guerra guerra NCFS000 1
Haga haga NP00000 1
click click NCMS000 0.50012
aqu aqu NCMS000 0.774439
para para SPS00 0.998507
recibir recibir VMN0000 1
gratis gratis RG 0.75
Argenpress argenpress NP00000 1
en en SPS00 1
su su DP3CS0 1
correo correo NCMS000 0.735623
electr electr AQ0CS0 0.0829965
nico no NCMS00D 0.522084

