Recortan recortar VMIP3P0 1
previsi previsi RG 1
n n NCFS000 1
de de SPS00 0.999919
crecimiento crecimiento NCMS000 1
econ econ NCMS000 1
mico mico NCMS000 1
para para SPS00 0.998507
Alemania_Los alemania_los NP00000 1
principales principal AQ0CP0 0.875
institutos instituto NCMP000 1
econ econ NCMS000 1
micos mico NCMP000 1
de de SPS00 0.999919
Alemania alemania NP00000 1
recortaron recortar VMIS3P0 1
su su DP3CS0 1
previsi previsi RG 1
n n NCFS000 1
de de SPS00 0.999919
crecimiento crecimiento NCMS000 1
para para SPS00 0.998507
el el DA0MS0 1
pa pa NCFS000 0.740689
s segundo NCMN000 0.622321
durante durante SPS00 1
2013 2013 Z 1
a a SPS00 1
el el DA0MS0 1
colocar colocar VMN0000 1
lo lo PP3CNA00 0.5 lo PP3MSA00 0.5
en_torno_a en_torno_a SPS00 1
el el DA0MS0 1
0 0 Z 1
8_por_ciento 8/100 Zp 1
seg segundo NCMN000 1
n n NCFS000 1
adelantaron adelantar VMIS3P0 1
hoy hoy RG 0.877358
medios medio NCMP000 0.95
locales local AQ0CP0 0.25
de de SPS00 0.999919
prensa prensa NCFS000 0.925926
El el NP00000 1
dato datar VMIP1S0 0.25
que que CS 0.4375
se se P00CN000 0.465602
dar_a_conocer dar_a_conocer VMN0000 1
oficialmente oficialmente RG 1
ma ma AQ0FS0 0.14579
ana ana NCFS000 1
supone suponer VMIP3S0 1
un uno DI0MS0 0.986987
retroceso retroceso NCMS000 1
en en SPS00 1
relaci relaci RG 0.751648
n n NCFS000 1
con con SPS00 1
el el DA0MS0 1
1 1 Z 1
0_por_ciento 0/100 Zp 1
previsto prever VMP00SM 1
anteriormente anteriormente RG 1
No_obstante no_obstante NP00000 1
el el DA0MS0 1
informe informe NCMS000 0.185057
de de SPS00 0.999919
los el DA0MP0 0.97623
institutos instituto NCMP000 1
es ser VSIP3S0 1
m m NCFS000 0.5
s segundo NCMN000 0.622321
optimista optimista AQ0CS0 1
que que CS 0.4375
el el DA0MS0 1
de de SPS00 1
el el DA0MS0 1
gobierno gobierno NCMS000 0.9
el el DA0MS0 1
cual cual PR0CS000 0.9
proyecta proyectar VMIP3S0 0.75
un uno DI0MS0 0.986987
crecimiento crecimiento NCMS000 1
de de SPS00 1
el el DA0MS0 1
0 0 Z 1
4_por_ciento 4/100 Zp 1
para para SPS00 0.998507
este este DD0MS0 0.956743
a a SPS00 0.99585
o o CC 0.998845
por por SPS00 1
lo el DA0NS0 0.457393
efectos efecto NCMP000 1
de de SPS00 0.999919
la el DA0FS0 0.972146
crisis crisis NCFN000 1
en en SPS00 1
la el DA0FS0 0.972146
Eurozona_En eurozona_en NP00000 1
tanto tanto RG 0.857895
para para SPS00 0.998507
2014 2014 Z 1
se se P00CN000 0.465602
prev prev NCFS000 1
un uno DI0MS0 0.986987
crecimiento crecimiento NCMS000 1
de de SPS00 0.999919
1 1 Z 1
9_por_ciento 9/100 Zp 1
de de SPS00 1
el el DA0MS0 1
producto producto NCMS000 0.916667
interno interno AQ0MS0 0.777778
bruto bruto AQ0MS0 0.75
germano germano NCMS000 0.64273
Haga haga NP00000 1
click click NCMS000 0.50012
aqu aqu NCMS000 0.774439
para para SPS00 0.998507
recibir recibir VMN0000 1
gratis gratis RG 0.75
Argenpress argenpress NP00000 1
en en SPS00 1
su su DP3CS0 1
correo correo NCMS000 0.735623
electr electr AQ0CS0 0.0829965
nico no NCMS00D 0.522084

