Rector rector NCMS000 0.552499
electoral electoral AQ0CS0 1
opositor opositor NCMS000 0.642712
carece carecer VMIP3S0 0.875
de de SPS00 0.999919
dudas duda NCFP000 0.9375
sobre sobre SPS00 0.994203
los el DA0MP0 0.97623
comicios comicio NCMP000 1
venezolanos venezolano AQ0MP0 0.357337
El el NP00000 1
rector rector NCMS000 0.64273
de de SPS00 1
el el DA0MS0 1
Consejo_Nacional_Electoral_CNE_Vicente_D consejo_nacional_electoral_cne_vicente_d NP00000 1
az az NCFS000 1
de de SPS00 0.999919
filiaci filiaci RG 0.751648
n n NCFS000 1
pol pol AQ0MS0 0.138294
tica tica NCFS000 0.372209
opositora opositor AQ0FS0 0.357397
reiter reiter NCMS000 1
hoy hoy RG 0.877358
que que PR0CN000 0.5625
carece carecer VMIP3S0 0.875
de de SPS00 0.999919
dudas duda NCFP000 0.9375
acerca_de acerca_de SPS00 1
los el DA0MP0 0.97623
resultados resultado NCMP000 0.958333
de de SPS00 0.999919
los el DA0MP0 0.97623
comicios comicio NCMP000 1
presidenciales presidencial AQ0CP0 1
de de SPS00 1
el el DA0MS0 1
14_de_abril [??:14/4/??:??.??:??] W 1
Nunca nunca NP00000 1
he haber VAIP1S0 0.984848
tenido tener VMP00SM 1
indicios indicio NCMP000 1
para para SPS00 0.998507
dudar dudar VMN0000 1
de de SPS00 0.999919
los el DA0MP0 0.97623
resultados resultado NCMP000 0.958333
dijo decir VMIS3S0 1
el el DA0MS0 1
funcionario funcionario NCMS000 1
en en SPS00 1
entrevista entrevista NCFS000 0.75
con con SPS00 1
el el DA0MS0 1
canal canal NCMS000 1
privado privar VMP00SM 0.875
Televen_D televen_d NP00000 1
az az NCFS000 1
aclar aclar VMN0000 1
que que CS 0.4375
solicit solicit NCMN000 1
revisar revisar VMN0000 1
todos todo DI0MP0 0.622419
los el DA0MP0 0.97623
comprobantes comprobante NCMP000 1
de de SPS00 0.999919
votaci votaci RG 0.751648
n n NCFS000 1
no no RN 0.99778
por por SPS00 1
dudar dudar VMN0000 1
de de SPS00 0.999919
resultados resultado NCMP000 0.958333
sino sino CC 0.981707
porque porque CS 1
consider consider NCMS000 0.246545
conveniente conveniente AQ0CS0 1
a a SPS00 0.99585
adir adir VMN0000 1
una uno DI0FS0 0.951241
capa capa NCFS000 0.833333
m m NCFS000 0.5
s segundo NCMN000 0.622321
de de SPS00 0.999919
confianza confianza NCFS000 1
a a SPS00 1
el el DA0MS0 1
desenlace desenlace NCMS000 0.625
comicial comicial AQ0CS0 1
M m NP00000 1
s segundo NCMN000 0.622321
adelante adelante RG 0.911111
el el DA0MS0 1
rector rector NCMS000 0.64273
declar declar VMN0000 1
S s NP00000 1
yo yo PP1CSN00 1
reconozco reconocer VMIP1S0 1
a a SPS00 1
el el DA0MS0 1
presidente presidente NCMS000 1
Maduro_El_CNE maduro_el_cne NP00000 1
aprob aprob NCMS000 0.63631
el el DA0MS0 1
jueves [J:??/??/??:??.??:??] W 1
ltimo ltimo RG 1
extender extender VMN0000 1
la el DA0FS0 0.972146
revisi revisi RG 1
n n NCFS000 1
de de SPS00 0.999919
los el DA0MP0 0.97623
comprobantes comprobante NCMP000 1
de de SPS00 0.999919
votaci votaci RG 0.751648
n n NCFS000 1
en en SPS00 1
correspondencia correspondencia NCFS000 1
con con SPS00 1
las el DA0FP0 0.97051
actas acta NCFP000 1
de de SPS00 0.999919
escrutinio escrutinio NCMS000 1
en en SPS00 1
el el DA0MS0 1
46_por_ciento 46/100 Zp 1
de de SPS00 0.999919
las el DA0FP0 0.97051
m m NCFS000 0.5
quinas quina NCFP000 1
electorales electoral AQ0CP0 1
luego_de luego_de SPS00 1
que que CS 0.4375
el el DA0MS0 1
54_por_ciento 54/100 Zp 1
de de SPS00 0.999919
las el DA0FP0 0.97051
mismas mismo PI0FP000 0.0714286
ya ya RG 0.996988
fueran ser VSSI3P0 0.9375
auditadas auditar VMP00PF 1
seg segundo NCMN000 1
n n NCFS000 1
el el DA0MS0 1
procedimiento procedimiento NCMS000 1
establecido establecer VMP00SM 1
durante durante SPS00 1
la el DA0FS0 0.972146
propia propio AQ0FS0 1
jornada jornada NCFS000 1
de de SPS00 0.999919
sufragios sufragio NCMP000 1
Haga haga NP00000 1
click click NCMS000 0.50012
aqu aqu NCMS000 0.774439
para para SPS00 0.998507
recibir recibir VMN0000 1
gratis gratis RG 0.75
Argenpress argenpress NP00000 1
en en SPS00 1
su su DP3CS0 1
correo correo NCMS000 0.735623
electr electr AQ0CS0 0.0829965
nico no NCMS00D 0.522084

