Venezuela venezuela NP00000 0.411768
busca buscar VMIP3S0 0.190476
camino camino NCMS000 0.978261
hacia hacia SPS00 1
estabilidad estabilidad NCFS000 1
tras tras SPS00 1
violencia violencia NCFS000 1
derechista derechista AQ0CS0 0.65727
La la NP00000 1
b b NCFS000 1
squeda squeda NCFS000 1
de de SPS00 0.999919
la el DA0FS0 0.972146
estabilidad estabilidad NCFS000 1
de de SPS00 1
el el DA0MS0 1
pa pa NCFS000 0.740689
s segundo NCMN000 0.622321
constituye constituir VMIP3S0 0.875
hoy hoy RG 0.877358
prioridad prioridad NCFS000 1
para para SPS00 0.998507
el el DA0MS0 1
gobierno gobierno NCMS000 0.9
venezolano venezolano AQ0MS0 0.357352
tras tras SPS00 1
las el DA0FP0 0.97051
acciones acción NCFP000 0.916667
de de SPS00 0.999919
violencia violencia NCFS000 1
protagonizadas protagonizar VMP00PF 1
por por SPS00 1
grupos grupo NCMP000 1
extremistas extremista AQ0CP0 0.657113
y y CC 0.999812
propiciadas propiciar VMP00PF 1
por por SPS00 1
los el DA0MP0 0.97623
llamados llamar VMP00PM 0.9375
de de SPS00 0.999919
la el DA0FS0 0.972146
oposici oposici AQ0CS0 0.0199855
n n NCFS000 1
a a SPS00 0.99585
desconocer desconocer VMN0000 1
el el DA0MS0 1
desenlace desenlace NCMS000 0.625
de de SPS00 0.999919
los el DA0MP0 0.97623
recientes reciente AQ0CP0 0.75
comicios comicio NCMP000 1
presidenciales presidencial AQ0CP0 1
Aun aun NP00000 1
cuando cuando CS 0.983796
la el DA0FS0 0.972146
v v NCFS000 1
spera spera VMIP3S0 0.444593
el el DA0MS0 1
presidente presidente NCMS000 1
Nicol nicol NP00000 1
s segundo NCMN000 0.622321
Maduro maduro NP00000 1
declar declar VMN0000 1
derrotado derrotar VMP00SM 1
el el DA0MS0 1
probable probable AQ0CS0 1
golpe golpe NCMS000 1
de de SPS00 0.999919
Estado estado NP00000 1
en en SPS00 1
curso curso NCMS000 0.954545
este este DD0MS0 0.956743
mi mi DP1CSS 0.995536
rcoles rcoles NCMP000 0.750052
proseguir proseguir VMN0000 1
n n NCFS000 1
las el DA0FP0 0.97051
medidas medida NCFP000 0.944444
de de SPS00 0.999919
seguridad seguridad NCFS000 1
para para SPS00 0.998507
garantizar garantizar VMN0000 1
la el DA0FS0 0.972146
paz paz NCFS000 1
en en SPS00 1
esta este DD0FS0 0.982143
naci naci AQ0CS0 0.0199855
n n NCFS000 1
suramericana suramericano AQ0FS0 0.65727
Seg seg NP00000 1
n n NCFS000 1
inform inform NCMS000 0.700265
el el DA0MS0 1
mayor mayor AQ0CS0 0.989796
general general AQ0CS0 0.90625
Wilmer_Barrientos wilmer_barrientos NP00000 1
jefe jefe NCMS000 1
de de SPS00 1
el el DA0MS0 1
Comando_Estrat comando_estrat NP00000 1
gico gico AQ0MS0 1
Operacional_de_la_Fuerza_Armada_Nacional_Bolivariana operacional_de_la_fuerza_armada_nacional_bolivariana NP00000 1
las el DA0FP0 0.97051
unidades unidad NCFP000 1
policiales policial AQ0CP0 1
continuar continuar VMN0000 1
n n NCFS000 1
subordinadas subordinar VMP00PF 0.691681
a a SPS00 0.99585
dicho decir VMP00SM 0.958333
ente ente NCMS000 1
militar militar AQ0CS0 0.666667
Barrientos barrientos NP00000 1
a a SPS00 0.99585
cargo cargo NCMS000 0.916667
adem adem NCMS000 1
s segundo NCMN000 0.622321
de de SPS00 1
el el DA0MS0 1
Plan_Rep plan_rep NP00000 1
blica blica AQ0FS0 1
para para SPS00 0.998507
la el DA0FS0 0.972146
seguridad seguridad NCFS000 1
de de SPS00 0.999919
los el DA0MP0 0.97623
comicios comicio NCMP000 1
manifest manifest NCMS000 1
el el DA0MS0 1
martes [M:??/??/??:??.??:??] W 1
la el DA0FS0 0.972146
disposici disposici AQ0CS0 0.0199855
n n NCFS000 1
de de SPS00 0.999919
las el DA0FP0 0.97051
fuerzas fuerza NCFP000 0.954545
militares militar AQ0CP0 0.541667
para para SPS00 0.998507
defender defender VMN0000 1
las el DA0FP0 0.97051
instituciones institución NCFP000 1
y y CC 0.999812
la el DA0FS0 0.972146
democracia democracia NCFS000 1
en en SPS00 1
Venezuela_Advirti venezuela_advirti NP00000 1
en_consecuencia en_consecuencia RG 1
que que CS 0.4375
no no RN 0.99778
se se P00CN000 0.465602
consentir consentir VMN0000 1
perturbaci perturbaci RG 0.751648
n n NCFS000 1
alguna alguno DI0FS0 0.893939
de de SPS00 0.999919
la el DA0FS0 0.972146
paz paz NCFS000 1
en en SPS00 1
el el DA0MS0 1
pa pa NCFS000 0.740689
s segundo NCMN000 0.622321
Por por NP00000 1
el el DA0MS0 1
momento momento NCMS000 1
el el DA0MS0 1
excandidato excandidato NCMS000 1
Capriles capriles NP00000 1
desisti desisti NCMS000 1
de de SPS00 0.999919
su su DP3CS0 1
convocatoria convocatoria NCFS000 0.75
a a SPS00 0.99585
una uno DI0FS0 0.951241
marcha marcha NCFS000 0.948718
prevista prever VMP00SF 1
para para SPS00 0.998507
hoy hoy RG 0.877358
hasta hasta SPS00 0.955172
la el DA0FS0 0.972146
sede sede NCFS000 0.8125
de de SPS00 1
el el DA0MS0 1
Consejo_Nacional_Electoral consejo_nacional_electoral NP00000 1
la el DA0FS0 0.972146
cual cual PR0CS000 0.9
pudiera poder VMSI3S0 0.622727
haber haber VAN0000 0.744444
generado generar VMP00SM 1
nuevos nuevo AQ0MP0 1
incidentes incidente NCMP000 0.75
violentos violento AQ0MP0 1
en en SPS00 1
Caracas_Precisamente caracas_precisamente NP00000 1
el el DA0MS0 1
gobierno gobierno NCMS000 0.9
venezolano venezolano AQ0MS0 0.357352
ha haber VAIP3S0 0.998141
responsabilizado responsabilizar VMP00SM 1
a a SPS00 0.99585
Capriles capriles NP00000 1
y y CC 0.999812
sus su DP3CP0 0.998462
colaboradores colaborador NCMP000 0.833333
cercanos cercano AQ0MP0 0.875
de de SPS00 0.999919
estimular estimular VMN0000 1
la el DA0FS0 0.972146
violencia violencia NCFS000 1
de de SPS00 0.999919
sus su DP3CP0 0.998462
seguidores seguidor NCMP000 0.9
a a SPS00 1
el el DA0MS0 1
desconocer desconocer VMN0000 1
los el DA0MP0 0.97623
resultados resultado NCMP000 0.958333
emanados emanar VMP00PM 1
de de SPS00 0.999919
las el DA0FP0 0.97051
urnas urna NCFP000 1
el el DA0MS0 1
domingo [G:??/??/??:??.??:??] W 1
ltimo ltimo RG 1
que que CS 0.4375
fueron ser VSIS3P0 0.796296
avalados avalar VMP00PM 1
por por SPS00 1
el el DA0MS0 1
Poder_Electoral poder_electoral NP00000 1
tras tras SPS00 1
auditar auditar VMN0000 1
el el DA0MS0 1
54_por_ciento 54/100 Zp 1
de de SPS00 0.999919
los el DA0MP0 0.97623
comprobantes comprobante NCMP000 1
de de SPS00 0.999919
sufragio sufragio NCMS000 1
Las las NP00000 1
acciones acción NCFP000 0.916667
desestabilizadoras desestabilizador AQ0FP0 1
han haber VAIP3P0 1
acontecido acontecer VMP00SM 1
desde desde SPS00 1
la el DA0FS0 0.972146
noche noche NCFS000 1
de de SPS00 1
el el DA0MS0 1
lunes [L:??/??/??:??.??:??] W 1
ltimo ltimo RG 1
en en SPS00 1
varias varios DI0FP0 0.939394
regiones región NCFP000 1
de de SPS00 1
el el DA0MS0 1
territorio territorio NCMS000 1
nacional nacional AQ0CS0 1
entre entre SPS00 0.995223
ellas ellos PP3FP000 1
las el DA0FP0 0.97051
gobernaciones gobernación NCFP000 1
de de SPS00 0.999919
Anzo anzo NP00000 1
tegui tegui NCMS000 0.500011
Miranda_T miranda_t NP00000 1
chira chira VMIP3S0 0.428466
M m NP00000 1
rida rida VMP00SF 0.399978
y y CC 0.999812
Barinas_Los barinas_los NP00000 1
ataques ataque NCMP000 0.928571
han haber VAIP3P0 1
tenido tener VMP00SM 1
como como CS 0.998579
objetivos objetivo NCMP000 0.875
principales principal AQ0CP0 0.875
las el DA0FP0 0.97051
sedes sede NCFP000 0.995706
de de SPS00 1
el el DA0MS0 1
Partido_Socialista_Unido_de_Venezuela partido_socialista_unido_de_venezuela NP00000 1
medios medio NCMP000 0.95
p p NCFS000 0.5
blicos blicos AQ0MP0 1
de de SPS00 0.999919
comunicaci comunicaci RG 0.751648
n n NCFS000 1
urbanizaciones urbanización NCFP000 1
y y CC 0.999812
mercados mercado NCMP000 0.75
populares popular AQ0CP0 1
e y CC 0.973684
instituciones institución NCFP000 1
de de SPS00 0.999919
salud salud NCFS000 1
como como CS 0.998579
los el DA0MP0 0.97623
Centros_de_Diagn centros_de_diagn NP00000 1
stico stico NCMS000 0.499754
Integral_Fuentes integral_fuentes NP00000 1
oficiales oficial NCCP000 0.0666667
han haber VAIP3P0 1
confirmado confirmar VMP00SM 1
hasta hasta SPS00 0.955172
el el DA0MS0 1
momento momento NCMS000 1
la el DA0FS0 0.972146
detenci detenci AQ0CS0 0.0199855
n n NCFS000 1
de de SPS00 0.999919
unas uno DI0FP0 0.925926
170 170 Z 1
personas persona NCFP000 0.983871
involucradas involucrar VMP00PF 1
en en SPS00 1
estos este DD0MP0 0.990566
hechos hecho NCMP000 0.375
Haga haga NP00000 1
click click NCMS000 0.50012
aqu aqu NCMS000 0.774439
para para SPS00 0.998507
recibir recibir VMN0000 1
gratis gratis RG 0.75
Argenpress argenpress NP00000 1
en en SPS00 1
su su DP3CS0 1
correo correo NCMS000 0.735623
electr electr AQ0CS0 0.0829965
nico no NCMS00D 0.522084

