Venezuela_La venezuela_la NP00000 1
democracia democracia NCFS000 1
que que PR0CN000 0.5625
no no RN 0.99778
conviene convenir VMIP3S0 1
a a SPS00 0.99585
Washington_No washington_no NP00000 1
por por SPS00 1
esperado esperar VMP00SM 1
y y CC 0.999812
l l NCFS000 0.639398
gico gico AQ0MS0 1
dej dej NCMS000 0.692259
de de SPS00 0.999919
ser ser VSN0000 0.93883
angustioso angustioso AQ0MS0 1
el el DA0MS0 1
triunfo triunfo NCMS000 0.928571
de de SPS00 0.999919
Nicol nicol NP00000 1
s segundo NCMN000 0.622321
Maduro maduro NP00000 1
en en SPS00 1
las el DA0FP0 0.97051
elecciones elección NCFP000 1
para para SPS00 0.998507
la el DA0FS0 0.972146
presidencia presidencia NCFS000 1
de de SPS00 0.999919
Venezuela venezuela NP00000 1
vacante vacante NCFS000 0.5
por por SPS00 1
la el DA0FS0 0.972146
desaparici desaparici AQ0CS0 0.0199855
n n NCFS000 1
f f NCFS000 1
sica sica AQ0FS0 0.478446
de de SPS00 1
el el DA0MS0 1
Jefe_de_el_Estado_Hugo_Ch jefe_de_el_estado_hugo_ch NP00000 1
vez vez NCFS000 1
Una uno DI0FS0 0.951241
amplia amplio AQ0FS0 1
mayor mayor AQ0CS0 0.989796
a a SPS00 0.99585
de de SPS00 0.999919
los el DA0MP0 0.97623
ciudadanos ciudadano NCMP000 0.875
venezolanos venezolano AQ0MP0 0.357337
hab hab NCMS000 0.63631
an an NCFS000 1
elegido elegir VMP00SM 0.75
Presidente presidente NP00000 1
en en SPS00 1
octubre_de_2012 [??:??/10/2012:??.??:??] W 1
a a SPS00 1
el el DA0MS0 1
inmensamente inmensamente RG 1
popular popular AQ0CS0 1
l l NCFS000 0.639398
der der VMN0000 0.630215
de de SPS00 0.999919
la el DA0FS0 0.972146
revoluci revoluci AQ0CS0 0.0199855
n n NCFS000 1
bolivariana bolivariano AQ0FS0 1
quien quien PR0CS000 1
poco poco PI0MS000 0.333333
antes_de antes_de SPS00 1
morir morir VMN0000 1
a_consecuencia_de a_consecuencia_de SPS00 1
un uno DI0MS0 0.986987
c c NCFS000 1
ncer ncer VMN0000 0.666836
recomend recomend NCMS000 0.500008
a a SPS00 1
el el DA0MS0 1
pueblo pueblo NCMS000 0.978261
sufragar sufragar VMN0000 1
por por SPS00 1
Maduro maduro NP00000 1
en en SPS00 1
los el DA0MP0 0.97623
comicios comicio NCMP000 1
que que PR0CN000 0.5625
por por SPS00 1
mandato mandato NCMS000 1
constitucional constitucional AQ0CS0 1
deb deb NCMS000 0.63631
an an NCFS000 1
convocar convocar VMN0000 1
se se PP3CN000 1
de de SPS00 0.999919
ocurrir ocurrir VMN0000 1
su su DP3CS0 1
deceso deceso NCMS000 1
En en NP00000 1
las el DA0FP0 0.97051
condiciones condición NCFP000 0.958333
de de SPS00 1
el el DA0MS0 1
orden orden NCMS000 0.6
liberal liberal AQ0CS0 0.616364
burgu burgu NCMS000 0.774439
s segundo NCMN000 0.622321
que que PR0CN000 0.5625
a a SPS00 0.99585
n n NCFS000 1
rige regir VMIP3S0 0.994868
en en SPS00 1
Venezuela venezuela NP00000 1
no_obstante no_obstante CC 1
su su DP3CS0 1
pujante pujante AQ0CS0 1
proyecci proyecci NCMS000 0.0996348
n n NCFS000 1
hacia hacia SPS00 1
el el DA0MS0 1
socialismo socialismo NCMS000 1
la el DA0FS0 0.972146
mayor mayor AQ0CS0 0.989796
parte parte NCFS000 0.497967
de de SPS00 0.999919
las el DA0FP0 0.97051
instituciones institución NCFP000 1
gubernamentales gubernamental AQ0CP0 1
desempe desempe VMIP3S0 1
an an NCFS000 1
sus su DP3CP0 0.998462
papeles papel NCMP000 0.9375
constre constre AQ0CS0 0.636364
idos ir VMP00PM 1
por por SPS00 1
un uno DI0MS0 0.986987
sistema sistema NCMS000 1
en en SPS00 1
el el DA0MS0 1
que que PR0CN000 0.5625
el el DA0MS0 1
capital capital NCFS000 0.372549
financiero financiero AQ0MS0 0.75
no no RN 0.99778
ha haber VAIP3S0 0.998141
dejado dejar VMP00SM 1
de de SPS00 0.999919
ejercer ejercer VMN0000 1
un uno DI0MS0 0.986987
fuerte fuerte AQ0CS0 0.892857
papel papel NCMS000 1
manipulador manipulador AQ0MS0 0.61426
de de SPS00 0.999919
los el DA0MP0 0.97623
medios medio NCMP000 0.95
de de SPS00 0.999919
prensa prensa NCFS000 0.925926
as as NCMS000 1
como como CS 0.998579
de de SPS00 0.999919
la el DA0FS0 0.972146
econom econom NCMS000 0.500053
a a SPS00 0.99585
y y CC 0.999812
la el DA0FS0 0.972146
sociedad sociedad NCFS000 1
toda todo DI0FS0 0.975806
En_Venezuela en_venezuela NP00000 1
el el DA0MS0 1
80 80 Z 1
de de SPS00 0.999919
los el DA0MP0 0.97623
medios medio NCMP000 0.95
est est NCMS000 1
en_manos_de en_manos_de SPS00 1
una uno DI0FS0 0.951241
oposici oposici AQ0CS0 0.0199855
n n NCFS000 1
que que PR0CN000 0.5625
representa representar VMIP3S0 0.928571
b b NCFS000 1
sicamente sicamente RG 1
de de SPS00 0.999919
una uno DI0FS0 0.951241
de de SPS00 0.999919
las el DA0FP0 0.97051
oligarqu oligarqu NCMS000 0.774439
as as NCMS000 1
burguesas burgués AQ0FP0 0.50722
m m NCFS000 0.5
s segundo NCMN000 0.622321
acaudaladas acaudalar VMP00PF 1
de de SPS00 1
el el DA0MS0 1
planeta planeta NCMS000 1
Fue fue NP00000 1
sorprendente sorprendente AQ0CS0 1
el el DA0MS0 1
resultado resultado NCMS000 0.807692
de de SPS00 1
el el DA0MS0 1
proceso proceso NCMS000 0.973684
electoral electoral AQ0CS0 1
de de SPS00 1
el el DA0MS0 1
14_de_abril [??:14/4/??:??.??:??] W 1
por por SPS00 1
el el DA0MS0 1
margen margen NCCS000 1
tan tan RG 1
estrecho estrecho AQ0MS0 0.111111
con con SPS00 1
que que PR0CN000 0.5625
obtuvo obtener VMIS3S0 1
la el DA0FS0 0.972146
victoria victoria NCFS000 0.954545
Nicol nicol NP00000 1
s segundo NCMN000 0.622321
Maduro maduro NP00000 1
sobre sobre SPS00 0.994203
Henrique_Capriles henrique_capriles NP00000 1
el el DA0MS0 1
candidato candidato NCMS000 1
de de SPS00 0.999919
la el DA0FS0 0.972146
oligarqu oligarqu NCMS000 0.774439
a a SPS00 0.99585
algo algo PI0CS000 0.896341
menos menos RG 1
de de SPS00 1
el el DA0MS0 1
2 2 Z 1
de de SPS00 0.999919
los el DA0MP0 0.97623
votos voto NCMP000 1
emitidos emitir VMP00PM 1
apenas apenas RG 0.979167
unos uno DI0MP0 0.879032
300_mil 300000 Z 1
sufragios sufragio NCMP000 1
Pero pero NP00000 1
fue ser VSIS3S0 0.932292
eso ese PD0NS000 1
si si CS 0.997706
una uno DI0FS0 0.951241
victoria victoria NCFS000 0.954545
inobjetable inobjetable AQ0CS0 1
especialmente especialmente RG 1
porque porque CS 1
el el DA0MS0 1
m m NCFS000 0.5
todo todo PI0MS000 0.430982
de de SPS00 0.999919
votaci votaci RG 0.751648
n n NCFS000 1
venezolano venezolano AQ0MS0 0.357352
actual actual AQ0CS0 1
goza gozar VMIP3S0 0.833333
de de SPS00 0.999919
mucho mucho DI0MS0 0.275362
prestigio prestigio NCMS000 0.875
y y CC 0.999812
ha haber VAIP3S0 0.998141
sido ser VSP00SM 1
avalado avalar VMP00SM 1
por por SPS00 1
centenares centenar NCMP000 1
de de SPS00 0.999919
especialistas especialista NCCP000 0.875
de de SPS00 0.999919
todo todo DI0MS0 0.559816
el el DA0MS0 1
mundo mundo NCMS000 1
que que PR0CN000 0.5625
han haber VAIP3P0 1
apreciado apreciar VMP00SM 1
su su DP3CS0 1
fiabilidad fiabilidad NCFS000 1
y y CC 0.999812
limpieza limpieza NCFS000 1
por por SPS00 1
el el DA0MS0 1
alto alto AQ0MS0 0.973684
grado grado NCMS000 0.964286
de de SPS00 0.999919
modernidad modernidad NCFS000 1
automatizaci automatizaci RG 0.751648
n n NCFS000 1
y y CC 0.999812
exactitud exactitud NCFS000 1
de de SPS00 0.999919
sus su DP3CP0 0.998462
resultados resultado NCMP000 0.958333
Entre entre NP00000 1
otras otro DI0FP0 0.731481
autoridades autoridad NCFP000 1
en en SPS00 1
la el DA0FS0 0.972146
materia materia NCFS000 1
la el DA0FS0 0.972146
Fundaci fundaci NP00000 1
n n NCFS000 1
patrocinada patrocinar VMP00SF 1
por por SPS00 1
el el DA0MS0 1
expresidente expresidente NCMS000 0.9
estadounidense estadounidense AQ0CS0 0.833333
James_Carter james_carter NP00000 1
ha haber VAIP3S0 0.998141
apreciado apreciar VMP00SM 1
que que CS 0.4375
el el DA0MS0 1
sistema sistema NCMS000 1
electoral electoral AQ0CS0 1
de de SPS00 0.999919
Venezuela venezuela NP00000 1
es ser VSIP3S0 1
el el DA0MS0 1
m m NCFS000 0.5
s segundo NCMN000 0.622321
transparente transparente AQ0CS0 0.75
y y CC 0.999812
fiable fiable AQ0CS0 1
de de SPS00 1
el el DA0MS0 1
mundo mundo NCMS000 1
Pero pero NP00000 1
tambi tambi AQ0CN0 1
n n NCFS000 1
es ser VSIP3S0 1
cierto cierto AQ0MS0 1
que que CS 0.4375
la el DA0FS0 0.972146
maquinaria maquinaria NCFS000 1
medi medi VMIS1S0 1
tica tica AQ0FS0 0.595788
y y CC 0.999812
terrorista terrorista AQ0CS0 0.875
que que PR0CN000 0.5625
puso_en_funcionamiento poner_en_funcionamiento VMIS3S0 1
la el DA0FS0 0.972146
oposici oposici AQ0CS0 0.0199855
n n NCFS000 1
para para SPS00 0.998507
revertir revertir VMN0000 1
o o CC 0.998845
reducir reducir VMN0000 1
el el DA0MS0 1
margen margen NCCS000 1
de de SPS00 1
el el DA0MS0 1
triunfo triunfo NCMS000 0.928571
popular popular AQ0CS0 1
en en SPS00 1
los el DA0MP0 0.97623
d d NCFS000 1
as as NCMS000 1
previos previo AQ0MP0 0.75
y y CC 0.999812
durante durante SPS00 1
el el DA0MS0 1
proceso proceso NCMS000 0.973684
de de SPS00 0.999919
votaci votaci RG 0.751648
n n NCFS000 1
fue ser VSIS3S0 0.932292
enorme enorme AQ0CS0 1
La la NP00000 1
campa campar VMIP3S0 0.994867
a a SPS00 0.99585
con con SPS00 1
apagones apagón NCMP000 1
el el DA0MS0 1
ctricos ctricos AQ0MP0 1
por por SPS00 1
cortes corte NCMP000 0.509862
de de SPS00 0.999919
l l NCFS000 0.639398
neas neas AQ0FP0 0.199984
y y CC 0.999812
los el DA0MP0 0.97623
sabotajes sabotaje NCMP000 1
a a SPS00 0.99585
la el DA0FS0 0.972146
distribuci distribuci AQ0CS0 0.0199855
n n NCFS000 1
de de SPS00 0.999919
mercanc mercanc NC00000 0.538029
as as NCMS000 1
b b NCFS000 1
sicas sicas AQ0FP0 1
para para SPS00 0.998507
producir producir VMN0000 1
desabastecimientos desabastecimiento NCMP000 1
aparentemente aparentemente RG 1
fueron ser VSIS3P0 0.796296
capaces capaz AQ0CP0 1
de de SPS00 0.999919
provocar provocar VMN0000 1
inconformidades inconformidad NCFP000 1
que que PR0CN000 0.5625
generaran generar VMSI3P0 1
inasistencia inasistencia NCFS000 1
a a SPS00 0.99585
las el DA0FP0 0.97051
urnas urna NCFP000 1
Cuando_el_Poder_Electoral cuando_el_poder_electoral NP00000 1
emiti emiti NCMS000 1
el el DA0MS0 1
resultado resultado NCMS000 0.807692
de de SPS00 0.999919
las el DA0FP0 0.97051
elecciones elección NCFP000 1
de de SPS00 1
el el DA0MS0 1
14_de_abril [??:14/4/??:??.??:??] W 1
que que PR0CN000 0.5625
testimoniaba testimoniar VMII3S0 0.649997
el el DA0MS0 1
triunfo triunfo NCMS000 0.928571
de de SPS00 0.999919
Maduro maduro NP00000 1
el el DA0MS0 1
candidato candidato NCMS000 1
perdedor perdedor NCMS000 1
que que PR0CN000 0.5625
incluso incluso RG 0.988095
hab hab NCMS000 0.63631
a a SPS00 0.99585
sido ser VSP00SM 1
electo electo NCMS000 0.64265
gobernador gobernador AQ0MS0 0.35727
de de SPS00 0.999919
un uno DI0MS0 0.986987
estado estado NCMS000 0.662162
venezolano venezolano AQ0MS0 0.357352
en en SPS00 1
octubre_de_2012 [??:??/10/2012:??.??:??] W 1
por por SPS00 1
muy muy RG 1
escaso escaso AQ0MS0 1
margen margen NCCS000 1
se se P00CN000 0.465602
neg neg NCMS000 0.714133
a a SPS00 0.99585
reconocer reconocer VMN0000 1
la el DA0FS0 0.972146
derrota derrota NCFS000 0.547112
y y CC 0.999812
llam llam NCMS000 0.700265
a a SPS00 0.99585
sus su DP3CP0 0.998462
seguidores seguidor NCMP000 0.9
a a SPS00 0.99585
la el DA0FS0 0.972146
insurrecci insurrecci AQ0CS0 0.0199855
n n NCFS000 1
Esta esta NP00000 1
posibilidad posibilidad NCFS000 1
se se P00CN000 0.465602
hab hab NCMS000 0.63631
a a SPS00 0.99585
hecho hecho NCMS000 0.381579
previsible previsible AQ0CS0 1
cuando cuando CS 0.983796
el el DA0MS0 1
16_de_marzo_de_2013 [??:16/3/2013:??.??:??] W 1
Roberta_Jacobson roberta_jacobson NP00000 1
subsecretaria subsecretario NCFS000 1
estadounidense estadounidense AQ0CS0 0.833333
de de SPS00 0.999919
Estado estado NP00000 1
manifest manifest NCMS000 1
dudas duda NCFP000 0.9375
acerca_de acerca_de SPS00 1
la el DA0FS0 0.972146
transparencia transparencia NCFS000 1
y y CC 0.999812
seguridad seguridad NCFS000 1
de de SPS00 1
el el DA0MS0 1
sistema sistema NCMS000 1
electoral electoral AQ0CS0 1
venezolano venezolano AQ0MS0 0.357352
evidencia evidencia NCFS000 0.666667
de de SPS00 0.999919
que que PR0CN000 0.5625
ya ya RG 0.996988
Washington washington NP00000 1
ten tener VMM02S0 1
a a SPS00 0.99585
un uno DI0MS0 0.986987
plan plan NCMS000 1
contra contra SPS00 0.976316
el el DA0MS0 1
pa pa NCFS000 0.740689
s segundo NCMN000 0.622321
sudamericano sudamericano AQ0MS0 0.63727
basado basar VMP00SM 1
en en SPS00 1
no no RN 0.99778
reconocer reconocer VMN0000 1
los el DA0MP0 0.97623
resultados resultado NCMP000 0.958333
electorales electoral AQ0CP0 1
de de SPS00 1
el el DA0MS0 1
14_de_abril [??:14/4/??:??.??:??] W 1
Documentos documentos NP00000 1
secretos secreto NCMP000 0.7
publicados publicar VMP00PM 1
por por SPS00 1
WikiLeaks wikileaks NP00000 1
en en SPS00 1
d d NCFS000 1
as as NCMS000 1
recientes reciente AQ0CP0 0.75
muestran mostrar VMIP3P0 1
la el DA0FS0 0.972146
amplitud amplitud NCFS000 1
de de SPS00 0.999919
los el DA0MP0 0.97623
esfuerzos esfuerzo NCMP000 1
de de SPS00 1
el el DA0MS0 1
gobierno gobierno NCMS000 0.9
de de SPS00 0.999919
Estados_Unidos estados_unidos NP00000 1
contra contra SPS00 0.976316
Venezuela_Mediante venezuela_mediante NP00000 1
las el DA0FP0 0.97051
empresas empresa NCFP000 1
Stratfor stratfor NP00000 1
y y CC 0.999812
Canvas canvas NP00000 1
fachadas fachado AQ0FP0 0.656982
suyas suyo PX3FP0C0 1
para para SPS00 0.998507
labores labor NCFP000 0.75
de de SPS00 0.999919
inteligencia inteligencia NCFS000 1
y y CC 0.999812
espionaje espionaje NCMS000 1
la el DA0FS0 0.972146
CIA cia NP00000 1
ha haber VAIP3S0 0.998141
venido venir VMP00SM 1
dirigiendo dirigir VMG0000 1
las el DA0FP0 0.97051
acciones acción NCFP000 0.916667
de de SPS00 0.999919
la el DA0FS0 0.972146
oposici oposici AQ0CS0 0.0199855
n n NCFS000 1
venezolana venezolano AQ0FS0 0.469804
desde desde SPS00 1
el el DA0MS0 1
2006 2006 Z 1
y y CC 0.999812
le le PP3CSD00 1
dise dise NCFS000 0.99146
su su DP3CS0 1
campa campar VMIP3S0 0.994867
a a SPS00 0.99585
para para SPS00 0.998507
las el DA0FP0 0.97051
elecciones elección NCFP000 1
parlamentarias parlamentario AQ0FP0 0.75
de de SPS00 1
el el DA0MS0 1
a a NCFS000 0.00415028
o o CC 0.998845
2010 2010 Z 1
Los los NP00000 1
nuevos nuevo AQ0MP0 1
documentos documento NCMP000 1
revelados revelar VMP00PM 0.541891
por por SPS00 1
WikiLeaks wikileaks NP00000 1
demuestran demostrar VMIP3P0 1
creciente creciente AQ0CS0 0.75
desesperaci desesperaci RG 0.751648
n n NCFS000 1
en en SPS00 1
Washington washington NP00000 1
por por SPS00 1
el el DA0MS0 1
papel papel NCMS000 1
de de SPS00 0.999919
Venezuela venezuela NP00000 1
en en SPS00 1
las el DA0FP0 0.97051
alianzas alianza NCFP000 1
entre entre SPS00 0.995223
los el DA0MP0 0.97623
pa pa NCFS000 0.740689
ses ses AQ0CP0 0.068278
de de SPS00 1
el el DA0MS0 1
continente continente NCMS000 0.875
desmedido desmedir VMP00SM 1
inter inter AQ0CN0 1
s segundo NCMN000 0.622321
en en SPS00 1
el el DA0MS0 1
sector sector NCMS000 1
de de SPS00 0.999919
la el DA0FS0 0.972146
energ energ NCMS000 0.714133
a a SPS00 0.99585
petroqu petroqu NCMS000 0.774439
mica mica NCFS000 1
y y CC 0.999812
el el DA0MS0 1
petr petr NCMS000 0.224371
leo leer VMIP1S0 0.75
en en SPS00 1
particular particular AQ0CS0 0.75
las el DA0FP0 0.97051
relaciones relación NCFP000 0.944444
con con SPS00 1
Cuba_China_Rusia cuba_china_rusia NP00000 1
e y CC 0.973684
Ir ir NP00000 1
n n NCFS000 1
el el DA0MS0 1
estado estado NCMS000 0.662162
de de SPS00 0.999919
las el DA0FP0 0.97051
fuerzas fuerza NCFP000 0.954545
militares militar AQ0CP0 0.541667
y y CC 0.999812
la el DA0FS0 0.972146
situaci situaci AQ0CS0 0.0199855
n n NCFS000 1
de de SPS00 0.999919
las el DA0FP0 0.97051
fuerzas fuerza NCFP000 0.954545
contrarrevolucionarias contrarrevolucionario AQ0FP0 1
La la NP00000 1
rabia rabiar VMIP3S0 0.111111
planificada planificar VMP00SF 1
con con SPS00 1
que que PR0CN000 0.5625
reaccion reaccion VMIS3P0 0.923476
un uno DI0MS0 0.986987
sector sector NCMS000 1
extremista extremista AQ0CS0 0.657183
de de SPS00 0.999919
la el DA0FS0 0.972146
oposici oposici AQ0CS0 0.0199855
n n NCFS000 1
a a SPS00 1
el el DA0MS0 1
llamado llamar VMP00SM 0.973684
de de SPS00 1
el el DA0MS0 1
candidato candidato NCMS000 1
derrotado derrotar VMP00SM 1
los el DA0MP0 0.97623
ataques ataque NCMP000 0.928571
contra contra SPS00 0.976316
edificios edificio NCMP000 1
p p NCFS000 0.5
blicos blicos AQ0MP0 1
y y CC 0.999812
de de SPS00 0.999919
viviendas vivienda NCFP000 1
f f NCFS000 1
bricas bricas NCFP000 1
y y CC 0.999812
centros centro NCMP000 1
de de SPS00 0.999919
distribuci distribuci RG 0.751648
n n NCFS000 1
de de SPS00 0.999919
alimentos alimento NCMP000 1
unidades unidad NCFP000 1
de de SPS00 0.999919
asistencia asistencia NCFS000 1
m m NCFS000 0.5
dica dica AQ0FS0 0.231115
y y CC 0.999812
escuelas escuela NCFP000 1
servicios servicio NCMP000 1
p p NCFS000 0.5
blicos blicos AQ0MP0 1
y y CC 0.999812
comercios comercio NCMP000 1
sin sin SPS00 1
que que CS 0.4375
el el DA0MS0 1
candidato candidato NCMS000 1
perdedor perdedor NCMS000 1
formulara formular VMSI3S0 0.649999
reclamaci reclamaci RG 0.751648
n n NCFS000 1
ante ante SPS00 0.990566
alguna alguno DI0FS0 0.893939
autoridad autoridad NCFS000 1
administrativa administrativo AQ0FS0 0.53725
o o CC 0.998845
jurisdiccional jurisdiccional AQ0CS0 1
indican indicar VMIP3P0 1
que que CS 0.4375
el el DA0MS0 1
patrocinio patrocinio NCMS000 1
por por SPS00 1
Washington washington NP00000 1
de de SPS00 1
el el DA0MS0 1
supuesto supuesto NCMS000 0.3
descontento descontento AQ0MS0 0.605369
era ser VSII1S0 0.490859
desesperado desesperar VMP00SM 0.75
y y CC 0.999812
capaz capaz AQ0CS0 1
de de SPS00 0.999919
provocar provocar VMN0000 1
una uno DI0FS0 0.951241
cat cat NCMS000 1
strofe strofe NCFS000 1
may may VMIP3S0 0.917803
scula scula AQ0FS0 0.499666
en en SPS00 1
el el DA0MS0 1
continente continente NCMS000 0.875
y y CC 0.999812
el el DA0MS0 1
mundo mundo NCMS000 1
Sobre sobre NP00000 1
todo todo PI0MS000 0.430982
porque porque CS 1
ello ello PD0NS000 1
ocurre ocurrir VMIP3S0 0.966667
cuando cuando CS 0.983796
muchos mucho DI0MP0 0.541667
venezolanos venezolano AQ0MP0 0.357337
y y CC 0.999812
latinoamericanos latinoamericano AQ0MP0 0.490617
as as NCMS000 1
como como CS 0.998579
polit polit NCFS000 1
logos logos NCMN000 1
y y CC 0.999812
cient cient NCMS000 0.607342
ficos ficos AQ0MP0 0.227615
de de SPS00 1
el el DA0MS0 1
mundo mundo NCMS000 1
mantienen mantener VMIP3P0 1
viva vivo AQ0FS0 0.84
con con SPS00 1
contenida contener VMP00SF 1
indignaci indignaci RG 0.751648
n n NCFS000 1
una uno DI0FS0 0.951241
interrogante interrogante NCMS000 0.34273
por por SPS00 1
la el DA0FS0 0.972146
extra extra NCCS000 0.642702
a a SPS00 0.99585
coincidencia coincidencia NCFS000 1
de de SPS00 0.999919
que que CS 0.4375
tantos tanto DI0MP0 0.952381
dirigentes dirigente NCCP000 0.75
de de SPS00 0.999919
pa pa NCFS000 0.740689
ses ses AQ0CP0 0.068278
y y CC 0.999812
partidos partido NCMP000 0.928571
que que PR0CN000 0.5625
se se P00CN000 0.465602
niegan negar VMIP3P0 1
a a SPS00 0.99585
acatar acatar VMN0000 1
la el DA0FS0 0.972146
f f NCFS000 1
rula rula NCFS000 0.842094
estadounidense estadounidense AQ0CS0 0.833333
est est NCMS000 1
n n NCFS000 1
siendo ser VSG0000 1
v v NCFS000 1
ctimas ctimas NCFP000 1
de de SPS00 1
el el DA0MS0 1
c c NCFS000 1
ncer ncer VMN0000 0.666836
y y CC 0.999812
sospechan sospechar VMIP3P0 1
que que CS 0.4375
la el DA0FS0 0.972146
inoculaci inoculaci AQ0CS0 0.0199855
n n NCFS000 1
de de SPS00 0.999919
la el DA0FS0 0.972146
terrible terrible AQ0CS0 1
enfermedad enfermedad NCFS000 1
para para SPS00 0.998507
deshacer deshacer VMN0000 1
se se PP3CN000 1
de de SPS00 0.999919
adversarios adversario NCMP000 1
inc inc AQ0CN0 0.358528
modos modo NCMP000 1
est est NCMS000 1
siendo ser VSG0000 1
utilizada utilizar VMP00SF 1
por por SPS00 1
Washington washington NP00000 1
con con SPS00 1
el el DA0MS0 1
mismo mismo AQ0MS0 0.961905
desd desd NCFS000 1
n n NCFS000 1
que que CS 0.4375
los el DA0MP0 0.97623
drones drones NCMP000 1
Haga haga NP00000 1
click click NCMS000 0.50012
aqu aqu NCMS000 0.774439
para para SPS00 0.998507
recibir recibir VMN0000 1
gratis gratis RG 0.75
Argenpress argenpress NP00000 1
en en SPS00 1
su su DP3CS0 1
correo correo NCMS000 0.735623
electr electr AQ0CS0 0.0829965
nico no NCMS00D 0.522084

