ChileSANTIAGO_El chilesantiago_el NP00000 1
precandidato precandidato NCMS000 1
presidencial presidencial AQ0CS0 1
de de SPS00 0.999919
Renovaci_Nacional_Andr_Allamand renovaci_nacional_andr_allamand NP00000 1
expres expres VMIP2S0 0.0125207
hoy hoy RG 0.877358
que que CS 0.4375
uno uno PI0MS000 0.964744
de de SPS00 0.999919
los el DA0MP0 0.97623
grandes grande AQ0CP0 0.95
avances avance NCMP000 0.75
democr democr NCMS000 1
icos icos AQ0MP0 0.62097
de de SPS00 0.999919
los el DA0MP0 0.97623
timos timo NCMP000 1
a a SPS00 0.99585
s segundo NCMN000 0.622321
fue ser VSIS3S0 0.932292
la el DA0FS0 0.972146
instauraci instauraci NCMS000 0.0996348
de de SPS00 0.999919
la el DA0FS0 0.972146
inscripci inscripci AQ0CS0 0.0199855
autom autometro NCMN000 0.65
ica ica AQ0FS0 0.646048
y y CC 0.999812
el el DA0MS0 1
voto voto NCMS000 0.973468
voluntario voluntario AQ0MS0 0.45732
En en NP00000 1
el el DA0MS0 1
sistema sistema NCMS000 1
antiguo antiguo AQ0MS0 0.880952
muchos mucho PI0MP000 0.458333
estaban estar VAII3P0 1
margin margin RG 0.388954
dose dose NCFS000 0.31746
de de SPS00 0.999919
la el DA0FS0 0.972146
pol pol NCMS000 0.861706
ica ica AQ0FS0 0.646048
y y CC 0.999812
ello ello PD0NS000 1
no no RN 0.99778
es ser VSIP3S0 1
bueno bueno AQ0MS0 0.453125
para para SPS00 0.998507
la el DA0FS0 0.972146
democracia democracia NCFS000 1
Adem adem NP00000 1
gracias_a gracias_a SPS00 1
este este DD0MS0 0.956743
Gobierno gobierno NP00000 1
por por SPS00 1
primera 1 AO0FS0 0.987179
vez vez NCFS000 1
tenemos tener VMIP1P0 1
un uno DI0MS0 0.986987
sistema sistema NCMS000 1
de de SPS00 0.999919
primarias primario AQ0FP0 1
que que PR0CN000 0.5625
permiten permitir VMIP3P0 1
que que CS 0.4375
las el DA0FP0 0.97051
personas persona NCFP000 0.983871
y y CC 0.999812
no no RN 0.99778
los el DA0MP0 0.97623
dirigentes dirigente NCCP000 0.75
puedan poder VMSP3P0 0.928571
escoger escoger VMN0000 1
a a SPS00 0.99585
los el DA0MP0 0.97623
candidatos candidato NCMP000 1
presidenciales presidencial AQ0CP0 1
y y CC 0.999812
a a SPS00 1
el el DA0MS0 1
parlamento parlamento NCMS000 0.75
e y CC 0.973684
influir influir VMN0000 1
en en SPS00 1
los el DA0MP0 0.97623
programas programa NCMP000 0.9
sostuvo sostener VMIS3S0 1
Lo lo NP00000 1
anterior anterior AQ0CS0 1
lo lo PP3CNA00 0.271163
se se P00CN000 0.465602
l l NCFS000 0.639398
en en SPS00 1
el el DA0MS0 1
marco marco NCMS000 0.9
de de SPS00 0.999919
una uno DI0FS0 0.951241
actividad actividad NCFS000 1
realizada realizar VMP00SF 1
con con SPS00 1
j j NCFS000 1
enes ene NCFP000 1
esta este DD0FS0 0.982143
ma ma NCFS000 0.391356
na na AQ0FS0 0.325585
en en SPS00 1
donde donde PR000000 0.963542
los el DA0MP0 0.97623
invit invit NCMN000 1
a a SPS00 0.99585
sumar sumar VMN0000 1
se se PP3CN000 1
a a SPS00 0.99585
su su DP3CS0 1
campa campar VMIP3S0 0.994867
de de SPS00 0.999919
manera manera NCFS000 1
activa activo AQ0FS0 0.866667
Todas todas NP00000 1
las el DA0FP0 0.97051
candidaturas candidatura NCFP000 1
han haber VAIP3P0 1
expresado expresar VMP00SM 1
su su DP3CS0 1
inquietud inquietud NCFS000 1
por por SPS00 1
la el DA0FS0 0.972146
participaci participaci NCMS000 0.0996348
en en SPS00 1
las el DA0FP0 0.97051
pr pr NCMS000 0.224371
imas imas AQ0FP0 0.272581
primarias primario AQ0FP0 1
y y CC 0.999812
le le PP3CSD00 1
han haber VAIP3P0 1
pedido pedir VMP00SM 0.75
a a SPS00 1
el el DA0MS0 1
Gobierno gobierno NP00000 1
que que PR0CN000 0.5625
haga hacer VMSP1S0 0.444444
campa campar VMIP3S0 0.994867
en en SPS00 1
este este DD0MS0 0.956743
sentido sentido NCMS000 0.948276
Lo lo NP00000 1
que que PR0CN000 0.5625
estamos estar VAIP1P0 1
haciendo hacer VMG0000 0.958333
es ser VSIP3S0 1
presentar presentar VMN0000 1
nuestro nuestro DP1MSP 0.933333
aporte aporte NCMS000 0.625
para para SPS00 0.998507
incentivar incentivar VMN0000 1
a a SPS00 0.99585
los el DA0MP0 0.97623
j j NCFS000 1
enes ene NCFP000 1
para para SPS00 0.998507
que que CS 0.4375
tomen_parte tomar_parte VMSP3P0 0.858934
en en SPS00 1
este este DD0MS0 0.956743
proceso proceso NCMS000 0.973684
afirm afirm NCMS000 0.700265
Por por NP00000 1
timo timar VMIP1S0 0.026521
indic indic RG 0.5
que que CS 0.4375
considera considerar VMIP3S0 0.9
que que CS 0.4375
en en SPS00 1
Chile chile NP00000 1
hay haber VMIP3S0 1
un uno DI0MS0 0.986987
proceso proceso NCMS000 0.973684
de de SPS00 0.999919
repolitizaci repolitizaci NCMS000 0.0996348
de de SPS00 0.999919
los el DA0MP0 0.97623
j j NCFS000 1
enes ene NCFP000 1
que que PR0CN000 0.5625
tienen tener VMIP3P0 1
compromisos compromiso NCMP000 1
ideas idea NCFP000 0.939394
y y CC 0.999812
un uno DI0MS0 0.986987
sentido sentido NCMS000 0.948276
de de SPS00 0.999919
pa pa NCFS000 0.740689
que que PR0CN000 0.5625
se se P00CN000 0.465602
debe deber VMIP3S0 0.974359
que que CS 0.4375
expresar expresar VMN0000 1
Votar votar NP00000 1
es ser VSIP3S0 1
una uno DI0FS0 0.951241
oportunidad oportunidad NCFS000 1
y y CC 0.999812
tambi tambi AQ0CN0 1
una uno DI0FS0 0.951241
responsabilidad responsabilidad NCFS000 1
Posteriomente posteriomente NP00000 1
si si CS 0.997706
quieres querer VMIP2S0 1
desactivar desactivar VMN0000 1
esta este DD0FS0 0.982143
funcionalidad funcionalidad NCFS000 1
haz haz NCMS000 0.991463
click click NCMS000 0.50012
en en SPS00 1
Desactivar_Haciendo desactivar_haciendo NP00000 1
click click NCMS000 0.50012
en en SPS00 1
Actividades actividades NP00000 1
recientes recentar VMSP2S0 0.25
podr podr VMN0000 0.633986
s segundo NCMN000 0.622321
revisar revisar VMN0000 1
tu tu DP2CSS 1
navegaci navegaci AQ0CS0 0.0199855
n n NCFS000 1
y y CC 0.999812
eliminar eliminar VMN0000 1
art artículo NCMS000 1
culos culo NCMP000 1
de de SPS00 0.999919
tu tu DP2CSS 1
biograf biograf I 1
a a SPS00 0.99585
Ya ya NP00000 1
est est NCMS000 1
activa activo AQ0FS0 0.866667
la el DA0FS0 0.972146
funcionalidad funcionalidad NCFS000 1
de de SPS00 0.999919
compartir compartir VMN0000 1
autom autometro NCMN000 0.65
ticamente ticamente RG 1
las el DA0FP0 0.97051
noticias noticia NCFP000 0.9375
que que PR0CN000 0.5625
lees leer VMIP2S0 1
en en SPS00 1
tu tu DP2CSS 1
biograf biograf I 1
a a SPS00 0.99585
timeline timeline NCMS000 0.908358
de de SPS00 0.999919
Facebook_Si facebook_si NP00000 1
quieres querer VMIP2S0 1
desactivar desactivar VMN0000 1
esta este DD0FS0 0.982143
funcionalidad funcionalidad NCFS000 1
haz haz NCMS000 0.991463
click click NCMS000 0.50012
en en SPS00 1
Desactivar desactivar NP00000 1

