ChileSANTIAGO_La_Democracia_Cristiana_DC chilesantiago_la_democracia_cristiana_dc NP00000 1
vive vivir VMIP3S0 0.96875
un uno DI0MS0 0.986987
domingo [G:??/??/??:??.??:??] W 1
de de SPS00 0.999919
elecciones elección NCFP000 1
internas interno AQ0FP0 0.666667
para para SPS00 0.998507
establecer establecer VMN0000 1
los el DA0MP0 0.97623
integrantes integrante NCCP000 0.64267
de de SPS00 0.999919
la el DA0FS0 0.972146
directiva directiva NCFS000 0.166667
de de SPS00 1
el el DA0MS0 1
partido partido NCMS000 0.886364
Los los NP00000 1
comicios comicio NCMP000 1
se se P00CN000 0.465602
desarrollar desarrollar VMN0000 1
entre entre SPS00 0.995223
las el DA0FP0 0.97051
9 9 Z 1
00 0 Z 1
y y CC 0.999812
las el DA0FP0 0.97051
18 18 Z 1
00 0 Z 1
de de SPS00 0.999919
hoy hoy NCMS000 0.122642
donde donde PR000000 0.963542
compiten competir VMIP3P0 1
tres 3 Z 1
listas lista NCFP000 0.687557
encabezadas encabezar VMP00PF 1
por por SPS00 1
el el DA0MS0 1
actual actual AQ0CS0 1
presidente presidente NCMS000 1
de de SPS00 1
el el DA0MS0 1
partido partido NCMS000 0.886364
Ignacio_Walker ignacio_walker NP00000 1
el el DA0MS0 1
diputado diputado NCMS000 0.833333
Aldo_Cornejo aldo_cornejo NP00000 1
y y CC 0.999812
el el DA0MS0 1
militante militante NCCS000 0.625
Leonel_S leonel_s NP00000 1
chez chez NCFS000 0.749889
La la NP00000 1
mayor mayor AQ0CS0 0.989796
competencia competencia NCFS000 1
la el DA0FS0 0.972146
protagonizar protagonizar VMN0000 1
el el DA0MS0 1
senador senador NCMS000 1
Walker walker NP00000 1
y y CC 0.999812
el el DA0MS0 1
diputado diputado NCMS000 0.833333
Cornejo cornejo NP00000 1
en en SPS00 1
tanto tanto DI0MS0 0.121053
S s NP00000 1
chez chez RG 0.208241
no no RN 0.99778
cuenta contar VMIP3S0 0.219697
con con SPS00 1
el el DA0MS0 1
amplio amplio AQ0MS0 1
respaldo respaldo NCMS000 0.75
de de SPS00 0.999919
sus su DP3CP0 0.998462
partidarios partidario NCMP000 0.34285
Yasna_Provoste yasna_provoste NP00000 1
ex ex AQ0CN0 0.25
ministra ministro NCFS000 1
de de SPS00 0.999919
Educaci educaci NP00000 1
disputa disputar VMIP3S0 0.166667
el el DA0MS0 1
cargo cargo NCMS000 0.916667
de de SPS00 0.999919
primer 1 AO0MS0 1
vicepresidente vicepresidente NCMS000 1
por por SPS00 1
la el DA0FS0 0.972146
lista lista NCFS000 0.125
1 1 Z 1
que que PR0CN000 0.5625
integra integrar VMIP3S0 0.75
tambi tambi AQ0CN0 1
Cornejo_A cornejo_a NP00000 1
el el DA0MS0 1
mismo mismo AQ0MS0 0.961905
puesto puesto NCMS000 0.452381
la el DA0FS0 0.972146
lista listo AQ0FS0 0.625
2 2 Z 1
liderada liderar VMP00SF 1
por por SPS00 1
Walker walker NP00000 1
respalda respaldar VMIP3S0 0.987464
a a SPS00 1
el el DA0MS0 1
diputado diputado NCMS000 0.833333
Fuad_Cha_La fuad_cha_la NP00000 1
lista listar VMIP3S0 0.125
3 3 Z 1
en en SPS00 1
tanto tanto RG 0.857895
propone proponer VMIP3S0 1
para para SPS00 0.998507
la el DA0FS0 0.972146
primera 1 AO0FS0 0.987179
vicepresidencia vicepresidencia NCFS000 1
a a SPS00 1
el el DA0MS0 1
militante militante NCCS000 0.625
Manuel_de_la_Roza_La manuel_de_la_roza_la NP00000 1
totalidad totalidad NCFS000 1
de de SPS00 0.999919
los el DA0MP0 0.97623
militantes militante NCCP000 0.642613
apadronados apadronados VMP00PM 0.83334
hasta hasta SPS00 0.955172
diciembre_de_2012 [??:??/12/2012:??.??:??] W 1
podr podr VMN0000 0.633986
entregar entregar VMN0000 1
su su DP3CS0 1
voto voto NCMS000 0.973468
este este DD0MS0 0.956743
domingo [G:??/??/??:??.??:??] W 1
Los los NP00000 1
resultados resultado NCMP000 0.958333
se se P00CN000 0.465602
esperan esperar VMIP3P0 1
alrededor_de alrededor_de SPS00 1
las el DA0FP0 0.97051
21 21 Z 1
00 0 Z 1
de de SPS00 0.999919
esta este DD0FS0 0.982143
noche noche NCFS000 1
Posteriomente posteriomente NP00000 1
si si CS 0.997706
quieres querer VMIP2S0 1
desactivar desactivar VMN0000 1
esta este DD0FS0 0.982143
funcionalidad funcionalidad NCFS000 1
haz haz NCMS000 0.991463
click click NCMS000 0.50012
en en SPS00 1
Desactivar_Haciendo desactivar_haciendo NP00000 1
click click NCMS000 0.50012
en en SPS00 1
Actividades actividades NP00000 1
recientes recentar VMSP2S0 0.25
podr podr VMN0000 0.633986
s segundo NCMN000 0.622321
revisar revisar VMN0000 1
tu tu DP2CSS 1
navegaci navegaci AQ0CS0 0.0199855
n n NCFS000 1
y y CC 0.999812
eliminar eliminar VMN0000 1
art artículo NCMS000 1
culos culo NCMP000 1
de de SPS00 0.999919
tu tu DP2CSS 1
biograf biograf I 1
a a SPS00 0.99585
Ya ya NP00000 1
est est NCMS000 1
activa activo AQ0FS0 0.866667
la el DA0FS0 0.972146
funcionalidad funcionalidad NCFS000 1
de de SPS00 0.999919
compartir compartir VMN0000 1
autom autometro NCMN000 0.65
ticamente ticamente RG 1
las el DA0FP0 0.97051
noticias noticia NCFP000 0.9375
que que PR0CN000 0.5625
lees leer VMIP2S0 1
en en SPS00 1
tu tu DP2CSS 1
biograf biograf I 1
a a SPS00 0.99585
timeline timeline NCMS000 0.908358
de de SPS00 0.999919
Facebook_Si facebook_si NP00000 1
quieres querer VMIP2S0 1
desactivar desactivar VMN0000 1
esta este DD0FS0 0.982143
funcionalidad funcionalidad NCFS000 1
haz haz NCMS000 0.991463
click click NCMS000 0.50012
en en SPS00 1
Desactivar desactivar NP00000 1

