ChileSANTIAGO_El chilesantiago_el NP00000 1
presidente presidente NCMS000 1
de de SPS00 0.999919
la el DA0FS0 0.972146
C c NP00000 1
ara ara NCFS000 0.796963
Alta alta NP00000 1
y y CC 0.999812
senador senador NCMS000 1
de de SPS00 1
el el DA0MS0 1
Partido_Socialista_PS_por_la_Regi_de_Los_Lagos_Camilo_Escalona partido_socialista_ps_por_la_regi_de_los_lagos_camilo_escalona NP00000 1
coment coment NCMS000 0.607342
la el DA0FS0 0.972146
decisi decisi RG 1
de de SPS00 0.999919
la el DA0FS0 0.972146
ex ex AQ0CN0 0.25
presidenta presidente NCFS000 1
Michelle_Bachelet michelle_bachelet NP00000 1
de de SPS00 0.999919
renunciar renunciar VMN0000 1
a a SPS00 0.99585
su su DP3CS0 1
puesto puesto NCMS000 0.452381
en en SPS00 1
la el DA0FS0 0.972146
ONU onu NP00000 1
para para SPS00 0.998507
volver volver VMN0000 1
a a SPS00 0.99585
Chile chile NP00000 1
destacando destacar VMG0000 1
que que CS 0.4375
ella él PP3FS000 1
posee poseer VMIP3S0 0.9375
un uno DI0MS0 0.986987
liderazgo liderazgo NCMS000 1
que que PR0CN000 0.5625
no no RN 0.99778
tiene tener VMIP3S0 1
contrapeso contrapeso NCMS000 0.75
en en SPS00 1
el el DA0MS0 1
pa pa NCFS000 0.740689
Escalona escalona NP00000 1
plante plantar VMSP3S0 0.0356941
que que CS 0.4375
el el DA0MS0 1
impacto impacto NCMS000 0.973497
que que PR0CN000 0.5625
ha haber VAIP3S0 0.998141
tenido tener VMP00SM 1
la el DA0FS0 0.972146
informaci informaci NCMS000 0.0996348
de de SPS00 0.999919
su su DP3CS0 1
regreso regreso NCMS000 0.75
confirma confirmar VMIP3S0 0.994868
que que CS 0.4375
es ser VSIP3S0 1
la el DA0FS0 0.972146
principal principal AQ0CS0 0.9375
figura figura NCFS000 0.888889
pol pol NCMS000 0.861706
ica ica AQ0FS0 0.646048
de de SPS00 1
el el DA0MS0 1
pa pa NCFS000 0.740689
y y CC 0.999812
en_consecuencia en_consecuencia RG 1
posee poseer VMIP3S0 0.9375
un uno DI0MS0 0.986987
liderazgo liderazgo NCMS000 1
que que PR0CN000 0.5625
no no RN 0.99778
tiene tener VMIP3S0 1
contrapeso contrapeso NCMS000 0.75
en en SPS00 1
ninguna ninguno DI0FS0 0.722222
otra otro DI0FS0 0.801136
figura figura NCFS000 0.888889
de de SPS00 0.999919
la el DA0FS0 0.972146
situaci situaci RG 0.751648
nacional nacional AQ0CS0 1
A a NP00000 1
lo lo PP3CNA00 0.271163
anterior anterior AQ0CS0 1
agreg agreg NCMS000 0.714133
Por_lo_tanto por_lo_tanto NP00000 1
siendo ser VSG0000 1
este este DD0MS0 0.956743
un uno DI0MS0 0.986987
paso paso NCMS000 0.89
decisivo decisivo AQ0MS0 1
espero esperar VMIP1S0 1
que que CS 0.4375
confirme confirmar VMSP1S0 0.62344
de de SPS00 0.999919
aqu aqu NCMS000 0.774439
a a SPS00 1
el el DA0MS0 1
31_de_marzo [??:31/3/??:??.??:??] W 1
su su DP3CS0 1
decisi decisi RG 1
de de SPS00 0.999919
postular postular VMN0000 1
a a SPS00 0.99585
la el DA0FS0 0.972146
Presidencia_de_la_Rep presidencia_de_la_rep NP00000 1
lica lica VMIP3S0 0.447127
indic indic RG 0.5
Consultado consultado NP00000 1
por por SPS00 1
la el DA0FS0 0.972146
primaria primario AQ0FS0 1
presidencial presidencial AQ0CS0 1
de de SPS00 0.999919
la el DA0FS0 0.972146
Concertaci_Escalona concertaci_escalona NP00000 1
destac destac NCMN000 1
que que CS 0.4375
estas este PD0FP000 0.0394737
son ser VSIP3P0 0.986772
un uno DI0MS0 0.986987
compromiso compromiso NCMS000 1
que que PR0CN000 0.5625
no no RN 0.99778
se se P00CN000 0.465602
puede poder VMIP3S0 0.995614
suprimir suprimir VMN0000 1
Mientras mientras NP00000 1
exista existir VMSP1S0 0.47619
m m NCFS000 0.5
de de SPS00 0.999919
una uno DI0FS0 0.951241
postulaci postulaci NCMS000 0.0996348
son ser VSIP3P0 0.986772
un uno DI0MS0 0.986987
camino camino NCMS000 0.978261
inesquivable inesquivable AQ0CS0 1
y y CC 0.999812
corresponder corresponder VMN0000 1
el el DA0MS0 1
desarrollo desarrollo NCMS000 0.964286
de de SPS00 0.999919
un uno DI0MS0 0.986987
di dar VMIS1S0 0.833333
ogo ogo NCMS000 0.800015
social social AQ0CS0 0.977273
que que PR0CN000 0.5625
permita permitir VMSP1S0 0.466667
configurar configurar VMN0000 1
la el DA0FS0 0.972146
plataforma plataforma NCFS000 1
de de SPS00 0.999919
trabajo trabajo NCMS000 0.940476
que que PR0CN000 0.5625
va ir VMIP3S0 1
a a SPS00 0.99585
distinguir distinguir VMN0000 1
a a SPS00 1
el el DA0MS0 1
futuro futuro NCMS000 0.944444
gobierno gobierno NCMS000 0.9
El el NP00000 1
senador senador NCMS000 1
hizo hacer VMIS3S0 1
estas este DD0FP0 0.960526
declaraciones declaración NCFP000 1
en en SPS00 1
Chilo chilo NP00000 1
en en SPS00 1
la el DA0FS0 0.972146
ciudad ciudad NCFS000 1
de de SPS00 0.999919
Castro castro NP00000 1
comuna comuna NCFS000 1
a a SPS00 0.99585
la el DA0FS0 0.972146
que que PR0CN000 0.5625
concurri concurri RG 0.83337
para para SPS00 0.998507
lanzar lanzar VMN0000 1
all all NCFN000 1
la lo PP3FSA00 0.0277626
campa campar VMIP3S0 0.994867
Yo yo NP00000 1
apoyo apoyo NCMS000 0.928571
a a SPS00 0.99585
Bachelet bachelet NP00000 1
que que PR0CN000 0.5625
impulsa impulsar VMIP3S0 0.994867
en en SPS00 1
la el DA0FS0 0.972146
regi regi NCMS000 0.0996348
de de SPS00 0.999919
Los_Lagos los_lagos NP00000 1
y y CC 0.999812
en en SPS00 1
el el DA0MS0 1
pa pa NCFS000 0.740689
Posteriomente posteriomente NP00000 1
si si CS 0.997706
quieres querer VMIP2S0 1
desactivar desactivar VMN0000 1
esta este DD0FS0 0.982143
funcionalidad funcionalidad NCFS000 1
haz haz NCMS000 0.991463
click click NCMS000 0.50012
en en SPS00 1
Desactivar_Haciendo desactivar_haciendo NP00000 1
click click NCMS000 0.50012
en en SPS00 1
Actividades actividades NP00000 1
recientes recentar VMSP2S0 0.25
podr podr VMN0000 0.633986
s segundo NCMN000 0.622321
revisar revisar VMN0000 1
tu tu DP2CSS 1
navegaci navegaci AQ0CS0 0.0199855
n n NCFS000 1
y y CC 0.999812
eliminar eliminar VMN0000 1
art artículo NCMS000 1
culos culo NCMP000 1
de de SPS00 0.999919
tu tu DP2CSS 1
biograf biograf I 1
a a SPS00 0.99585
Ya ya NP00000 1
est est NCMS000 1
activa activo AQ0FS0 0.866667
la el DA0FS0 0.972146
funcionalidad funcionalidad NCFS000 1
de de SPS00 0.999919
compartir compartir VMN0000 1
autom autometro NCMN000 0.65
ticamente ticamente RG 1
las el DA0FP0 0.97051
noticias noticia NCFP000 0.9375
que que PR0CN000 0.5625
lees leer VMIP2S0 1
en en SPS00 1
tu tu DP2CSS 1
biograf biograf I 1
a a SPS00 0.99585
timeline timeline NCMS000 0.908358
de de SPS00 0.999919
Facebook_Si facebook_si NP00000 1
quieres querer VMIP2S0 1
desactivar desactivar VMN0000 1
esta este DD0FS0 0.982143
funcionalidad funcionalidad NCFS000 1
haz haz NCMS000 0.991463
click click NCMS000 0.50012
en en SPS00 1
Desactivar desactivar NP00000 1

