ChileSANTIAGO_El chilesantiago_el NP00000 1
presidente presidente NCMS000 1
de de SPS00 0.999919
la el DA0FS0 0.972146
Federaci_de_Estudiantes_de_la_Universidad_Cat federaci_de_estudiantes_de_la_universidad_cat NP00000 1
ica ica AQ0FS0 0.646048
Feuc_Diego_Vela feuc_diego_vela NP00000 1
cuestion cuestion VMIS3P0 0.923476
la el DA0FS0 0.972146
eventual eventual AQ0CS0 0.65727
llegada llegada NCFS000 0.7
de de SPS00 0.999919
Michelle_Bachelet michelle_bachelet NP00000 1
para para SPS00 0.998507
una uno DI0FS0 0.951241
nueva nuevo AQ0FS0 0.977273
candidatura candidatura NCFS000 1
por por SPS00 1
La_Moneda la_moneda NP00000 1
asegurando asegurar VMG0000 1
que que CS 0.4375
tiene tener VMIP3S0 1
una uno DI0FS0 0.951241
deuda deuda NCFS000 1
enorme enorme AQ0CS0 1
El el NP00000 1
dirigente dirigente AQ0CS0 0.75
a_modo_de a_modo_de SPS00 1
cuestionamiento cuestionamiento NCMS000 1
realiz realiz AQ0CS0 1
la el DA0FS0 0.972146
siguiente siguiente AQ0CS0 1
interrogante interrogante NCMS000 0.34273
C c NP00000 1
o o CC 0.998845
pretende pretender VMM02S0 0.0833333
que que CS 0.4375
la lo PP3FSA00 0.0277626
ciudadan ciudadan VMSP3P0 0.209258
conf conf NCMS000 0.500257
en en SPS00 1
ella él PP3FS000 1
si si CS 0.997706
en en SPS00 1
el el DA0MS0 1
momento momento NCMS000 1
tuvo tener VMIS3S0 1
las el DA0FP0 0.97051
oportunidades oportunidad NCFP000 1
no no RN 0.99778
fue ser VSIS3S0 0.932292
capaz capaz AQ0CS0 1
de de SPS00 0.999919
realizar realizar VMN0000 1
los el DA0MP0 0.97623
cambios cambio NCMP000 1
a a SPS00 0.99585
las el DA0FP0 0.97051
estructuras estructura NCFP000 0.9
que que PR0CN000 0.5625
tenemos tener VMIP1P0 1
en en SPS00 1
el el DA0MS0 1
pa pa NCFS000 0.740689
Asimismo asimismo NP00000 1
expres expres AQ0CP0 0.168205
que que PR0CN000 0.5625
desde desde SPS00 1
que que CS 0.4375
ella él PP3FS000 1
se se PP3CN000 0.0687957
fue ser VSIS3S0 0.932292
el el DA0MS0 1
pa pa NCFS000 0.740689
ha haber VAIP3S0 0.998141
cambiado cambiar VMP00SM 1
es ser VSIP3S0 1
mucho mucho DI0MS0 0.275362
m m NCFS000 0.5
consciente consciente AQ0CS0 1
y y CC 0.999812
ejemplific ejemplific RG 0.5
con con SPS00 1
las el DA0FP0 0.97051
protestas protesta NCFP000 0.75
de de SPS00 0.999919
Freirina_Ays freirina_ays NP00000 1
y y CC 0.999812
el el DA0MS0 1
movimiento movimiento NCMS000 1
estudiantil estudiantil AQ0CS0 1
que que PR0CN000 0.5625
a a SPS00 0.99585
su su DP3CS0 1
juicio juicio NCMS000 1
son ser VSIP3P0 0.986772
reflejo reflejo NCMS000 0.866667
de de SPS00 0.999919
que que PR0CN000 0.5625
la lo PP3FSA00 0.0277626
ciudadan ciudadan VMIP3P0 0.790742
se se P00CN000 0.465602
ha haber VAIP3S0 0.998141
cansado cansar VMP00SM 1
que que CS 0.4375
se se P00CN000 0.465602
vulneren vulnerar VMSP3P0 0.901254
sus su DP3CP0 0.998462
derechos derecho NCMP000 0.9
El el NP00000 1
estudiante estudiante AQ0CS0 0.25
dijo decir VMIS3S0 1
que que CS 0.4375
una uno DI0FS0 0.951241
base base NCCS000 0.955882
ser ser VSN0000 0.93883
si si CS 0.997706
Bachelet bachelet NP00000 1
se se P00CN000 0.465602
pronuncia pronunciar VMIP3S0 0.994868
sobre sobre SPS00 0.994203
si si CS 0.997706
est est NCMS000 1
a_favor_de a_favor_de SPS00 1
la el DA0FS0 0.972146
educaci educaci AQ0CS0 0.0199855
p p NCFS000 0.5
lica lica AQ0FS0 0.500121
gratuita gratuito AQ0FS0 1
y y CC 0.999812
de de SPS00 0.999919
calidad calidad NCFS000 1
si si CS 0.997706
es ser VSIP3S0 1
que que CS 0.4375
est est NCMS000 1
a a SPS00 0.99585
favor favor NCMS000 1
o o CC 0.998845
en_contra_de en_contra_de SPS00 1
cambiar cambiar VMN0000 1
la el DA0FS0 0.972146
Constituci constituci NP00000 1
y y CC 0.999812
por por SPS00 1
sobre sobre SPS00 0.994203
todo todo PI0MS000 0.430982
explique explicar VMSP3S0 0.62344
por por SPS00 1
qu qu NCMS000 0.774439
el el DA0MS0 1
2006 2006 Z 1
introdujo introducir VMIS3S0 1
un uno DI0MS0 0.986987
proyecto proyecto NCMS000 0.9375
de de SPS00 0.999919
ley ley NCFS000 1
que que PR0CN000 0.5625
buscaba buscar VMII3S0 0.5
terminar terminar VMN0000 1
con con SPS00 1
el el DA0MS0 1
lucro lucro NCMS000 0.75
y y CC 0.999812
luego luego RG 0.983871
lo lo PP3CNA00 0.271163
retir retir VMN0000 1
El el NP00000 1
vocero vocero NCMS000 1
estudiantil estudiantil AQ0CS0 1
asever asever VMN0000 1
adem adem NCMS000 1
que que PR0CN000 0.5625
Bachelet bachelet NP00000 1
tiene tener VMIP3S0 1
una uno DI0FS0 0.951241
deuda deuda NCFS000 1
enorme enorme AQ0CS0 1
y y CC 0.999812
tiene tener VMIP3S0 1
la el DA0FS0 0.972146
experiencia experiencia NCFS000 1
de de SPS00 0.999919
haber haber VMN0000 0.244444
sido ser VSP00SM 1
Presidenta presidenta NP00000 1
desde desde SPS00 1
2006 2006 Z 1
y y CC 0.999812
vimos ver VMIS1P0 1
que que CS 0.4375
no no RN 0.99778
realiz realiz AQ0CS0 1
las el DA0FP0 0.97051
reformas reforma NCFP000 0.956832
que que PR0CN000 0.5625
la lo PP3FSA00 0.0277626
ciudadan ciudadan VMIP3P0 0.790742
hoy hoy RG 0.877358
est est NCMS000 1
planteando plantear VMG0000 1
Posteriomente posteriomente NP00000 1
si si CS 0.997706
quieres querer VMIP2S0 1
desactivar desactivar VMN0000 1
esta este DD0FS0 0.982143
funcionalidad funcionalidad NCFS000 1
haz haz NCMS000 0.991463
click click NCMS000 0.50012
en en SPS00 1
Desactivar_Haciendo desactivar_haciendo NP00000 1
click click NCMS000 0.50012
en en SPS00 1
Actividades actividades NP00000 1
recientes recentar VMSP2S0 0.25
podr podr VMN0000 0.633986
s segundo NCMN000 0.622321
revisar revisar VMN0000 1
tu tu DP2CSS 1
navegaci navegaci AQ0CS0 0.0199855
n n NCFS000 1
y y CC 0.999812
eliminar eliminar VMN0000 1
art artículo NCMS000 1
culos culo NCMP000 1
de de SPS00 0.999919
tu tu DP2CSS 1
biograf biograf I 1
a a SPS00 0.99585
Ya ya NP00000 1
est est NCMS000 1
activa activo AQ0FS0 0.866667
la el DA0FS0 0.972146
funcionalidad funcionalidad NCFS000 1
de de SPS00 0.999919
compartir compartir VMN0000 1
autom autometro NCMN000 0.65
ticamente ticamente RG 1
las el DA0FP0 0.97051
noticias noticia NCFP000 0.9375
que que PR0CN000 0.5625
lees leer VMIP2S0 1
en en SPS00 1
tu tu DP2CSS 1
biograf biograf I 1
a a SPS00 0.99585
timeline timeline NCMS000 0.908358
de de SPS00 0.999919
Facebook_Si facebook_si NP00000 1
quieres querer VMIP2S0 1
desactivar desactivar VMN0000 1
esta este DD0FS0 0.982143
funcionalidad funcionalidad NCFS000 1
haz haz NCMS000 0.991463
click click NCMS000 0.50012
en en SPS00 1
Desactivar desactivar NP00000 1

